{
  "header": {
    "version": 4,
    "description": "Karaoke Mugen Karaoke Data File"
  },
  "medias": [
    {
      "version": "Default",
      "filename": "CHI - Wu Liuqi Anying Suming - ONA ED - Huaibao de wenrou bing bu shuyu wo.mp4",
      "audiogain": 3.03,
      "loudnorm": "-22.33,-5.91,13.80,-33.15,-2.03",
      "filesize": 16358152,
      "duration": 123,
      "default": true,
      "lyrics": [
        {
          "filename": "CHI - Wu Liuqi Anying Suming - ONA ED - Huaibao de wenrou bing bu shuyu wo.ass",
          "default": true,
          "version": "Default"
        }
      ]
    }
  ],
  "data": {
    "created_at": "2023-03-15T21:05:00.577Z",
    "ignoreHooks": false,
    "kid": "a942575b-35cb-4760-9f6c-f5536d5682b9",
    "modified_at": "2023-03-15T21:05:00.956Z",
    "repository": "kara.moe",
    "tags": {
      "authors": [
        "af46fa57-30b5-4241-a30a-2abaeb058a1e"
      ],
      "collections": [
        "c7db86a0-ff64-4044-9be4-66dd1ef1d1c1"
      ],
      "creators": [
        "7803a3a4-72ae-4533-97fc-47fba43c3ccd"
      ],
      "families": [
        "0377db02-3af6-43b8-9b08-c759df3d25c3"
      ],
      "groups": [
        "df5f446f-d161-4760-8e0c-822e70ea03ae",
        "8e209ae4-4381-438f-89dc-1b21752027d2"
      ],
      "langs": [
        "ad109694-16f7-4386-b8c2-a6db05ad3530"
      ],
      "origins": [
        "8db3e098-06ef-45e5-bba9-cb04a21c1e66"
      ],
      "series": [
        "019ef626-eb2a-4c6d-baf7-61cdcfa35128"
      ],
      "singers": [
        "cabe38bd-bf85-484b-87e6-f884a5b41876"
      ],
      "songtypes": [
        "38c77c56-2b95-4040-b676-0994a8cb0597"
      ]
    },
    "titles": {
      "qro": "Huáibào de wēnróu bìng bù shǔyú wǒ",
      "chi": "怀抱的温柔并不属于我"
    },
    "titles_default_language": "qro",
    "titles_aliases": [
      "The tenderness of the embrace does not belong to me"
    ],
    "year": 2023
  }
}