{
  "header": {
    "version": 4,
    "description": "Karaoke Mugen Karaoke Data File"
  },
  "medias": [
    {
      "version": "Default",
      "filename": "ENG - Touhou - AUDIO - Redeemer.mp3",
      "audiogain": -9.55,
      "loudnorm": "-6.44,0.99,5.20,-16.60,-0.86",
      "filesize": 11668384,
      "duration": 277,
      "default": true,
      "lyrics": [
        {
          "filename": "ENG - Touhou - AUDIO - Redeemer.ass",
          "default": true,
          "version": "Default"
        }
      ]
    }
  ],
  "data": {
    "created_at": "2023-02-04T21:16:16.655Z",
    "ignoreHooks": false,
    "kid": "1f09b3c1-c4c2-45e0-9c86-d8d02f3809a6",
    "modified_at": "2023-02-04T21:16:44.399Z",
    "repository": "kara.moe",
    "tags": {
      "authors": [
        "56355915-6bc6-4282-acbb-dd1fdaf13d50"
      ],
      "collections": [
        "c7db86a0-ff64-4044-9be4-66dd1ef1d1c1"
      ],
      "creators": [
        "827f578a-7713-4c06-b535-dfb37a998bc5"
      ],
      "groups": [
        "ae613721-1fbe-480d-ba6b-d6d0702b184d",
        "df5f446f-d161-4760-8e0c-822e70ea03ae"
      ],
      "langs": [
        "de5eda1c-5fb3-46a6-9606-d4554fc5a1d6"
      ],
      "series": [
        "1bdaa5a1-dfa6-4365-b746-7a0b194dafd6"
      ],
      "singers": [
        "6127aa14-9b17-4c80-a661-55ad6e02cee5",
        "6f1e696a-6f00-4bbf-9233-741c97d34158"
      ],
      "songtypes": [
        "42a262ae-acba-4ab5-a446-c5789c96c821"
      ],
      "songwriters": [
        "8c8da61b-6e0d-4de7-9039-5afbd30c215d"
      ],
      "franchises": [
        "1bdaa5a1-dfa6-4365-b746-7a0b194dafd6"
      ]
    },
    "titles": {
      "eng": "Redeemer"
    },
    "titles_default_language": "eng",
    "year": 2019
  }
}