{
  "header": {
    "version": 4,
    "description": "Karaoke Mugen Karaoke Data File"
  },
  "medias": [
    {
      "version": "Mori Calliope.",
      "filename": "ENG - Persona 3 Dancing Moon Night - PS4 PSV GAME AMV - Mass Destruction ~ Mori Calliope Vers. ~ Cover Vers.mp4",
      "audiogain": -3.51,
      "loudnorm": "-17.02,-7.76,5.80,-27.49,0.30",
      "filesize": 41878024,
      "duration": 89,
      "default": true,
      "lyrics": [
        {
          "filename": "ENG - Persona 3 Dancing Moon Night - PS4 PSV GAME AMV - Mass Destruction ~ Mori Calliope Vers. ~ Cover Vers.ass",
          "default": true,
          "version": "Default",
          "subchecksum": "06704889ab16f4133695b698f16fa145"
        }
      ]
    }
  ],
  "data": {
    "created_at": "2020-12-19T21:59:45.361Z",
    "kid": "cef31922-95e4-4b7f-b22a-ae3b328442bd",
    "modified_at": "2021-05-15T16:29:05.969Z",
    "repository": "kara.moe",
    "tags": {
      "authors": [
        "56b54c89-86ae-4635-992f-ddc1234b8015"
      ],
      "collections": [
        "c7db86a0-ff64-4044-9be4-66dd1ef1d1c1"
      ],
      "creators": [
        "1eb6ea0c-7d4c-4dd9-92b5-ef47d476cdfe",
        "e9bb3a58-48d2-478c-bfe7-95237ddfe0fd"
      ],
      "groups": [
        "8c22c899-b3ed-42da-a548-ce00f950798b",
        "8e209ae4-4381-438f-89dc-1b21752027d2"
      ],
      "langs": [
        "de5eda1c-5fb3-46a6-9606-d4554fc5a1d6"
      ],
      "origins": [
        "5106d71b-a78e-4d19-a16d-f8fb6719538a",
        "dbedd6b3-d125-4cd8-aa32-c4175e4ca3a3"
      ],
      "platforms": [
        "248d92ee-8c02-43bc-86e2-cc6029883564",
        "e791f168-068f-4c05-aa36-e8d63726aa06"
      ],
      "series": [
        "0899ff2c-9293-4bf7-8cda-8014f214a7f1"
      ],
      "singers": [
        "c4cd517c-9219-4757-9d66-0ffb56c754f9"
      ],
      "songtypes": [
        "a6c79ce5-89ee-4d50-afe8-3abd7317f6c2"
      ],
      "songwriters": [
        "10d8314d-6441-4ed1-9ae5-44a0f0516c73"
      ],
      "versions": [
        "03e1e1d2-8641-47b7-bbcb-39a3df9ff21c"
      ],
      "franchises": [
        "d8030743-4563-41b9-a3e3-30a0b2fb2edb"
      ]
    },
    "title": "Mass Destruction ~ Mori Calliope Vers.",
    "titles": {
      "eng": "Mass Destruction ~ Mori Calliope Vers."
    },
    "year": 2020
  }
}