{
  "header": {
    "version": 4,
    "description": "Karaoke Mugen Karaoke Data File"
  },
  "medias": [
    {
      "version": "The Wolf Whistling Song",
      "filename": "ENG - Ookami to Koushinryou - ED - Ringo Biyori ~ The Wolf Whistling Song.mp4",
      "audiogain": 5.11,
      "loudnorm": "-23.47,-7.29,8.00,-33.74,-1.92",
      "filesize": 36472404,
      "duration": 89,
      "default": true,
      "lyrics": [
        {
          "filename": "ENG - Ookami to Koushinryou - ED - Ringo Biyori ~ The Wolf Whistling Song.ass",
          "default": true,
          "version": "Default"
        }
      ]
    }
  ],
  "data": {
    "created_at": "2017-10-11T19:02:39.000Z",
    "ignoreHooks": false,
    "kid": "9d486b91-f94c-44f2-ab4b-54b337a4d5fb",
    "modified_at": "2022-03-24T10:32:27.011Z",
    "repository": "kara.moe",
    "tags": {
      "authors": [
        "fa399f2f-ea1d-4902-8796-ea6d8218aff0"
      ],
      "collections": [
        "c7db86a0-ff64-4044-9be4-66dd1ef1d1c1"
      ],
      "creators": [
        "09527d8b-d9b0-4f2e-96d5-e988b62ac7d8"
      ],
      "families": [
        "0377db02-3af6-43b8-9b08-c759df3d25c3"
      ],
      "groups": [
        "3c14c864-533c-49e6-a3cc-6969f1233775"
      ],
      "langs": [
        "de5eda1c-5fb3-46a6-9606-d4554fc5a1d6"
      ],
      "misc": [
        "fe819ff1-9db8-4a0f-85dc-0e322c9126c4"
      ],
      "origins": [
        "938de218-5343-4865-94d3-fb33f2eaa152"
      ],
      "series": [
        "95925674-a1b6-44d2-8710-c64961f5d700"
      ],
      "singers": [
        "a22628a3-7cab-49d3-9182-aa9be1b58ed0"
      ],
      "songtypes": [
        "38c77c56-2b95-4040-b676-0994a8cb0597"
      ],
      "songwriters": [
        "13ed00f8-e996-4f15-ab2e-1a9c1d9b4070",
        "8d0dcc70-9499-440b-877c-0a4967545372",
        "f740ee67-a454-4578-8da4-c3431af2a4b5"
      ],
      "franchises": [
        "95925674-a1b6-44d2-8710-c64961f5d700"
      ]
    },
    "titles": {
      "jpn": "リンゴ日和～The Wolf Whistling Song",
      "qro": "Ringo Biyori ~ The Wolf Whistling Song"
    },
    "titles_default_language": "qro",
    "title": "Ringo Biyori ~ The Wolf Whistling Song",
    "year": 2008
  }
}