{
  "header": {
    "version": 4,
    "description": "Karaoke Mugen Karaoke Data File"
  },
  "medias": [
    {
      "version": "Default",
      "filename": "ENG - SiM - MV - Devil in Your Heart.mp4",
      "audiogain": -12.47,
      "loudnorm": "-3.99,2.28,2.10,-14.10,-0.42",
      "filesize": 90672550,
      "duration": 191,
      "default": true,
      "lyrics": [
        {
          "filename": "ENG - SiM - MV - Devil in Your Heart.ass",
          "default": true,
          "version": "Default"
        }
      ]
    }
  ],
  "data": {
    "created_at": "2022-08-04T14:26:35.476Z",
    "ignoreHooks": false,
    "kid": "9d61fba3-9360-49b0-80b8-437d4bde3a64",
    "modified_at": "2023-04-27T23:57:22.813Z",
    "repository": "kara.moe",
    "tags": {
      "authors": [
        "9cdf3b70-3550-457c-bdb9-038f3253c6ad"
      ],
      "collections": [
        "dbcf2c22-524d-4708-99bb-601703633927"
      ],
      "creators": [
        "16d42f94-706b-4d4a-8d06-662b35f556ce"
      ],
      "families": [
        "5391f9fe-638c-415f-8dc9-958e3a2c5787"
      ],
      "groups": [
        "8e209ae4-4381-438f-89dc-1b21752027d2"
      ],
      "langs": [
        "de5eda1c-5fb3-46a6-9606-d4554fc5a1d6"
      ],
      "singers": [
        "a680a6e7-88c1-4e48-afdd-d51fdf891bb3"
      ],
      "singergroups": [
        "1405a86b-8fd8-4504-b7c0-de47fdab9ce6"
      ],
      "songtypes": [
        "7be1b15c-cff8-4b37-a649-5c90f3d569a9"
      ],
      "songwriters": [
        "1405a86b-8fd8-4504-b7c0-de47fdab9ce6",
        "725852c7-7168-42ca-8e3f-dc53e9e7f9e0"
      ]
    },
    "titles": {
      "eng": "Devil in Your Heart"
    },
    "titles_default_language": "eng",
    "year": 2020
  }
}