{
  "header": {
    "version": 4,
    "description": "Karaoke Mugen Karaoke Data File"
  },
  "medias": [
    {
      "version": "Default",
      "filename": "ENG - Touhou - MV - Midnight Lightning Bolt.mp4",
      "audiogain": -4.79,
      "loudnorm": "-12.55,-2.80,3.30,-22.68,-0.48",
      "filesize": 68723048,
      "duration": 186,
      "default": true,
      "lyrics": [
        {
          "filename": "ENG - Touhou - MV - Midnight Lightning Bolt.ass",
          "default": true,
          "version": "Default"
        }
      ]
    }
  ],
  "data": {
    "created_at": "2022-08-15T21:25:25.440Z",
    "ignoreHooks": false,
    "kid": "c9f84f2e-dab2-4604-8058-3ba96d55db58",
    "modified_at": "2022-09-14T21:24:57.085Z",
    "repository": "kara.moe",
    "tags": {
      "authors": [
        "5c7df057-1721-436c-8244-17aae35ff388"
      ],
      "collections": [
        "c7db86a0-ff64-4044-9be4-66dd1ef1d1c1"
      ],
      "creators": [
        "25fc251a-0514-4bf5-a818-dd0547723f4a"
      ],
      "families": [
        "0377db02-3af6-43b8-9b08-c759df3d25c3"
      ],
      "groups": [
        "ae613721-1fbe-480d-ba6b-d6d0702b184d"
      ],
      "langs": [
        "de5eda1c-5fb3-46a6-9606-d4554fc5a1d6"
      ],
      "series": [
        "1bdaa5a1-dfa6-4365-b746-7a0b194dafd6"
      ],
      "singers": [
        "d5f9e745-a3ca-4184-a2bc-07369a2485b4"
      ],
      "songtypes": [
        "7be1b15c-cff8-4b37-a649-5c90f3d569a9"
      ],
      "songwriters": [
        "26cb5252-8510-49e0-897c-a611a05fc056",
        "901a46d3-78ef-41b4-a953-21e861a3e11f",
        "feceb592-efac-4eda-9b03-c27cf509004c"
      ],
      "franchises": [
        "1bdaa5a1-dfa6-4365-b746-7a0b194dafd6"
      ]
    },
    "titles": {
      "eng": "Midnight Lightning Bolt"
    },
    "titles_default_language": "eng",
    "title": "Midnight Lightning Bolt",
    "year": 2010
  }
}