{
  "header": {
    "version": 4,
    "description": "Karaoke Mugen Karaoke Data File"
  },
  "medias": [
    {
      "version": "Default",
      "filename": "ENG - Cowboy Bebop Tengoku no Tobira - MOVIE OP - Ask DNA.mp4",
      "audiogain": -5.63,
      "loudnorm": "-13.66,0.55,9.30,-23.98,-1.69",
      "filesize": 40237974,
      "duration": 101,
      "default": true,
      "lyrics": [
        {
          "filename": "ENG - Cowboy Bebop Tengoku no Tobira - MOVIE OP - Ask DNA.ass",
          "default": true,
          "version": "Default",
          "subchecksum": "6fc1a458cc8ebc3a4a5ab0b5733676f9"
        }
      ]
    }
  ],
  "data": {
    "created_at": "2017-10-11T17:02:27.000Z",
    "kid": "6c38667d-8e96-463f-953d-3bd1709fea4f",
    "modified_at": "2021-02-25T10:04:32.870Z",
    "repository": "kara.moe",
    "tags": {
      "authors": [
        "5bdaba57-27f8-4568-8806-76a807728766"
      ],
      "collections": [
        "c7db86a0-ff64-4044-9be4-66dd1ef1d1c1"
      ],
      "creators": [
        "57ffcdd9-7e4f-4971-85ce-0fb3aa8151ac"
      ],
      "families": [
        "0377db02-3af6-43b8-9b08-c759df3d25c3"
      ],
      "groups": [
        "3c14c864-533c-49e6-a3cc-6969f1233775"
      ],
      "langs": [
        "de5eda1c-5fb3-46a6-9606-d4554fc5a1d6"
      ],
      "misc": [
        "fe819ff1-9db8-4a0f-85dc-0e322c9126c4"
      ],
      "origins": [
        "c8ca9dea-d8b4-48fe-8427-d911653232e9"
      ],
      "series": [
        "528dc2b2-df51-4649-a7ef-ed9155271935"
      ],
      "singers": [
        "e28d0395-a46a-4aff-917c-7f7474a9cca7",
        "e9121986-84f7-4726-86c2-522605793c07"
      ],
      "songtypes": [
        "f02ad9b3-0bd9-4aad-85b3-9976739ba0e4"
      ],
      "songwriters": [
        "af0be06d-ea2d-4f46-85d1-58cf9f42532a",
        "c5b23531-a03f-45ea-b567-3034d0e17b2d"
      ],
      "franchises": [
        "3fb73793-f9b4-431f-ba13-3e1fa28c805e"
      ]
    },
    "title": "Ask DNA",
    "titles": {
      "eng": "Ask DNA"
    },
    "year": 2001
  }
}