{
  "header": {
    "description": "Karaoke Mugen Karaoke Data File",
    "version": 4
  },
  "medias": [
    {
      "version": "Default",
      "filename": "ENG - Depeche Mode - MV - Enjoy the Silence.mp4",
      "audiogain": 3.73,
      "loudnorm": "-21.43,-7.94,6.90,-31.58,-1.38",
      "filesize": 14723331,
      "duration": 280,
      "default": true,
      "lyrics": [
        {
          "filename": "ENG - Depeche Mode - MV - Enjoy the Silence.ass",
          "default": true,
          "version": "Default"
        }
      ]
    }
  ],
  "data": {
    "created_at": "2022-08-02T14:28:44.529Z",
    "kid": "028d4e6b-2a9d-4e1f-98d7-129574515780",
    "modified_at": "2022-08-02T14:28:44.529Z",
    "tags": {
      "authors": [
        "0c8e4377-ee35-4896-89ed-9d06a1b5acd5"
      ],
      "creators": [
        "b4e4e74d-dbca-45d2-ae81-8ed6932295d7"
      ],
      "families": [
        "5391f9fe-638c-415f-8dc9-958e3a2c5787"
      ],
      "groups": [
        "24db50aa-a126-4d34-a48a-e45db79c4245"
      ],
      "langs": [
        "de5eda1c-5fb3-46a6-9606-d4554fc5a1d6"
      ],
      "singers": [
        "df7df744-e44a-422e-8a95-459776718c58"
      ],
      "songtypes": [
        "7be1b15c-cff8-4b37-a649-5c90f3d569a9"
      ],
      "songwriters": [
        "1c32dc78-370d-4549-aa46-6c25cd5320a7"
      ],
      "collections": [
        "efe171c0-e8a1-4d03-98c0-60ecf741ad52"
      ]
    },
    "titles": {
      "eng": "Enjoy the Silence"
    },
    "titles_default_language": "eng",
    "titles_aliases": [],
    "title": "Enjoy the Silence",
    "year": "1990",
    "repository": "kara.moe"
  }
}