{
  "header": {
    "version": 4,
    "description": "Karaoke Mugen Karaoke Data File"
  },
  "medias": [
    {
      "version": "Default",
      "filename": "ENG - Dorohedoro - ED5 - SECONDs FLY.mp4",
      "audiogain": -1.2,
      "loudnorm": "-15.98,-3.79,12.70,-26.72,-0.99",
      "filesize": 114610514,
      "duration": 90,
      "default": true,
      "lyrics": [
        {
          "filename": "ENG - Dorohedoro - ED5 - SECONDs FLY.ass",
          "default": true,
          "version": "Default"
        }
      ]
    }
  ],
  "data": {
    "created_at": "2020-05-29T18:40:58.756Z",
    "ignoreHooks": false,
    "kid": "2eccf53b-629f-4706-8b9c-6a27536c6b48",
    "modified_at": "2022-10-15T19:34:32.670Z",
    "repository": "kara.moe",
    "songorder": 5,
    "tags": {
      "authors": [
        "06852e02-b77e-4106-b6f7-2d03942ad0ea"
      ],
      "collections": [
        "c7db86a0-ff64-4044-9be4-66dd1ef1d1c1"
      ],
      "creators": [
        "0a86e9ea-5e17-4371-8f2a-60c818324d58"
      ],
      "families": [
        "0377db02-3af6-43b8-9b08-c759df3d25c3"
      ],
      "groups": [
        "8e209ae4-4381-438f-89dc-1b21752027d2"
      ],
      "langs": [
        "4dcf9614-7914-42aa-99f4-dbce2e059133",
        "de5eda1c-5fb3-46a6-9606-d4554fc5a1d6"
      ],
      "misc": [
        "fe819ff1-9db8-4a0f-85dc-0e322c9126c4"
      ],
      "origins": [
        "938de218-5343-4865-94d3-fb33f2eaa152"
      ],
      "series": [
        "8c46d4fc-027f-404d-89f0-6d90365e1b45"
      ],
      "singers": [
        "02268bf0-9541-48a7-9fa2-66edf5a96091"
      ],
      "songtypes": [
        "38c77c56-2b95-4040-b676-0994a8cb0597"
      ],
      "songwriters": [
        "21d4f5c0-5957-4624-8a55-d99ec62a9693",
        "8e441486-caa4-4627-9232-ddc4ee01d518"
      ]
    },
    "titles": {
      "eng": "SECONDs FLY"
    },
    "titles_default_language": "eng",
    "title": "SECONDs FLY",
    "year": 2020
  }
}