{
  "header": {
    "version": 4,
    "description": "Karaoke Mugen Karaoke Data File"
  },
  "medias": [
    {
      "version": "Default",
      "filename": "ENG - a-ha - MV - Take on Me.mp4",
      "audiogain": -7.82,
      "loudnorm": "-9.83,2.13,5.60,-20.03,-1.15",
      "filesize": 123823176,
      "duration": 225,
      "default": true,
      "lyrics": [
        {
          "filename": "ENG - a-ha - MV - Take on Me.ass",
          "default": true,
          "version": "Default",
          "subchecksum": "5c084895948342d2b472b74710a28912"
        }
      ]
    }
  ],
  "data": {
    "created_at": "2020-06-01T15:21:08.835Z",
    "kid": "b01671f1-b0c4-46c9-826b-58e48d445788",
    "modified_at": "2021-02-25T14:48:00.083Z",
    "repository": "kara.moe",
    "tags": {
      "authors": [
        "0c8e4377-ee35-4896-89ed-9d06a1b5acd5"
      ],
      "collections": [
        "efe171c0-e8a1-4d03-98c0-60ecf741ad52"
      ],
      "creators": [
        "45ff46f8-862b-4f84-8479-505cc223d430"
      ],
      "families": [
        "5391f9fe-638c-415f-8dc9-958e3a2c5787"
      ],
      "groups": [
        "7792cc27-9ff9-4d47-9287-2338b7db1575"
      ],
      "langs": [
        "de5eda1c-5fb3-46a6-9606-d4554fc5a1d6"
      ],
      "singers": [
        "060879f4-9598-47fa-b4ac-5336ff90827a"
      ],
      "songtypes": [
        "7be1b15c-cff8-4b37-a649-5c90f3d569a9"
      ],
      "songwriters": [
        "932648ed-55f2-4fce-bca1-d1f34ca14821",
        "a0016ad7-83b7-4e8b-815e-0306b5e559e8",
        "b34394fc-0c10-49e8-a115-c5c71df6c313"
      ]
    },
    "title": "Take on Me",
    "titles": {
      "eng": "Take on Me"
    },
    "year": 1984
  }
}