{
  "header": {
    "version": 4,
    "description": "Karaoke Mugen Karaoke Data File"
  },
  "medias": [
    {
      "version": "Default",
      "filename": "ENG - USA for Africa - MV - We Are the World.mp4",
      "audiogain": 0.32,
      "loudnorm": "-18.04,-4.90,7.20,-28.26,-1.55",
      "filesize": 77780880,
      "duration": 431,
      "default": true,
      "lyrics": [
        {
          "filename": "ENG - USA for Africa - MV - We Are the World.ass",
          "default": true,
          "version": "Default"
        }
      ]
    }
  ],
  "data": {
    "created_at": "2021-10-02T15:23:58.295Z",
    "ignoreHooks": false,
    "kid": "03472722-cbb5-458c-a5fd-2752b44b4da0",
    "modified_at": "2022-10-15T19:21:01.547Z",
    "repository": "kara.moe",
    "tags": {
      "authors": [
        "45c26d75-1251-4c7a-bc40-d00821fdf45a"
      ],
      "collections": [
        "efe171c0-e8a1-4d03-98c0-60ecf741ad52"
      ],
      "creators": [
        "28a02f79-daaf-4037-8897-3458e80a5b41",
        "9f10c180-4ed1-4a4e-9e39-c37e09b91d5f"
      ],
      "families": [
        "5391f9fe-638c-415f-8dc9-958e3a2c5787"
      ],
      "groups": [
        "7792cc27-9ff9-4d47-9287-2338b7db1575"
      ],
      "langs": [
        "de5eda1c-5fb3-46a6-9606-d4554fc5a1d6"
      ],
      "misc": [
        "86705d4b-24e4-4756-9687-2b9c98bcf366"
      ],
      "singers": [
        "38cd3b9a-cde9-4bad-aa5b-1e5a900a49de"
      ],
      "songtypes": [
        "7be1b15c-cff8-4b37-a649-5c90f3d569a9"
      ],
      "songwriters": [
        "4b8a7d2b-d109-4c7f-b50b-9a398aea1621",
        "d549402e-4aa6-4fde-806d-f24be1f40a3f"
      ]
    },
    "titles": {
      "eng": "We Are the World"
    },
    "titles_default_language": "eng",
    "title": "We Are the World",
    "year": 1985
  }
}