{
  "header": {
    "version": 4,
    "description": "Karaoke Mugen Karaoke Data File"
  },
  "medias": [
    {
      "version": "Default",
      "filename": "ENG - GUMI - MV - ECHO ~ Off Vocal Vers.mp4",
      "audiogain": -7.9,
      "loudnorm": "-8.30,2.34,6.20,-18.54,-0.91",
      "filesize": 56834950,
      "duration": 229,
      "default": true,
      "lyrics": [
        {
          "filename": "ENG - GUMI - MV - ECHO ~ Off Vocal Vers.ass",
          "default": true,
          "version": "Default"
        }
      ]
    }
  ],
  "data": {
    "created_at": "2019-10-12T09:31:59.000Z",
    "kid": "0b6e072c-cd4d-472e-8c32-9658e24dd04c",
    "modified_at": "2021-07-22T19:05:13.894Z",
    "parents": [
      "846ef843-252d-45ab-9cce-5577b578254d"
    ],
    "repository": "kara.moe",
    "tags": {
      "authors": [
        "88321964-7c14-4305-85c1-0f4941aadfde"
      ],
      "collections": [
        "c7db86a0-ff64-4044-9be4-66dd1ef1d1c1"
      ],
      "creators": [
        "3b5e1055-c1dd-44ba-9362-eddc4fdffa63",
        "6c2c0764-ac9e-4af4-91bd-655e9404418e"
      ],
      "families": [
        "0377db02-3af6-43b8-9b08-c759df3d25c3"
      ],
      "genres": [
        "45623cae-6d68-4304-a49b-896d1d6f4580"
      ],
      "groups": [
        "2b4e9972-5e17-481b-99f5-d0787c0ada56",
        "ae613721-1fbe-480d-ba6b-d6d0702b184d"
      ],
      "langs": [
        "de5eda1c-5fb3-46a6-9606-d4554fc5a1d6"
      ],
      "singers": [
        "dafdeefa-0a96-44df-9653-aeb88c400e33"
      ],
      "songtypes": [
        "7be1b15c-cff8-4b37-a649-5c90f3d569a9"
      ],
      "songwriters": [
        "28879964-f5f2-4f44-b3c4-46fb108748c1",
        "6c2c0764-ac9e-4af4-91bd-655e9404418e"
      ],
      "versions": [
        "c0cc87b9-55b9-40f0-878a-fbb9e34c151e"
      ]
    },
    "title": "ECHO",
    "titles": {
      "eng": "ECHO"
    },
    "year": 2014
  }
}