{
  "header": {
    "version": 4,
    "description": "Karaoke Mugen Karaoke Data File"
  },
  "medias": [
    {
      "version": "Default",
      "filename": "ENG - Queen - MV - Radio Ga Ga.mp4",
      "audiogain": -1.24,
      "loudnorm": "-16.71,-5.13,4.40,-26.82,-0.70",
      "filesize": 37633668,
      "duration": 343,
      "default": true,
      "lyrics": [
        {
          "filename": "ENG - Queen - MV - Radio Ga Ga.ass",
          "default": true,
          "version": "Default"
        }
      ]
    }
  ],
  "data": {
    "created_at": "2022-04-24T13:07:09.329Z",
    "ignoreHooks": false,
    "kid": "d2d66570-fafd-469d-a9f9-aa2524f6f5fc",
    "modified_at": "2022-04-24T13:07:10.048Z",
    "repository": "kara.moe",
    "tags": {
      "authors": [
        "0c8e4377-ee35-4896-89ed-9d06a1b5acd5"
      ],
      "collections": [
        "efe171c0-e8a1-4d03-98c0-60ecf741ad52"
      ],
      "creators": [
        "078ec016-e167-49bf-ba43-af95adfc4c51",
        "6468c4c7-8cea-42ed-9e9c-0ac0d108065d"
      ],
      "families": [
        "5391f9fe-638c-415f-8dc9-958e3a2c5787"
      ],
      "langs": [
        "de5eda1c-5fb3-46a6-9606-d4554fc5a1d6"
      ],
      "singers": [
        "c25013e3-dbc3-4614-bb61-007748729633"
      ],
      "songtypes": [
        "7be1b15c-cff8-4b37-a649-5c90f3d569a9"
      ],
      "songwriters": [
        "b2d834a3-c11b-47cc-a5dd-92e7b5742386"
      ],
      "groups": [
        "7792cc27-9ff9-4d47-9287-2338b7db1575"
      ],
      "misc": [
        "86705d4b-24e4-4756-9687-2b9c98bcf366"
      ]
    },
    "titles": {
      "eng": "Radio Ga Ga"
    },
    "titles_default_language": "eng",
    "title": "Radio Ga Ga",
    "year": 1984
  }
}