{
  "header": {
    "version": 4,
    "description": "Karaoke Mugen Karaoke Data File"
  },
  "medias": [
    {
      "version": "Default",
      "filename": "ENG - Hermes House Band - MV - Country Roads.mp4",
      "audiogain": 2.47,
      "loudnorm": "-19.71,-8.46,3.90,-29.95,-0.15",
      "filesize": 32189443,
      "duration": 199,
      "default": true,
      "lyrics": [
        {
          "filename": "ENG - Hermes House Band - MV - Country Roads.ass",
          "default": true,
          "version": "Default",
          "subchecksum": "13135b9dafe9b69028ed6ed090de97d7"
        }
      ]
    }
  ],
  "data": {
    "created_at": "2020-05-23T21:31:54.585Z",
    "kid": "adc29a62-3db2-42eb-a6d8-440b72252bc2",
    "modified_at": "2021-02-25T14:48:55.048Z",
    "repository": "kara.moe",
    "tags": {
      "authors": [
        "085bffb4-d910-4e03-82e4-0682f17c8b97",
        "1a15eff5-8859-45d6-a7c1-ae565d34cc29"
      ],
      "collections": [
        "efe171c0-e8a1-4d03-98c0-60ecf741ad52"
      ],
      "creators": [
        "ee954a78-2b37-4071-b094-f9945d846d63"
      ],
      "families": [
        "5391f9fe-638c-415f-8dc9-958e3a2c5787"
      ],
      "groups": [
        "3c14c864-533c-49e6-a3cc-6969f1233775"
      ],
      "langs": [
        "de5eda1c-5fb3-46a6-9606-d4554fc5a1d6"
      ],
      "singers": [
        "eb9116b2-9e64-4d03-934e-01588edd137b"
      ],
      "songtypes": [
        "7be1b15c-cff8-4b37-a649-5c90f3d569a9"
      ],
      "songwriters": [
        "0ac392b1-5372-43b5-a828-48474d496a5c",
        "5421e2ba-274e-4345-820d-33599e9cd468",
        "96b68dd5-11dd-49c6-b6a3-447f7d415abb"
      ]
    },
    "title": "Country Roads",
    "titles": {
      "eng": "Country Roads"
    },
    "year": 2001
  }
}