{
  "header": {
    "version": 4,
    "description": "Karaoke Mugen Karaoke Data File"
  },
  "medias": [
    {
      "version": "Default",
      "filename": "ENG - Calliope Mori, Rikka (Hololive) - MV - spiral tones ~ Off Vocal Vers.mp4",
      "audiogain": -3.48,
      "loudnorm": "-12.34,0.22,11.30,-22.84,-1.09",
      "filesize": 168158372,
      "duration": 231,
      "default": true,
      "lyrics": [
        {
          "filename": "ENG - Calliope Mori, Rikka (Hololive) - MV - spiral tones ~ Off Vocal Vers.ass",
          "default": true,
          "version": "Default"
        }
      ]
    }
  ],
  "data": {
    "created_at": "2022-09-07T06:21:25.274Z",
    "ignoreHooks": false,
    "kid": "d527e0a8-80a8-4619-bd88-e899483891b3",
    "modified_at": "2022-09-07T06:21:25.716Z",
    "parents": [
      "1ded430c-acda-4707-a8d9-e098a3718c67"
    ],
    "repository": "kara.moe",
    "tags": {
      "authors": [
        "9cdf3b70-3550-457c-bdb9-038f3253c6ad"
      ],
      "collections": [
        "c7db86a0-ff64-4044-9be4-66dd1ef1d1c1"
      ],
      "creators": [
        "0263d413-17bb-4cee-a311-6dd896eda1c9",
        "28fedacd-5dee-45e9-849d-a67a1d9ebd53",
        "4aa9147b-81e6-4fcd-98be-dbb34b63831e"
      ],
      "families": [
        "0377db02-3af6-43b8-9b08-c759df3d25c3"
      ],
      "groups": [
        "8e209ae4-4381-438f-89dc-1b21752027d2"
      ],
      "langs": [
        "4dcf9614-7914-42aa-99f4-dbce2e059133",
        "de5eda1c-5fb3-46a6-9606-d4554fc5a1d6"
      ],
      "misc": [
        "1d6ceadf-a885-47e5-b23b-c07bf668a424",
        "ec4fee75-71fb-45b4-9772-2ca374b4b600"
      ],
      "origins": [
        "5106d71b-a78e-4d19-a16d-f8fb6719538a"
      ],
      "singers": [
        "82ead1c5-d9e3-40cf-b9da-22d08fcefee1",
        "c4cd517c-9219-4757-9d66-0ffb56c754f9"
      ],
      "songtypes": [
        "7be1b15c-cff8-4b37-a649-5c90f3d569a9"
      ],
      "songwriters": [
        "555464a8-5d71-45b6-9b0b-0b7b8dd32f40",
        "82ead1c5-d9e3-40cf-b9da-22d08fcefee1",
        "c4cd517c-9219-4757-9d66-0ffb56c754f9"
      ],
      "versions": [
        "c0cc87b9-55b9-40f0-878a-fbb9e34c151e"
      ]
    },
    "titles": {
      "eng": "spiral tones"
    },
    "titles_default_language": "eng",
    "title": "spiral tones",
    "year": 2021
  }
}