{
  "header": {
    "version": 4,
    "description": "Karaoke Mugen Karaoke Data File"
  },
  "medias": [
    {
      "version": "Default",
      "filename": "ENG - Bocchi the Rock! - AMV - This Fffire.mp4",
      "audiogain": 0.49,
      "loudnorm": "-18.52,-4.44,4.90,-28.77,-1.14",
      "filesize": 37574460,
      "duration": 89,
      "default": true,
      "lyrics": [
        {
          "filename": "ENG - Bocchi the Rock! - AMV - This Fffire.ass",
          "default": true,
          "version": "Default"
        }
      ]
    }
  ],
  "data": {
    "created_at": "2022-12-03T05:14:08.149Z",
    "ignoreHooks": false,
    "kid": "b7267dd2-1fda-4c47-ac87-bc8312f60b26",
    "modified_at": "2023-02-26T19:08:10.069Z",
    "parents": [
      "82546615-63ac-48d3-9afd-31f96fa01d9f"
    ],
    "repository": "kara.moe",
    "tags": {
      "authors": [
        "1df04771-a378-4f14-a5e1-1455187d681a"
      ],
      "collections": [
        "c7db86a0-ff64-4044-9be4-66dd1ef1d1c1"
      ],
      "creators": [
        "a15c454c-0b99-4885-adbc-d2251eca843d"
      ],
      "families": [
        "0377db02-3af6-43b8-9b08-c759df3d25c3"
      ],
      "groups": [
        "8e209ae4-4381-438f-89dc-1b21752027d2"
      ],
      "langs": [
        "de5eda1c-5fb3-46a6-9606-d4554fc5a1d6"
      ],
      "origins": [
        "ac5085db-52d8-44b4-8fbb-1697b24d2046"
      ],
      "series": [
        "78fb1246-c87d-442b-aa2b-b7252da2452e"
      ],
      "singers": [
        "33d92b1e-ef0b-401e-b0c7-ed5f59b65a6a"
      ],
      "songtypes": [
        "a6c79ce5-89ee-4d50-afe8-3abd7317f6c2"
      ],
      "songwriters": [
        "8387b795-00a2-44c9-9afb-846458a34b6a",
        "cd90dd9f-1007-4025-9d18-f64fa18b6c5d"
      ]
    },
    "titles": {
      "eng": "This Fffire"
    },
    "titles_default_language": "eng",
    "titles_aliases": [
      "fire"
    ],
    "year": 2022
  }
}