{
  "header": {
    "version": 4,
    "description": "Karaoke Mugen Karaoke Data File"
  },
  "medias": [
    {
      "version": "Default",
      "filename": "ENG - Paradox Live - MV - Jumping Into My World ~ Short Vers.mp4",
      "audiogain": -9.16,
      "loudnorm": "-8.14,1.12,4.40,-18.34,-0.66",
      "filesize": 49225275,
      "duration": 74,
      "default": true,
      "lyrics": [
        {
          "filename": "ENG - Paradox Live - MV - Jumping Into My World ~ Short Vers.ass",
          "default": true,
          "version": "Default"
        }
      ]
    }
  ],
  "data": {
    "created_at": "2022-08-18T20:58:10.968Z",
    "kid": "75e2b167-2397-4ffc-a6cf-74c2c3a8498a",
    "modified_at": "2022-08-26T11:16:19.187Z",
    "parents": [
      "e1b15d15-43d6-46f1-8271-34aad2501f05"
    ],
    "repository": "kara.moe",
    "tags": {
      "series": [
        "75f920f8-98bf-4ef1-8c1b-5a26f4bfc16e"
      ],
      "singers": [
        "32c304d7-49ff-482f-a586-7223aba33639",
        "5eb0c9ec-bb8e-4e9a-9b0b-2732ba2029f0",
        "bee49588-2e47-4842-9da4-31dabadc75ae",
        "f2917fb2-23ae-4fbd-bedc-bc9b77f11603"
      ],
      "songtypes": [
        "7be1b15c-cff8-4b37-a649-5c90f3d569a9"
      ],
      "creators": [
        "8fb6d342-5573-4d48-9085-a238b0c36968"
      ],
      "langs": [
        "4dcf9614-7914-42aa-99f4-dbce2e059133",
        "de5eda1c-5fb3-46a6-9606-d4554fc5a1d6"
      ],
      "authors": [
        "ee8628c8-9b7f-415b-bc0d-9b712d5daf8c"
      ],
      "songwriters": [
        "8b807bdd-5873-4141-8e56-1dd9c71d35c9"
      ],
      "groups": [
        "8e209ae4-4381-438f-89dc-1b21752027d2"
      ],
      "versions": [
        "d125c80a-86c1-4321-88e9-07b7800679b6"
      ],
      "collections": [
        "c7db86a0-ff64-4044-9be4-66dd1ef1d1c1"
      ],
      "singergroups": [
        "1d2bc386-7331-49e9-9988-6c87339994d8"
      ],
      "franchises": [
        "75f920f8-98bf-4ef1-8c1b-5a26f4bfc16e"
      ]
    },
    "titles": {
      "eng": "Jumping Into My World"
    },
    "titles_default_language": "eng",
    "title": "Jumping Into My World",
    "year": 2021
  }
}