{
  "header": {
    "description": "Karaoke Mugen Karaoke Data File",
    "version": 4
  },
  "medias": [
    {
      "version": "Default",
      "filename": "ENG - Living Colour - MV - Cult of Personality.mp4",
      "audiogain": -3.51,
      "loudnorm": "-14.42,-0.58,2.50,-24.71,-0.53",
      "filesize": 30471313,
      "duration": 292,
      "default": true,
      "lyrics": [
        {
          "filename": "ENG - Living Colour - MV - Cult of Personality.ass",
          "default": true,
          "version": "Default"
        }
      ]
    }
  ],
  "data": {
    "created_at": "2022-08-09T11:56:46.074Z",
    "kid": "9d8071b8-5799-4c33-a4ed-ba8a85d01439",
    "modified_at": "2022-08-09T11:56:46.074Z",
    "tags": {
      "authors": [
        "3637fdbd-0a33-4f53-8000-c825b6044221"
      ],
      "creators": [
        "1cd2f13e-05cb-49b5-b42f-96260f7a162b",
        "5b29bf8d-93e9-4601-9992-0b2b6d87e27d"
      ],
      "families": [
        "5391f9fe-638c-415f-8dc9-958e3a2c5787"
      ],
      "groups": [
        "7792cc27-9ff9-4d47-9287-2338b7db1575"
      ],
      "langs": [
        "de5eda1c-5fb3-46a6-9606-d4554fc5a1d6"
      ],
      "singers": [
        "56f7abf6-bd60-48fe-8645-78ed96d79653"
      ],
      "songtypes": [
        "7be1b15c-cff8-4b37-a649-5c90f3d569a9"
      ],
      "songwriters": [
        "9ca323c9-4692-4305-8737-d6d68d81aac4",
        "ea9a3d81-2603-4be1-9eab-7344f6522973",
        "7863982a-1040-48e4-82ef-20aee2b65895",
        "aa36a125-2747-4172-a524-e54924ce5504"
      ],
      "collections": [
        "efe171c0-e8a1-4d03-98c0-60ecf741ad52"
      ]
    },
    "titles": {
      "eng": "Cult of Personality"
    },
    "titles_default_language": "eng",
    "titles_aliases": [],
    "title": "Cult of Personality",
    "year": "1988",
    "repository": "kara.moe"
  }
}