{
  "header": {
    "version": 4,
    "description": "Karaoke Mugen Karaoke Data File"
  },
  "medias": [
    {
      "version": "Default",
      "filename": "ENG - Michael Jackson - MV - Beat It.mp4",
      "audiogain": -8.01,
      "loudnorm": "-9.31,1.52,2.20,-19.36,-0.52",
      "filesize": 40136947,
      "duration": 276,
      "default": true,
      "lyrics": [
        {
          "filename": "ENG - Michael Jackson - MV - Beat It.ass",
          "default": true,
          "version": "Default"
        }
      ]
    }
  ],
  "data": {
    "created_at": "2022-06-08T20:13:15.877Z",
    "ignoreHooks": false,
    "kid": "02a59b91-bf3c-4a5a-bc5c-85e5e9d575af",
    "modified_at": "2022-10-15T19:22:28.064Z",
    "repository": "kara.moe",
    "tags": {
      "authors": [
        "70e26885-c0b5-4a01-b95b-2f492b8a8f10"
      ],
      "collections": [
        "efe171c0-e8a1-4d03-98c0-60ecf741ad52"
      ],
      "creators": [
        "1cd2f13e-05cb-49b5-b42f-96260f7a162b"
      ],
      "families": [
        "5391f9fe-638c-415f-8dc9-958e3a2c5787"
      ],
      "groups": [
        "7792cc27-9ff9-4d47-9287-2338b7db1575"
      ],
      "langs": [
        "de5eda1c-5fb3-46a6-9606-d4554fc5a1d6"
      ],
      "singers": [
        "d549402e-4aa6-4fde-806d-f24be1f40a3f"
      ],
      "songtypes": [
        "7be1b15c-cff8-4b37-a649-5c90f3d569a9"
      ],
      "songwriters": [
        "d549402e-4aa6-4fde-806d-f24be1f40a3f"
      ]
    },
    "titles": {
      "eng": "Beat It"
    },
    "titles_default_language": "eng",
    "title": "Beat It",
    "year": 1982
  }
}