{
  "header": {
    "version": 4,
    "description": "Karaoke Mugen Karaoke Data File"
  },
  "medias": [
    {
      "version": "Default",
      "filename": "ENG - Taylor Swift - MV - You Belong with Me.mp4",
      "audiogain": 3.86,
      "loudnorm": "-22.16,-10.97,6.30,-32.31,-1.59",
      "filesize": 20515735,
      "duration": 228,
      "default": true,
      "lyrics": [
        {
          "filename": "ENG - Taylor Swift - MV - You Belong with Me.ass",
          "default": true,
          "version": "Default"
        }
      ]
    }
  ],
  "data": {
    "created_at": "2023-05-08T15:48:19.213Z",
    "ignoreHooks": false,
    "kid": "a7650bfc-45a0-4978-afb2-4069dddab2db",
    "modified_at": "2023-05-08T15:48:19.607Z",
    "repository": "kara.moe",
    "tags": {
      "authors": [
        "aea68e75-e469-45bd-be80-67f2af0e6b2d"
      ],
      "collections": [
        "efe171c0-e8a1-4d03-98c0-60ecf741ad52"
      ],
      "creators": [
        "e63642dc-90f5-4b53-80db-0567e62a8aa5"
      ],
      "families": [
        "5391f9fe-638c-415f-8dc9-958e3a2c5787"
      ],
      "langs": [
        "de5eda1c-5fb3-46a6-9606-d4554fc5a1d6"
      ],
      "singers": [
        "72e3f7b1-133b-4c24-8569-09f3fbe9d3f9"
      ],
      "songtypes": [
        "7be1b15c-cff8-4b37-a649-5c90f3d569a9"
      ],
      "songwriters": [
        "72e3f7b1-133b-4c24-8569-09f3fbe9d3f9",
        "444d7641-caba-4b17-9c46-588a9a4f989e"
      ],
      "groups": [
        "3c14c864-533c-49e6-a3cc-6969f1233775"
      ]
    },
    "titles": {
      "eng": "You Belong with Me"
    },
    "titles_default_language": "eng",
    "year": 2008
  }
}