{
  "header": {
    "version": 4,
    "description": "Karaoke Mugen Karaoke Data File"
  },
  "medias": [
    {
      "version": "Default",
      "filename": "ENG - Radiohead - MV - Paranoid Android ~ Full Vers.mp4",
      "audiogain": 1.31,
      "loudnorm": "-19.88,-6.91,7.30,-29.89,-1.17",
      "filesize": 9559006,
      "duration": 398,
      "default": true,
      "lyrics": [
        {
          "filename": "ENG - Radiohead - MV - Paranoid Android ~ Full Vers.ass",
          "default": true,
          "version": "Default"
        }
      ]
    }
  ],
  "data": {
    "created_at": "2020-01-12T20:44:47.719Z",
    "ignoreHooks": false,
    "kid": "5fdecb21-5eb9-4547-b85d-6e7b5e2fcc62",
    "modified_at": "2022-07-21T22:07:29.702Z",
    "parents": [
      "de2d802f-7b48-49fa-9d6d-31198a496d0e"
    ],
    "repository": "kara.moe",
    "tags": {
      "authors": [
        "1db1738f-acdc-42fc-aec3-60f4bddf660d"
      ],
      "collections": [
        "efe171c0-e8a1-4d03-98c0-60ecf741ad52"
      ],
      "creators": [
        "078ec016-e167-49bf-ba43-af95adfc4c51"
      ],
      "families": [
        "0377db02-3af6-43b8-9b08-c759df3d25c3"
      ],
      "groups": [
        "24db50aa-a126-4d34-a48a-e45db79c4245"
      ],
      "langs": [
        "de5eda1c-5fb3-46a6-9606-d4554fc5a1d6"
      ],
      "misc": [
        "86705d4b-24e4-4756-9687-2b9c98bcf366"
      ],
      "singers": [
        "d7cd57cd-3666-4811-b1ec-6369f17f1e4c"
      ],
      "songtypes": [
        "7be1b15c-cff8-4b37-a649-5c90f3d569a9"
      ],
      "songwriters": [
        "7d6b5b0a-42d1-4f93-ab14-5d552188b202"
      ],
      "versions": [
        "c2143a7f-6970-450e-8a79-0302db9220a9"
      ],
      "warnings": [
        "e82ce681-6d7b-4fb6-abe4-daa8aaa9bbf9"
      ]
    },
    "titles": {
      "eng": "Paranoid Android"
    },
    "titles_default_language": "eng",
    "title": "Paranoid Android",
    "year": 1997
  }
}