{
  "header": {
    "version": 4,
    "description": "Karaoke Mugen Karaoke Data File"
  },
  "medias": [
    {
      "version": "Default",
      "filename": "ENG - 30 Seconds to Mars - MV - This Is War.mp4",
      "audiogain": -8.53,
      "loudnorm": "-10.86,1.92,14.60,-21.36,-0.75",
      "filesize": 287521660,
      "duration": 355,
      "default": true,
      "lyrics": [
        {
          "filename": "ENG - 30 Seconds to Mars - MV - This Is War.ass",
          "default": true,
          "version": "Default"
        }
      ]
    }
  ],
  "data": {
    "created_at": "2022-07-24T13:32:10.923Z",
    "ignoreHooks": false,
    "kid": "cd7c49c7-6925-4291-bdc1-98d2daca06e6",
    "modified_at": "2022-07-24T13:48:02.786Z",
    "repository": "kara.moe",
    "tags": {
      "authors": [
        "09fdd0c3-51ca-4570-a4a1-d0012aeedd5f"
      ],
      "collections": [
        "efe171c0-e8a1-4d03-98c0-60ecf741ad52"
      ],
      "creators": [
        "078ec016-e167-49bf-ba43-af95adfc4c51",
        "0a4146d8-47f8-4e80-a24f-b724c616f494"
      ],
      "families": [
        "5391f9fe-638c-415f-8dc9-958e3a2c5787"
      ],
      "groups": [
        "ae613721-1fbe-480d-ba6b-d6d0702b184d"
      ],
      "langs": [
        "de5eda1c-5fb3-46a6-9606-d4554fc5a1d6"
      ],
      "misc": [
        "86705d4b-24e4-4756-9687-2b9c98bcf366"
      ],
      "singers": [
        "c4b9cc72-7946-4803-8517-43ae69a6db00"
      ],
      "songtypes": [
        "7be1b15c-cff8-4b37-a649-5c90f3d569a9"
      ],
      "songwriters": [
        "004eda2e-90cf-49da-a3d0-5f48a06c6e5f"
      ]
    },
    "titles": {
      "eng": "This Is War"
    },
    "titles_default_language": "eng",
    "title": "This Is War",
    "year": 2010
  }
}