{
  "header": {
    "version": 4,
    "description": "Karaoke Mugen Karaoke Data File"
  },
  "medias": [
    {
      "version": "Default",
      "filename": "ENG - Andreas Johnson - MV - Glorious.mp4",
      "audiogain": -2.34,
      "loudnorm": "-14.80,-3.25,7.00,-25.17,-0.80",
      "filesize": 14794832,
      "duration": 210,
      "default": true,
      "lyrics": [
        {
          "filename": "ENG - Andreas Johnson - MV - Glorious.ass",
          "default": true,
          "version": "Default"
        }
      ]
    }
  ],
  "data": {
    "created_at": "2022-03-26T18:30:40.380Z",
    "ignoreHooks": false,
    "kid": "ed9a16cb-86a3-4b73-babb-d7d879934cfe",
    "modified_at": "2022-03-26T18:57:36.715Z",
    "repository": "kara.moe",
    "tags": {
      "authors": [
        "0c8e4377-ee35-4896-89ed-9d06a1b5acd5"
      ],
      "collections": [
        "efe171c0-e8a1-4d03-98c0-60ecf741ad52"
      ],
      "creators": [
        "bd43efab-3cf4-4b4b-8888-dda16ecd0e04"
      ],
      "families": [
        "5391f9fe-638c-415f-8dc9-958e3a2c5787"
      ],
      "groups": [
        "24db50aa-a126-4d34-a48a-e45db79c4245"
      ],
      "langs": [
        "de5eda1c-5fb3-46a6-9606-d4554fc5a1d6"
      ],
      "singers": [
        "f373fb8d-1275-4e8f-aa09-82216b4ad9a6"
      ],
      "songtypes": [
        "7be1b15c-cff8-4b37-a649-5c90f3d569a9"
      ],
      "songwriters": [
        "f373fb8d-1275-4e8f-aa09-82216b4ad9a6"
      ]
    },
    "titles": {
      "eng": "Glorious"
    },
    "titles_default_language": "eng",
    "title": "Glorious",
    "year": 1999
  }
}