{
  "header": {
    "version": 4,
    "description": "Karaoke Mugen Karaoke Data File"
  },
  "medias": [
    {
      "version": "Default",
      "filename": "ENG - Oasis - MV - Falling Down ~ Full Vers.mp4",
      "audiogain": -6.84,
      "loudnorm": "-10.25,-1.36,6.20,-20.29,-1.56",
      "filesize": 55961910,
      "duration": 300,
      "default": true,
      "lyrics": [
        {
          "filename": "ENG - Oasis - MV - Falling Down ~ Full Vers.ass",
          "default": true,
          "version": "Default"
        }
      ]
    }
  ],
  "data": {
    "created_at": "2019-10-22T20:53:42.000Z",
    "ignoreHooks": false,
    "kid": "69bb61d3-e533-4540-91ee-d078dbc5c591",
    "modified_at": "2022-07-27T22:01:33.719Z",
    "parents": [
      "8e4d3ca3-4336-4d1b-a3b5-08e89e81c1ba"
    ],
    "repository": "kara.moe",
    "tags": {
      "authors": [
        "60defa7b-774e-4680-8321-51b742c2e009"
      ],
      "collections": [
        "efe171c0-e8a1-4d03-98c0-60ecf741ad52"
      ],
      "creators": [
        "4eba50d2-34d6-4a34-8e5a-c63075e814e1"
      ],
      "families": [
        "5391f9fe-638c-415f-8dc9-958e3a2c5787"
      ],
      "groups": [
        "3c14c864-533c-49e6-a3cc-6969f1233775",
        "60defa7b-774e-4680-8321-51b742c2e009",
        "9a8e0fbc-dcae-4989-be82-7cad3436f1f5"
      ],
      "langs": [
        "de5eda1c-5fb3-46a6-9606-d4554fc5a1d6"
      ],
      "misc": [
        "86705d4b-24e4-4756-9687-2b9c98bcf366"
      ],
      "singers": [
        "30c8028f-0bcd-4bb4-9242-2c4161f0697f"
      ],
      "songtypes": [
        "7be1b15c-cff8-4b37-a649-5c90f3d569a9"
      ],
      "songwriters": [
        "66268737-656b-4a68-80da-9b02547d1e22"
      ],
      "versions": [
        "c2143a7f-6970-450e-8a79-0302db9220a9"
      ]
    },
    "titles": {
      "eng": "Falling Down"
    },
    "titles_default_language": "eng",
    "title": "Falling Down",
    "year": 2009
  }
}