{
  "header": {
    "version": 4,
    "description": "Karaoke Mugen Karaoke Data File"
  },
  "medias": [
    {
      "version": "Default",
      "filename": "ENG - ABBA - MV - Super Trouper.mp4",
      "audiogain": -4.64,
      "loudnorm": "-13.19,0.91,4.10,-23.32,-1.18",
      "filesize": 75910205,
      "duration": 250,
      "default": true,
      "lyrics": [
        {
          "filename": "ENG - ABBA - MV - Super Trouper.ass",
          "default": true,
          "version": "Default"
        }
      ]
    }
  ],
  "data": {
    "created_at": "2022-07-31T17:47:19.366Z",
    "ignoreHooks": false,
    "kid": "292f52eb-553f-4398-8bce-171d8ba59dc0",
    "modified_at": "2022-07-31T17:47:20.841Z",
    "repository": "kara.moe",
    "tags": {
      "authors": [
        "0c8e4377-ee35-4896-89ed-9d06a1b5acd5"
      ],
      "collections": [
        "efe171c0-e8a1-4d03-98c0-60ecf741ad52"
      ],
      "creators": [
        "0d2bd039-464b-4967-bde4-2c26873ae41f"
      ],
      "families": [
        "5391f9fe-638c-415f-8dc9-958e3a2c5787"
      ],
      "langs": [
        "de5eda1c-5fb3-46a6-9606-d4554fc5a1d6"
      ],
      "singers": [
        "c0e2944a-bcc0-4d85-a70b-37681943c9d7"
      ],
      "songtypes": [
        "7be1b15c-cff8-4b37-a649-5c90f3d569a9"
      ],
      "songwriters": [
        "a7015d78-357a-468c-91d5-5bd23ee48656",
        "4af14e96-9960-4074-9518-c4a6a35b38d5"
      ],
      "groups": [
        "7792cc27-9ff9-4d47-9287-2338b7db1575"
      ]
    },
    "titles": {
      "eng": "Super Trouper"
    },
    "titles_default_language": "eng",
    "title": "Super Trouper",
    "year": 1980
  }
}