{
  "header": {
    "version": 4,
    "description": "Karaoke Mugen Karaoke Data File"
  },
  "medias": [
    {
      "version": "Default",
      "filename": "ENG - Sia - MV - Cheap Thrills.mp4",
      "audiogain": -7.99,
      "loudnorm": "-9.79,1.09,5.80,-20.01,-0.95",
      "filesize": 37656767,
      "duration": 217,
      "default": true,
      "lyrics": [
        {
          "filename": "ENG - Sia - MV - Cheap Thrills.ass",
          "default": true,
          "version": "Default"
        }
      ]
    }
  ],
  "data": {
    "created_at": "2023-03-04T21:53:25.167Z",
    "kid": "440bcb16-3528-4452-b40e-5fc4984d59c8",
    "modified_at": "2023-03-04T21:53:25.167Z",
    "tags": {
      "authors": [
        "844db367-5e9c-4f0f-b62a-7afd8d52e1de",
        "ad7338c3-cd2b-459b-8849-e22df5cdadae",
        "f70c7314-b8d3-4bf4-96a0-dc8b2c5a6c94"
      ],
      "collections": [
        "efe171c0-e8a1-4d03-98c0-60ecf741ad52"
      ],
      "creators": [
        "99feddac-4bd1-4137-93d9-c7535986a023",
        "9df36cb9-8838-43c0-a753-353b7ca19c68",
        "011b3ef8-7a64-4816-b94c-1c21bc24e833"
      ],
      "families": [
        "5391f9fe-638c-415f-8dc9-958e3a2c5787"
      ],
      "groups": [
        "ae613721-1fbe-480d-ba6b-d6d0702b184d"
      ],
      "langs": [
        "de5eda1c-5fb3-46a6-9606-d4554fc5a1d6"
      ],
      "singers": [
        "1ea2a9dc-3a04-4cc2-8e88-4ff69cf6a760"
      ],
      "songtypes": [
        "7be1b15c-cff8-4b37-a649-5c90f3d569a9"
      ],
      "songwriters": [
        "1ea2a9dc-3a04-4cc2-8e88-4ff69cf6a760",
        "00e41a2f-e41a-457f-8b95-61d8b68f2a86"
      ]
    },
    "titles": {
      "eng": "Cheap Thrills"
    },
    "titles_default_language": "eng",
    "titles_aliases": [],
    "year": "2015",
    "repository": "kara.moe"
  }
}