{
  "header": {
    "version": 4,
    "description": "Karaoke Mugen Karaoke Data File"
  },
  "medias": [
    {
      "version": "Default",
      "filename": "ENG - The Smiths - AUDIO - Bigmouth Strikes Again.mp3",
      "audiogain": -4.84,
      "loudnorm": "-12.63,-1.69,3.30,-22.89,-0.92",
      "filesize": 7970395,
      "duration": 193,
      "default": true,
      "lyrics": [
        {
          "filename": "ENG - The Smiths - AUDIO - Bigmouth Strikes Again.ass",
          "default": true,
          "version": "Default"
        }
      ]
    }
  ],
  "data": {
    "created_at": "2023-03-30T21:05:01.309Z",
    "ignoreHooks": false,
    "kid": "e28749bd-849e-4a6b-b413-a6d913932dad",
    "modified_at": "2023-03-30T21:05:01.634Z",
    "repository": "kara.moe",
    "tags": {
      "authors": [
        "9bea7e05-2dec-434e-92ff-fcb53f69fdb7"
      ],
      "collections": [
        "efe171c0-e8a1-4d03-98c0-60ecf741ad52"
      ],
      "creators": [
        "15935ffd-aed5-4a7b-a7c4-c36b3d7a0757"
      ],
      "langs": [
        "de5eda1c-5fb3-46a6-9606-d4554fc5a1d6"
      ],
      "singergroups": [
        "e3cc5974-6960-4b13-8277-ca5bc97d4848"
      ],
      "songtypes": [
        "42a262ae-acba-4ab5-a446-c5789c96c821"
      ],
      "songwriters": [
        "0fa2c57e-2549-401f-abaa-32b8b053eef4",
        "dd4dda59-787a-4a82-95ea-c347b8c5ce91"
      ],
      "groups": [
        "7792cc27-9ff9-4d47-9287-2338b7db1575"
      ]
    },
    "titles": {
      "eng": "Bigmouth Strikes Again"
    },
    "titles_default_language": "eng",
    "year": 1986
  }
}