{
  "header": {
    "version": 4,
    "description": "Karaoke Mugen Karaoke Data File"
  },
  "medias": [
    {
      "version": "Default",
      "filename": "ENG - Gotye, Kimbra - MV - Somebody That I Used To Know.mp4",
      "audiogain": 2.5,
      "loudnorm": "-21.78,-10.94,11.10,-31.98,-2.06",
      "filesize": 80742121,
      "duration": 243,
      "default": true,
      "lyrics": [
        {
          "filename": "ENG - Gotye, Kimbra - MV - Somebody That I Used To Know.ass",
          "default": true,
          "version": "Default"
        }
      ]
    }
  ],
  "data": {
    "created_at": "2022-01-02T16:53:38.946Z",
    "kid": "4841f503-c66b-4087-b141-5e56a6cbc78a",
    "modified_at": "2022-01-02T16:57:32.106Z",
    "repository": "kara.moe",
    "tags": {
      "authors": [
        "9cdf3b70-3550-457c-bdb9-038f3253c6ad"
      ],
      "collections": [
        "efe171c0-e8a1-4d03-98c0-60ecf741ad52"
      ],
      "creators": [
        "16d42f94-706b-4d4a-8d06-662b35f556ce"
      ],
      "families": [
        "5391f9fe-638c-415f-8dc9-958e3a2c5787"
      ],
      "groups": [
        "ae613721-1fbe-480d-ba6b-d6d0702b184d"
      ],
      "langs": [
        "de5eda1c-5fb3-46a6-9606-d4554fc5a1d6"
      ],
      "misc": [
        "1d6ceadf-a885-47e5-b23b-c07bf668a424"
      ],
      "singers": [
        "27bb6861-ddae-4a67-8e71-101f96abb5e1",
        "da81773c-5a68-4896-b522-652b4ee4963f"
      ],
      "songtypes": [
        "7be1b15c-cff8-4b37-a649-5c90f3d569a9"
      ],
      "songwriters": [
        "54af98d4-e8c0-4fc7-b353-70efe5e2d392"
      ]
    },
    "titles": {
      "eng": "Somebody That I Used To Know"
    },
    "title": "Somebody That I Used To Know",
    "year": 2011
  }
}