{
  "header": {
    "description": "Karaoke Mugen Karaoke Data File",
    "version": 4
  },
  "medias": [
    {
      "version": "Default",
      "filename": "ENG - Sonic Adventure 2 - GAME DC AMV - Escape from the City.mp4",
      "audiogain": -8.1,
      "loudnorm": "-8.75,2.57,1.30,-18.89,-0.30",
      "duration": 141,
      "filesize": 57633142,
      "default": true,
      "lyrics": [
        {
          "filename": "ENG - Sonic Adventure 2 - GAME DC AMV - Escape from the City.ass",
          "default": true,
          "version": "Default"
        }
      ]
    }
  ],
  "data": {
    "comment": "Proper source material",
    "created_at": "2020-07-03T22:26:31.186Z",
    "kid": "ee675e4d-5ec1-4bd8-8db6-408d7eb620db",
    "modified_at": "2021-02-25T10:17:45.418Z",
    "parents": [],
    "repository": "kara.moe",
    "songorder": null,
    "tags": {
      "authors": [
        "06852e02-b77e-4106-b6f7-2d03942ad0ea"
      ],
      "collections": [
        "c7db86a0-ff64-4044-9be4-66dd1ef1d1c1"
      ],
      "creators": [
        "8bf2411a-30c6-41a8-a831-fbb93f9021cf",
        "b8a3778d-0864-4135-9053-1def02d3262e"
      ],
      "groups": [
        "3c14c864-533c-49e6-a3cc-6969f1233775",
        "ae613721-1fbe-480d-ba6b-d6d0702b184d"
      ],
      "langs": [
        "de5eda1c-5fb3-46a6-9606-d4554fc5a1d6"
      ],
      "origins": [
        "ac5085db-52d8-44b4-8fbb-1697b24d2046",
        "dbedd6b3-d125-4cd8-aa32-c4175e4ca3a3"
      ],
      "platforms": [
        "cf4a3dd9-affa-49b4-ad4c-67cbadf09c8d"
      ],
      "series": [
        "37e7f53f-e957-4745-9d7b-5965f658050f"
      ],
      "singers": [
        "caabf671-f6b6-4e8c-a0fd-83642e8d1ba8"
      ],
      "songtypes": [
        "a6c79ce5-89ee-4d50-afe8-3abd7317f6c2"
      ],
      "songwriters": [
        "0a29a6e2-0986-4b24-b3c6-909fad9b5371"
      ],
      "franchises": [
        "09c42215-106e-4379-b6cf-787fb812aaae"
      ]
    },
    "titles": {
      "eng": "Escape from the City"
    },
    "title": "Escape from the City",
    "year": "2001"
  }
}