{
  "header": {
    "version": 4,
    "description": "Karaoke Mugen Karaoke Data File"
  },
  "medias": [
    {
      "version": "Default",
      "filename": "ENG - Dumbbell Nan Kilo Moteru question_mark , Persona 5 the Animation - REMIX AMV - Start Lifting Dumbbells, and Your Life Will Change.mp4",
      "audiogain": -0.67,
      "loudnorm": "-17.18,-5.62,4.10,-27.20,-0.88",
      "filesize": 128112445,
      "duration": 260,
      "default": true,
      "lyrics": [
        {
          "filename": "ENG - Dumbbell Nan Kilo Moteru question_mark , Persona 5 the Animation - REMIX AMV - Start Lifting Dumbbells, and Your Life Will Change.ass",
          "default": true,
          "version": "Default"
        }
      ]
    }
  ],
  "data": {
    "created_at": "2020-12-09T23:42:43.790Z",
    "ignoreHooks": false,
    "kid": "e5da4a36-c5b7-4c65-a05c-76fc7eee1a40",
    "modified_at": "2022-10-14T20:42:44.242Z",
    "parents": [
      "06f9280e-59f1-4914-a5c3-555333a59b62",
      "2e074b5c-047e-44ed-a495-52977df69885"
    ],
    "repository": "kara.moe",
    "tags": {
      "authors": [
        "56b54c89-86ae-4635-992f-ddc1234b8015"
      ],
      "collections": [
        "c7db86a0-ff64-4044-9be4-66dd1ef1d1c1"
      ],
      "creators": [
        "56b54c89-86ae-4635-992f-ddc1234b8015"
      ],
      "families": [
        "0377db02-3af6-43b8-9b08-c759df3d25c3"
      ],
      "groups": [
        "8c22c899-b3ed-42da-a548-ce00f950798b",
        "8e209ae4-4381-438f-89dc-1b21752027d2"
      ],
      "langs": [
        "4dcf9614-7914-42aa-99f4-dbce2e059133",
        "de5eda1c-5fb3-46a6-9606-d4554fc5a1d6"
      ],
      "misc": [
        "ec4360fa-3e3c-4f6f-b0e1-fb8b12b6dd18"
      ],
      "series": [
        "0c79f301-2058-41c1-ad13-476b6b97e706",
        "64101b19-6382-4ca2-9c25-bfdcfe812124"
      ],
      "singers": [
        "2d55466d-e2ff-4db7-b530-646828aabc22",
        "b8b889c2-248c-4a87-893f-e2605e536abc",
        "d8b7cca5-72e9-4ab0-ae2c-0a4f2500dccd"
      ],
      "songtypes": [
        "a6c79ce5-89ee-4d50-afe8-3abd7317f6c2"
      ],
      "songwriters": [
        "3d3a33ed-aa71-4cf6-8b06-cb5c8e3e5189",
        "4591fdbc-192d-4732-a07e-3eb2d51966e8",
        "6e54c4ac-e8d0-4be9-8d05-76b2412ffc0a",
        "8b713fb8-07b2-4775-a094-8ca07fede289",
        "ec3a6acb-6751-49d9-84c7-b6b01ec163f4"
      ],
      "franchises": [
        "d8030743-4563-41b9-a3e3-30a0b2fb2edb"
      ]
    },
    "titles": {
      "eng": "Start Lifting Dumbbells, and Your Life Will Change"
    },
    "titles_default_language": "eng",
    "title": "Start Lifting Dumbbells, and Your Life Will Change",
    "year": 2020
  }
}