{
  "header": {
    "version": 4,
    "description": "Karaoke Mugen Karaoke Data File"
  },
  "medias": [
    {
      "version": "Default",
      "filename": "ENG - Tokyo Ghoul - AMV - Glassy Sky.mp4",
      "audiogain": -1.77,
      "loudnorm": "-17.88,-2.03,20.20,-29.32,-0.99",
      "filesize": 40414730,
      "duration": 288,
      "default": true,
      "lyrics": [
        {
          "filename": "ENG - Tokyo Ghoul - AMV - Glassy Sky.ass",
          "default": true,
          "version": "Default"
        }
      ]
    }
  ],
  "data": {
    "created_at": "2020-02-29T00:48:52.769Z",
    "ignoreHooks": false,
    "kid": "75c0d9c8-fd48-45cd-80eb-bf1a8a014df5",
    "modified_at": "2022-05-15T00:18:51.593Z",
    "repository": "kara.moe",
    "tags": {
      "authors": [
        "87096920-112f-485f-a310-04156cb4624d"
      ],
      "collections": [
        "c7db86a0-ff64-4044-9be4-66dd1ef1d1c1"
      ],
      "creators": [
        "aaff4ba6-9a12-4bac-9bd0-c0cb783e4177"
      ],
      "families": [
        "0377db02-3af6-43b8-9b08-c759df3d25c3"
      ],
      "groups": [
        "60defa7b-774e-4680-8321-51b742c2e009",
        "ae613721-1fbe-480d-ba6b-d6d0702b184d"
      ],
      "langs": [
        "de5eda1c-5fb3-46a6-9606-d4554fc5a1d6"
      ],
      "origins": [
        "938de218-5343-4865-94d3-fb33f2eaa152"
      ],
      "series": [
        "45bed48a-1387-4bca-85cf-de5e0b150fd5"
      ],
      "singers": [
        "f07a40aa-4b0d-46a7-987a-b1692dcc5643"
      ],
      "songtypes": [
        "a6c79ce5-89ee-4d50-afe8-3abd7317f6c2"
      ],
      "songwriters": [
        "5e0b2775-c7d5-4b39-a166-b497d3f6d6f1",
        "dce184a3-9e3e-413f-ae3f-9d27affe616a",
        "a1815e34-2c3c-4c59-acc1-54fcab18f390"
      ],
      "franchises": [
        "45bed48a-1387-4bca-85cf-de5e0b150fd5"
      ]
    },
    "titles": {
      "eng": "Glassy Sky"
    },
    "titles_default_language": "eng",
    "title": "Glassy Sky",
    "year": 2014
  }
}