{
  "header": {
    "version": 4,
    "description": "Karaoke Mugen Karaoke Data File"
  },
  "medias": [
    {
      "version": "Default",
      "filename": "ENG - Genshin Impact - GAME AMV - I Want It That Way.mp4",
      "audiogain": -3.09,
      "loudnorm": "-17.04,-2.34,10.00,-27.70,-1.32",
      "filesize": 16290140,
      "duration": 68,
      "default": true,
      "lyrics": [
        {
          "filename": "ENG - Genshin Impact - GAME AMV - I Want It That Way.ass",
          "default": true,
          "version": "Default"
        }
      ]
    }
  ],
  "data": {
    "created_at": "2020-10-25T14:07:58.040Z",
    "ignoreHooks": false,
    "kid": "e121d563-ef83-4a59-9bb9-2229e7905e31",
    "modified_at": "2022-03-28T22:00:05.243Z",
    "repository": "kara.moe",
    "tags": {
      "authors": [
        "1631228b-9125-497a-aafc-66f920a44a02"
      ],
      "collections": [
        "c7db86a0-ff64-4044-9be4-66dd1ef1d1c1"
      ],
      "creators": [
        "2763e7fe-d771-41e1-baca-bbac70b4c7e9",
        "b77315f9-142f-402f-b1b7-c415de808775"
      ],
      "groups": [
        "8c22c899-b3ed-42da-a548-ce00f950798b",
        "8e209ae4-4381-438f-89dc-1b21752027d2"
      ],
      "langs": [
        "de5eda1c-5fb3-46a6-9606-d4554fc5a1d6"
      ],
      "misc": [
        "07af42d1-824e-407e-bf37-7fb84905484b"
      ],
      "origins": [
        "ac5085db-52d8-44b4-8fbb-1697b24d2046",
        "dbedd6b3-d125-4cd8-aa32-c4175e4ca3a3"
      ],
      "series": [
        "852e2fda-f036-4810-a1f1-e71d74c988e2"
      ],
      "songtypes": [
        "a6c79ce5-89ee-4d50-afe8-3abd7317f6c2"
      ],
      "songwriters": [
        "49463b1a-6081-480b-87d9-30c4eae494f4",
        "8120e9ab-bf79-4f68-b228-6668c9db256b",
        "34f37834-cec2-4d5c-9d72-d5ed8c1edc4d"
      ]
    },
    "titles": {
      "eng": "I Want It That Way"
    },
    "titles_default_language": "eng",
    "title": "I Want It That Way",
    "year": 2020
  }
}