{
  "header": {
    "version": 4,
    "description": "Karaoke Mugen Karaoke Data File"
  },
  "medias": [
    {
      "version": "Default",
      "filename": "ENG - Aqua - MV - Barbie Girl.mp4",
      "audiogain": -0.19,
      "loudnorm": "-17.17,-3.51,6.50,-27.35,-0.14",
      "filesize": 118430768,
      "duration": 201,
      "default": true,
      "lyrics": [
        {
          "filename": "ENG - Aqua - MV - Barbie Girl.ass",
          "default": true,
          "version": "Default"
        }
      ]
    }
  ],
  "data": {
    "created_at": "2020-06-01T18:21:09.175Z",
    "ignoreHooks": false,
    "kid": "e046da0c-70b8-45bd-aade-ee61ff136fcd",
    "modified_at": "2022-10-15T23:08:19.912Z",
    "repository": "kara.moe",
    "tags": {
      "authors": [
        "dd4f1279-de1b-4d06-b80d-29c4878bfd8e"
      ],
      "collections": [
        "efe171c0-e8a1-4d03-98c0-60ecf741ad52"
      ],
      "creators": [
        "f963181a-1214-47f8-b6f9-1705cbc33779"
      ],
      "families": [
        "5391f9fe-638c-415f-8dc9-958e3a2c5787"
      ],
      "groups": [
        "24db50aa-a126-4d34-a48a-e45db79c4245",
        "8c22c899-b3ed-42da-a548-ce00f950798b"
      ],
      "langs": [
        "de5eda1c-5fb3-46a6-9606-d4554fc5a1d6"
      ],
      "singers": [
        "06a9f65f-7c2d-4014-b68d-54046f6d6b79"
      ],
      "songtypes": [
        "7be1b15c-cff8-4b37-a649-5c90f3d569a9"
      ],
      "songwriters": [
        "a88b7a67-62b7-40b4-8021-2a5a6e878bd3",
        "ba7a38cd-b369-43b8-8084-ad133f4c6897"
      ]
    },
    "titles": {
      "eng": "Barbie Girl"
    },
    "titles_default_language": "eng",
    "title": "Barbie Girl",
    "year": 1997
  }
}