{
  "header": {
    "version": 4,
    "description": "Karaoke Mugen Karaoke Data File"
  },
  "medias": [
    {
      "version": "Default",
      "filename": "ENG - ALI - AUDIO - KEEP YOUR HEAD UP.mp3",
      "audiogain": -10.95,
      "loudnorm": "-6.38,1.70,2.90,-16.44,-0.49",
      "filesize": 6175254,
      "duration": 254,
      "default": true,
      "lyrics": [
        {
          "filename": "ENG - ALI - AUDIO - KEEP YOUR HEAD UP.ass",
          "default": true,
          "version": "Default"
        }
      ]
    }
  ],
  "data": {
    "created_at": "2022-07-26T14:07:01.658Z",
    "kid": "6c019b9a-bb0a-4d55-99dd-19869cfd6370",
    "modified_at": "2022-07-26T14:08:59.871Z",
    "repository": "kara.moe",
    "tags": {
      "authors": [
        "9cdf3b70-3550-457c-bdb9-038f3253c6ad"
      ],
      "creators": [
        "43124e1f-bc9d-4218-b41e-bfb33aa11dde"
      ],
      "groups": [
        "8e209ae4-4381-438f-89dc-1b21752027d2"
      ],
      "langs": [
        "4dcf9614-7914-42aa-99f4-dbce2e059133",
        "de5eda1c-5fb3-46a6-9606-d4554fc5a1d6"
      ],
      "misc": [
        "ec4fee75-71fb-45b4-9772-2ca374b4b600"
      ],
      "singers": [
        "d93776ae-70f0-4829-8f52-979a2cb2339f"
      ],
      "songtypes": [
        "42a262ae-acba-4ab5-a446-c5789c96c821"
      ],
      "songwriters": [
        "0c77cb74-a7d7-4289-b6ec-ec929503cc54",
        "d93776ae-70f0-4829-8f52-979a2cb2339f",
        "edf05ac8-127c-4730-ac98-f353fb0d25b4",
        "fb07003e-22fc-4b9a-a35e-cc384c1df358"
      ],
      "collections": [
        "dbcf2c22-524d-4708-99bb-601703633927"
      ]
    },
    "titles": {
      "eng": "KEEP YOUR HEAD UP"
    },
    "titles_default_language": "eng",
    "title": "KEEP YOUR HEAD UP",
    "year": 2021
  }
}