{
  "header": {
    "version": 4,
    "description": "Karaoke Mugen Karaoke Data File"
  },
  "medias": [
    {
      "version": "Default",
      "filename": "ENG - Jean-Jacques Goldman, Michael Jones - MV - Je te donne.mp4",
      "audiogain": -8.53,
      "loudnorm": "-9.92,0.83,8.60,-20.23,-2.12",
      "filesize": 95521262,
      "duration": 239,
      "default": true,
      "lyrics": [
        {
          "filename": "ENG - Jean-Jacques Goldman, Michael Jones - MV - Je te donne.ass",
          "default": true,
          "version": "Default"
        }
      ]
    }
  ],
  "data": {
    "created_at": "2022-01-22T19:26:35.074Z",
    "ignoreHooks": false,
    "kid": "2171cd4f-bda3-450f-8be5-e955123e16c8",
    "modified_at": "2022-04-17T18:28:40.670Z",
    "repository": "kara.moe",
    "tags": {
      "authors": [
        "90414ca0-ab36-4879-8810-b032c6bfdab0",
        "966e02e9-ed3c-403e-82ba-a9f40aa01b57",
        "df82c984-d5d6-40bb-b1d7-7dd2a08d4004"
      ],
      "collections": [
        "efe171c0-e8a1-4d03-98c0-60ecf741ad52"
      ],
      "creators": [
        "1cd2f13e-05cb-49b5-b42f-96260f7a162b"
      ],
      "families": [
        "5391f9fe-638c-415f-8dc9-958e3a2c5787"
      ],
      "groups": [
        "7792cc27-9ff9-4d47-9287-2338b7db1575"
      ],
      "langs": [
        "de5eda1c-5fb3-46a6-9606-d4554fc5a1d6",
        "fd8072b7-4d9b-45d4-8f5b-a931a830edef"
      ],
      "singers": [
        "1ff5e11c-787d-4618-9878-5e6b4fdef247",
        "e9ae5b0b-c1fb-4a85-95ef-b9261b86b05f"
      ],
      "songtypes": [
        "7be1b15c-cff8-4b37-a649-5c90f3d569a9"
      ],
      "songwriters": [
        "1ff5e11c-787d-4618-9878-5e6b4fdef247",
        "e9ae5b0b-c1fb-4a85-95ef-b9261b86b05f"
      ]
    },
    "titles": {
      "fre": "Je te donne"
    },
    "titles_default_language": "fre",
    "title": "Je te donne",
    "year": 1985
  }
}