{
  "header": {
    "version": 4,
    "description": "Karaoke Mugen Karaoke Data File"
  },
  "medias": [
    {
      "version": "Default",
      "filename": "ENG - Gala - MV - Freed from Desire.mp4",
      "audiogain": -6.63,
      "loudnorm": "-11.89,0.61,5.60,-22.16,-1.20",
      "filesize": 13365266,
      "duration": 213,
      "default": true,
      "lyrics": [
        {
          "filename": "ENG - Gala - MV - Freed from Desire.ass",
          "default": true,
          "version": "Default"
        }
      ]
    }
  ],
  "data": {
    "created_at": "2022-08-17T18:02:59.259Z",
    "ignoreHooks": false,
    "kid": "cafb71d1-3182-40ae-ab7d-99225a99377a",
    "modified_at": "2022-08-25T22:16:45.389Z",
    "repository": "kara.moe",
    "tags": {
      "authors": [
        "9f5f3ff9-e254-41af-9e98-36ee29840b47"
      ],
      "collections": [
        "efe171c0-e8a1-4d03-98c0-60ecf741ad52"
      ],
      "creators": [
        "7e203e64-2fc0-49ce-bc7c-c2b09de5dbdc",
        "a8d22d7f-0e81-442a-8e6e-ee629321d903",
        "f31c5b22-763c-4503-9bec-8d90541598ae"
      ],
      "families": [
        "5391f9fe-638c-415f-8dc9-958e3a2c5787"
      ],
      "groups": [
        "24db50aa-a126-4d34-a48a-e45db79c4245"
      ],
      "langs": [
        "de5eda1c-5fb3-46a6-9606-d4554fc5a1d6"
      ],
      "singers": [
        "67d75ce1-8894-40cd-b470-d6b39ee069af"
      ],
      "songtypes": [
        "7be1b15c-cff8-4b37-a649-5c90f3d569a9"
      ],
      "songwriters": [
        "1b37a797-ff0f-422c-91cf-2423f6432072",
        "2c240ef0-ede7-4b3b-bb27-e38dea456b64",
        "c380e491-09c2-4200-9725-64122908158d"
      ]
    },
    "titles": {
      "eng": "Freed from Desire"
    },
    "titles_default_language": "eng",
    "title": "Freed from Desire",
    "year": 1996
  }
}