{
  "header": {
    "version": 4,
    "description": "Karaoke Mugen Karaoke Data File"
  },
  "medias": [
    {
      "version": "Default",
      "filename": "ENG - Love Live! Sunshine!! - AUDIO - RUN KAKERU RUN ~ Full Vers.mp3",
      "audiogain": -9.08,
      "loudnorm": "-8.96,1.53,6.00,-19.02,-0.93",
      "filesize": 5355607,
      "duration": 249,
      "default": true,
      "lyrics": [
        {
          "filename": "ENG - Love Live! Sunshine!! - AUDIO - RUN KAKERU RUN ~ Full Vers.ass",
          "default": true,
          "version": "Default"
        }
      ]
    }
  ],
  "data": {
    "created_at": "2022-02-13T01:39:17.995Z",
    "ignoreHooks": false,
    "kid": "cd0fe89b-49e8-4f9e-989e-ecc561e1323d",
    "modified_at": "2022-03-03T22:13:54.283Z",
    "repository": "kara.moe",
    "tags": {
      "authors": [
        "449844e4-3a1f-46e1-8a92-bf72e2d1b6f1"
      ],
      "collections": [
        "c7db86a0-ff64-4044-9be4-66dd1ef1d1c1"
      ],
      "creators": [
        "b2805292-730e-473a-96f0-fd8e7ffd1fd7"
      ],
      "genres": [
        "caa86df2-0d59-474b-885c-f240a9e891b0"
      ],
      "groups": [
        "8e209ae4-4381-438f-89dc-1b21752027d2"
      ],
      "langs": [
        "4dcf9614-7914-42aa-99f4-dbce2e059133",
        "de5eda1c-5fb3-46a6-9606-d4554fc5a1d6"
      ],
      "series": [
        "63466536-1102-4f91-b167-4380d274e2a3"
      ],
      "singers": [
        "2dcdc517-a816-496e-8bc8-8ce976e608c4"
      ],
      "songtypes": [
        "42a262ae-acba-4ab5-a446-c5789c96c821"
      ],
      "songwriters": [
        "95f2365a-8fbb-4fa9-a920-bba23c20f93b",
        "f41e7218-6c19-4e19-9b5f-4612dcd58243"
      ],
      "versions": [
        "c2143a7f-6970-450e-8a79-0302db9220a9"
      ],
      "franchises": [
        "fd5d066e-e85a-4eea-8688-2979a887450a"
      ]
    },
    "titles": {
      "qro": "RUN KAKERU RUN"
    },
    "title": "RUN KAKERU RUN",
    "year": 2022,
    "titles_default_language": "qro"
  }
}