{
  "header": {
    "version": 4,
    "description": "Karaoke Mugen Karaoke Data File"
  },
  "medias": [
    {
      "version": "Default",
      "filename": "ENG - Madonna - MV - Frozen.mp4",
      "audiogain": -6.48,
      "loudnorm": "-12.50,0.32,12.90,-23.07,-1.50",
      "filesize": 66813828,
      "duration": 320,
      "default": true,
      "lyrics": [
        {
          "filename": "ENG - Madonna - MV - Frozen.ass",
          "default": true,
          "version": "Default"
        }
      ]
    }
  ],
  "data": {
    "created_at": "2022-04-22T13:32:12.741Z",
    "ignoreHooks": false,
    "kid": "acaae98e-13e6-41ba-ad9a-b0b17ebd1f67",
    "modified_at": "2022-04-22T13:39:49.814Z",
    "repository": "kara.moe",
    "tags": {
      "authors": [
        "ad7338c3-cd2b-459b-8849-e22df5cdadae"
      ],
      "collections": [
        "efe171c0-e8a1-4d03-98c0-60ecf741ad52"
      ],
      "creators": [
        "9020cb11-5aaa-46d3-9cd0-5e0ad1f4c712"
      ],
      "families": [
        "5391f9fe-638c-415f-8dc9-958e3a2c5787"
      ],
      "groups": [
        "24db50aa-a126-4d34-a48a-e45db79c4245"
      ],
      "langs": [
        "de5eda1c-5fb3-46a6-9606-d4554fc5a1d6"
      ],
      "misc": [
        "86705d4b-24e4-4756-9687-2b9c98bcf366"
      ],
      "singers": [
        "84f80b38-6b3e-447a-8ee2-5998e010f848"
      ],
      "songtypes": [
        "7be1b15c-cff8-4b37-a649-5c90f3d569a9"
      ],
      "songwriters": [
        "84f80b38-6b3e-447a-8ee2-5998e010f848",
        "96887dd2-b8d3-4e3c-88a8-b81353b32b9f"
      ]
    },
    "titles": {
      "eng": "Frozen"
    },
    "titles_default_language": "eng",
    "title": "Frozen",
    "year": 1998
  }
}