{
  "header": {
    "version": 4,
    "description": "Karaoke Mugen Karaoke Data File"
  },
  "medias": [
    {
      "version": "Default",
      "filename": "ENG - Touhou - MV - Jordan Stole The Precious Slam.mp4",
      "audiogain": 1.13,
      "loudnorm": "-17.10,-7.64,3.20,-27.10,-0.79",
      "filesize": 46917117,
      "duration": 121,
      "default": true,
      "lyrics": [
        {
          "filename": "ENG - Touhou - MV - Jordan Stole The Precious Slam.ass",
          "default": true,
          "version": "Default"
        }
      ]
    }
  ],
  "data": {
    "created_at": "2022-07-31T12:43:52.550Z",
    "ignoreHooks": false,
    "kid": "c33869a0-f8d2-4350-a010-1aaa7c4ec756",
    "modified_at": "2022-07-31T12:44:43.539Z",
    "parents": [
      "f9d9e339-8ef6-4dae-80e8-4cd00c4c54bc"
    ],
    "repository": "kara.moe",
    "tags": {
      "authors": [
        "c2205bc1-b31a-4bbd-8953-7070204b5cbf"
      ],
      "collections": [
        "c7db86a0-ff64-4044-9be4-66dd1ef1d1c1"
      ],
      "creators": [
        "25fc251a-0514-4bf5-a818-dd0547723f4a",
        "a56ed9e7-a3dc-4203-b91c-4128bcf7bfa9",
        "dfdca219-b7f2-4e7b-a18a-0229108ff1cd",
        "f00ac3f9-3aa9-424e-8e27-17869f46440e"
      ],
      "families": [
        "0377db02-3af6-43b8-9b08-c759df3d25c3"
      ],
      "groups": [
        "3c14c864-533c-49e6-a3cc-6969f1233775",
        "8c22c899-b3ed-42da-a548-ce00f950798b",
        "ae613721-1fbe-480d-ba6b-d6d0702b184d"
      ],
      "langs": [
        "4dcf9614-7914-42aa-99f4-dbce2e059133",
        "de5eda1c-5fb3-46a6-9606-d4554fc5a1d6"
      ],
      "misc": [
        "07af42d1-824e-407e-bf37-7fb84905484b"
      ],
      "series": [
        "1bdaa5a1-dfa6-4365-b746-7a0b194dafd6"
      ],
      "singers": [
        "63c7ee79-bff6-41ba-aa5b-547cb44012bc",
        "fa070ce8-c121-4fd8-b8b4-118b806c15b5"
      ],
      "songtypes": [
        "7be1b15c-cff8-4b37-a649-5c90f3d569a9"
      ],
      "songwriters": [
        "1dae52a9-d1e0-447b-8dd3-cfd10119a3a8",
        "26cb5252-8510-49e0-897c-a611a05fc056",
        "7d6010d5-b446-45b9-bc89-401d00c00b20",
        "9b8cc98f-faa1-4a36-bc08-23c46cb2e2f1",
        "c074376a-19ce-4463-a348-ee96ff116f8b",
        "feceb592-efac-4eda-9b03-c27cf509004c"
      ],
      "franchises": [
        "1bdaa5a1-dfa6-4365-b746-7a0b194dafd6"
      ]
    },
    "titles": {
      "eng": "Jordan Stole The Precious Slam"
    },
    "titles_default_language": "eng",
    "title": "Jordan Stole The Precious Slam",
    "year": 2014
  }
}