{
  "header": {
    "version": 4,
    "description": "Karaoke Mugen Karaoke Data File"
  },
  "medias": [
    {
      "version": "Default",
      "filename": "ENG - Interlunium - AUDIO CS - The Hollow (Altair Arrange).mp3",
      "audiogain": -4.7,
      "loudnorm": "-13.00,-0.14,10.30,-23.36,-1.11",
      "filesize": 7264115,
      "duration": 209,
      "default": true,
      "lyrics": [
        {
          "filename": "ENG - Interlunium - AUDIO CS - The Hollow (Altair Arrange).ass",
          "default": true,
          "version": "Default"
        }
      ]
    }
  ],
  "data": {
    "created_at": "2021-11-17T13:03:10.789Z",
    "kid": "e7852ece-21a9-4e32-9e8c-73c2078974d8",
    "modified_at": "2021-12-09T16:49:59.463Z",
    "repository": "kara.moe",
    "tags": {
      "authors": [
        "2c1f4c76-4de9-4548-9aa5-bc64ab296076"
      ],
      "collections": [
        "c7db86a0-ff64-4044-9be4-66dd1ef1d1c1"
      ],
      "creators": [
        "b9653bf8-5ab0-4333-9c64-b1985f1b8d29",
        "f6abac78-d87e-48be-9d9e-3ec05c7f3f23"
      ],
      "genres": [
        "caa86df2-0d59-474b-885c-f240a9e891b0"
      ],
      "groups": [
        "ae613721-1fbe-480d-ba6b-d6d0702b184d"
      ],
      "langs": [
        "de5eda1c-5fb3-46a6-9606-d4554fc5a1d6"
      ],
      "series": [
        "b9653bf8-5ab0-4333-9c64-b1985f1b8d29"
      ],
      "singers": [
        "7bfc8a5d-37cf-4f8e-b4af-b169f487296b"
      ],
      "songtypes": [
        "42a262ae-acba-4ab5-a446-c5789c96c821",
        "a8a2616c-b5a1-4df3-ad6f-89291bc67dee"
      ],
      "songwriters": [
        "4d70f81f-6ef4-41e9-a4bc-4ca147b8e8ce",
        "7bfc8a5d-37cf-4f8e-b4af-b169f487296b",
        "9837002e-8f57-4f7c-a47f-fe4a0cdad0a0",
        "c35febbe-0419-46b2-a971-385776c200e7",
        "dc8a195e-3f9e-46d3-bfdb-b1ceb55d230d"
      ]
    },
    "titles": {
      "eng": "The Hollow (Altair Arrange)"
    },
    "title": "The Hollow (Altair Arrange)",
    "year": 2019
  }
}