{
  "header": {
    "version": 4,
    "description": "Karaoke Mugen Karaoke Data File"
  },
  "medias": [
    {
      "version": "Default",
      "filename": "ENG - Scorpions - MV - Rock You Like a Hurricane.mp4",
      "audiogain": -3.59,
      "loudnorm": "-14.53,-1.86,3.70,-24.71,-0.25",
      "filesize": 26018139,
      "duration": 258,
      "default": true,
      "lyrics": [
        {
          "filename": "ENG - Scorpions - MV - Rock You Like a Hurricane.ass",
          "default": true,
          "version": "Default"
        }
      ]
    }
  ],
  "data": {
    "created_at": "2022-04-21T19:34:09.229Z",
    "ignoreHooks": false,
    "kid": "aee023a2-e28f-4015-9bb0-07a8624a62d9",
    "modified_at": "2022-04-21T19:34:09.917Z",
    "repository": "kara.moe",
    "tags": {
      "authors": [
        "0c8e4377-ee35-4896-89ed-9d06a1b5acd5"
      ],
      "collections": [
        "efe171c0-e8a1-4d03-98c0-60ecf741ad52"
      ],
      "creators": [
        "438a4f9a-8573-40ed-a436-364aa3505f36"
      ],
      "families": [
        "5391f9fe-638c-415f-8dc9-958e3a2c5787"
      ],
      "langs": [
        "de5eda1c-5fb3-46a6-9606-d4554fc5a1d6"
      ],
      "singers": [
        "88af9430-4c88-4792-b602-97b79ee0c828"
      ],
      "songtypes": [
        "7be1b15c-cff8-4b37-a649-5c90f3d569a9"
      ],
      "songwriters": [
        "790c8568-d919-4f21-9b8e-7196a03e99d7",
        "d3e3ca1e-0513-4181-86ec-177b1a74b7f0",
        "92d0b797-39dd-40f9-8558-be8125359765"
      ],
      "groups": [
        "7792cc27-9ff9-4d47-9287-2338b7db1575"
      ]
    },
    "titles": {
      "eng": "Rock You Like a Hurricane"
    },
    "titles_default_language": "eng",
    "title": "Rock You Like a Hurricane",
    "year": 1984
  }
}