{
  "header": {
    "version": 4,
    "description": "Karaoke Mugen Karaoke Data File"
  },
  "medias": [
    {
      "version": "Default",
      "filename": "ENG - D4DJ First Mix - IN - Here's the light.mp4",
      "audiogain": -6.94,
      "loudnorm": "-9.61,0.83,7.90,-19.93,-0.26",
      "filesize": 64680549,
      "duration": 103,
      "default": true,
      "lyrics": [
        {
          "filename": "ENG - D4DJ First Mix - IN - Here's the light.ass",
          "default": true,
          "version": "Default"
        }
      ]
    }
  ],
  "data": {
    "created_at": "2022-12-15T05:46:00.510Z",
    "ignoreHooks": false,
    "kid": "069cc905-bbae-4249-b95b-6bb818c04b0d",
    "modified_at": "2022-12-15T06:04:41.262Z",
    "repository": "kara.moe",
    "tags": {
      "authors": [
        "7848b5dc-a5df-4577-b640-147be5288cec"
      ],
      "collections": [
        "c7db86a0-ff64-4044-9be4-66dd1ef1d1c1"
      ],
      "creators": [
        "4e1122b4-c09f-445f-bdfa-cbad9581f2dc",
        "bd4564a8-44e5-454a-9c57-bd2a3c8a537e"
      ],
      "families": [
        "0377db02-3af6-43b8-9b08-c759df3d25c3"
      ],
      "genres": [
        "caa86df2-0d59-474b-885c-f240a9e891b0"
      ],
      "groups": [
        "8e209ae4-4381-438f-89dc-1b21752027d2"
      ],
      "langs": [
        "4dcf9614-7914-42aa-99f4-dbce2e059133",
        "de5eda1c-5fb3-46a6-9606-d4554fc5a1d6"
      ],
      "misc": [
        "1d6ceadf-a885-47e5-b23b-c07bf668a424"
      ],
      "origins": [
        "938de218-5343-4865-94d3-fb33f2eaa152"
      ],
      "series": [
        "a1dc6d85-b224-4030-b16a-5ccf6b557522"
      ],
      "singers": [
        "557ea46d-03d6-421b-8452-2703fd558562",
        "5bc28f95-9eb2-47d1-be88-954f5ce3f5c6",
        "bbf38c20-4ff8-46ca-8e23-55a71286f0ef",
        "e3ec5558-2fa7-44e9-a4a4-59910a7a3370"
      ],
      "singergroups": [
        "6d679de1-81d9-418d-bf45-90b79f0ab9ab"
      ],
      "songtypes": [
        "5e5250d9-351a-4a82-98eb-55db50ad8962"
      ],
      "songwriters": [
        "6de1ba6b-edd0-4579-a195-b2be236d314b",
        "72735eaa-bf34-441e-87fa-e99904e93ba7"
      ],
      "franchises": [
        "e2e9382c-e3bd-4db9-abaf-194d09099ab0"
      ]
    },
    "titles": {
      "eng": "Here's the light",
      "jpn": "Here's the light",
      "qro": "Here's the light"
    },
    "titles_default_language": "qro",
    "year": 2020
  }
}