{
  "header": {
    "version": 4,
    "description": "Karaoke Mugen Karaoke Data File"
  },
  "medias": [
    {
      "version": "Default",
      "filename": "ENG - Sia - MV - Chandelier.mp4",
      "audiogain": -10.29,
      "loudnorm": "-6.30,1.90,11.30,-16.91,-1.11",
      "filesize": 39802749,
      "duration": 231,
      "default": true,
      "lyrics": [
        {
          "filename": "ENG - Sia - MV - Chandelier.ass",
          "default": true,
          "version": "Default",
          "subchecksum": "026816e5ffe5369b97966f08db6583f6"
        }
      ]
    }
  ],
  "data": {
    "created_at": "2020-07-11T20:44:27.373Z",
    "kid": "5c801970-6e5b-4524-a27b-e2d949bb4340",
    "modified_at": "2021-02-25T14:50:46.311Z",
    "repository": "kara.moe",
    "tags": {
      "authors": [
        "844db367-5e9c-4f0f-b62a-7afd8d52e1de"
      ],
      "collections": [
        "efe171c0-e8a1-4d03-98c0-60ecf741ad52"
      ],
      "creators": [
        "011b3ef8-7a64-4816-b94c-1c21bc24e833"
      ],
      "families": [
        "5391f9fe-638c-415f-8dc9-958e3a2c5787"
      ],
      "groups": [
        "ae613721-1fbe-480d-ba6b-d6d0702b184d"
      ],
      "langs": [
        "de5eda1c-5fb3-46a6-9606-d4554fc5a1d6"
      ],
      "singers": [
        "1ea2a9dc-3a04-4cc2-8e88-4ff69cf6a760"
      ],
      "songtypes": [
        "7be1b15c-cff8-4b37-a649-5c90f3d569a9"
      ],
      "songwriters": [
        "1ea2a9dc-3a04-4cc2-8e88-4ff69cf6a760",
        "ca2d9a0e-072a-46ea-b596-66e4b4b2ef55"
      ]
    },
    "title": "Chandelier",
    "titles": {
      "eng": "Chandelier"
    },
    "year": 2014
  }
}