{
  "header": {
    "version": 4,
    "description": "Karaoke Mugen Karaoke Data File"
  },
  "medias": [
    {
      "version": "Default",
      "filename": "ENG - Mili - MV - world.execute(me) ~ Alternative Vers.mp4",
      "audiogain": -8.15,
      "loudnorm": "-8.20,1.20,4.70,-18.24,-0.55",
      "filesize": 32957673,
      "duration": 209,
      "default": true,
      "lyrics": [
        {
          "filename": "ENG - Mili - MV - world.execute(me) ~ Alternative Vers.ass",
          "default": true,
          "version": "Default"
        }
      ]
    }
  ],
  "data": {
    "created_at": "2023-03-17T23:19:06.853Z",
    "ignoreHooks": false,
    "kid": "7810b3ab-50a2-4c72-acd7-24bad8784a1e",
    "modified_at": "2023-05-19T23:38:43.520Z",
    "parents": [
      "f9a9946c-3f8d-458c-9d96-88f0f49ac8db"
    ],
    "repository": "kara.moe",
    "tags": {
      "authors": [
        "1631228b-9125-497a-aafc-66f920a44a02"
      ],
      "collections": [
        "c7db86a0-ff64-4044-9be4-66dd1ef1d1c1"
      ],
      "creators": [
        "34129c7d-f297-4071-8a7c-5ef883096bbd"
      ],
      "families": [
        "0377db02-3af6-43b8-9b08-c759df3d25c3"
      ],
      "groups": [
        "8c22c899-b3ed-42da-a548-ce00f950798b",
        "ae613721-1fbe-480d-ba6b-d6d0702b184d"
      ],
      "langs": [
        "de5eda1c-5fb3-46a6-9606-d4554fc5a1d6"
      ],
      "origins": [
        "ac5085db-52d8-44b4-8fbb-1697b24d2046"
      ],
      "singers": [
        "f6cd900b-9a73-446f-b54e-84663b3cfb75"
      ],
      "songtypes": [
        "7be1b15c-cff8-4b37-a649-5c90f3d569a9"
      ],
      "songwriters": [
        "a1b5be43-a6b7-40a5-88cf-7449a9da5422",
        "d1026da5-b413-42c7-912a-3d2c068cad34"
      ],
      "versions": [
        "9f63c359-d1bf-425a-bcf5-b245c2c9211d"
      ]
    },
    "titles": {
      "eng": "world.execute(me);"
    },
    "titles_default_language": "eng",
    "titles_aliases": [
      "world execute me"
    ],
    "year": 2017
  }
}