{
  "header": {
    "version": 4,
    "description": "Karaoke Mugen Karaoke Data File"
  },
  "medias": [
    {
      "version": "Default",
      "filename": "ENG - AC DC - MV - Thunderstruck.mp4",
      "audiogain": -0.66,
      "loudnorm": "-17.06,-1.13,8.50,-27.46,-0.55",
      "filesize": 236261288,
      "duration": 293,
      "default": true,
      "lyrics": [
        {
          "filename": "ENG - AC DC - MV - Thunderstruck.ass",
          "default": true,
          "version": "Default"
        }
      ]
    }
  ],
  "data": {
    "created_at": "2023-02-12T15:10:29.561Z",
    "ignoreHooks": false,
    "kid": "aefb6c36-1ecf-4b4f-92ca-ddf30cde9155",
    "modified_at": "2023-02-12T15:10:49.551Z",
    "repository": "kara.moe",
    "tags": {
      "authors": [
        "a9e609c1-465a-4db6-aae5-f0929f6f9a41"
      ],
      "collections": [
        "efe171c0-e8a1-4d03-98c0-60ecf741ad52"
      ],
      "creators": [
        "189437dc-1aa0-41a1-8116-f688bc6f0434"
      ],
      "families": [
        "5391f9fe-638c-415f-8dc9-958e3a2c5787"
      ],
      "groups": [
        "24db50aa-a126-4d34-a48a-e45db79c4245",
        "8c22c899-b3ed-42da-a548-ce00f950798b"
      ],
      "langs": [
        "de5eda1c-5fb3-46a6-9606-d4554fc5a1d6"
      ],
      "singers": [
        "e99a65f7-5e04-4f1a-b893-18bc421752c3"
      ],
      "songtypes": [
        "7be1b15c-cff8-4b37-a649-5c90f3d569a9"
      ],
      "songwriters": [
        "0f3b2a6d-3171-4467-a6c4-8d707858685c",
        "df4c7181-83af-4032-b398-0c8c82809a08"
      ]
    },
    "titles": {
      "eng": "Thunderstruck"
    },
    "titles_default_language": "eng",
    "year": 1990
  }
}