{
  "header": {
    "version": 4,
    "description": "Karaoke Mugen Karaoke Data File"
  },
  "medias": [
    {
      "version": "Default",
      "filename": "ENG - Jamiroquai - MV - Virtual Insanity.mp4",
      "audiogain": -2.59,
      "loudnorm": "-15.70,-0.77,10.10,-26.04,-1.13",
      "filesize": 35771592,
      "duration": 234,
      "default": true,
      "lyrics": [
        {
          "filename": "ENG - Jamiroquai - MV - Virtual Insanity.ass",
          "default": true,
          "version": "Default"
        }
      ]
    }
  ],
  "data": {
    "created_at": "2023-05-30T13:09:09.808Z",
    "ignoreHooks": false,
    "kid": "1ac559fc-ea83-45c8-bf2b-6914952259af",
    "modified_at": "2023-05-30T13:09:10.074Z",
    "repository": "kara.moe",
    "tags": {
      "authors": [
        "9cdf3b70-3550-457c-bdb9-038f3253c6ad"
      ],
      "collections": [
        "efe171c0-e8a1-4d03-98c0-60ecf741ad52"
      ],
      "creators": [
        "48507498-1eca-4809-bede-95d713ddf4a4"
      ],
      "families": [
        "5391f9fe-638c-415f-8dc9-958e3a2c5787"
      ],
      "langs": [
        "de5eda1c-5fb3-46a6-9606-d4554fc5a1d6"
      ],
      "singers": [
        "5de6cfd6-ca47-44b3-a60b-25df5a517389"
      ],
      "singergroups": [
        "6b988157-8b53-4147-a69b-5d5c077dfba4"
      ],
      "songtypes": [
        "7be1b15c-cff8-4b37-a649-5c90f3d569a9"
      ],
      "songwriters": [
        "a52f4647-f95c-48d5-8a29-c621ac745cba"
      ],
      "groups": [
        "24db50aa-a126-4d34-a48a-e45db79c4245"
      ]
    },
    "titles": {
      "eng": "Virtual Insanity"
    },
    "titles_default_language": "eng",
    "year": 1996
  }
}