{
  "header": {
    "version": 4,
    "description": "Karaoke Mugen Karaoke Data File"
  },
  "medias": [
    {
      "version": "Default",
      "filename": "ENG - THE GOD OF HIGH SCHOOL - ED - WIN.mp4",
      "audiogain": 5.44,
      "loudnorm": "-22.18,-11.31,3.10,-32.52,-0.41",
      "filesize": 31986124,
      "duration": 90,
      "default": true,
      "lyrics": [
        {
          "filename": "ENG - THE GOD OF HIGH SCHOOL - ED - WIN.ass",
          "default": true,
          "version": "Default",
          "subchecksum": "baaefaae20e106a609167c97ade504ed"
        }
      ]
    }
  ],
  "data": {
    "created_at": "2021-07-14T16:36:26.936Z",
    "kid": "be71c956-e1c8-437b-900b-01981938c14f",
    "modified_at": "2021-07-14T17:10:07.481Z",
    "repository": "kara.moe",
    "tags": {
      "authors": [
        "9cdf3b70-3550-457c-bdb9-038f3253c6ad"
      ],
      "collections": [
        "c7db86a0-ff64-4044-9be4-66dd1ef1d1c1"
      ],
      "creators": [
        "0a86e9ea-5e17-4371-8f2a-60c818324d58"
      ],
      "families": [
        "0377db02-3af6-43b8-9b08-c759df3d25c3"
      ],
      "genres": [
        "a0aeef4a-6428-45ff-a6e1-468b595930c2"
      ],
      "groups": [
        "8e209ae4-4381-438f-89dc-1b21752027d2"
      ],
      "langs": [
        "de5eda1c-5fb3-46a6-9606-d4554fc5a1d6"
      ],
      "origins": [
        "938de218-5343-4865-94d3-fb33f2eaa152"
      ],
      "series": [
        "43eb8253-a785-4aa7-93f1-255e8b50a0a9"
      ],
      "singers": [
        "74db3473-609a-4226-81b2-22051d37b71b"
      ],
      "songtypes": [
        "38c77c56-2b95-4040-b676-0994a8cb0597"
      ],
      "songwriters": [
        "490ae423-eb9d-4ba3-89cd-b0d109f5530c",
        "c3fe2cd4-8fc1-4e14-8e19-cede81dacb96"
      ]
    },
    "title": "WIN",
    "titles": {
      "eng": "WIN"
    },
    "year": 2020
  }
}