{
  "header": {
    "version": 4,
    "description": "Karaoke Mugen Karaoke Data File"
  },
  "medias": [
    {
      "version": "Default",
      "filename": "ENG - K-ON! - AMV - Beelzeboss.mp4",
      "audiogain": -9.86,
      "loudnorm": "-7.83,0.86,6.90,-18.01,-0.20",
      "filesize": 118942281,
      "duration": 319,
      "default": true,
      "lyrics": [
        {
          "filename": "ENG - K-ON! - AMV - Beelzeboss.ass",
          "default": true,
          "version": "Default"
        }
      ]
    }
  ],
  "data": {
    "created_at": "2017-10-11T17:02:38.000Z",
    "kid": "d04e5905-c318-4291-a8a6-2a8d928032e6",
    "modified_at": "2022-07-20T11:29:00.046Z",
    "parents": [
      "5f297f53-2793-4613-a8c3-9d11c9235de8"
    ],
    "repository": "kara.moe",
    "tags": {
      "authors": [
        "5a629611-96b4-422c-b309-ba7a58e263a2"
      ],
      "creators": [
        "286f3427-166f-407b-954f-db517c48653a"
      ],
      "families": [
        "0377db02-3af6-43b8-9b08-c759df3d25c3"
      ],
      "groups": [
        "3c14c864-533c-49e6-a3cc-6969f1233775",
        "f5e7d2fc-0cbb-4fb9-a84a-b25dfb0e9e77"
      ],
      "langs": [
        "de5eda1c-5fb3-46a6-9606-d4554fc5a1d6"
      ],
      "misc": [
        "86705d4b-24e4-4756-9687-2b9c98bcf366",
        "cef35a27-3bf0-48c9-beb2-d245ba62ea6b"
      ],
      "series": [
        "77de22c4-04a2-4f45-9277-bc2c21922a22"
      ],
      "singers": [
        "46e414f4-0ac2-4bd5-ac57-1a95bcb0efd0"
      ],
      "songtypes": [
        "a6c79ce5-89ee-4d50-afe8-3abd7317f6c2"
      ],
      "songwriters": [
        "46e414f4-0ac2-4bd5-ac57-1a95bcb0efd0"
      ],
      "collections": [
        "c7db86a0-ff64-4044-9be4-66dd1ef1d1c1"
      ],
      "warnings": [
        "e82ce681-6d7b-4fb6-abe4-daa8aaa9bbf9"
      ],
      "franchises": [
        "5bf6f59d-2272-44aa-b354-ebf3f31f0171"
      ]
    },
    "titles": {
      "eng": "Beelzeboss"
    },
    "titles_default_language": "eng",
    "title": "Beelzeboss",
    "year": 2009
  }
}