{
  "header": {
    "version": 4,
    "description": "Karaoke Mugen Karaoke Data File"
  },
  "medias": [
    {
      "version": "Default",
      "filename": "FRE - Kirarin Revolution - IN - Mes vrais sentiments.mp4",
      "audiogain": 0.84,
      "loudnorm": "-19.02,-7.25,3.80,-29.23,-0.30",
      "filesize": 4515645,
      "duration": 91,
      "default": true,
      "lyrics": [
        {
          "filename": "FRE - Kirarin Revolution - IN - Mes vrais sentiments.ass",
          "default": true,
          "version": "Default"
        }
      ]
    }
  ],
  "data": {
    "created_at": "2023-05-22T17:42:31.437Z",
    "ignoreHooks": false,
    "kid": "20c75f9b-1a1b-410e-888a-32e504d8ceed",
    "modified_at": "2023-05-22T17:42:31.437Z",
    "repository": "kara.moe",
    "tags": {
      "authors": [
        "96288f85-e1fe-4b30-8003-999b98707e59"
      ],
      "collections": [
        "c7db86a0-ff64-4044-9be4-66dd1ef1d1c1"
      ],
      "creators": [
        "89712d07-0095-46b2-8399-dfcd8c837884"
      ],
      "families": [
        "0377db02-3af6-43b8-9b08-c759df3d25c3"
      ],
      "genres": [
        "caa86df2-0d59-474b-885c-f240a9e891b0",
        "8b6ace6f-a59e-4740-b3ff-e1618720383c"
      ],
      "groups": [
        "3c14c864-533c-49e6-a3cc-6969f1233775"
      ],
      "langs": [
        "fd8072b7-4d9b-45d4-8f5b-a931a830edef"
      ],
      "origins": [
        "938de218-5343-4865-94d3-fb33f2eaa152"
      ],
      "series": [
        "bb6ad796-4b3a-43ec-ab02-8b3e3550e3d9"
      ],
      "singers": [
        "1a3ae815-17a0-4ff9-8137-6f21c002d4e2"
      ],
      "songtypes": [
        "5e5250d9-351a-4a82-98eb-55db50ad8962"
      ],
      "songwriters": [
        "f033fd1e-2987-4a47-bc43-5f2639e21e57",
        "82b77f4e-619c-4c79-bafe-0aad6e267210"
      ]
    },
    "titles": {
      "fre": "Mes vrais sentiments"
    },
    "titles_default_language": "fre",
    "titles_aliases": [],
    "year": 2006
  }
}