{
  "header": {
    "version": 4,
    "description": "Karaoke Mugen Karaoke Data File"
  },
  "medias": [
    {
      "version": "Default",
      "filename": "FRE - Indila - MV - Tourner dans le vide.mp4",
      "audiogain": -4.65,
      "loudnorm": "-12.92,-1.92,19.30,-23.59,-2.00",
      "filesize": 42014216,
      "duration": 250,
      "default": true,
      "lyrics": [
        {
          "filename": "FRE - Indila - MV - Tourner dans le vide.ass",
          "default": true,
          "version": "Default"
        }
      ]
    }
  ],
  "data": {
    "created_at": "2022-05-02T16:19:25.289Z",
    "ignoreHooks": false,
    "kid": "6643f17a-1bcd-4c23-86fe-f86c15af993e",
    "modified_at": "2022-05-08T13:27:50.284Z",
    "repository": "kara.moe",
    "tags": {
      "authors": [
        "90414ca0-ab36-4879-8810-b032c6bfdab0",
        "df82c984-d5d6-40bb-b1d7-7dd2a08d4004"
      ],
      "collections": [
        "efe171c0-e8a1-4d03-98c0-60ecf741ad52"
      ],
      "creators": [
        "dec410df-49d5-4838-936a-78c2f27b5066"
      ],
      "families": [
        "5391f9fe-638c-415f-8dc9-958e3a2c5787"
      ],
      "groups": [
        "ae613721-1fbe-480d-ba6b-d6d0702b184d"
      ],
      "langs": [
        "fd8072b7-4d9b-45d4-8f5b-a931a830edef"
      ],
      "singers": [
        "59238d64-c217-478e-906c-7fd1ce940dc1"
      ],
      "songtypes": [
        "7be1b15c-cff8-4b37-a649-5c90f3d569a9"
      ],
      "songwriters": [
        "b7bfb51d-a9ee-4a86-9be9-f974cc00bae6",
        "59238d64-c217-478e-906c-7fd1ce940dc1"
      ]
    },
    "titles": {
      "fre": "Tourner dans le vide"
    },
    "titles_default_language": "fre",
    "title": "Tourner dans le vide",
    "year": 2014
  }
}