{
  "header": {
    "version": 4,
    "description": "Karaoke Mugen Karaoke Data File"
  },
  "medias": [
    {
      "version": "Default",
      "filename": "FRE - Space Cobra - OP - Cobra.mp4",
      "audiogain": -5.25,
      "loudnorm": "-12.54,-1.08,2.80,-22.99,-0.35",
      "filesize": 11185651,
      "duration": 81,
      "default": true,
      "lyrics": [
        {
          "filename": "FRE - Space Cobra - OP - Cobra.ass",
          "default": true,
          "version": "Default",
          "subchecksum": "ee173b8a227e9b82049e31eae0b3a90a"
        }
      ]
    }
  ],
  "data": {
    "created_at": "2017-10-11T15:02:18.000Z",
    "kid": "b04a6df9-33f0-434b-840f-c9862ce4e76b",
    "modified_at": "2021-02-25T10:29:35.129Z",
    "parents": [
      "d2c44d98-303c-4d54-867d-c8a2ea76c09a"
    ],
    "repository": "kara.moe",
    "tags": {
      "authors": [
        "5bdaba57-27f8-4568-8806-76a807728766"
      ],
      "collections": [
        "c7db86a0-ff64-4044-9be4-66dd1ef1d1c1"
      ],
      "creators": [
        "53e900ec-a1ff-4c95-8b2d-a63995c2936f"
      ],
      "families": [
        "0377db02-3af6-43b8-9b08-c759df3d25c3"
      ],
      "groups": [
        "7792cc27-9ff9-4d47-9287-2338b7db1575",
        "cebcdc5d-31af-4c83-a744-680885904b73",
        "f5e7d2fc-0cbb-4fb9-a84a-b25dfb0e9e77"
      ],
      "langs": [
        "fd8072b7-4d9b-45d4-8f5b-a931a830edef"
      ],
      "origins": [
        "938de218-5343-4865-94d3-fb33f2eaa152"
      ],
      "series": [
        "4676ae69-9b4b-4d18-bbca-162ed3125cdd"
      ],
      "singers": [
        "630bb535-96b2-4886-a563-9ee908aea2ee"
      ],
      "songtypes": [
        "f02ad9b3-0bd9-4aad-85b3-9976739ba0e4"
      ],
      "songwriters": [
        "bebfe3dd-179c-4c99-a834-670f450bd853",
        "ebc1ea94-f924-423b-b354-50ebf6f7d621"
      ],
      "franchises": [
        "2423ba01-3f89-4e2f-8e22-80cc9f1a0a36"
      ]
    },
    "title": "Cobra",
    "titles": {
      "eng": "Cobra"
    },
    "year": 1982
  }
}