{
  "header": {
    "version": 4,
    "description": "Karaoke Mugen Karaoke Data File"
  },
  "medias": [
    {
      "version": "Default",
      "filename": "FRE - My Little Pony Friendship is Magic - OP - Friendship is Magic.mp4",
      "audiogain": 2.15,
      "loudnorm": "-19.70,-8.84,1.90,-29.83,0.13",
      "filesize": 7200666,
      "duration": 33,
      "default": true,
      "lyrics": [
        {
          "filename": "FRE - My Little Pony Friendship is Magic - OP - Friendship is Magic.ass",
          "default": true,
          "version": "Default",
          "subchecksum": "41ad551f05034fc4df643df09a169fbb"
        }
      ]
    }
  ],
  "data": {
    "created_at": "2017-11-19T18:28:35.000Z",
    "kid": "f7cba0ff-a5b8-4a24-8d46-171be962eee5",
    "modified_at": "2021-02-25T10:27:19.284Z",
    "parents": [
      "db25853b-53bc-4b65-9af1-beb30960c3b5"
    ],
    "repository": "kara.moe",
    "tags": {
      "authors": [
        "611aa6ee-ebf8-4ef5-8eed-9f1eaec5117e",
        "ba35e5d8-3c3e-4f36-acf9-2bc8e73e52b0"
      ],
      "collections": [
        "c7db86a0-ff64-4044-9be4-66dd1ef1d1c1"
      ],
      "creators": [
        "cb9d46f4-4e6c-451b-b1cd-bd1ded0eb0ad"
      ],
      "families": [
        "0377db02-3af6-43b8-9b08-c759df3d25c3"
      ],
      "groups": [
        "ae613721-1fbe-480d-ba6b-d6d0702b184d",
        "f5e7d2fc-0cbb-4fb9-a84a-b25dfb0e9e77"
      ],
      "langs": [
        "fd8072b7-4d9b-45d4-8f5b-a931a830edef"
      ],
      "origins": [
        "938de218-5343-4865-94d3-fb33f2eaa152"
      ],
      "series": [
        "3e6e8fd3-c345-43c2-b72e-9388760730b3"
      ],
      "songtypes": [
        "f02ad9b3-0bd9-4aad-85b3-9976739ba0e4"
      ],
      "songwriters": [
        "65f37b64-b408-443c-a25b-c5248186cce1",
        "6d231afc-3b14-4464-961a-fe637a23cecf"
      ],
      "franchises": [
        "a5c4b08d-60c5-4c6b-8b51-ad503f8ed8f3"
      ]
    },
    "title": "Friendship is Magic",
    "titles": {
      "eng": "Friendship is Magic"
    },
    "year": 2010
  }
}