{
  "header": {
    "version": 4,
    "description": "Karaoke Mugen Karaoke Data File"
  },
  "medias": [
    {
      "version": "Default",
      "filename": "FRE - Indochine - MV - La vie est belle.mp4",
      "audiogain": -7.14,
      "loudnorm": "-10.24,-0.02,8.20,-20.46,-2.02",
      "filesize": 189308831,
      "duration": 335,
      "default": true,
      "lyrics": [
        {
          "filename": "FRE - Indochine - MV - La vie est belle.ass",
          "default": true,
          "version": "Default"
        }
      ]
    }
  ],
  "data": {
    "created_at": "2020-06-30T08:42:24.375Z",
    "kid": "219ecfe2-0d45-490f-8b24-c24579428ca1",
    "modified_at": "2022-07-20T11:28:55.035Z",
    "repository": "kara.moe",
    "tags": {
      "authors": [
        "fa399f2f-ea1d-4902-8796-ea6d8218aff0"
      ],
      "creators": [
        "4addcb7b-f975-4db9-a3a1-9cf1f39b87c6",
        "5b29bf8d-93e9-4601-9992-0b2b6d87e27d",
        "d8b7a661-c0f1-4044-af8b-44d56f602969"
      ],
      "families": [
        "5391f9fe-638c-415f-8dc9-958e3a2c5787"
      ],
      "groups": [
        "ae613721-1fbe-480d-ba6b-d6d0702b184d"
      ],
      "langs": [
        "fd8072b7-4d9b-45d4-8f5b-a931a830edef"
      ],
      "misc": [
        "86705d4b-24e4-4756-9687-2b9c98bcf366"
      ],
      "singers": [
        "f37601bf-43eb-4504-a148-4946c06cd680"
      ],
      "songtypes": [
        "7be1b15c-cff8-4b37-a649-5c90f3d569a9"
      ],
      "songwriters": [
        "9dceb18c-4f75-40dc-b0ec-4db3f5c5bb7c"
      ],
      "collections": [
        "efe171c0-e8a1-4d03-98c0-60ecf741ad52"
      ],
      "warnings": [
        "e82ce681-6d7b-4fb6-abe4-daa8aaa9bbf9"
      ]
    },
    "titles": {
      "fre": "La vie est belle"
    },
    "titles_default_language": "fre",
    "title": "La vie est belle",
    "year": 2017
  }
}