{
  "header": {
    "description": "Karaoke Mugen Karaoke Data File",
    "version": 4
  },
  "medias": [
    {
      "version": "Default",
      "filename": "FRE - Johnny Hallyday - MV - Marie.mp4",
      "audiogain": -4.36,
      "loudnorm": "-14.71,-0.05,13.70,-25.33,-1.06",
      "filesize": 109461117,
      "duration": 241,
      "default": true,
      "lyrics": [
        {
          "filename": "FRE - Johnny Hallyday - MV - Marie.ass",
          "default": true,
          "version": "Default"
        }
      ]
    }
  ],
  "data": {
    "created_at": "2022-05-04T20:38:59.089Z",
    "kid": "77c16aa3-b91f-47ee-bc6e-ee572ba590d6",
    "modified_at": "2022-05-04T20:38:59.089Z",
    "tags": {
      "authors": [
        "90414ca0-ab36-4879-8810-b032c6bfdab0"
      ],
      "creators": [
        "438a4f9a-8573-40ed-a436-364aa3505f36",
        "f963181a-1214-47f8-b6f9-1705cbc33779"
      ],
      "families": [
        "5391f9fe-638c-415f-8dc9-958e3a2c5787"
      ],
      "groups": [
        "3c14c864-533c-49e6-a3cc-6969f1233775"
      ],
      "langs": [
        "fd8072b7-4d9b-45d4-8f5b-a931a830edef"
      ],
      "singers": [
        "7916059c-2d8a-4753-a5df-f1ae0ece7b08"
      ],
      "songtypes": [
        "7be1b15c-cff8-4b37-a649-5c90f3d569a9"
      ],
      "songwriters": [
        "92abfb00-5fa7-41a6-bad2-4768bb9bdd11"
      ],
      "collections": [
        "efe171c0-e8a1-4d03-98c0-60ecf741ad52"
      ]
    },
    "titles": {
      "fre": "Marie"
    },
    "titles_default_language": "fre",
    "titles_aliases": [],
    "title": "Marie",
    "year": "2002",
    "repository": "kara.moe"
  }
}