{
  "header": {
    "version": 4,
    "description": "Karaoke Mugen Karaoke Data File"
  },
  "medias": [
    {
      "version": "Default",
      "filename": "FRE - Manau - MV - Mais qui est la belette question_mark.mp4",
      "audiogain": -6.17,
      "loudnorm": "-12.52,0.34,7.10,-22.85,-1.15",
      "filesize": 32574813,
      "duration": 240,
      "default": true,
      "lyrics": [
        {
          "filename": "FRE - Manau - MV - Mais qui est la belette question_mark.ass",
          "default": true,
          "version": "Default",
          "subchecksum": "5ef6b3c4fcdeea432a3235797cb4cb17"
        }
      ]
    }
  ],
  "data": {
    "created_at": "2020-07-04T22:31:03.669Z",
    "kid": "da24e4fa-2585-4fa2-a867-c11a30ab9e9a",
    "modified_at": "2021-02-25T14:52:19.427Z",
    "repository": "kara.moe",
    "tags": {
      "authors": [
        "ff1c291a-2b0c-43b4-8c49-494366e479cc"
      ],
      "collections": [
        "efe171c0-e8a1-4d03-98c0-60ecf741ad52"
      ],
      "creators": [
        "ee954a78-2b37-4071-b094-f9945d846d63"
      ],
      "families": [
        "5391f9fe-638c-415f-8dc9-958e3a2c5787"
      ],
      "groups": [
        "24db50aa-a126-4d34-a48a-e45db79c4245"
      ],
      "langs": [
        "fd8072b7-4d9b-45d4-8f5b-a931a830edef"
      ],
      "singers": [
        "59c10b98-b711-474a-a291-ce3e3c488297"
      ],
      "songtypes": [
        "7be1b15c-cff8-4b37-a649-5c90f3d569a9"
      ],
      "songwriters": [
        "0d506743-bf74-46c0-8611-0901e4602331",
        "5f69f296-f2f7-434a-8e7d-ccccf7bc56ff",
        "e7bbbe7e-57f2-4a7a-91e7-1b1d9905d966"
      ]
    },
    "title": "Mais qui est la belette ?",
    "titles": {
      "eng": "Mais qui est la belette ?"
    },
    "year": 1998
  }
}