{
  "header": {
    "version": 4,
    "description": "Karaoke Mugen Karaoke Data File"
  },
  "medias": [
    {
      "version": "Default",
      "filename": "FRE - Fatal Bazooka, Yelle - MV - Parle a ma main.mp4",
      "audiogain": 1.04,
      "loudnorm": "-20.33,-6.25,6.10,-30.42,-1.28",
      "filesize": 176635331,
      "duration": 316,
      "default": true,
      "lyrics": [
        {
          "filename": "FRE - Fatal Bazooka, Yelle - MV - Parle a ma main.ass",
          "default": true,
          "version": "Default"
        }
      ]
    }
  ],
  "data": {
    "created_at": "2020-07-03T22:02:28.079Z",
    "kid": "01ab5212-6436-448a-aa4e-634bb1a0ab1f",
    "modified_at": "2022-05-05T14:48:31.155Z",
    "repository": "kara.moe",
    "songorder": null,
    "tags": {
      "authors": [
        "3d9534f0-8e1b-45f9-8424-a3b8f1b66ac0"
      ],
      "creators": [
        "bd43efab-3cf4-4b4b-8888-dda16ecd0e04"
      ],
      "families": [
        "5391f9fe-638c-415f-8dc9-958e3a2c5787"
      ],
      "groups": [
        "3c14c864-533c-49e6-a3cc-6969f1233775"
      ],
      "langs": [
        "fd8072b7-4d9b-45d4-8f5b-a931a830edef"
      ],
      "misc": [
        "86705d4b-24e4-4756-9687-2b9c98bcf366"
      ],
      "singers": [
        "0bc5099a-b09c-47c7-a019-5937fa99420b",
        "a3d8945b-b0c9-44ee-9f10-65d1538eaf13"
      ],
      "songtypes": [
        "7be1b15c-cff8-4b37-a649-5c90f3d569a9"
      ],
      "songwriters": [
        "7a6bf717-4b76-48a2-9e9c-8a9bf382da31",
        "a5a3c6cd-0219-48bc-b58e-fd992d7fc2f4",
        "ad13b3e2-d5a7-4dcd-8f44-d32a61a18615",
        "b9a69549-2cfe-4225-88b9-be6c6e3d8a55",
        "c95d9efb-6f6b-45e9-8716-781ed2a42e9d"
      ],
      "collections": [
        "efe171c0-e8a1-4d03-98c0-60ecf741ad52"
      ]
    },
    "titles": {
      "eng": "Parle à ma main"
    },
    "titles_default_language": "eng",
    "title": "Parle à ma main",
    "year": 2007
  }
}