{
  "header": {
    "version": 4,
    "description": "Karaoke Mugen Karaoke Data File"
  },
  "medias": [
    {
      "version": "Default",
      "filename": "FRE - JamFiction - MV1 - Bowsette.mp4",
      "audiogain": -10.3,
      "loudnorm": "-6.66,2.58,7.80,-17.02,-1.40",
      "filesize": 78793328,
      "duration": 225,
      "default": true,
      "lyrics": [
        {
          "filename": "FRE - JamFiction - MV1 - Bowsette.ass",
          "default": true,
          "version": "Default"
        }
      ]
    }
  ],
  "data": {
    "created_at": "2019-04-14T07:50:47.000Z",
    "ignoreHooks": false,
    "kid": "631f2fc9-228d-4140-9225-d52dcddd6232",
    "modified_at": "2022-12-17T21:14:13.597Z",
    "repository": "kara.moe",
    "songorder": 1,
    "tags": {
      "authors": [
        "6b38e6cc-bc88-4cf5-9bfc-a46c03435bab"
      ],
      "collections": [
        "c7db86a0-ff64-4044-9be4-66dd1ef1d1c1"
      ],
      "creators": [
        "53fe15a9-f0f7-402d-8c9f-00cedc66cda1"
      ],
      "families": [
        "0377db02-3af6-43b8-9b08-c759df3d25c3"
      ],
      "groups": [
        "ae613721-1fbe-480d-ba6b-d6d0702b184d"
      ],
      "langs": [
        "fd8072b7-4d9b-45d4-8f5b-a931a830edef"
      ],
      "origins": [
        "ac5085db-52d8-44b4-8fbb-1697b24d2046"
      ],
      "series": [
        "c511d5d9-9ba9-40b7-96fc-abc34a0f21b6"
      ],
      "singers": [
        "42f4474a-b1c4-4ba0-b839-bd3006ac4e46"
      ],
      "songtypes": [
        "7be1b15c-cff8-4b37-a649-5c90f3d569a9"
      ],
      "songwriters": [
        "654cb316-a346-4467-a887-ed76886e9a4b",
        "3ba5ae0c-dd33-46bb-bb8e-a8db94eb68b5"
      ]
    },
    "titles": {
      "eng": "Bowsette"
    },
    "titles_default_language": "eng",
    "year": 2018
  }
}