{
  "header": {
    "version": 4,
    "description": "Karaoke Mugen Karaoke Data File"
  },
  "medias": [
    {
      "version": "Default",
      "filename": "FRE - Alizee - MV - Moi... Lolita.mp4",
      "audiogain": -8.28,
      "loudnorm": "-8.68,2.47,4.50,-18.73,-1.18",
      "filesize": 124532682,
      "duration": 266,
      "default": true,
      "lyrics": [
        {
          "filename": "FRE - Alizee - MV - Moi... Lolita.ass",
          "default": true,
          "version": "Default"
        }
      ]
    }
  ],
  "data": {
    "created_at": "2022-03-20T14:58:15.745Z",
    "ignoreHooks": false,
    "kid": "00e450d8-cfcf-4f1c-88d0-e88241490ee8",
    "modified_at": "2022-03-20T14:58:15.745Z",
    "repository": "kara.moe",
    "tags": {
      "authors": [
        "70e26885-c0b5-4a01-b95b-2f492b8a8f10"
      ],
      "collections": [
        "efe171c0-e8a1-4d03-98c0-60ecf741ad52"
      ],
      "creators": [
        "ee954a78-2b37-4071-b094-f9945d846d63",
        "f963181a-1214-47f8-b6f9-1705cbc33779"
      ],
      "families": [
        "5391f9fe-638c-415f-8dc9-958e3a2c5787"
      ],
      "groups": [
        "3c14c864-533c-49e6-a3cc-6969f1233775"
      ],
      "langs": [
        "fd8072b7-4d9b-45d4-8f5b-a931a830edef"
      ],
      "singers": [
        "27842684-2019-4970-9173-2800a402e4e3"
      ],
      "songtypes": [
        "7be1b15c-cff8-4b37-a649-5c90f3d569a9"
      ],
      "songwriters": [
        "4ca0a78e-b9e3-4351-8529-05f5bc0236cd",
        "5061702c-7eb5-446c-965f-8eb42e58981a"
      ]
    },
    "titles": {
      "fre": "Moi... Lolita",
      "eng": "Moi... Lolita"
    },
    "title": "Moi... Lolita",
    "year": 2000
  }
}