{
  "header": {
    "version": 4,
    "description": "Karaoke Mugen Karaoke Data File"
  },
  "medias": [
    {
      "version": "Default",
      "filename": "FRE - Hugues Aufray - LIVE - Santiano ~ Full Vers.mp4",
      "audiogain": -3.84,
      "loudnorm": "-12.39,0.11,4.70,-22.41,-1.24",
      "filesize": 124353428,
      "duration": 211,
      "default": true,
      "lyrics": [
        {
          "filename": "FRE - Hugues Aufray - LIVE - Santiano ~ Full Vers.ass",
          "default": true,
          "version": "Default"
        }
      ]
    }
  ],
  "data": {
    "created_at": "2022-05-03T21:17:28.813Z",
    "ignoreHooks": false,
    "kid": "4019ccdc-2c2c-4435-bddf-f958c02ecade",
    "modified_at": "2022-12-21T22:36:31.786Z",
    "repository": "kara.moe",
    "tags": {
      "authors": [
        "90414ca0-ab36-4879-8810-b032c6bfdab0"
      ],
      "collections": [
        "efe171c0-e8a1-4d03-98c0-60ecf741ad52"
      ],
      "creators": [
        "dee008b3-9388-4984-89a0-08935ecddc0d"
      ],
      "families": [
        "5391f9fe-638c-415f-8dc9-958e3a2c5787"
      ],
      "groups": [
        "24db50aa-a126-4d34-a48a-e45db79c4245"
      ],
      "langs": [
        "fd8072b7-4d9b-45d4-8f5b-a931a830edef"
      ],
      "singers": [
        "9c5f5745-a74b-422d-91f2-2a2720835ab0"
      ],
      "songtypes": [
        "a0167949-580c-4de3-bf13-497e462e02f3"
      ],
      "songwriters": [
        "2fb632ec-fdbf-4500-8e92-78996312d601",
        "e3325afd-b71c-41c6-8d84-ee94528676d7"
      ],
      "versions": [
        "c2143a7f-6970-450e-8a79-0302db9220a9"
      ]
    },
    "titles": {
      "fre": "Santiano"
    },
    "titles_default_language": "fre",
    "year": 1991
  }
}