{
  "header": {
    "version": 4,
    "description": "Karaoke Mugen Karaoke Data File"
  },
  "medias": [
    {
      "version": "Default",
      "filename": "FRE - Pocket Monsters - OP - Theme Pokemon.mp4",
      "audiogain": -1.93,
      "loudnorm": "-14.90,-3.15,3.50,-25.04,-1.10",
      "filesize": 51837997,
      "duration": 60,
      "default": true,
      "lyrics": [
        {
          "filename": "FRE - Pocket Monsters - OP - Theme Pokemon.ass",
          "default": true,
          "version": "Default"
        }
      ]
    }
  ],
  "data": {
    "created_at": "2017-10-11T17:00:54.000Z",
    "ignoreHooks": false,
    "kid": "edc42455-dd7e-42a9-b51c-3bd90f3c9de2",
    "modified_at": "2022-12-11T12:48:20.911Z",
    "repository": "kara.moe",
    "tags": {
      "authors": [
        "1df04771-a378-4f14-a5e1-1455187d681a"
      ],
      "collections": [
        "c7db86a0-ff64-4044-9be4-66dd1ef1d1c1"
      ],
      "creators": [
        "03fe574b-c7f5-4520-96dc-47320c39e2cc"
      ],
      "families": [
        "0377db02-3af6-43b8-9b08-c759df3d25c3"
      ],
      "genres": [
        "a0aeef4a-6428-45ff-a6e1-468b595930c2"
      ],
      "groups": [
        "24db50aa-a126-4d34-a48a-e45db79c4245",
        "f5e7d2fc-0cbb-4fb9-a84a-b25dfb0e9e77"
      ],
      "langs": [
        "fd8072b7-4d9b-45d4-8f5b-a931a830edef"
      ],
      "origins": [
        "938de218-5343-4865-94d3-fb33f2eaa152"
      ],
      "series": [
        "cc1f8e40-71a2-4097-9bcf-7132b4b19ef7"
      ],
      "singers": [
        "c4e59998-59f2-4d4f-aa7f-177b05889c49"
      ],
      "songtypes": [
        "f02ad9b3-0bd9-4aad-85b3-9976739ba0e4"
      ],
      "songwriters": [
        "44480ade-a18d-4ad3-996a-db3535859c33",
        "6bf7b8ae-6ea3-4ba4-b0d1-5fcacb67e56e",
        "a372bd40-7a4f-47d1-af15-0d97760a45ec",
        "c691f372-ef5c-4327-b91d-038099be0159"
      ],
      "franchises": [
        "c6923c03-f8c0-4258-a478-8dfa08f3ccd0"
      ]
    },
    "titles": {
      "eng": "Pokémon Theme",
      "fre": "Thème Pokémon"
    },
    "titles_default_language": "fre",
    "year": 1999
  }
}