{
  "header": {
    "version": 4,
    "description": "Karaoke Mugen Karaoke Data File"
  },
  "medias": [
    {
      "version": "Default",
      "filename": "IND - Kobo Kanaeru - MV - Oh! Asmara.mp4",
      "audiogain": -7.29,
      "loudnorm": "-9.04,1.02,4.10,-19.22,-0.25",
      "filesize": 82121286,
      "duration": 247,
      "default": true,
      "lyrics": [
        {
          "filename": "IND - Kobo Kanaeru - MV - Oh! Asmara.ass",
          "default": true,
          "version": "Default"
        }
      ]
    }
  ],
  "data": {
    "created_at": "2023-04-10T15:26:25.455Z",
    "ignoreHooks": false,
    "kid": "6db45163-45c5-4005-ad5f-2aa9d56148fe",
    "modified_at": "2023-04-10T15:26:26.687Z",
    "repository": "kara.moe",
    "tags": {
      "authors": [
        "4b50fcec-273e-4cc5-83f2-b156c2300f7f"
      ],
      "collections": [
        "c7db86a0-ff64-4044-9be4-66dd1ef1d1c1"
      ],
      "creators": [
        "0263d413-17bb-4cee-a311-6dd896eda1c9"
      ],
      "langs": [
        "f7ec4ec8-e091-4f54-8f7c-ddf5d70fd458"
      ],
      "origins": [
        "5106d71b-a78e-4d19-a16d-f8fb6719538a"
      ],
      "singers": [
        "6e7be716-e468-4993-ace1-141cf3f8ca60"
      ],
      "songtypes": [
        "7be1b15c-cff8-4b37-a649-5c90f3d569a9"
      ],
      "songwriters": [
        "2c2ce177-5fb0-4eaa-873f-273719e4a3bb",
        "6e7be716-e468-4993-ace1-141cf3f8ca60"
      ],
      "groups": [
        "8e209ae4-4381-438f-89dc-1b21752027d2"
      ]
    },
    "titles": {
      "ind": "Oh! Asmara"
    },
    "titles_default_language": "ind",
    "year": 2023
  }
}