{
  "header": {
    "version": 4,
    "description": "Karaoke Mugen Karaoke Data File"
  },
  "medias": [
    {
      "version": "Default",
      "filename": "JPN - Mushoku Tensei Isekai Ittara Honki Dasu - AUDIO OP2 - Mezame no Uta ~ Full Vers.mp3",
      "audiogain": -9.02,
      "loudnorm": "-7.56,0.22,5.10,-17.85,-0.63",
      "filesize": 11561158,
      "duration": 283,
      "default": true,
      "lyrics": [
        {
          "filename": "JPN - Mushoku Tensei Isekai Ittara Honki Dasu - AUDIO OP2 - Mezame no Uta ~ Full Vers.ass",
          "default": true,
          "version": "Default"
        }
      ]
    }
  ],
  "data": {
    "created_at": "2023-06-09T03:00:05.177Z",
    "ignoreHooks": false,
    "kid": "66c3abd3-6110-40bc-a90f-66c521701c55",
    "modified_at": "2023-06-09T03:00:05.268Z",
    "parents": [
      "9c684453-68d9-448a-a25a-d515bfb8c953"
    ],
    "repository": "kara.moe",
    "songorder": 2,
    "tags": {
      "authors": [
        "56b54c89-86ae-4635-992f-ddc1234b8015",
        "7848b5dc-a5df-4577-b640-147be5288cec"
      ],
      "collections": [
        "dbcf2c22-524d-4708-99bb-601703633927"
      ],
      "creators": [
        "85a2cf91-86c2-4045-9d95-9e6152306c98"
      ],
      "families": [
        "0377db02-3af6-43b8-9b08-c759df3d25c3"
      ],
      "genres": [
        "4b80eca6-f44f-4262-a8d0-b6879d6b70cb"
      ],
      "groups": [
        "8e209ae4-4381-438f-89dc-1b21752027d2",
        "8c22c899-b3ed-42da-a548-ce00f950798b"
      ],
      "langs": [
        "4dcf9614-7914-42aa-99f4-dbce2e059133"
      ],
      "origins": [
        "938de218-5343-4865-94d3-fb33f2eaa152"
      ],
      "series": [
        "4005ebb8-68ea-4891-9f24-98effbb70e08"
      ],
      "singers": [
        "03f0a7d4-9570-4be0-910a-e0f03faa32c0"
      ],
      "songtypes": [
        "f02ad9b3-0bd9-4aad-85b3-9976739ba0e4",
        "42a262ae-acba-4ab5-a446-c5789c96c821"
      ],
      "songwriters": [
        "03f0a7d4-9570-4be0-910a-e0f03faa32c0",
        "8ece8508-3609-4ec3-9b7f-08117b9cc2f0"
      ],
      "versions": [
        "c2143a7f-6970-450e-8a79-0302db9220a9"
      ]
    },
    "titles": {
      "jpn": "目覚めの唄",
      "qro": "Mezame no Uta"
    },
    "titles_default_language": "qro",
    "year": 2021
  }
}