{
  "header": {
    "version": 4,
    "description": "Karaoke Mugen Karaoke Data File"
  },
  "medias": [
    {
      "version": "Default",
      "filename": "JPN - A.I.C.O. Incarnation - ONA OP - A.I.C.O.mp4",
      "audiogain": 2.08,
      "loudnorm": "-19.28,-8.88,5.80,-29.36,-1.24",
      "filesize": 66316267,
      "duration": 90,
      "default": true,
      "lyrics": [
        {
          "filename": "JPN - A.I.C.O. Incarnation - ONA OP - A.I.C.O.ass",
          "default": true,
          "version": "Default",
          "subchecksum": "3700470750dddc9af4206eaf3f81efc0"
        }
      ]
    }
  ],
  "data": {
    "created_at": "2019-09-08T16:44:33.000Z",
    "kid": "d4cb8a28-808a-47aa-af29-0ca9a7be4149",
    "modified_at": "2021-02-25T10:35:26.937Z",
    "repository": "kara.moe",
    "tags": {
      "authors": [
        "56b54c89-86ae-4635-992f-ddc1234b8015"
      ],
      "collections": [
        "c7db86a0-ff64-4044-9be4-66dd1ef1d1c1"
      ],
      "creators": [
        "57ffcdd9-7e4f-4971-85ce-0fb3aa8151ac"
      ],
      "families": [
        "0377db02-3af6-43b8-9b08-c759df3d25c3"
      ],
      "groups": [
        "8c22c899-b3ed-42da-a548-ce00f950798b",
        "ae613721-1fbe-480d-ba6b-d6d0702b184d"
      ],
      "langs": [
        "4dcf9614-7914-42aa-99f4-dbce2e059133"
      ],
      "misc": [
        "fe819ff1-9db8-4a0f-85dc-0e322c9126c4"
      ],
      "origins": [
        "8db3e098-06ef-45e5-bba9-cb04a21c1e66"
      ],
      "series": [
        "6fc393e4-4ee0-4a6c-9e10-09c04b66c890"
      ],
      "singers": [
        "61c5e3d4-6a0e-46b6-b622-06f5bc6d3294"
      ],
      "songtypes": [
        "f02ad9b3-0bd9-4aad-85b3-9976739ba0e4"
      ],
      "songwriters": [
        "25792642-7da1-4014-aa17-c0365b2d49fd",
        "7e72484d-b638-4d9a-95f2-5947c59d721b"
      ]
    },
    "title": "A.I.C.O.",
    "titles": {
      "eng": "A.I.C.O."
    },
    "year": 2018,
    "titles_default_language": "eng"
  }
}