{
  "header": {
    "version": 4,
    "description": "Karaoke Mugen Karaoke Data File"
  },
  "medias": [
    {
      "version": "Default",
      "filename": "JPN - Toradora! - OP1 - Pre-Parade.mp4",
      "audiogain": 2.29,
      "loudnorm": "-19.56,-5.53,3.60,-29.72,-1.00",
      "filesize": 32348916,
      "duration": 92,
      "default": true,
      "lyrics": [
        {
          "filename": "JPN - Toradora! - OP1 - Pre-Parade.ass",
          "default": true,
          "version": "Default",
          "subchecksum": "3b7d049b196281ac43f72cba0947a481"
        }
      ]
    }
  ],
  "data": {
    "created_at": "2017-10-11T17:03:05.000Z",
    "kid": "b0dab77e-13ad-4f94-867a-9874c775d826",
    "modified_at": "2021-02-25T13:26:32.559Z",
    "repository": "kara.moe",
    "songorder": 1,
    "tags": {
      "authors": [
        "5bdaba57-27f8-4568-8806-76a807728766"
      ],
      "collections": [
        "c7db86a0-ff64-4044-9be4-66dd1ef1d1c1"
      ],
      "creators": [
        "802a8ac8-b16f-40a4-944b-99956798c906"
      ],
      "families": [
        "0377db02-3af6-43b8-9b08-c759df3d25c3"
      ],
      "groups": [
        "3c14c864-533c-49e6-a3cc-6969f1233775"
      ],
      "langs": [
        "4dcf9614-7914-42aa-99f4-dbce2e059133"
      ],
      "origins": [
        "938de218-5343-4865-94d3-fb33f2eaa152"
      ],
      "series": [
        "b0179770-b4ea-468c-82b5-09e4bfb57f08"
      ],
      "singers": [
        "4d3d3977-6aa4-47ee-b216-a2955a5f60b9",
        "9fcbf4f4-a7aa-49eb-b5ec-4bda64c16c93",
        "a6042b25-be94-49bf-ab1b-1ba48a565df3"
      ],
      "songtypes": [
        "f02ad9b3-0bd9-4aad-85b3-9976739ba0e4"
      ],
      "songwriters": [
        "e3aca029-c16e-4507-b0b8-04db599cc83c",
        "ea588853-04c1-495d-a011-59eb3e7d7726"
      ]
    },
    "title": "Pre-Parade",
    "titles": {
      "eng": "Pre-Parade",
      "jpn": "プレパレード"
    },
    "year": 2008,
    "titles_default_language": "eng"
  }
}