{
  "header": {
    "version": 4,
    "description": "Karaoke Mugen Karaoke Data File"
  },
  "medias": [
    {
      "version": "Default",
      "filename": "JPN - Lupin III Walther P-38 - SPECIAL AUDIO ED - Hitomi wo Wasurenaide.mp3",
      "audiogain": -6.78,
      "loudnorm": "-12.27,-0.92,7.10,-22.43,-0.96",
      "filesize": 4525154,
      "duration": 191,
      "default": true,
      "lyrics": [
        {
          "filename": "JPN - Lupin III Walther P-38 - SPECIAL AUDIO ED - Hitomi wo Wasurenaide.ass",
          "default": true,
          "version": "Default",
          "subchecksum": "a18915047b76df2a2578db46b45d6e5a"
        }
      ]
    }
  ],
  "data": {
    "created_at": "2020-06-26T10:29:00.302Z",
    "kid": "b03ad9f8-30b8-4925-a41b-9eba79f4c1ea",
    "modified_at": "2021-02-25T12:15:42.353Z",
    "repository": "kara.moe",
    "tags": {
      "authors": [
        "5cb3d0c5-479e-4224-b6ec-b27209e933a0"
      ],
      "collections": [
        "c7db86a0-ff64-4044-9be4-66dd1ef1d1c1"
      ],
      "genres": [
        "a0aeef4a-6428-45ff-a6e1-468b595930c2"
      ],
      "groups": [
        "24db50aa-a126-4d34-a48a-e45db79c4245",
        "60defa7b-774e-4680-8321-51b742c2e009"
      ],
      "langs": [
        "4dcf9614-7914-42aa-99f4-dbce2e059133"
      ],
      "origins": [
        "65f74288-49a5-47b0-82f5-8cd84d1e3dc0"
      ],
      "series": [
        "bf84f4a0-34b8-4dcb-b64e-007caecfa08a"
      ],
      "singers": [
        "b92ee9db-d974-49fe-9d58-1471f2948702"
      ],
      "songtypes": [
        "38c77c56-2b95-4040-b676-0994a8cb0597",
        "42a262ae-acba-4ab5-a446-c5789c96c821"
      ],
      "songwriters": [
        "bd94fe6d-88db-4aa5-8234-2a56e517c7b6"
      ],
      "franchises": [
        "561e6fe6-d886-4eec-881d-fdc9d1504942"
      ]
    },
    "title": "Hitomi wo Wasurenaide",
    "titles": {
      "qro": "Hitomi wo Wasurenaide",
      "jpn": "瞳を忘れないで"
    },
    "year": 1997,
    "titles_default_language": "qro"
  }
}