{
  "header": {
    "version": 4,
    "description": "Karaoke Mugen Karaoke Data File"
  },
  "medias": [
    {
      "version": "Default",
      "filename": "JPN - Touhou - REMIX MV - Absolute One-Way Street.mp4",
      "audiogain": -9.9,
      "loudnorm": "-6.97,1.07,11.70,-17.48,-1.65",
      "filesize": 61147659,
      "duration": 361,
      "default": true,
      "lyrics": [
        {
          "filename": "JPN - Touhou - REMIX MV - Absolute One-Way Street.ass",
          "default": true,
          "version": "Default"
        }
      ]
    }
  ],
  "data": {
    "created_at": "2022-09-18T17:10:03.266Z",
    "ignoreHooks": false,
    "kid": "3e91efcb-f83a-4f38-aa5e-dff888acb2e7",
    "modified_at": "2023-05-09T20:26:52.765Z",
    "repository": "kara.moe",
    "tags": {
      "authors": [
        "1fbfef73-6731-40df-ba51-65a54b9d1605"
      ],
      "collections": [
        "c7db86a0-ff64-4044-9be4-66dd1ef1d1c1"
      ],
      "creators": [
        "551690a1-6c76-4376-a64c-8bbef223a304"
      ],
      "families": [
        "0377db02-3af6-43b8-9b08-c759df3d25c3"
      ],
      "groups": [
        "ae613721-1fbe-480d-ba6b-d6d0702b184d"
      ],
      "langs": [
        "4dcf9614-7914-42aa-99f4-dbce2e059133"
      ],
      "misc": [
        "86705d4b-24e4-4756-9687-2b9c98bcf366",
        "ec4360fa-3e3c-4f6f-b0e1-fb8b12b6dd18"
      ],
      "origins": [
        "ac5085db-52d8-44b4-8fbb-1697b24d2046"
      ],
      "series": [
        "1bdaa5a1-dfa6-4365-b746-7a0b194dafd6"
      ],
      "singers": [
        "d08d5ec3-0d71-4d8d-97de-0a2432b331bd"
      ],
      "singergroups": [
        "551690a1-6c76-4376-a64c-8bbef223a304"
      ],
      "songtypes": [
        "7be1b15c-cff8-4b37-a649-5c90f3d569a9"
      ],
      "songwriters": [
        "26cb5252-8510-49e0-897c-a611a05fc056",
        "e25b1955-f5a7-44af-9fa4-544c7dadf3ac"
      ],
      "franchises": [
        "1bdaa5a1-dfa6-4365-b746-7a0b194dafd6"
      ]
    },
    "titles": {
      "eng": "Absolute One-Way Street",
      "jpn": "絶対的一方通行",
      "qro": "Zettaiteki Ippoutsuukou"
    },
    "titles_default_language": "eng",
    "year": 2013
  }
}