{
  "header": {
    "version": 4,
    "description": "Karaoke Mugen Karaoke Data File"
  },
  "medias": [
    {
      "version": "Default",
      "filename": "JPN - Banana Fish - ED1 - Prayer X.mp4",
      "audiogain": 6.65,
      "loudnorm": "-24.11,-10.43,5.20,-34.20,-1.37",
      "filesize": 49016353,
      "duration": 88,
      "default": true,
      "lyrics": [
        {
          "filename": "JPN - Banana Fish - ED1 - Prayer X.ass",
          "default": true,
          "version": "Default",
          "subchecksum": "2b7518cc8bf35a15391edee9e7bb0052"
        }
      ]
    }
  ],
  "data": {
    "created_at": "2018-07-18T19:52:17.000Z",
    "kid": "7a0afe45-90ca-4ad5-b896-9460cf92df6f",
    "modified_at": "2021-02-25T10:50:19.289Z",
    "repository": "kara.moe",
    "songorder": 1,
    "tags": {
      "authors": [
        "2a9bbf75-0722-4b4a-9935-caa92f38fdd1"
      ],
      "collections": [
        "c7db86a0-ff64-4044-9be4-66dd1ef1d1c1"
      ],
      "creators": [
        "0a86e9ea-5e17-4371-8f2a-60c818324d58"
      ],
      "families": [
        "0377db02-3af6-43b8-9b08-c759df3d25c3"
      ],
      "groups": [
        "33881a14-788e-4e2a-a97d-1e5f51542a26",
        "9a8e0fbc-dcae-4989-be82-7cad3436f1f5",
        "ae613721-1fbe-480d-ba6b-d6d0702b184d",
        "f53332f8-daed-4ac5-97c9-64239b520db0"
      ],
      "langs": [
        "4dcf9614-7914-42aa-99f4-dbce2e059133"
      ],
      "origins": [
        "938de218-5343-4865-94d3-fb33f2eaa152"
      ],
      "series": [
        "2e5d7ae7-89a0-4108-9787-1fbf98e82aa8"
      ],
      "singers": [
        "0a7237a8-5da5-4b94-9c57-c79f73435105"
      ],
      "songtypes": [
        "38c77c56-2b95-4040-b676-0994a8cb0597"
      ],
      "songwriters": [
        "0a7237a8-5da5-4b94-9c57-c79f73435105",
        "13c1ef7a-0b82-4f0e-9ebb-0aef854fcc59"
      ]
    },
    "title": "Prayer X",
    "titles": {
      "eng": "Prayer X"
    },
    "year": 2018,
    "titles_default_language": "eng"
  }
}