{
  "header": {
    "version": 4,
    "description": "Karaoke Mugen Karaoke Data File"
  },
  "medias": [
    {
      "version": "Default",
      "filename": "JPN - BABYMETAL - MV - Gimme chocolate!!.mp4",
      "audiogain": -10.64,
      "loudnorm": "-5.98,3.06,1.80,-16.17,-0.57",
      "filesize": 60092081,
      "duration": 243,
      "default": true,
      "lyrics": [
        {
          "filename": "JPN - BABYMETAL - MV - Gimme chocolate!!.ass",
          "default": true,
          "version": "Default"
        }
      ]
    }
  ],
  "data": {
    "created_at": "2019-07-21T17:10:04.000Z",
    "ignoreHooks": false,
    "kid": "14bcf044-4375-4db3-afa9-b3dec1e74f01",
    "modified_at": "2023-04-08T13:11:17.816Z",
    "repository": "kara.moe",
    "tags": {
      "authors": [
        "26424990-dd9d-4ad6-b692-475a5e34bd48"
      ],
      "collections": [
        "dbcf2c22-524d-4708-99bb-601703633927"
      ],
      "creators": [
        "6b7472ff-6bb9-4420-8a59-a322b9677779"
      ],
      "families": [
        "5391f9fe-638c-415f-8dc9-958e3a2c5787"
      ],
      "groups": [
        "2b4e9972-5e17-481b-99f5-d0787c0ada56",
        "ae613721-1fbe-480d-ba6b-d6d0702b184d"
      ],
      "langs": [
        "4dcf9614-7914-42aa-99f4-dbce2e059133"
      ],
      "singergroups": [
        "e95f8edf-36e0-401f-8a73-dad70086a7eb"
      ],
      "songtypes": [
        "7be1b15c-cff8-4b37-a649-5c90f3d569a9"
      ],
      "songwriters": [
        "72001607-6c69-4609-bdfd-84aa0e21f3b9",
        "750591c1-f6c0-4eb1-9918-1b976307f2c9"
      ],
      "warnings": [
        "51288600-29e0-4e41-a42b-77f0498e5691"
      ]
    },
    "titles": {
      "eng": "Gimme chocolate!!",
      "jpn": "ギミチョコ!!"
    },
    "titles_default_language": "eng",
    "year": 2014
  }
}