{
  "header": {
    "version": 4,
    "description": "Karaoke Mugen Karaoke Data File"
  },
  "medias": [
    {
      "version": "Default",
      "filename": "JPN - Trouble Chocolate - OP - C.H.O.C.O.mp4",
      "audiogain": 5.61,
      "loudnorm": "-24.06,-7.28,3.60,-34.19,-0.67",
      "filesize": 14094034,
      "duration": 89,
      "default": true,
      "lyrics": [
        {
          "filename": "JPN - Trouble Chocolate - OP - C.H.O.C.O.ass",
          "default": true,
          "version": "Default"
        }
      ]
    }
  ],
  "data": {
    "created_at": "2017-10-11T17:02:50.000Z",
    "ignoreHooks": false,
    "kid": "fe640061-8989-4f66-82d0-1224fbc92128",
    "modified_at": "2022-10-08T17:52:24.899Z",
    "repository": "kara.moe",
    "tags": {
      "authors": [
        "5bdaba57-27f8-4568-8806-76a807728766"
      ],
      "collections": [
        "c7db86a0-ff64-4044-9be4-66dd1ef1d1c1"
      ],
      "creators": [
        "d4f12628-2031-48c0-b2c7-7c07aaf8af94"
      ],
      "families": [
        "0377db02-3af6-43b8-9b08-c759df3d25c3"
      ],
      "groups": [
        "24db50aa-a126-4d34-a48a-e45db79c4245"
      ],
      "langs": [
        "4dcf9614-7914-42aa-99f4-dbce2e059133"
      ],
      "origins": [
        "938de218-5343-4865-94d3-fb33f2eaa152"
      ],
      "series": [
        "853ec87f-1142-4d5f-9661-496aa127730d"
      ],
      "singers": [
        "53390631-fd13-46b1-95be-9d9eed995a89",
        "ac3f1e80-b3b5-4d62-8b6c-5f62b5896f27"
      ],
      "songtypes": [
        "f02ad9b3-0bd9-4aad-85b3-9976739ba0e4"
      ],
      "songwriters": [
        "9eab9fdd-35e0-485b-91b6-970f8b4ee425"
      ]
    },
    "titles": {
      "eng": "C.H.O.C.O"
    },
    "titles_default_language": "eng",
    "titles_aliases": [
      "CHOCO"
    ],
    "title": "C.H.O.C.O",
    "year": 1999
  }
}