{
  "header": {
    "version": 4,
    "description": "Karaoke Mugen Karaoke Data File"
  },
  "medias": [
    {
      "version": "Default",
      "filename": "JPN - Rikei ga Koi ni Ochita no de Shoumei shitemita. r=1-sin0 (Heart) - MV - Bibitto Love ~ Full Vers.mp4",
      "audiogain": -11.72,
      "loudnorm": "-5.55,1.59,2.70,-15.63,-0.12",
      "filesize": 73363722,
      "duration": 235,
      "default": true,
      "lyrics": [
        {
          "filename": "JPN - Rikei ga Koi ni Ochita no de Shoumei shitemita. r=1-sin0 (Heart) - MV - Bibitto Love ~ Full Vers.ass",
          "default": true,
          "version": "Default"
        }
      ]
    }
  ],
  "data": {
    "created_at": "2022-05-15T17:41:34.700Z",
    "ignoreHooks": false,
    "kid": "40dc6bec-da25-4e8e-a1fc-5a147887a5af",
    "modified_at": "2022-06-05T12:19:53.336Z",
    "repository": "kara.moe",
    "tags": {
      "authors": [
        "da677ad5-b5dd-4ab9-a1fe-5461e36338a2"
      ],
      "collections": [
        "c7db86a0-ff64-4044-9be4-66dd1ef1d1c1"
      ],
      "creators": [
        "88565109-6896-4c8d-8d49-16a177304152"
      ],
      "families": [
        "0377db02-3af6-43b8-9b08-c759df3d25c3"
      ],
      "groups": [
        "8e209ae4-4381-438f-89dc-1b21752027d2"
      ],
      "langs": [
        "4dcf9614-7914-42aa-99f4-dbce2e059133"
      ],
      "origins": [
        "938de218-5343-4865-94d3-fb33f2eaa152"
      ],
      "series": [
        "155af76f-b491-45d6-88b8-d28488629b6f"
      ],
      "singers": [
        "60705f2e-e3d4-46a2-a9ce-c641ccddf822",
        "aba75c5b-5a8d-4376-896d-740d8f8847d9"
      ],
      "songtypes": [
        "7be1b15c-cff8-4b37-a649-5c90f3d569a9"
      ],
      "versions": [
        "c2143a7f-6970-450e-8a79-0302db9220a9"
      ],
      "franchises": [
        "a41c38af-b962-463a-960d-1d2628828e31"
      ]
    },
    "titles": {
      "jpn": "ビビっとラブ",
      "qro": "Bibitto Love"
    },
    "titles_default_language": "qro",
    "title": "Bibitto Love",
    "year": 2022
  }
}