{
  "header": {
    "version": 4,
    "description": "Karaoke Mugen Karaoke Data File"
  },
  "medias": [
    {
      "version": "Default",
      "filename": "JPN - Chainsaw Man - MV - first death ~ Full Vers.mp4",
      "audiogain": -11.55,
      "loudnorm": "-5.20,2.26,4.20,-15.24,-1.30",
      "filesize": 118350483,
      "duration": 248,
      "default": true,
      "lyrics": [
        {
          "filename": "JPN - Chainsaw Man - MV - first death ~ Full Vers.ass",
          "default": true,
          "version": "Default"
        }
      ]
    }
  ],
  "data": {
    "created_at": "2022-12-07T09:18:15.108Z",
    "ignoreHooks": false,
    "kid": "d7c5b3d2-bf0a-44fd-8e40-a1a7c24b1d67",
    "modified_at": "2022-12-07T09:18:15.265Z",
    "parents": [
      "ea15c606-9378-46b3-911c-6251052b4718"
    ],
    "repository": "kara.moe",
    "tags": {
      "authors": [
        "9cdf3b70-3550-457c-bdb9-038f3253c6ad"
      ],
      "collections": [
        "c7db86a0-ff64-4044-9be4-66dd1ef1d1c1",
        "dbcf2c22-524d-4708-99bb-601703633927"
      ],
      "creators": [
        "0a86e9ea-5e17-4371-8f2a-60c818324d58"
      ],
      "families": [
        "5391f9fe-638c-415f-8dc9-958e3a2c5787",
        "0377db02-3af6-43b8-9b08-c759df3d25c3"
      ],
      "groups": [
        "8e209ae4-4381-438f-89dc-1b21752027d2"
      ],
      "langs": [
        "4dcf9614-7914-42aa-99f4-dbce2e059133"
      ],
      "series": [
        "0223cfec-8497-42fc-a5f4-b8eb0589c014"
      ],
      "singers": [
        "a9798401-d7e6-4607-af6e-4ec3fb96cc21"
      ],
      "songtypes": [
        "7be1b15c-cff8-4b37-a649-5c90f3d569a9"
      ],
      "songwriters": [
        "a9798401-d7e6-4607-af6e-4ec3fb96cc21"
      ],
      "versions": [
        "c2143a7f-6970-450e-8a79-0302db9220a9"
      ],
      "warnings": [
        "51288600-29e0-4e41-a42b-77f0498e5691"
      ]
    },
    "titles": {
      "eng": "first death"
    },
    "titles_default_language": "eng",
    "year": 2022
  }
}