{
  "header": {
    "version": 4,
    "description": "Karaoke Mugen Karaoke Data File"
  },
  "medias": [
    {
      "version": "Default",
      "filename": "JPN - Date a Live Twin Edition Rio Reincarnation - PSV GAME OP - Key of Truth.mp4",
      "audiogain": -3.61,
      "loudnorm": "-13.76,-1.57,5.10,-23.91,-0.48",
      "filesize": 30549450,
      "duration": 88,
      "default": true,
      "lyrics": [
        {
          "filename": "JPN - Date a Live Twin Edition Rio Reincarnation - PSV GAME OP - Key of Truth.ass",
          "default": true,
          "version": "Default",
          "subchecksum": "2098e40e3798bc44cb9ef35a068d3f66"
        }
      ]
    }
  ],
  "data": {
    "created_at": "2017-10-11T17:03:01.000Z",
    "kid": "f6617a00-6bd1-4e5e-bac7-a5674d95a6af",
    "modified_at": "2021-02-25T11:07:35.355Z",
    "repository": "kara.moe",
    "tags": {
      "authors": [
        "5bdaba57-27f8-4568-8806-76a807728766"
      ],
      "collections": [
        "c7db86a0-ff64-4044-9be4-66dd1ef1d1c1"
      ],
      "creators": [
        "2797c42a-c4af-49d2-8aa6-762ef0a41338",
        "5f5bbae1-0978-4afd-a115-8028c7bbfa4c"
      ],
      "groups": [
        "ae613721-1fbe-480d-ba6b-d6d0702b184d"
      ],
      "langs": [
        "4dcf9614-7914-42aa-99f4-dbce2e059133"
      ],
      "origins": [
        "2f96e82c-c61b-4413-817e-e6b247509b95",
        "dbedd6b3-d125-4cd8-aa32-c4175e4ca3a3"
      ],
      "platforms": [
        "e791f168-068f-4c05-aa36-e8d63726aa06"
      ],
      "series": [
        "00c5c10e-814d-4b4d-bb56-be8ac77ca52b"
      ],
      "singers": [
        "d1b95792-c817-41d6-b91f-9aa70736a2e5"
      ],
      "songtypes": [
        "f02ad9b3-0bd9-4aad-85b3-9976739ba0e4"
      ],
      "songwriters": [
        "4276d301-2e4f-4cc9-b9f5-69559b52643e",
        "4c5c25cb-13d9-4aa0-86a3-f60eeec39250"
      ],
      "franchises": [
        "3ca53c9d-07fe-433f-a2e9-af4b68fa14f9"
      ]
    },
    "title": "Key of Truth",
    "titles": {
      "eng": "Key of Truth"
    },
    "year": 2015,
    "titles_default_language": "eng"
  }
}