{
  "header": {
    "version": 4,
    "description": "Karaoke Mugen Karaoke Data File"
  },
  "medias": [
    {
      "version": "Default",
      "filename": "JPN - Kidou Senshi Gundam 00 2nd Season - IN - Unlimited Sky.avi",
      "audiogain": 1.71,
      "loudnorm": "-20.30,-8.26,6.10,-30.40,-1.36",
      "filesize": 26002462,
      "duration": 132,
      "default": true,
      "lyrics": [
        {
          "filename": "JPN - Kidou Senshi Gundam 00 2nd Season - IN - Unlimited Sky.ass",
          "default": true,
          "version": "Default",
          "subchecksum": "876e0e6465f74a64f32080a66dd2d797"
        }
      ]
    }
  ],
  "data": {
    "created_at": "2017-10-11T15:02:23.000Z",
    "kid": "fcea401d-08d3-423c-aee2-e4922b952341",
    "modified_at": "2021-02-25T11:59:17.387Z",
    "repository": "kara.moe",
    "tags": {
      "authors": [
        "5bdaba57-27f8-4568-8806-76a807728766"
      ],
      "collections": [
        "c7db86a0-ff64-4044-9be4-66dd1ef1d1c1"
      ],
      "creators": [
        "ef8f80e1-d244-4aea-b7f0-984d6dd4b82b"
      ],
      "families": [
        "0377db02-3af6-43b8-9b08-c759df3d25c3"
      ],
      "genres": [
        "f60ba57d-5ef4-49e0-b93b-d0dcbcff6592"
      ],
      "groups": [
        "3c14c864-533c-49e6-a3cc-6969f1233775"
      ],
      "langs": [
        "4dcf9614-7914-42aa-99f4-dbce2e059133"
      ],
      "origins": [
        "938de218-5343-4865-94d3-fb33f2eaa152"
      ],
      "series": [
        "ec6d3306-9270-4eb5-8128-19e729299317"
      ],
      "singers": [
        "8b9bd47a-ae78-46ba-80f8-fe93afc07452"
      ],
      "songtypes": [
        "5e5250d9-351a-4a82-98eb-55db50ad8962"
      ],
      "songwriters": [
        "4e3833c7-74e7-4df9-9592-d1f614da6aa6",
        "8b9bd47a-ae78-46ba-80f8-fe93afc07452"
      ],
      "franchises": [
        "e6ade589-c2e4-49a1-acdb-ea9b03e57240"
      ]
    },
    "title": "Unlimited Sky",
    "titles": {
      "eng": "Unlimited Sky"
    },
    "year": 2008,
    "titles_default_language": "eng"
  }
}