{
  "header": {
    "version": 4,
    "description": "Karaoke Mugen Karaoke Data File"
  },
  "medias": [
    {
      "version": "Default",
      "filename": "JPN - Ai Otsuka - LIVE - Sakuranbo.mp4",
      "audiogain": -8.57,
      "loudnorm": "-7.95,-0.14,2.40,-18.04,-0.99",
      "filesize": 63956351,
      "duration": 168,
      "default": true,
      "lyrics": [
        {
          "filename": "JPN - Ai Otsuka - LIVE - Sakuranbo.ass",
          "default": true,
          "version": "Default"
        }
      ]
    }
  ],
  "data": {
    "created_at": "2017-10-11T17:02:13.000Z",
    "kid": "58800cbf-d2e7-4011-b3b4-9ffb83b2edae",
    "modified_at": "2022-06-04T00:38:56.799Z",
    "parents": [
      "43e10897-f56d-459d-9b25-9b62e71d6e6e"
    ],
    "repository": "kara.moe",
    "songorder": null,
    "tags": {
      "authors": [
        "5bdaba57-27f8-4568-8806-76a807728766"
      ],
      "creators": [
        "90caf15e-bc86-46e1-8793-9af7906c8310"
      ],
      "families": [
        "5391f9fe-638c-415f-8dc9-958e3a2c5787"
      ],
      "groups": [
        "3c14c864-533c-49e6-a3cc-6969f1233775"
      ],
      "langs": [
        "4dcf9614-7914-42aa-99f4-dbce2e059133"
      ],
      "singers": [
        "7527572f-940e-471e-ad41-91600900baec"
      ],
      "songtypes": [
        "a0167949-580c-4de3-bf13-497e462e02f3"
      ],
      "songwriters": [
        "7527572f-940e-471e-ad41-91600900baec"
      ],
      "collections": [
        "dbcf2c22-524d-4708-99bb-601703633927"
      ]
    },
    "titles": {
      "qro": "Sakuranbo",
      "jpn": "さくらんぼ"
    },
    "titles_default_language": "qro",
    "title": "Sakuranbo",
    "year": 2003
  }
}