{
  "header": {
    "version": 4,
    "description": "Karaoke Mugen Karaoke Data File"
  },
  "medias": [
    {
      "version": "Default",
      "filename": "JPN - BABACORN - MV - Happiness World.mp4",
      "audiogain": -9.17,
      "loudnorm": "-7.87,1.74,3.00,-17.96,-0.45",
      "filesize": 80529843,
      "duration": 191,
      "default": true,
      "lyrics": [
        {
          "filename": "JPN - BABACORN - MV - Happiness World.ass",
          "default": true,
          "version": "Default"
        }
      ]
    }
  ],
  "data": {
    "created_at": "2023-01-13T23:04:00.475Z",
    "ignoreHooks": false,
    "kid": "a1e24d1b-938e-49b5-810d-c9aca0ed8654",
    "modified_at": "2023-01-13T23:04:07.476Z",
    "repository": "kara.moe",
    "tags": {
      "authors": [
        "4b50fcec-273e-4cc5-83f2-b156c2300f7f"
      ],
      "collections": [
        "c7db86a0-ff64-4044-9be4-66dd1ef1d1c1"
      ],
      "creators": [
        "0263d413-17bb-4cee-a311-6dd896eda1c9"
      ],
      "families": [
        "0377db02-3af6-43b8-9b08-c759df3d25c3"
      ],
      "langs": [
        "4dcf9614-7914-42aa-99f4-dbce2e059133"
      ],
      "origins": [
        "5106d71b-a78e-4d19-a16d-f8fb6719538a"
      ],
      "singers": [
        "53b39b45-1ee9-4625-83d6-642c02ca8fba",
        "77848990-54ab-4ef6-bba7-e1258fda78a5"
      ],
      "singergroups": [
        "618a1fcc-999d-4bc7-b042-552da4ce6151"
      ],
      "songtypes": [
        "7be1b15c-cff8-4b37-a649-5c90f3d569a9"
      ],
      "songwriters": [
        "6c87cdb3-8e62-4dd2-823f-e1b8329adb0c"
      ],
      "groups": [
        "8e209ae4-4381-438f-89dc-1b21752027d2"
      ]
    },
    "titles": {
      "eng": "Happiness World"
    },
    "titles_default_language": "eng",
    "year": 2022
  }
}