{
  "header": {
    "version": 4,
    "description": "Karaoke Mugen Karaoke Data File"
  },
  "medias": [
    {
      "version": "Default",
      "filename": "JPN - Zettai Kareshi Kanzen Muketsu no Koibito Robot - MV - Okaeri ~ Full Vers.mp4",
      "audiogain": -5.28,
      "loudnorm": "-12.43,-2.30,4.70,-22.86,-0.48",
      "filesize": 12743221,
      "duration": 299,
      "default": true,
      "lyrics": [
        {
          "filename": "JPN - Zettai Kareshi Kanzen Muketsu no Koibito Robot - MV - Okaeri ~ Full Vers.ass",
          "default": true,
          "version": "Default"
        }
      ]
    }
  ],
  "data": {
    "created_at": "2019-10-28T18:04:08.000Z",
    "kid": "9ce56873-a734-4b0d-85b5-0f6c8eb757d9",
    "modified_at": "2022-06-04T00:14:37.484Z",
    "parents": [
      "a51c3b55-aa7b-4dc5-bfa0-097081e2748c"
    ],
    "repository": "kara.moe",
    "songorder": null,
    "tags": {
      "authors": [
        "1db1738f-acdc-42fc-aec3-60f4bddf660d"
      ],
      "creators": [
        "424f77b6-39e2-48a2-8135-295a801bacab"
      ],
      "families": [
        "5391f9fe-638c-415f-8dc9-958e3a2c5787"
      ],
      "groups": [
        "3c14c864-533c-49e6-a3cc-6969f1233775"
      ],
      "langs": [
        "4dcf9614-7914-42aa-99f4-dbce2e059133"
      ],
      "series": [
        "871aa397-a602-4313-a453-6c40e723217b"
      ],
      "singers": [
        "77b8513e-b0ba-4bad-8ca9-408ee5ad87aa"
      ],
      "songtypes": [
        "7be1b15c-cff8-4b37-a649-5c90f3d569a9"
      ],
      "songwriters": [
        "77b8513e-b0ba-4bad-8ca9-408ee5ad87aa"
      ],
      "versions": [
        "c2143a7f-6970-450e-8a79-0302db9220a9"
      ],
      "collections": [
        "dbcf2c22-524d-4708-99bb-601703633927"
      ]
    },
    "titles": {
      "qro": "Okaeri",
      "jpn": "おかえり"
    },
    "titles_default_language": "qro",
    "title": "Okaeri",
    "year": 2008
  }
}