{
  "header": {
    "version": 4,
    "description": "Karaoke Mugen Karaoke Data File"
  },
  "medias": [
    {
      "version": "Default",
      "filename": "JPN - Idol Time PriPara - OP3 - Memorial.mp4",
      "audiogain": 1.6,
      "loudnorm": "-19.44,-4.57,4.50,-29.55,-0.25",
      "filesize": 75328726,
      "duration": 92,
      "default": true,
      "lyrics": [
        {
          "filename": "JPN - Idol Time PriPara - OP3 - Memorial.ass",
          "default": true,
          "version": "Default"
        }
      ]
    }
  ],
  "data": {
    "created_at": "2022-02-03T21:55:26.384Z",
    "ignoreHooks": false,
    "kid": "1832f183-ad96-4432-8a6c-03b7f7990b6a",
    "modified_at": "2022-10-23T15:54:52.478Z",
    "repository": "kara.moe",
    "songorder": 3,
    "tags": {
      "authors": [
        "79e0aa7d-da9a-4e9a-aa2b-64056a83b49b"
      ],
      "collections": [
        "c7db86a0-ff64-4044-9be4-66dd1ef1d1c1"
      ],
      "creators": [
        "cfdb2d1e-499d-47a1-b9f8-070153b5048e"
      ],
      "families": [
        "0377db02-3af6-43b8-9b08-c759df3d25c3"
      ],
      "genres": [
        "caa86df2-0d59-474b-885c-f240a9e891b0"
      ],
      "groups": [
        "ae613721-1fbe-480d-ba6b-d6d0702b184d"
      ],
      "langs": [
        "4dcf9614-7914-42aa-99f4-dbce2e059133"
      ],
      "misc": [
        "fe819ff1-9db8-4a0f-85dc-0e322c9126c4"
      ],
      "origins": [
        "938de218-5343-4865-94d3-fb33f2eaa152"
      ],
      "series": [
        "4f1aa2ab-7fe7-445c-89ea-c1cfaeae2e8c"
      ],
      "singers": [
        "50ace48d-4f9f-47e6-894d-5d66c9fd2014",
        "5d3e8ad0-0315-423b-a6cf-4ebed7ad5093",
        "7e4bddde-27db-412b-b37d-678d367864af",
        "8f4dc795-4e05-4e8f-a5fc-61e45e229402",
        "92adbbb5-d77d-4ab5-9ea6-81cb0f04800a",
        "ccf6ab16-cd54-4031-a2c3-b67242b54518"
      ],
      "singergroups": [
        "d1824d3d-fe54-4fea-b529-355f7b6517f7"
      ],
      "songtypes": [
        "f02ad9b3-0bd9-4aad-85b3-9976739ba0e4"
      ],
      "songwriters": [
        "4998caf7-15dd-4f12-9024-4946b7a08d16",
        "95b3fbfa-b03f-4d19-aded-8f82937d7c38"
      ],
      "franchises": [
        "2a2f00e6-f77a-426b-8611-ecc4cfeecd14"
      ]
    },
    "titles": {
      "eng": "Memorial"
    },
    "titles_default_language": "eng",
    "title": "Memorial",
    "year": 2018
  }
}