{
  "header": {
    "version": 4,
    "description": "Karaoke Mugen Karaoke Data File"
  },
  "medias": [
    {
      "version": "Marine Hôshô.",
      "filename": "JPN - Touhou - REMIX MV - The Song of a Broken Loved Youkai Who Loved a Human ~ Marine Houshou Vers. ~ Cover Vers.mp4",
      "audiogain": -3.85,
      "loudnorm": "-14.73,0.07,11.90,-25.25,-1.26",
      "filesize": 133186751,
      "duration": 309,
      "default": true,
      "lyrics": [
        {
          "filename": "JPN - Touhou - REMIX MV - The Song of a Broken Loved Youkai Who Loved a Human ~ Marine Houshou Vers. ~ Cover Vers.ass",
          "default": true,
          "version": "Default"
        }
      ]
    }
  ],
  "data": {
    "created_at": "2021-06-07T20:32:15.547Z",
    "kid": "c2e40b2e-0f2c-4334-806e-70bcd1ce316a",
    "modified_at": "2021-12-28T22:38:20.402Z",
    "parents": [
      "91937562-e69a-446e-ba32-41ec97c7e17f"
    ],
    "repository": "kara.moe",
    "tags": {
      "authors": [
        "84157b43-8a7a-482c-95d3-516757353835"
      ],
      "collections": [
        "c7db86a0-ff64-4044-9be4-66dd1ef1d1c1"
      ],
      "creators": [
        "0263d413-17bb-4cee-a311-6dd896eda1c9",
        "2b873ad5-a3ce-4abf-9f11-6f600e6e6ba0"
      ],
      "families": [
        "0377db02-3af6-43b8-9b08-c759df3d25c3"
      ],
      "groups": [
        "8e209ae4-4381-438f-89dc-1b21752027d2"
      ],
      "langs": [
        "4dcf9614-7914-42aa-99f4-dbce2e059133"
      ],
      "misc": [
        "86705d4b-24e4-4756-9687-2b9c98bcf366",
        "ec4360fa-3e3c-4f6f-b0e1-fb8b12b6dd18"
      ],
      "origins": [
        "5106d71b-a78e-4d19-a16d-f8fb6719538a",
        "ac5085db-52d8-44b4-8fbb-1697b24d2046"
      ],
      "series": [
        "1bdaa5a1-dfa6-4365-b746-7a0b194dafd6"
      ],
      "singers": [
        "77848990-54ab-4ef6-bba7-e1258fda78a5"
      ],
      "songtypes": [
        "7be1b15c-cff8-4b37-a649-5c90f3d569a9"
      ],
      "songwriters": [
        "26cb5252-8510-49e0-897c-a611a05fc056",
        "5e9a5d91-ea80-4515-acdf-43f023a54467",
        "6da99060-acc4-48c0-9d5b-042dae38ed28",
        "b7e7890d-0aad-4432-b374-00aed612d4ba"
      ],
      "versions": [
        "03e1e1d2-8641-47b7-bbcb-39a3df9ff21c"
      ],
      "franchises": [
        "1bdaa5a1-dfa6-4365-b746-7a0b194dafd6"
      ]
    },
    "titles": {
      "eng": "The Song of a Broken/Loved Youkai Who Loved a Human ~ Marine Hôshô Vers.",
      "qro": "Ningen ga daisuki na kowareta youkai no uta  ~ Marine Hôshô Vers.",
      "jpn": "人間が大好きなこわれた妖怪の唄  ~ Marine Hôshô Vers."
    },
    "title": "The Song of a Broken/Loved Youkai Who Loved a Human ~ Marine Hôshô Vers.",
    "year": 2020,
    "titles_default_language": "eng"
  }
}