{
  "header": {
    "version": 4,
    "description": "Karaoke Mugen Karaoke Data File"
  },
  "medias": [
    {
      "version": "Default",
      "filename": "JPN - Danball Senki W - OP1 - Brave Hero.mp4",
      "audiogain": -5.94,
      "loudnorm": "-12.18,-1.99,3.20,-22.38,-0.22",
      "filesize": 34768368,
      "duration": 86,
      "default": true,
      "lyrics": [
        {
          "filename": "JPN - Danball Senki W - OP1 - Brave Hero.ass",
          "default": true,
          "version": "Default",
          "subchecksum": "17b1a7811c9d0808e91b8cb0bec68dc3"
        }
      ]
    }
  ],
  "data": {
    "created_at": "2019-06-06T17:32:26.000Z",
    "kid": "c29ad756-398b-47aa-9ddc-835b20b207c9",
    "modified_at": "2021-02-25T11:06:34.387Z",
    "repository": "kara.moe",
    "songorder": 1,
    "tags": {
      "authors": [
        "42ff8105-afa5-49c2-93b6-7951877c956d"
      ],
      "collections": [
        "c7db86a0-ff64-4044-9be4-66dd1ef1d1c1"
      ],
      "creators": [
        "03fe574b-c7f5-4520-96dc-47320c39e2cc"
      ],
      "families": [
        "0377db02-3af6-43b8-9b08-c759df3d25c3"
      ],
      "groups": [
        "ae613721-1fbe-480d-ba6b-d6d0702b184d"
      ],
      "langs": [
        "4dcf9614-7914-42aa-99f4-dbce2e059133"
      ],
      "origins": [
        "938de218-5343-4865-94d3-fb33f2eaa152"
      ],
      "series": [
        "571c7c70-da88-43e9-bb7b-7abbc9d27a00"
      ],
      "singers": [
        "b306f331-3038-4814-8c9c-1de415bf0e1a"
      ],
      "songtypes": [
        "f02ad9b3-0bd9-4aad-85b3-9976739ba0e4"
      ],
      "songwriters": [
        "4998caf7-15dd-4f12-9024-4946b7a08d16",
        "71f2ca71-a588-4eae-88a9-bd194e224fce",
        "ec3c4b03-57fd-4210-9de1-c8872d852867"
      ],
      "franchises": [
        "61b9bbdb-f461-4da3-af2a-b63d09f1dc40"
      ]
    },
    "title": "Brave Hero",
    "titles": {
      "eng": "BRAVE HERO"
    },
    "year": 2012,
    "titles_default_language": "eng"
  }
}