{
  "header": {
    "version": 4,
    "description": "Karaoke Mugen Karaoke Data File"
  },
  "medias": [
    {
      "version": "Default",
      "filename": "JPN - Cardcaptor Sakura Clear Card-hen - OP2 - Rocket Beat.mp4",
      "audiogain": 3.22,
      "loudnorm": "-21.33,-9.17,6.10,-31.57,-0.76",
      "filesize": 34331763,
      "duration": 91,
      "default": true,
      "lyrics": [
        {
          "filename": "JPN - Cardcaptor Sakura Clear Card-hen - OP2 - Rocket Beat.ass",
          "default": true,
          "version": "Default"
        }
      ]
    }
  ],
  "data": {
    "created_at": "2018-06-18T15:29:08.000Z",
    "kid": "943b2321-1c7b-439d-acb9-c10c0b719904",
    "modified_at": "2021-11-27T12:10:58.206Z",
    "repository": "kara.moe",
    "songorder": 2,
    "tags": {
      "authors": [
        "b5116310-e69b-4ed4-9e47-c5c53ee69023"
      ],
      "collections": [
        "c7db86a0-ff64-4044-9be4-66dd1ef1d1c1"
      ],
      "creators": [
        "9c5cf6ba-0bc8-4cfe-a63c-e9be3a14e9fd"
      ],
      "families": [
        "0377db02-3af6-43b8-9b08-c759df3d25c3"
      ],
      "genres": [
        "b84e28f9-db1e-447f-b339-7954c3592523"
      ],
      "groups": [
        "ae613721-1fbe-480d-ba6b-d6d0702b184d"
      ],
      "langs": [
        "4dcf9614-7914-42aa-99f4-dbce2e059133"
      ],
      "misc": [
        "fe819ff1-9db8-4a0f-85dc-0e322c9126c4"
      ],
      "origins": [
        "938de218-5343-4865-94d3-fb33f2eaa152"
      ],
      "series": [
        "9e440c83-ef55-4680-bc68-536f0b69ce90"
      ],
      "singers": [
        "853ada81-3791-4761-9d7e-8b08ddeabf10"
      ],
      "songtypes": [
        "f02ad9b3-0bd9-4aad-85b3-9976739ba0e4"
      ],
      "songwriters": [
        "2cc789c7-ab41-414f-a56c-0b758ca1e4e4",
        "97fbc0b6-6408-4273-bdb4-0c900e0ac945"
      ],
      "franchises": [
        "e18e6f53-efcc-4f1c-8919-eef475ae4af6"
      ]
    },
    "titles": {
      "eng": "Rocket Beat",
      "jpn": "ロケットビート"
    },
    "title": "Rocket Beat",
    "year": 2018,
    "titles_default_language": "eng"
  }
}