{
  "header": {
    "version": 4,
    "description": "Karaoke Mugen Karaoke Data File"
  },
  "medias": [
    {
      "version": "Default",
      "filename": "JPN - Sousei no Onmyouji - OP2 - Re Call.mp4",
      "audiogain": 4.68,
      "loudnorm": "-22.90,-10.90,4.50,-32.97,-0.82",
      "filesize": 20878408,
      "duration": 89,
      "default": true,
      "lyrics": [
        {
          "filename": "JPN - Sousei no Onmyouji - OP2 - Re Call.ass",
          "default": true,
          "version": "Default"
        }
      ]
    }
  ],
  "data": {
    "created_at": "2017-10-11T17:02:08.000Z",
    "ignoreHooks": false,
    "kid": "3cda847d-2112-499f-82b5-703eedeb2c36",
    "modified_at": "2022-10-23T15:54:54.981Z",
    "repository": "kara.moe",
    "songorder": 2,
    "tags": {
      "authors": [
        "6bebcb04-2694-453c-9e0c-eb1a2e2718d9"
      ],
      "collections": [
        "c7db86a0-ff64-4044-9be4-66dd1ef1d1c1"
      ],
      "creators": [
        "aaff4ba6-9a12-4bac-9bd0-c0cb783e4177"
      ],
      "families": [
        "0377db02-3af6-43b8-9b08-c759df3d25c3"
      ],
      "genres": [
        "a0aeef4a-6428-45ff-a6e1-468b595930c2"
      ],
      "groups": [
        "9a8e0fbc-dcae-4989-be82-7cad3436f1f5",
        "ae613721-1fbe-480d-ba6b-d6d0702b184d"
      ],
      "langs": [
        "4dcf9614-7914-42aa-99f4-dbce2e059133"
      ],
      "origins": [
        "938de218-5343-4865-94d3-fb33f2eaa152"
      ],
      "series": [
        "cd8fd82d-3497-451a-a6c4-977f17041a88"
      ],
      "singers": [
        "50ace48d-4f9f-47e6-894d-5d66c9fd2014",
        "5d3e8ad0-0315-423b-a6cf-4ebed7ad5093",
        "7e4bddde-27db-412b-b37d-678d367864af",
        "8f4dc795-4e05-4e8f-a5fc-61e45e229402",
        "92adbbb5-d77d-4ab5-9ea6-81cb0f04800a",
        "ccf6ab16-cd54-4031-a2c3-b67242b54518"
      ],
      "singergroups": [
        "d1824d3d-fe54-4fea-b529-355f7b6517f7"
      ],
      "songtypes": [
        "f02ad9b3-0bd9-4aad-85b3-9976739ba0e4"
      ],
      "songwriters": [
        "a287e9ca-3868-4ed9-b678-b0b9cb4f3443"
      ]
    },
    "titles": {
      "eng": "Re:Call"
    },
    "titles_default_language": "eng",
    "title": "Re:Call",
    "year": 2016
  }
}