{
  "header": {
    "version": 4,
    "description": "Karaoke Mugen Karaoke Data File"
  },
  "medias": [
    {
      "version": "Default",
      "filename": "JPN - Miku Hatsune - MV - Oki ni Mesu mama ~ Off Vocal Vers.mp4",
      "audiogain": -5.6,
      "loudnorm": "-13.13,0.53,6.80,-23.23,-0.63",
      "filesize": 33356974,
      "duration": 248,
      "default": true,
      "lyrics": [
        {
          "filename": "JPN - Miku Hatsune - MV - Oki ni Mesu mama ~ Off Vocal Vers.ass",
          "default": true,
          "version": "Default"
        }
      ]
    }
  ],
  "data": {
    "created_at": "2022-03-30T23:21:43.983Z",
    "ignoreHooks": false,
    "kid": "e5d8fbbf-7adc-4032-868d-8c3e002ca333",
    "modified_at": "2022-03-30T23:32:22.646Z",
    "parents": [
      "ea69dbc0-6ce0-4a68-af54-5ff07e6a6fc1"
    ],
    "repository": "kara.moe",
    "tags": {
      "authors": [
        "1631228b-9125-497a-aafc-66f920a44a02",
        "90698f28-1d62-4673-82c4-33ae96b1ba97"
      ],
      "collections": [
        "c7db86a0-ff64-4044-9be4-66dd1ef1d1c1"
      ],
      "creators": [
        "945ec011-2614-44ad-bdef-3ee71f0028ff",
        "a610df83-d060-40b9-be33-cba9656ed2d3"
      ],
      "families": [
        "0377db02-3af6-43b8-9b08-c759df3d25c3"
      ],
      "groups": [
        "8c22c899-b3ed-42da-a548-ce00f950798b",
        "ae613721-1fbe-480d-ba6b-d6d0702b184d"
      ],
      "langs": [
        "4dcf9614-7914-42aa-99f4-dbce2e059133"
      ],
      "singers": [
        "4407ba0e-5de7-4add-870f-7ac95a4804c9"
      ],
      "songtypes": [
        "7be1b15c-cff8-4b37-a649-5c90f3d569a9"
      ],
      "songwriters": [
        "7d97bcee-9037-4264-8c64-95809c5d385f",
        "a84f6a9f-4785-48bb-9f07-fdede3de7cae"
      ],
      "versions": [
        "c0cc87b9-55b9-40f0-878a-fbb9e34c151e"
      ],
      "genres": [
        "45623cae-6d68-4304-a49b-896d1d6f4580"
      ]
    },
    "titles": {
      "eng": "As You Like It",
      "qro": "Oki ni Mesu mama",
      "jpn": "お気に召すまま"
    },
    "titles_default_language": "eng",
    "title": "Oki ni Mesu mama",
    "year": 2017
  }
}