{
  "header": {
    "version": 4,
    "description": "Karaoke Mugen Karaoke Data File"
  },
  "medias": [
    {
      "version": "Konata.",
      "filename": "JPN - Dragon Ball Z - AMV - CHA-LA HEAD-CHA-LA ~ Konata Vers. ~ Cover Vers.mp4",
      "audiogain": -11.93,
      "loudnorm": "-7.37,0.14,5.00,-17.50,-1.33",
      "filesize": 43695248,
      "duration": 105,
      "default": true,
      "lyrics": [
        {
          "filename": "JPN - Dragon Ball Z - AMV - CHA-LA HEAD-CHA-LA ~ Konata Vers. ~ Cover Vers.ass",
          "default": true,
          "version": "Default",
          "subchecksum": "199594bacc7cefac65d84366bbcdc0c8"
        }
      ]
    }
  ],
  "data": {
    "created_at": "2017-10-11T17:01:17.000Z",
    "kid": "53ffb4eb-fd26-4001-bb5f-2baa5a792f0c",
    "modified_at": "2021-06-06T01:12:07.326Z",
    "parents": [
      "f99df658-9c61-4ea2-a46c-624a1a4c4768"
    ],
    "repository": "kara.moe",
    "tags": {
      "authors": [
        "5bdaba57-27f8-4568-8806-76a807728766"
      ],
      "collections": [
        "c7db86a0-ff64-4044-9be4-66dd1ef1d1c1"
      ],
      "creators": [
        "f694bf43-b427-4244-9744-9d3f84fd8a31"
      ],
      "families": [
        "0377db02-3af6-43b8-9b08-c759df3d25c3"
      ],
      "genres": [
        "a0aeef4a-6428-45ff-a6e1-468b595930c2"
      ],
      "groups": [
        "3c14c864-533c-49e6-a3cc-6969f1233775"
      ],
      "langs": [
        "4dcf9614-7914-42aa-99f4-dbce2e059133"
      ],
      "origins": [
        "938de218-5343-4865-94d3-fb33f2eaa152"
      ],
      "series": [
        "3cfa486b-0ab4-4969-85b7-113ae4450c42"
      ],
      "singers": [
        "488aea99-01a0-4c2c-b475-b61d99efe994"
      ],
      "songtypes": [
        "a6c79ce5-89ee-4d50-afe8-3abd7317f6c2"
      ],
      "songwriters": [
        "5ef38e64-35cc-40fe-9469-4c8b8699d349",
        "f29da5f3-027d-4eea-9abc-f8b99e93fce6"
      ],
      "versions": [
        "03e1e1d2-8641-47b7-bbcb-39a3df9ff21c"
      ],
      "franchises": [
        "c46f5c45-e15a-41b3-a3e6-a1ac023116e1"
      ]
    },
    "title": "CHA-LA HEAD-CHA-LA ~ Konata Vers.",
    "titles": {
      "eng": "CHA-LA HEAD-CHA-LA ~ Konata Vers.",
      "jpn": "CHA-LA HEAD-CHA-LA ~ こなた Vers."
    },
    "year": 2007,
    "titles_default_language": "eng"
  }
}