{
  "header": {
    "version": 4,
    "description": "Karaoke Mugen Karaoke Data File"
  },
  "medias": [
    {
      "version": "Default",
      "filename": "JPN - Komi-san wa, Komyushou Desu. - ED1 - Sympathy.mp4",
      "audiogain": -1.13,
      "loudnorm": "-17.03,-2.83,5.30,-27.30,-0.49",
      "filesize": 46288474,
      "duration": 90,
      "default": true,
      "lyrics": [
        {
          "filename": "JPN - Komi-san wa, Komyushou Desu. - ED1 - Sympathy.ass",
          "default": true,
          "version": "Default"
        }
      ]
    }
  ],
  "data": {
    "created_at": "2021-12-15T16:54:55.996Z",
    "kid": "5bb0c039-2178-44cf-a2ba-e05bbf791e94",
    "modified_at": "2021-12-22T14:11:12.289Z",
    "repository": "kara.moe",
    "songorder": 1,
    "tags": {
      "authors": [
        "1631228b-9125-497a-aafc-66f920a44a02"
      ],
      "collections": [
        "c7db86a0-ff64-4044-9be4-66dd1ef1d1c1"
      ],
      "creators": [
        "03fe574b-c7f5-4520-96dc-47320c39e2cc"
      ],
      "families": [
        "0377db02-3af6-43b8-9b08-c759df3d25c3"
      ],
      "groups": [
        "8c22c899-b3ed-42da-a548-ce00f950798b",
        "8e209ae4-4381-438f-89dc-1b21752027d2"
      ],
      "langs": [
        "4dcf9614-7914-42aa-99f4-dbce2e059133"
      ],
      "origins": [
        "938de218-5343-4865-94d3-fb33f2eaa152"
      ],
      "series": [
        "09466d03-fcb3-48d0-8093-42080ba34882"
      ],
      "singers": [
        "85bf88cf-5822-41e5-bb7b-93fd7ef5786d"
      ],
      "songtypes": [
        "38c77c56-2b95-4040-b676-0994a8cb0597"
      ],
      "songwriters": [
        "df1bed11-964e-439c-a4dc-79c2cc9373e1",
        "fdfd22d2-7e17-4bcb-ae2d-2211063e3ac7"
      ]
    },
    "titles": {
      "eng": "Sympathy",
      "jpn": "シンパシー"
    },
    "title": "Sympathy",
    "year": 2021,
    "titles_default_language": "eng"
  }
}