{
  "header": {
    "version": 4,
    "description": "Karaoke Mugen Karaoke Data File"
  },
  "medias": [
    {
      "version": "Default",
      "filename": "JPN - King's Raid Ishi o Tsugu Mono-tachi - OP2 - Eclipse.mp4",
      "audiogain": -2.06,
      "loudnorm": "-16.03,-4.55,8.00,-26.14,-1.50",
      "filesize": 21727995,
      "duration": 90,
      "default": true,
      "lyrics": [
        {
          "filename": "JPN - King's Raid Ishi o Tsugu Mono-tachi - OP2 - Eclipse.ass",
          "default": true,
          "version": "Default"
        }
      ]
    }
  ],
  "data": {
    "comment": "C'est mon premier time de karaoké",
    "created_at": "2023-05-06T13:14:07.652Z",
    "ignoreHooks": false,
    "kid": "97bc7f85-37ac-4406-86b0-112c7cba9bae",
    "modified_at": "2023-06-02T21:52:32.825Z",
    "repository": "kara.moe",
    "songorder": 2,
    "tags": {
      "authors": [
        "f70c7314-b8d3-4bf4-96a0-dc8b2c5a6c94"
      ],
      "collections": [
        "c7db86a0-ff64-4044-9be4-66dd1ef1d1c1"
      ],
      "creators": [
        "03fe574b-c7f5-4520-96dc-47320c39e2cc",
        "b1bbd94a-75b1-4f4c-8b84-9e702ab4f53a"
      ],
      "families": [
        "0377db02-3af6-43b8-9b08-c759df3d25c3"
      ],
      "groups": [
        "8e209ae4-4381-438f-89dc-1b21752027d2"
      ],
      "langs": [
        "4dcf9614-7914-42aa-99f4-dbce2e059133"
      ],
      "origins": [
        "938de218-5343-4865-94d3-fb33f2eaa152"
      ],
      "series": [
        "2358b706-0175-416b-96d3-387a57a4acaa"
      ],
      "singers": [
        "0efe8a35-ec2a-4d85-9020-90019ec8b3d2",
        "388d68c3-0993-4f27-b716-7ef2cccf4dbc",
        "569924fc-0ae7-4dd0-9d98-31efd25d8dff",
        "5b6be5fa-5f0a-4aa6-af51-00ec20141247",
        "64d7e75b-5433-4175-9995-fdc9cf1efb28",
        "d09fd477-72ad-43e1-a244-52f0d296b3ad",
        "e7c26758-c0f3-45d0-a76a-d38659131ca2"
      ],
      "singergroups": [
        "f2c35a04-6f78-42cb-bdd5-6b530f2ce11c"
      ],
      "songtypes": [
        "f02ad9b3-0bd9-4aad-85b3-9976739ba0e4"
      ],
      "songwriters": [
        "5a2edc7c-36e0-4a0b-afc5-abc5f1f6c40a",
        "ffd3005f-fb10-4d17-967b-95a5d1cc116d"
      ]
    },
    "titles": {
      "eng": "Eclipse"
    },
    "titles_default_language": "eng",
    "year": 2021
  }
}