{
  "header": {
    "version": 4,
    "description": "Karaoke Mugen Karaoke Data File"
  },
  "medias": [
    {
      "version": "Default",
      "filename": "JPN - B-Project Kodou Ambitious - ED - Hoshi to Tsuki no Sentence.mp4",
      "audiogain": -0.66,
      "loudnorm": "-16.03,-3.79,1.80,-26.16,0.05",
      "filesize": 44195889,
      "duration": 89,
      "default": true,
      "lyrics": [
        {
          "filename": "JPN - B-Project Kodou Ambitious - ED - Hoshi to Tsuki no Sentence.ass",
          "default": true,
          "version": "Default",
          "subchecksum": "4c036a085a2e1bbb8427e996d2585ce7"
        }
      ]
    }
  ],
  "data": {
    "created_at": "2020-08-21T16:39:05.524Z",
    "kid": "3ec742ed-ffc2-4cbf-aeb1-8c077ade5a0c",
    "modified_at": "2021-02-25T10:48:23.739Z",
    "repository": "kara.moe",
    "tags": {
      "authors": [
        "1d7745a8-73ea-40bb-ad99-826af98f6e41"
      ],
      "collections": [
        "c7db86a0-ff64-4044-9be4-66dd1ef1d1c1"
      ],
      "creators": [
        "b96e3686-bbe0-4b9e-815a-a278d5ff31be"
      ],
      "families": [
        "0377db02-3af6-43b8-9b08-c759df3d25c3"
      ],
      "genres": [
        "caa86df2-0d59-474b-885c-f240a9e891b0"
      ],
      "groups": [
        "ae613721-1fbe-480d-ba6b-d6d0702b184d"
      ],
      "langs": [
        "4dcf9614-7914-42aa-99f4-dbce2e059133"
      ],
      "origins": [
        "938de218-5343-4865-94d3-fb33f2eaa152"
      ],
      "series": [
        "f2440d0c-ac9c-4f64-a076-ffc96c584ec9"
      ],
      "singers": [
        "29d78ddd-9d0e-4a52-b53a-87cae80777c9",
        "2e111d0f-9e9a-4005-a85f-d1084f94bb1d",
        "7140944e-9958-4f10-a048-7fc955cc7534"
      ],
      "songtypes": [
        "38c77c56-2b95-4040-b676-0994a8cb0597"
      ],
      "songwriters": [
        "66339ced-7df9-40c8-aefd-59b2990df294",
        "f9a97890-5c76-42ee-a96b-f8e21b1b1fa0"
      ],
      "franchises": [
        "df601cc6-5e12-403e-9a71-8d4e1ddc6055"
      ]
    },
    "title": "Hoshi to Tsuki no Sentence",
    "titles": {
      "qro": "Hoshi to Tsuki no Sentence",
      "jpn": "星と月のセンテンス"
    },
    "year": 2016,
    "titles_default_language": "qro"
  }
}