{
  "header": {
    "version": 4,
    "description": "Karaoke Mugen Karaoke Data File"
  },
  "medias": [
    {
      "version": "Default",
      "filename": "JPN - Kage no Jitsuryokusha ni Naritakute! - OP - HIGHEST.mp4",
      "audiogain": 0.81,
      "loudnorm": "-17.04,-6.95,3.20,-27.06,-0.80",
      "filesize": 23407343,
      "duration": 90,
      "default": true,
      "lyrics": [
        {
          "filename": "JPN - Kage no Jitsuryokusha ni Naritakute! - OP - HIGHEST.ass",
          "default": true,
          "version": "Default"
        }
      ]
    }
  ],
  "data": {
    "created_at": "2023-02-25T19:28:57.886Z",
    "ignoreHooks": false,
    "kid": "77019449-43c3-4b54-9674-e7f8b4a903c8",
    "modified_at": "2023-02-25T19:28:57.956Z",
    "repository": "kara.moe",
    "tags": {
      "authors": [
        "5b7a2e7c-6d18-4330-897a-590dc0afd5d1"
      ],
      "collections": [
        "c7db86a0-ff64-4044-9be4-66dd1ef1d1c1"
      ],
      "creators": [
        "5c36dfb2-4291-4c4f-a828-25e3e1f41871"
      ],
      "families": [
        "0377db02-3af6-43b8-9b08-c759df3d25c3"
      ],
      "langs": [
        "4dcf9614-7914-42aa-99f4-dbce2e059133"
      ],
      "misc": [
        "fe819ff1-9db8-4a0f-85dc-0e322c9126c4"
      ],
      "origins": [
        "938de218-5343-4865-94d3-fb33f2eaa152"
      ],
      "series": [
        "7b8cd6be-46ae-4c60-bdcd-9590716981c6"
      ],
      "singers": [
        "1c58b1b6-d8b6-4b66-a3f9-3267d7bc3e4f"
      ],
      "songtypes": [
        "f02ad9b3-0bd9-4aad-85b3-9976739ba0e4"
      ],
      "songwriters": [
        "e23950b8-7176-46bc-bb23-3d2cb566dc78",
        "c7ef44c1-2b96-45ca-a3dc-8d8c0e5162c5",
        "78fa17da-da22-49d1-bdd6-577a0ae659a6"
      ],
      "groups": [
        "8e209ae4-4381-438f-89dc-1b21752027d2",
        "8c22c899-b3ed-42da-a548-ce00f950798b"
      ]
    },
    "titles": {
      "eng": "HIGHEST"
    },
    "titles_default_language": "eng",
    "year": 2022
  }
}