{
  "header": {
    "version": 4,
    "description": "Karaoke Mugen Karaoke Data File"
  },
  "medias": [
    {
      "version": "Default",
      "filename": "JPN - Full Metal Panic! The Second Raid - MV - Minami Kaze ~ Full Vers.mp4",
      "audiogain": -4.79,
      "loudnorm": "-10.77,-0.03,2.60,-20.88,-0.76",
      "filesize": 16963243,
      "duration": 245,
      "default": true,
      "lyrics": [
        {
          "filename": "JPN - Full Metal Panic! The Second Raid - MV - Minami Kaze ~ Full Vers.ass",
          "default": true,
          "version": "Default"
        }
      ]
    }
  ],
  "data": {
    "created_at": "2020-04-05T15:48:02.844Z",
    "kid": "4a36e6a2-3e1d-499c-a3f9-ed4d593c7b44",
    "modified_at": "2022-06-04T00:21:26.440Z",
    "parents": [
      "cb9aeb27-5b66-4450-82aa-8dc42bac2175"
    ],
    "repository": "kara.moe",
    "songorder": null,
    "tags": {
      "authors": [
        "1db1738f-acdc-42fc-aec3-60f4bddf660d"
      ],
      "creators": [
        "97e62433-0f2f-4e1b-ba1e-109eec95dc11"
      ],
      "families": [
        "5391f9fe-638c-415f-8dc9-958e3a2c5787"
      ],
      "groups": [
        "3c14c864-533c-49e6-a3cc-6969f1233775"
      ],
      "langs": [
        "4dcf9614-7914-42aa-99f4-dbce2e059133"
      ],
      "series": [
        "b3906e14-7f3c-43be-ac7f-2de59b6c94d9"
      ],
      "singers": [
        "01eac541-d4fa-4338-96d3-e08ac483e99d"
      ],
      "songtypes": [
        "7be1b15c-cff8-4b37-a649-5c90f3d569a9"
      ],
      "songwriters": [
        "1184a373-e6d7-4cc6-9101-9cf06e6f2056"
      ],
      "versions": [
        "c2143a7f-6970-450e-8a79-0302db9220a9"
      ],
      "collections": [
        "dbcf2c22-524d-4708-99bb-601703633927"
      ],
      "franchises": [
        "69444127-bd5c-4a03-9adc-832a1dac0692"
      ]
    },
    "titles": {
      "qro": "Minami Kaze",
      "jpn": "南風"
    },
    "titles_default_language": "qro",
    "title": "Minami Kaze",
    "year": 2005
  }
}