{
  "header": {
    "version": 4,
    "description": "Karaoke Mugen Karaoke Data File"
  },
  "medias": [
    {
      "version": "Default",
      "filename": "JPN - Project SEKAI COLORFUL STAGE! - GAME MV - Jishou Mushoku ~ Cover Short Vers.mp4",
      "audiogain": -6.94,
      "loudnorm": "-11.00,1.43,9.40,-21.27,-0.93",
      "filesize": 32103608,
      "duration": 111,
      "default": true,
      "lyrics": [
        {
          "filename": "JPN - Project SEKAI COLORFUL STAGE! - GAME MV - Jishou Mushoku ~ Cover Short Vers.ass",
          "default": true,
          "version": "Default"
        }
      ]
    }
  ],
  "data": {
    "created_at": "2021-09-27T13:38:22.147Z",
    "ignoreHooks": false,
    "kid": "b375138e-8f71-49fd-b07c-16bf789f511b",
    "modified_at": "2022-12-26T21:05:05.118Z",
    "repository": "kara.moe",
    "tags": {
      "authors": [
        "5a629611-96b4-422c-b309-ba7a58e263a2"
      ],
      "collections": [
        "c7db86a0-ff64-4044-9be4-66dd1ef1d1c1"
      ],
      "creators": [
        "1e5648fb-22fc-474d-b865-254eb31fa000"
      ],
      "genres": [
        "45623cae-6d68-4304-a49b-896d1d6f4580"
      ],
      "groups": [
        "8e209ae4-4381-438f-89dc-1b21752027d2"
      ],
      "langs": [
        "4dcf9614-7914-42aa-99f4-dbce2e059133"
      ],
      "misc": [
        "1d6ceadf-a885-47e5-b23b-c07bf668a424"
      ],
      "platforms": [
        "213a1a15-e73a-4a08-b3f6-b6e2745a82e5"
      ],
      "series": [
        "192b33fb-638a-4680-bdb2-a5adb9889849"
      ],
      "singers": [
        "1fd01df9-13c6-4442-a8c9-4d7922152b32",
        "4407ba0e-5de7-4add-870f-7ac95a4804c9",
        "b0672b63-1519-4a34-99f6-039fdade750e"
      ],
      "singergroups": [
        "210b7f5a-db03-4cb6-ab5d-68052851cbb2"
      ],
      "songtypes": [
        "7be1b15c-cff8-4b37-a649-5c90f3d569a9"
      ],
      "songwriters": [
        "5b4b0139-46da-4118-830c-63f688e22ac5"
      ],
      "versions": [
        "03e1e1d2-8641-47b7-bbcb-39a3df9ff21c",
        "d125c80a-86c1-4321-88e9-07b7800679b6"
      ],
      "origins": [
        "dbedd6b3-d125-4cd8-aa32-c4175e4ca3a3"
      ]
    },
    "titles": {
      "jpn": "自傷無色",
      "qro": "Jishô Mushoku"
    },
    "titles_default_language": "qro",
    "titles_aliases": [
      "Self-Inflicted Colorlessness",
      "Jishou"
    ],
    "year": 2020
  }
}