{
  "header": {
    "version": 4,
    "description": "Karaoke Mugen Karaoke Data File"
  },
  "medias": [
    {
      "version": "Default",
      "filename": "JPN - Senki Zesshou Symphogear AXZ - AUDIO IN - Senritsu Sorority ~ Full Vers.mp3",
      "audiogain": -6.13,
      "loudnorm": "-12.24,-4.23,5.90,-22.40,-1.23",
      "filesize": 12408438,
      "duration": 303,
      "default": true,
      "lyrics": [
        {
          "filename": "JPN - Senki Zesshou Symphogear AXZ - AUDIO IN - Senritsu Sorority ~ Full Vers.ass",
          "default": true,
          "version": "Default"
        }
      ]
    }
  ],
  "data": {
    "created_at": "2020-12-11T01:12:25.193Z",
    "ignoreHooks": false,
    "kid": "9954a74f-97be-484d-8410-55f4b343f736",
    "modified_at": "2023-05-10T01:09:30.400Z",
    "repository": "kara.moe",
    "tags": {
      "authors": [
        "87096920-112f-485f-a310-04156cb4624d"
      ],
      "collections": [
        "c7db86a0-ff64-4044-9be4-66dd1ef1d1c1"
      ],
      "creators": [
        "d2a29c19-019f-4a3d-86ad-2dae9e41a4b1"
      ],
      "groups": [
        "60defa7b-774e-4680-8321-51b742c2e009",
        "ae613721-1fbe-480d-ba6b-d6d0702b184d"
      ],
      "langs": [
        "4dcf9614-7914-42aa-99f4-dbce2e059133"
      ],
      "origins": [
        "938de218-5343-4865-94d3-fb33f2eaa152"
      ],
      "series": [
        "84baaef4-5c5e-42fd-bb81-9151f280fa09"
      ],
      "singers": [
        "7779578c-3d4e-4aa5-8f54-77023879e8e6",
        "d2bf0734-aede-4e5c-b3a6-6d68b18192dc",
        "f2e9d52b-1b80-4fb5-8754-628462e094e5"
      ],
      "songtypes": [
        "42a262ae-acba-4ab5-a446-c5789c96c821",
        "5e5250d9-351a-4a82-98eb-55db50ad8962"
      ],
      "songwriters": [
        "400922df-5396-43ea-a338-90771426a74f",
        "af3ffe51-8059-461c-bbb8-78ea388731f3"
      ],
      "versions": [
        "c2143a7f-6970-450e-8a79-0302db9220a9"
      ],
      "franchises": [
        "61b24082-a6a9-482b-b126-0ad7be595791"
      ],
      "misc": [
        "86705d4b-24e4-4756-9687-2b9c98bcf366"
      ]
    },
    "titles": {
      "jpn": "旋律ソロリティ",
      "qro": "Senritsu Sorority"
    },
    "titles_default_language": "qro",
    "year": 2017
  }
}