{
  "header": {
    "version": 4,
    "description": "Karaoke Mugen Karaoke Data File"
  },
  "medias": [
    {
      "version": "Default",
      "filename": "JPN - World Trigger 3rd Season - OP - Time Factor.mp4",
      "audiogain": -0.47,
      "loudnorm": "-16.00,-6.73,2.80,-26.02,-0.64",
      "filesize": 51547748,
      "duration": 90,
      "default": true,
      "lyrics": [
        {
          "filename": "JPN - World Trigger 3rd Season - OP - Time Factor.ass",
          "default": true,
          "version": "Default"
        }
      ]
    }
  ],
  "data": {
    "created_at": "2022-01-21T10:56:10.546Z",
    "ignoreHooks": false,
    "kid": "b8eee888-c862-4658-b614-1e6e2c7b4449",
    "modified_at": "2022-01-21T10:56:10.546Z",
    "repository": "kara.moe",
    "tags": {
      "authors": [
        "6bebcb04-2694-453c-9e0c-eb1a2e2718d9"
      ],
      "collections": [
        "c7db86a0-ff64-4044-9be4-66dd1ef1d1c1"
      ],
      "creators": [
        "f694bf43-b427-4244-9744-9d3f84fd8a31"
      ],
      "families": [
        "0377db02-3af6-43b8-9b08-c759df3d25c3"
      ],
      "genres": [
        "a0aeef4a-6428-45ff-a6e1-468b595930c2"
      ],
      "groups": [
        "8e209ae4-4381-438f-89dc-1b21752027d2"
      ],
      "langs": [
        "4dcf9614-7914-42aa-99f4-dbce2e059133"
      ],
      "origins": [
        "938de218-5343-4865-94d3-fb33f2eaa152"
      ],
      "series": [
        "2fc9cec6-c7f8-4e5f-b91c-e690ec5f924d"
      ],
      "singers": [
        "729b5bdb-fee5-44ee-a044-03d2ff77392e"
      ],
      "songtypes": [
        "f02ad9b3-0bd9-4aad-85b3-9976739ba0e4"
      ],
      "songwriters": [
        "90b06abe-5171-49d5-92e5-243489e926a7"
      ],
      "franchises": [
        "c2a3b06d-f152-46a1-82c5-7528390df59b"
      ]
    },
    "titles": {
      "eng": "Time Factor",
      "jpn": "タイムファクター"
    },
    "title": "Time Factor",
    "year": 2021,
    "titles_default_language": "eng"
  }
}