{
  "header": {
    "version": 4,
    "description": "Karaoke Mugen Karaoke Data File"
  },
  "medias": [
    {
      "version": "Default",
      "filename": "JPN - Bartender - OP - Bartender.mp4",
      "audiogain": 2.69,
      "loudnorm": "-20.73,-8.85,8.40,-31.05,-1.74",
      "filesize": 48769640,
      "duration": 89,
      "default": true,
      "lyrics": [
        {
          "filename": "JPN - Bartender - OP - Bartender.ass",
          "default": true,
          "version": "Default"
        }
      ]
    }
  ],
  "data": {
    "created_at": "2017-10-11T17:02:06.000Z",
    "ignoreHooks": false,
    "kid": "2151cbfb-f3d7-41f5-8f91-86f57a58acba",
    "modified_at": "2022-04-29T09:34:46.481Z",
    "repository": "kara.moe",
    "tags": {
      "authors": [
        "5bdaba57-27f8-4568-8806-76a807728766"
      ],
      "collections": [
        "c7db86a0-ff64-4044-9be4-66dd1ef1d1c1"
      ],
      "creators": [
        "c609b608-8a05-472c-99d4-fb09e0005d57"
      ],
      "families": [
        "0377db02-3af6-43b8-9b08-c759df3d25c3"
      ],
      "groups": [
        "3c14c864-533c-49e6-a3cc-6969f1233775"
      ],
      "langs": [
        "4dcf9614-7914-42aa-99f4-dbce2e059133"
      ],
      "origins": [
        "938de218-5343-4865-94d3-fb33f2eaa152"
      ],
      "series": [
        "994aa137-d16f-4714-ab5c-320946d66393"
      ],
      "singers": [
        "8dd626fd-44ff-4cde-9630-84bb22de481d",
        "d279a391-36da-47ed-8806-c9e69c913f89"
      ],
      "songtypes": [
        "f02ad9b3-0bd9-4aad-85b3-9976739ba0e4"
      ],
      "songwriters": [
        "925cd67e-d450-4913-83a4-e8bc70612cd0"
      ]
    },
    "titles": {
      "eng": "Bartender",
      "jpn": "バーテンダー"
    },
    "titles_default_language": "eng",
    "title": "Bartender",
    "year": 2006
  }
}