{
  "header": {
    "version": 4,
    "description": "Karaoke Mugen Karaoke Data File"
  },
  "medias": [
    {
      "version": "Default",
      "filename": "JPN - Touhou - REMIX MV - moon light step.mp4",
      "audiogain": -3.37,
      "loudnorm": "-13.43,-4.45,1.90,-23.59,-0.30",
      "filesize": 31611843,
      "duration": 265,
      "default": true,
      "lyrics": [
        {
          "filename": "JPN - Touhou - REMIX MV - moon light step.ass",
          "default": true,
          "version": "Default"
        }
      ]
    }
  ],
  "data": {
    "created_at": "2022-09-18T17:10:03.266Z",
    "ignoreHooks": false,
    "kid": "90755458-5aa8-41b6-a62a-b4af0888c2f8",
    "modified_at": "2022-10-01T23:23:15.447Z",
    "repository": "kara.moe",
    "tags": {
      "authors": [
        "1fbfef73-6731-40df-ba51-65a54b9d1605"
      ],
      "collections": [
        "c7db86a0-ff64-4044-9be4-66dd1ef1d1c1"
      ],
      "creators": [
        "63e7d83f-c2f3-43c5-9993-87202fd90347"
      ],
      "families": [
        "0377db02-3af6-43b8-9b08-c759df3d25c3"
      ],
      "groups": [
        "3c14c864-533c-49e6-a3cc-6969f1233775"
      ],
      "langs": [
        "4dcf9614-7914-42aa-99f4-dbce2e059133"
      ],
      "misc": [
        "ec4360fa-3e3c-4f6f-b0e1-fb8b12b6dd18"
      ],
      "origins": [
        "ac5085db-52d8-44b4-8fbb-1697b24d2046"
      ],
      "series": [
        "1bdaa5a1-dfa6-4365-b746-7a0b194dafd6"
      ],
      "singers": [
        "59878478-9ea3-41ce-8adb-43a28c20fefe"
      ],
      "songtypes": [
        "7be1b15c-cff8-4b37-a649-5c90f3d569a9"
      ],
      "songwriters": [
        "26cb5252-8510-49e0-897c-a611a05fc056",
        "9677e10e-aa5b-4d1d-9861-df3a624bb8d9"
      ],
      "franchises": [
        "1bdaa5a1-dfa6-4365-b746-7a0b194dafd6"
      ]
    },
    "titles": {
      "eng": "moon light step"
    },
    "titles_default_language": "eng",
    "title": "moon light step",
    "year": 2009
  }
}