{
  "header": {
    "version": 4,
    "description": "Karaoke Mugen Karaoke Data File"
  },
  "medias": [
    {
      "version": "Default",
      "filename": "JPN - Macross 7 - IN - Planet Dance.mp4",
      "audiogain": -5.63,
      "loudnorm": "-12.88,-1.82,5.00,-22.95,0.07",
      "filesize": 35297021,
      "duration": 222,
      "default": true,
      "lyrics": [
        {
          "filename": "JPN - Macross 7 - IN - Planet Dance.ass",
          "default": true,
          "version": "Default",
          "subchecksum": "0b6776353528836974dc688bc11db3e7"
        }
      ]
    }
  ],
  "data": {
    "created_at": "2018-11-15T20:11:39.000Z",
    "kid": "77cafa8f-7202-4efa-ac06-1face7342377",
    "modified_at": "2021-02-25T12:16:27.801Z",
    "repository": "kara.moe",
    "tags": {
      "authors": [
        "5bdaba57-27f8-4568-8806-76a807728766"
      ],
      "collections": [
        "c7db86a0-ff64-4044-9be4-66dd1ef1d1c1"
      ],
      "creators": [
        "fa1cbae7-2b13-45ec-8233-15807fd5f1a3"
      ],
      "families": [
        "0377db02-3af6-43b8-9b08-c759df3d25c3"
      ],
      "genres": [
        "f60ba57d-5ef4-49e0-b93b-d0dcbcff6592"
      ],
      "groups": [
        "24db50aa-a126-4d34-a48a-e45db79c4245"
      ],
      "langs": [
        "4dcf9614-7914-42aa-99f4-dbce2e059133"
      ],
      "origins": [
        "938de218-5343-4865-94d3-fb33f2eaa152"
      ],
      "series": [
        "6ffeba39-3d62-45f8-97d5-e25f81c61af1"
      ],
      "singers": [
        "00051843-4129-427f-883d-c1eb8e9fe98b",
        "6335750b-cbf3-4c6b-9f84-00dc692ae9e5",
        "7927b9e9-feea-4c4d-8142-57ad8ddc0dbd"
      ],
      "songtypes": [
        "5e5250d9-351a-4a82-98eb-55db50ad8962"
      ],
      "songwriters": [
        "016c92b5-35cf-4055-87e6-d73ce6245f90",
        "77c47d8a-85de-4529-944a-a921936324e7"
      ],
      "franchises": [
        "01b9b958-2d2a-43d0-a5dd-efb5b14675ea"
      ]
    },
    "title": "Planet Dance",
    "titles": {
      "eng": "PLANET DANCE"
    },
    "year": 1994,
    "titles_default_language": "eng"
  }
}