{
  "header": {
    "version": 4,
    "description": "Karaoke Mugen Karaoke Data File"
  },
  "medias": [
    {
      "version": "Default",
      "filename": "JPN - E's Otherwise - MV - Jouhou ~ Full Vers.mp4",
      "audiogain": -8.98,
      "loudnorm": "-9.03,1.28,4.80,-19.19,-0.94",
      "filesize": 27021046,
      "duration": 223,
      "default": true,
      "lyrics": [
        {
          "filename": "JPN - E's Otherwise - MV - Jouhou ~ Full Vers.ass",
          "default": true,
          "version": "Default"
        }
      ]
    }
  ],
  "data": {
    "created_at": "2020-01-12T21:03:43.572Z",
    "ignoreHooks": false,
    "kid": "576a5c34-5498-4e26-9f77-0ba8cacc730b",
    "modified_at": "2022-10-01T10:59:01.730Z",
    "parents": [
      "5e82af5b-6568-439f-88cf-0f2e49fac905"
    ],
    "repository": "kara.moe",
    "tags": {
      "authors": [
        "1db1738f-acdc-42fc-aec3-60f4bddf660d"
      ],
      "collections": [
        "dbcf2c22-524d-4708-99bb-601703633927"
      ],
      "creators": [
        "9f10c180-4ed1-4a4e-9e39-c37e09b91d5f"
      ],
      "families": [
        "5391f9fe-638c-415f-8dc9-958e3a2c5787"
      ],
      "groups": [
        "3c14c864-533c-49e6-a3cc-6969f1233775"
      ],
      "langs": [
        "4dcf9614-7914-42aa-99f4-dbce2e059133"
      ],
      "series": [
        "932cc315-edf4-4e5d-9856-7507c682bec3"
      ],
      "singers": [
        "52102fc7-6413-4a05-bcec-d010f5c81689"
      ],
      "songtypes": [
        "7be1b15c-cff8-4b37-a649-5c90f3d569a9"
      ],
      "songwriters": [
        "6286935a-458e-42f2-8a37-a708279502e5",
        "d1ff2f5e-1034-4b83-a8ea-bdf894718f45"
      ],
      "versions": [
        "c2143a7f-6970-450e-8a79-0302db9220a9"
      ]
    },
    "titles": {
      "jpn": "情報",
      "qro": "Jôhô"
    },
    "titles_default_language": "qro",
    "title": "Jôhô",
    "year": 2003,
    "titles_aliases": [
      "Jouhou"
    ]
  }
}