{
  "header": {
    "version": 4,
    "description": "Karaoke Mugen Karaoke Data File"
  },
  "medias": [
    {
      "version": "Default",
      "filename": "JPN - Momoe Yamaguchi - LIVE - Iihi tabidachi ~ Full Vers.mp4",
      "audiogain": -1.53,
      "loudnorm": "-17.02,-5.71,4.70,-27.07,-0.98",
      "filesize": 22882557,
      "duration": 242,
      "default": true,
      "lyrics": [
        {
          "filename": "JPN - Momoe Yamaguchi - LIVE - Iihi tabidachi ~ Full Vers.ass",
          "default": true,
          "version": "Default"
        }
      ]
    }
  ],
  "data": {
    "created_at": "2022-11-13T14:55:32.817Z",
    "ignoreHooks": false,
    "kid": "6443085a-8298-4066-9f23-8ec106961ff6",
    "modified_at": "2022-11-13T15:01:12.289Z",
    "repository": "kara.moe",
    "tags": {
      "authors": [
        "61865310-cb97-496c-a722-364b0a9ba90d"
      ],
      "collections": [
        "dbcf2c22-524d-4708-99bb-601703633927"
      ],
      "families": [
        "5391f9fe-638c-415f-8dc9-958e3a2c5787"
      ],
      "groups": [
        "57e5e0c0-e02e-4871-a6cb-d48ea604ebab",
        "8c22c899-b3ed-42da-a548-ce00f950798b"
      ],
      "langs": [
        "4dcf9614-7914-42aa-99f4-dbce2e059133"
      ],
      "singers": [
        "c89adec4-8fd5-4b2f-b646-3c239ebd0ac2"
      ],
      "songtypes": [
        "a0167949-580c-4de3-bf13-497e462e02f3"
      ],
      "songwriters": [
        "0340b7aa-3a47-4370-9375-33ae5467122c",
        "f98be3af-3ca6-4f3f-8a1a-0b3cbedc10b0"
      ],
      "versions": [
        "c2143a7f-6970-450e-8a79-0302db9220a9"
      ]
    },
    "titles": {
      "jpn": "いい日旅立ち",
      "qro": "Iihi tabidachi"
    },
    "titles_default_language": "qro",
    "year": 1978
  }
}