{
  "header": {
    "version": 4,
    "description": "Karaoke Mugen Karaoke Data File"
  },
  "medias": [
    {
      "version": "Asagao to Kase-san.",
      "filename": "JPN - Asagao to Kase-san. - AUDIO IS - Chiisana Koi no Uta ~ Asagao to Kase-san Vers.mp3",
      "audiogain": -6.02,
      "loudnorm": "-11.29,-4.36,3.30,-21.49,-0.77",
      "filesize": 9135595,
      "duration": 221,
      "default": true,
      "lyrics": [
        {
          "filename": "JPN - Asagao to Kase-san. - AUDIO IS - Chiisana Koi no Uta ~ Asagao to Kase-san Vers.ass",
          "default": true,
          "version": "Default",
          "subchecksum": "f4c349b33023ef8d6279a3384c78737a"
        }
      ]
    }
  ],
  "data": {
    "created_at": "2020-07-27T22:06:25.375Z",
    "kid": "7b007ed6-a6d3-46cb-83c2-1f1e886ef35b",
    "modified_at": "2021-02-25T10:46:25.521Z",
    "parents": [
      "bcd28b0e-b7a9-4cc1-9690-c3f5fdff4196"
    ],
    "repository": "kara.moe",
    "tags": {
      "authors": [
        "87096920-112f-485f-a310-04156cb4624d"
      ],
      "collections": [
        "c7db86a0-ff64-4044-9be4-66dd1ef1d1c1"
      ],
      "groups": [
        "60defa7b-774e-4680-8321-51b742c2e009",
        "ae613721-1fbe-480d-ba6b-d6d0702b184d"
      ],
      "langs": [
        "4dcf9614-7914-42aa-99f4-dbce2e059133"
      ],
      "series": [
        "ecaf4a6d-5020-47a8-8bdc-9506e03edce4"
      ],
      "singers": [
        "16c170fe-1ada-4916-a0be-42b19eca6ae3",
        "27204220-fdf3-4aff-a78d-ad3fb9ffe8ff"
      ],
      "songtypes": [
        "10a1ad3e-a05c-4f5c-84b6-f491e3e3a92e",
        "42a262ae-acba-4ab5-a446-c5789c96c821"
      ],
      "songwriters": [
        "29f62e20-759c-459b-adb5-64d83979b380",
        "c90ba668-3198-49df-ace2-32d42a90b3ec"
      ],
      "versions": [
        "9f63c359-d1bf-425a-bcf5-b245c2c9211d"
      ]
    },
    "title": "Chiisana Koi no Uta ~ Asagao to Kase-san Vers.",
    "titles": {
      "qro": "Chiisana Koi no Uta ~ Asagao to Kase-san Vers.",
      "jpn": "小さな恋のうた ~ あさがおと加瀬さん Vers."
    },
    "year": 2018,
    "titles_default_language": "qro"
  }
}