{
  "header": {
    "version": 4,
    "description": "Karaoke Mugen Karaoke Data File"
  },
  "medias": [
    {
      "version": "Default",
      "filename": "JPN - Jouran The Princess of Snow and Blood - ED - Embrace of Light.mp4",
      "audiogain": -0.32,
      "loudnorm": "-17.11,-3.76,6.70,-27.17,-1.01",
      "filesize": 59120870,
      "duration": 90,
      "default": true,
      "lyrics": [
        {
          "filename": "JPN - Jouran The Princess of Snow and Blood - ED - Embrace of Light.ass",
          "default": true,
          "version": "Default",
          "subchecksum": "4fcc1dc0dcae2c32211c98184018127e"
        }
      ]
    }
  ],
  "data": {
    "created_at": "2021-05-10T12:39:16.002Z",
    "kid": "03b92d15-3f8c-4ac4-a197-3b903e325f74",
    "modified_at": "2021-05-10T12:47:00.724Z",
    "repository": "kara.moe",
    "tags": {
      "authors": [
        "56b54c89-86ae-4635-992f-ddc1234b8015"
      ],
      "collections": [
        "c7db86a0-ff64-4044-9be4-66dd1ef1d1c1"
      ],
      "creators": [
        "91099d0b-62ee-4273-8588-74a217aa2a1c"
      ],
      "families": [
        "0377db02-3af6-43b8-9b08-c759df3d25c3"
      ],
      "groups": [
        "8c22c899-b3ed-42da-a548-ce00f950798b",
        "8e209ae4-4381-438f-89dc-1b21752027d2"
      ],
      "langs": [
        "4dcf9614-7914-42aa-99f4-dbce2e059133"
      ],
      "origins": [
        "938de218-5343-4865-94d3-fb33f2eaa152"
      ],
      "series": [
        "a12ba9fa-4195-40f5-97e7-094b5677ce55"
      ],
      "singers": [
        "775effdd-d1d9-44e0-aaa2-774411ee6f95"
      ],
      "songtypes": [
        "38c77c56-2b95-4040-b676-0994a8cb0597"
      ],
      "songwriters": [
        "30e4f047-50d7-4ed7-8ed3-57cef0f20489",
        "60c782e0-d553-46c4-a470-bf13b3c88689"
      ]
    },
    "title": "Embrace of Light",
    "titles": {
      "eng": "Embrace of light"
    },
    "year": 2021,
    "titles_default_language": "eng"
  }
}