{
  "header": {
    "version": 4,
    "description": "Karaoke Mugen Karaoke Data File"
  },
  "medias": [
    {
      "version": "Default",
      "filename": "JPN - One Piece - ED9 - Free Will.mp4",
      "audiogain": -6.45,
      "loudnorm": "-11.71,0.39,6.30,-22.10,-1.36",
      "filesize": 10992065,
      "duration": 71,
      "default": true,
      "lyrics": [
        {
          "filename": "JPN - One Piece - ED9 - Free Will.ass",
          "default": true,
          "version": "Default",
          "subchecksum": "71e7b8bcbf4b986c39d3882efa7c92bc"
        }
      ]
    }
  ],
  "data": {
    "created_at": "2017-10-11T17:02:44.000Z",
    "kid": "2108630b-ae5c-4b57-a2cc-4c0efa626f00",
    "modified_at": "2021-02-25T12:40:45.023Z",
    "repository": "kara.moe",
    "songorder": 9,
    "tags": {
      "authors": [
        "5bdaba57-27f8-4568-8806-76a807728766"
      ],
      "collections": [
        "c7db86a0-ff64-4044-9be4-66dd1ef1d1c1"
      ],
      "creators": [
        "f694bf43-b427-4244-9744-9d3f84fd8a31"
      ],
      "families": [
        "0377db02-3af6-43b8-9b08-c759df3d25c3"
      ],
      "genres": [
        "a0aeef4a-6428-45ff-a6e1-468b595930c2"
      ],
      "groups": [
        "3c14c864-533c-49e6-a3cc-6969f1233775"
      ],
      "langs": [
        "4dcf9614-7914-42aa-99f4-dbce2e059133"
      ],
      "origins": [
        "938de218-5343-4865-94d3-fb33f2eaa152"
      ],
      "series": [
        "955758fc-ef9b-441e-b9e3-33dd2caf2753"
      ],
      "singers": [
        "695c4c7a-6f54-432b-82fd-1cd748b0c086"
      ],
      "songtypes": [
        "38c77c56-2b95-4040-b676-0994a8cb0597"
      ],
      "songwriters": [
        "0d93e7f9-9488-4d90-874b-22c82367742b",
        "22f149f6-5e09-43b2-98ad-756ae204a445"
      ],
      "franchises": [
        "955758fc-ef9b-441e-b9e3-33dd2caf2753"
      ]
    },
    "title": "Free Will",
    "titles": {
      "eng": "Free Will"
    },
    "year": 2002,
    "titles_default_language": "eng"
  }
}