{
  "header": {
    "version": 4,
    "description": "Karaoke Mugen Karaoke Data File"
  },
  "medias": [
    {
      "version": "Default",
      "filename": "JPN - Bleach - MV - Houkiboshi ~ Full Vers.mp4",
      "audiogain": 3.66,
      "loudnorm": "-21.01,-3.33,3.50,-31.25,-0.17",
      "filesize": 41213318,
      "duration": 202,
      "default": true,
      "lyrics": [
        {
          "filename": "JPN - Bleach - MV - Houkiboshi ~ Full Vers.ass",
          "default": true,
          "version": "Default"
        }
      ]
    }
  ],
  "data": {
    "created_at": "2019-11-17T18:19:54.570Z",
    "kid": "6d3192c7-2039-4c8b-9b05-0eeafcb2440d",
    "modified_at": "2022-06-04T00:17:30.863Z",
    "parents": [
      "b3e7db36-a348-4629-984e-cc3615320553"
    ],
    "repository": "kara.moe",
    "songorder": null,
    "tags": {
      "authors": [
        "1db1738f-acdc-42fc-aec3-60f4bddf660d"
      ],
      "creators": [
        "9f10c180-4ed1-4a4e-9e39-c37e09b91d5f"
      ],
      "families": [
        "5391f9fe-638c-415f-8dc9-958e3a2c5787"
      ],
      "groups": [
        "3c14c864-533c-49e6-a3cc-6969f1233775"
      ],
      "langs": [
        "4dcf9614-7914-42aa-99f4-dbce2e059133"
      ],
      "series": [
        "d68e6557-fdc3-4c8b-805c-9778918abd03"
      ],
      "singers": [
        "ca14cd6a-126f-46c5-972d-3fd09fcbf6dc"
      ],
      "songtypes": [
        "7be1b15c-cff8-4b37-a649-5c90f3d569a9"
      ],
      "songwriters": [
        "0ba61bc6-018c-44a7-b6a2-15ac3d5b7baa",
        "32a0b643-d4c9-43bb-a948-e61d044594fe"
      ],
      "versions": [
        "c2143a7f-6970-450e-8a79-0302db9220a9"
      ],
      "collections": [
        "dbcf2c22-524d-4708-99bb-601703633927"
      ],
      "franchises": [
        "d68e6557-fdc3-4c8b-805c-9778918abd03"
      ]
    },
    "titles": {
      "qro": "Houkiboshi",
      "jpn": "ほうき星"
    },
    "titles_default_language": "qro",
    "title": "Houkiboshi",
    "year": 2005
  }
}