{
  "header": {
    "version": 4,
    "description": "Karaoke Mugen Karaoke Data File"
  },
  "medias": [
    {
      "version": "Default",
      "filename": "JPN - Project SEKAI COLORFUL STAGE! - GAME MV - BRING IT ON ~ Cover Short Vers.mp4",
      "audiogain": -12.25,
      "loudnorm": "-4.32,4.09,2.40,-14.60,-2.74",
      "filesize": 70296364,
      "duration": 105,
      "default": true,
      "lyrics": [
        {
          "filename": "JPN - Project SEKAI COLORFUL STAGE! - GAME MV - BRING IT ON ~ Cover Short Vers.ass",
          "default": true,
          "version": "Default"
        }
      ]
    }
  ],
  "data": {
    "created_at": "2022-01-25T21:42:18.937Z",
    "ignoreHooks": false,
    "kid": "b822b61c-1a2e-4c17-9e1d-6fef18787a68",
    "modified_at": "2023-02-05T12:42:04.720Z",
    "parents": [
      "002e5113-7623-4aed-a293-4557a8365c04"
    ],
    "repository": "kara.moe",
    "tags": {
      "authors": [
        "5a629611-96b4-422c-b309-ba7a58e263a2"
      ],
      "collections": [
        "c7db86a0-ff64-4044-9be4-66dd1ef1d1c1"
      ],
      "creators": [
        "1e5648fb-22fc-474d-b865-254eb31fa000"
      ],
      "genres": [
        "45623cae-6d68-4304-a49b-896d1d6f4580"
      ],
      "groups": [
        "8e209ae4-4381-438f-89dc-1b21752027d2"
      ],
      "langs": [
        "4dcf9614-7914-42aa-99f4-dbce2e059133"
      ],
      "misc": [
        "1d6ceadf-a885-47e5-b23b-c07bf668a424"
      ],
      "platforms": [
        "213a1a15-e73a-4a08-b3f6-b6e2745a82e5"
      ],
      "series": [
        "192b33fb-638a-4680-bdb2-a5adb9889849"
      ],
      "singers": [
        "7ce72adb-b4f2-42d9-b628-360b759a03df",
        "c06de857-8928-41e9-b5db-d5af620d0f89",
        "dbb8d613-a120-46c7-bb42-bc6c1efb61f7",
        "e53db9de-5632-41d6-8911-afb2f27545b0"
      ],
      "singergroups": [
        "e1de7634-8683-4738-9dfb-a66121ec36c5"
      ],
      "songtypes": [
        "7be1b15c-cff8-4b37-a649-5c90f3d569a9"
      ],
      "songwriters": [
        "466ad700-8ba6-4dea-80a7-c0b763548a72",
        "ff1aec1d-751a-40ff-bbff-a3f0fd5e9749"
      ],
      "versions": [
        "03e1e1d2-8641-47b7-bbcb-39a3df9ff21c",
        "d125c80a-86c1-4321-88e9-07b7800679b6"
      ],
      "origins": [
        "dbedd6b3-d125-4cd8-aa32-c4175e4ca3a3"
      ]
    },
    "titles": {
      "eng": "BRING IT ON",
      "jpn": "劣等上等",
      "qro": "Rettô Joutô"
    },
    "titles_default_language": "eng",
    "titles_aliases": [
      "Rettou",
      "Joutou"
    ],
    "year": 2020
  }
}