{
  "header": {
    "version": 4,
    "description": "Karaoke Mugen Karaoke Data File"
  },
  "medias": [
    {
      "version": "Default",
      "filename": "JPN - Muv-Luv Alternative - OP - Rinne.mp4",
      "audiogain": 0.91,
      "loudnorm": "-17.12,-6.58,4.50,-27.28,-0.18",
      "filesize": 21974003,
      "duration": 90,
      "default": true,
      "lyrics": [
        {
          "filename": "JPN - Muv-Luv Alternative - OP - Rinne.ass",
          "default": true,
          "version": "Default"
        }
      ]
    }
  ],
  "data": {
    "comment": "Alors jsp si on peut mettre tous les membres dans \"chanté par\" et si dcp le nom du groupe va dans \"du groupe musical\"",
    "created_at": "2022-01-31T18:13:53.062Z",
    "ignoreHooks": false,
    "kid": "bd24b822-fad1-447e-90ac-87ef451f6085",
    "modified_at": "2023-04-22T15:14:14.708Z",
    "repository": "kara.moe",
    "tags": {
      "authors": [
        "a5dbab74-510b-48c5-9cea-5a537a81c974"
      ],
      "collections": [
        "c7db86a0-ff64-4044-9be4-66dd1ef1d1c1"
      ],
      "creators": [
        "314bd100-58c4-480a-8807-4458a05dc3e6",
        "bb2376f3-8ffd-49c3-ab92-6a3c99b185c5",
        "eb507394-8b26-45a4-b13d-d93849f844a3"
      ],
      "families": [
        "0377db02-3af6-43b8-9b08-c759df3d25c3"
      ],
      "genres": [
        "f60ba57d-5ef4-49e0-b93b-d0dcbcff6592"
      ],
      "groups": [
        "8c22c899-b3ed-42da-a548-ce00f950798b",
        "8e209ae4-4381-438f-89dc-1b21752027d2"
      ],
      "langs": [
        "4dcf9614-7914-42aa-99f4-dbce2e059133"
      ],
      "origins": [
        "938de218-5343-4865-94d3-fb33f2eaa152",
        "5106d71b-a78e-4d19-a16d-f8fb6719538a"
      ],
      "series": [
        "7c966609-3c82-45a4-b115-fd61bb5f25fe"
      ],
      "singers": [
        "34fd5f54-8fd9-4a0e-b8eb-5653e21b03ec",
        "41b00095-d3aa-4b59-8560-0da6e1741ad6",
        "67494464-bfac-4184-ae30-6066e070b50c",
        "72eb933d-be99-4566-ba35-b1222bca210c",
        "a18579e7-8a01-4605-8291-f9a8b497c118"
      ],
      "singergroups": [
        "664c1203-4419-4113-95d8-d37a5034ace0"
      ],
      "songtypes": [
        "f02ad9b3-0bd9-4aad-85b3-9976739ba0e4"
      ],
      "songwriters": [
        "babc6ded-0908-446f-b3a9-5066fea0e6dc"
      ],
      "franchises": [
        "71cd681c-bb96-412d-b6af-6c134af20758"
      ]
    },
    "titles": {
      "jpn": "輪廻",
      "qro": "Rinne"
    },
    "titles_default_language": "qro",
    "year": 2021
  }
}