{
  "header": {
    "version": 4,
    "description": "Karaoke Mugen Karaoke Data File"
  },
  "medias": [
    {
      "version": "Default",
      "filename": "JPN - Love Live! Nijigasaki Gakuen School Idol Doukoukai - CS LIVE - Fire Bird ~ Full Vers.mp4",
      "audiogain": -8.84,
      "loudnorm": "-8.64,0.20,4.40,-18.67,-0.04",
      "filesize": 160352170,
      "duration": 235,
      "default": true,
      "lyrics": [
        {
          "filename": "JPN - Love Live! Nijigasaki Gakuen School Idol Doukoukai - CS LIVE - Fire Bird ~ Full Vers.ass",
          "default": true,
          "version": "Default"
        }
      ]
    }
  ],
  "data": {
    "created_at": "2021-05-20T11:45:45.492Z",
    "ignoreHooks": false,
    "kid": "b3c54702-6d36-4fd1-986c-4062fffe3934",
    "modified_at": "2022-12-21T22:36:36.029Z",
    "repository": "kara.moe",
    "tags": {
      "authors": [
        "d4eb6770-4dec-407d-8955-7bc0dc2c4d47"
      ],
      "collections": [
        "dbcf2c22-524d-4708-99bb-601703633927"
      ],
      "creators": [
        "b2805292-730e-473a-96f0-fd8e7ffd1fd7",
        "ef8f80e1-d244-4aea-b7f0-984d6dd4b82b"
      ],
      "families": [
        "5391f9fe-638c-415f-8dc9-958e3a2c5787"
      ],
      "genres": [
        "caa86df2-0d59-474b-885c-f240a9e891b0"
      ],
      "groups": [
        "8e209ae4-4381-438f-89dc-1b21752027d2"
      ],
      "langs": [
        "4dcf9614-7914-42aa-99f4-dbce2e059133"
      ],
      "series": [
        "9609e3a6-60db-412a-9d81-e9d9d2e0fb79"
      ],
      "singers": [
        "8f4dc795-4e05-4e8f-a5fc-61e45e229402"
      ],
      "songtypes": [
        "a0167949-580c-4de3-bf13-497e462e02f3",
        "a8a2616c-b5a1-4df3-ad6f-89291bc67dee"
      ],
      "songwriters": [
        "bd429645-83bd-4272-8657-b07a39fdb67a"
      ],
      "versions": [
        "c2143a7f-6970-450e-8a79-0302db9220a9"
      ],
      "franchises": [
        "fd5d066e-e85a-4eea-8688-2979a887450a"
      ]
    },
    "titles": {
      "eng": "Fire Bird"
    },
    "titles_default_language": "eng",
    "year": 2021
  }
}