{
  "header": {
    "version": 4,
    "description": "Karaoke Mugen Karaoke Data File"
  },
  "medias": [
    {
      "version": "Default",
      "filename": "JPN - GANTZ - AUDIO IN - Radio Taisou no Uta.mp3",
      "audiogain": -4.77,
      "loudnorm": "-15.17,-1.51,4.60,-25.46,-1.88",
      "filesize": 1135742,
      "duration": 57,
      "default": true,
      "lyrics": [
        {
          "filename": "JPN - GANTZ - AUDIO IN - Radio Taisou no Uta.ass",
          "default": true,
          "version": "Default"
        }
      ]
    }
  ],
  "data": {
    "created_at": "2020-08-22T14:31:54.781Z",
    "ignoreHooks": false,
    "kid": "0a7e6a0c-1d50-4649-8a52-c121549245b0",
    "modified_at": "2022-09-30T20:28:19.549Z",
    "repository": "kara.moe",
    "tags": {
      "authors": [
        "4d71ce82-eed1-4c44-ac85-5f7255f3dad3"
      ],
      "collections": [
        "c7db86a0-ff64-4044-9be4-66dd1ef1d1c1"
      ],
      "groups": [
        "3c14c864-533c-49e6-a3cc-6969f1233775"
      ],
      "langs": [
        "4dcf9614-7914-42aa-99f4-dbce2e059133"
      ],
      "origins": [
        "938de218-5343-4865-94d3-fb33f2eaa152"
      ],
      "series": [
        "91aaf4d2-76ca-464b-9042-b66766085194"
      ],
      "singers": [
        "8a70a0f0-00ba-4b83-ae6e-8f3d052a47e2"
      ],
      "songtypes": [
        "42a262ae-acba-4ab5-a446-c5789c96c821",
        "5e5250d9-351a-4a82-98eb-55db50ad8962"
      ],
      "franchises": [
        "91aaf4d2-76ca-464b-9042-b66766085194"
      ]
    },
    "titles": {
      "jpn": "ラジオ体操の歌",
      "qro": "Radio Taisô no Uta"
    },
    "titles_default_language": "qro",
    "title": "Radio Taisô no Uta",
    "year": 2004,
    "titles_aliases": [
      "Taisou"
    ]
  }
}