{
  "header": {
    "version": 4,
    "description": "Karaoke Mugen Karaoke Data File"
  },
  "medias": [
    {
      "version": "Default",
      "filename": "JPN - Noir Vesper, Reine Pavolia - MV - Bad End Night ~ Cover Vers.mp4",
      "audiogain": -3.45,
      "loudnorm": "-13.99,-0.82,14.40,-24.74,-0.94",
      "filesize": 94041434,
      "duration": 251,
      "default": true,
      "lyrics": [
        {
          "filename": "JPN - Noir Vesper, Reine Pavolia - MV - Bad End Night ~ Cover Vers.ass",
          "default": true,
          "version": "Default"
        }
      ]
    }
  ],
  "data": {
    "created_at": "2022-11-26T16:53:28.926Z",
    "ignoreHooks": false,
    "kid": "ce197381-ab54-4c9d-b527-42bfb4f356c4",
    "modified_at": "2022-11-26T16:54:28.676Z",
    "parents": [
      "a004902a-370f-476c-ab8b-dee1765990dd"
    ],
    "repository": "kara.moe",
    "tags": {
      "authors": [
        "278c6742-0b75-43dd-b317-2ea112952b4a"
      ],
      "collections": [
        "c7db86a0-ff64-4044-9be4-66dd1ef1d1c1"
      ],
      "creators": [
        "0263d413-17bb-4cee-a311-6dd896eda1c9"
      ],
      "families": [
        "0377db02-3af6-43b8-9b08-c759df3d25c3"
      ],
      "groups": [
        "8c22c899-b3ed-42da-a548-ce00f950798b",
        "8e209ae4-4381-438f-89dc-1b21752027d2"
      ],
      "langs": [
        "4dcf9614-7914-42aa-99f4-dbce2e059133"
      ],
      "origins": [
        "5106d71b-a78e-4d19-a16d-f8fb6719538a"
      ],
      "singers": [
        "0c70150b-cccd-4f24-b684-041f1163bede",
        "129aa13a-dfb8-4654-aea9-4a669147fd5d",
        "3ea8c428-f5c9-44f2-89e9-ee813f154cb4",
        "4e8b870c-0201-4d30-80cf-f067122768f7",
        "6cc434e0-1838-4fe1-9b2b-02252afe3c19",
        "a80f1013-c2b8-4934-8387-840788b749b5",
        "bad4f58f-49c2-409c-8b44-c0ead76dda8d",
        "c4cd517c-9219-4757-9d66-0ffb56c754f9",
        "de16f62a-13e8-4d2b-ba56-75be7aa29134"
      ],
      "songtypes": [
        "7be1b15c-cff8-4b37-a649-5c90f3d569a9"
      ],
      "songwriters": [
        "502f6283-cf5a-420c-bac4-a11e2c79f48c",
        "875bd7fd-9599-4be0-ab86-f5668fac586a"
      ],
      "versions": [
        "03e1e1d2-8641-47b7-bbcb-39a3df9ff21c"
      ]
    },
    "titles": {
      "eng": "Bad ∞ End ∞ Night"
    },
    "titles_default_language": "eng",
    "year": 2022
  }
}