{
  "header": {
    "version": 4,
    "description": "Karaoke Mugen Karaoke Data File"
  },
  "medias": [
    {
      "version": "Default",
      "filename": "JPN - Nekomonogatari Kuro - ED - Kieru Daydream.mp4",
      "audiogain": 4.6,
      "loudnorm": "-21.13,-8.15,2.50,-31.26,-0.29",
      "filesize": 50734654,
      "duration": 91,
      "default": true,
      "lyrics": [
        {
          "filename": "JPN - Nekomonogatari Kuro - ED - Kieru Daydream.ass",
          "default": true,
          "version": "Default",
          "subchecksum": "629ccbfa5cfd7c778a56493950661c90"
        }
      ]
    }
  ],
  "data": {
    "created_at": "2017-10-11T17:03:14.000Z",
    "kid": "3845cd84-9071-4174-9cb7-4eaaa0ca1813",
    "modified_at": "2021-02-25T12:35:11.736Z",
    "repository": "kara.moe",
    "tags": {
      "authors": [
        "b332f604-b144-4f33-9145-ff61cb670a4f"
      ],
      "collections": [
        "c7db86a0-ff64-4044-9be4-66dd1ef1d1c1"
      ],
      "creators": [
        "c3bd80ef-d1fe-427f-913f-a2ba2fe66114"
      ],
      "families": [
        "0377db02-3af6-43b8-9b08-c759df3d25c3"
      ],
      "groups": [
        "8c22c899-b3ed-42da-a548-ce00f950798b",
        "ae613721-1fbe-480d-ba6b-d6d0702b184d"
      ],
      "langs": [
        "4dcf9614-7914-42aa-99f4-dbce2e059133"
      ],
      "origins": [
        "938de218-5343-4865-94d3-fb33f2eaa152"
      ],
      "series": [
        "bd591f5b-b226-431a-8168-6ebe7e6d26f2"
      ],
      "singers": [
        "c509e5a7-aa53-4f10-aaa3-c280effe8560"
      ],
      "songtypes": [
        "38c77c56-2b95-4040-b676-0994a8cb0597"
      ],
      "songwriters": [
        "36ed7846-c93a-4e89-b677-34c3a8371964",
        "d7658a75-7945-4f08-8233-02f38dc385ba"
      ],
      "franchises": [
        "94c05ef3-bfff-4a4d-a1a4-b07c32389971"
      ]
    },
    "title": "Kieru Daydream",
    "titles": {
      "qro": "Kieru Daydream",
      "jpn": "消えるdaydream"
    },
    "year": 2012,
    "titles_default_language": "qro"
  }
}