{
  "header": {
    "version": 4,
    "description": "Karaoke Mugen Karaoke Data File"
  },
  "medias": [
    {
      "version": "Default",
      "filename": "JPN - Dororo - OP2 - Dororo.mp4",
      "audiogain": -5.16,
      "loudnorm": "-11.18,-0.38,1.50,-21.23,-0.21",
      "filesize": 39297805,
      "duration": 89,
      "default": true,
      "lyrics": [
        {
          "filename": "JPN - Dororo - OP2 - Dororo.ass",
          "default": true,
          "version": "Default",
          "subchecksum": "74488530211b72b4e0ce58026c92c9e9"
        }
      ]
    }
  ],
  "data": {
    "created_at": "2019-04-08T23:44:49.000Z",
    "kid": "5a2da0c6-eb7b-46e0-9a56-9b3efb6d79f4",
    "modified_at": "2021-02-25T11:11:18.489Z",
    "repository": "kara.moe",
    "songorder": 2,
    "tags": {
      "authors": [
        "06852e02-b77e-4106-b6f7-2d03942ad0ea"
      ],
      "collections": [
        "c7db86a0-ff64-4044-9be4-66dd1ef1d1c1"
      ],
      "creators": [
        "0a86e9ea-5e17-4371-8f2a-60c818324d58",
        "2a4c0113-3a9e-465d-987c-711a0ba0c187"
      ],
      "families": [
        "0377db02-3af6-43b8-9b08-c759df3d25c3"
      ],
      "groups": [
        "ae613721-1fbe-480d-ba6b-d6d0702b184d"
      ],
      "langs": [
        "4dcf9614-7914-42aa-99f4-dbce2e059133"
      ],
      "misc": [
        "fe819ff1-9db8-4a0f-85dc-0e322c9126c4"
      ],
      "origins": [
        "938de218-5343-4865-94d3-fb33f2eaa152"
      ],
      "series": [
        "915958e7-8c49-4008-be21-e2c58f0fbec7"
      ],
      "singers": [
        "6d7243f4-797e-40a2-980d-1fc467d456d8"
      ],
      "songtypes": [
        "f02ad9b3-0bd9-4aad-85b3-9976739ba0e4"
      ],
      "songwriters": [
        "8bede077-b96f-415c-8057-552e236fe01a"
      ],
      "franchises": [
        "915958e7-8c49-4008-be21-e2c58f0fbec7"
      ]
    },
    "title": "Dororo",
    "titles": {
      "qro": "Dororo"
    },
    "year": 2018,
    "titles_default_language": "qro"
  }
}