{
  "header": {
    "version": 4,
    "description": "Karaoke Mugen Karaoke Data File"
  },
  "medias": [
    {
      "version": "Default",
      "filename": "JPN - Touhou - REMIX MV - Taiyou no Hana -Eternal Summer-.mp4",
      "audiogain": -10.14,
      "loudnorm": "-7.64,0.83,7.30,-17.91,0.04",
      "filesize": 130435306,
      "duration": 258,
      "default": true,
      "lyrics": [
        {
          "filename": "JPN - Touhou - REMIX MV - Taiyou no Hana -Eternal Summer-.ass",
          "default": true,
          "version": "Default"
        }
      ]
    }
  ],
  "data": {
    "created_at": "2022-02-04T00:29:34.988Z",
    "ignoreHooks": false,
    "kid": "601a4adb-730d-45ba-bd88-0427fd307b61",
    "modified_at": "2023-05-20T13:13:52.393Z",
    "repository": "kara.moe",
    "tags": {
      "authors": [
        "fb28c6d3-a81e-40c0-9a4c-e3268c60a64b"
      ],
      "collections": [
        "c7db86a0-ff64-4044-9be4-66dd1ef1d1c1"
      ],
      "families": [
        "0377db02-3af6-43b8-9b08-c759df3d25c3"
      ],
      "groups": [
        "8e209ae4-4381-438f-89dc-1b21752027d2"
      ],
      "langs": [
        "4dcf9614-7914-42aa-99f4-dbce2e059133"
      ],
      "misc": [
        "ec4360fa-3e3c-4f6f-b0e1-fb8b12b6dd18"
      ],
      "series": [
        "1bdaa5a1-dfa6-4365-b746-7a0b194dafd6"
      ],
      "singers": [
        "a6e3509f-befc-4b8b-ac1c-3614e1c32447"
      ],
      "singergroups": [
        "eb49131c-b890-422d-9947-0e82292801e1"
      ],
      "songtypes": [
        "7be1b15c-cff8-4b37-a649-5c90f3d569a9"
      ],
      "songwriters": [
        "26cb5252-8510-49e0-897c-a611a05fc056",
        "3059eca0-7b9f-41e0-a5a6-2e7e3be5d025",
        "a6e3509f-befc-4b8b-ac1c-3614e1c32447"
      ],
      "franchises": [
        "1bdaa5a1-dfa6-4365-b746-7a0b194dafd6"
      ]
    },
    "titles": {
      "jpn": "太陽の花 -Eternal Summer-",
      "qro": "Taiyô no Hana -Eternal Summer-"
    },
    "titles_default_language": "qro",
    "titles_aliases": [
      "Sunflower",
      "Taiyou"
    ],
    "year": 2020
  }
}