{
  "header": {
    "version": 4,
    "description": "Karaoke Mugen Karaoke Data File"
  },
  "medias": [
    {
      "version": "Default",
      "filename": "JPN - Space Dandy - ED - X Jigen e Youkoso.mp4",
      "audiogain": 1.38,
      "loudnorm": "-18.28,-5.16,4.00,-28.42,-0.86",
      "filesize": 48537583,
      "duration": 90,
      "default": true,
      "lyrics": [
        {
          "filename": "JPN - Space Dandy - ED - X Jigen e Youkoso.ass",
          "default": true,
          "version": "Default"
        }
      ]
    }
  ],
  "data": {
    "created_at": "2017-10-11T17:01:05.000Z",
    "ignoreHooks": false,
    "kid": "bd9a1495-10cf-41a3-abb0-3724043f1a85",
    "modified_at": "2023-06-01T23:14:19.146Z",
    "repository": "kara.moe",
    "tags": {
      "authors": [
        "a5dbab74-510b-48c5-9cea-5a537a81c974"
      ],
      "collections": [
        "c7db86a0-ff64-4044-9be4-66dd1ef1d1c1"
      ],
      "creators": [
        "57ffcdd9-7e4f-4971-85ce-0fb3aa8151ac"
      ],
      "families": [
        "0377db02-3af6-43b8-9b08-c759df3d25c3"
      ],
      "groups": [
        "8c22c899-b3ed-42da-a548-ce00f950798b",
        "ae613721-1fbe-480d-ba6b-d6d0702b184d",
        "f53332f8-daed-4ac5-97c9-64239b520db0"
      ],
      "langs": [
        "4dcf9614-7914-42aa-99f4-dbce2e059133"
      ],
      "misc": [
        "fe819ff1-9db8-4a0f-85dc-0e322c9126c4"
      ],
      "origins": [
        "938de218-5343-4865-94d3-fb33f2eaa152"
      ],
      "series": [
        "78f34cf6-00f0-42bd-aae4-4233e6abcaac"
      ],
      "singers": [
        "49f072be-b82b-470e-a3bf-a1600efc1b83"
      ],
      "songtypes": [
        "38c77c56-2b95-4040-b676-0994a8cb0597"
      ],
      "songwriters": [
        "6a4ddfcf-aaf4-48e5-af2b-6f6f9451881e"
      ]
    },
    "titles": {
      "jpn": "X次元へようこそ",
      "qro": "X Jigen e Youkoso"
    },
    "titles_default_language": "qro",
    "year": 2014
  }
}