{
  "header": {
    "version": 4,
    "description": "Karaoke Mugen Karaoke Data File"
  },
  "medias": [
    {
      "version": "Default",
      "filename": "JPN - Hoshi no Kirby - ED1 - Kihon wa Maru.mp4",
      "audiogain": -7.66,
      "loudnorm": "-11.18,1.07,1.70,-21.27,-0.14",
      "filesize": 6965626,
      "duration": 89,
      "default": true,
      "lyrics": [
        {
          "filename": "JPN - Hoshi no Kirby - ED1 - Kihon wa Maru.ass",
          "default": true,
          "version": "Default",
          "subchecksum": "ac36b0a95cb78cb17deb56e4b6ce9966"
        }
      ]
    }
  ],
  "data": {
    "created_at": "2017-10-11T17:02:59.000Z",
    "kid": "e9dc197c-db84-4ff1-99c4-5cb4aac413ef",
    "modified_at": "2021-02-25T11:43:26.819Z",
    "repository": "kara.moe",
    "songorder": 1,
    "tags": {
      "authors": [
        "a5dbab74-510b-48c5-9cea-5a537a81c974"
      ],
      "collections": [
        "c7db86a0-ff64-4044-9be4-66dd1ef1d1c1"
      ],
      "creators": [
        "3bf68723-1622-47e3-ac15-66ce49858915"
      ],
      "families": [
        "0377db02-3af6-43b8-9b08-c759df3d25c3"
      ],
      "groups": [
        "3c14c864-533c-49e6-a3cc-6969f1233775",
        "8c22c899-b3ed-42da-a548-ce00f950798b"
      ],
      "langs": [
        "4dcf9614-7914-42aa-99f4-dbce2e059133"
      ],
      "origins": [
        "938de218-5343-4865-94d3-fb33f2eaa152"
      ],
      "series": [
        "f5b1ef4e-b62d-45d2-b12f-35bfd509789b"
      ],
      "singers": [
        "d8343d68-cf6e-4984-afca-6dd094ef3c39"
      ],
      "songtypes": [
        "38c77c56-2b95-4040-b676-0994a8cb0597"
      ],
      "songwriters": [
        "3e14ae30-dae5-4ef8-beb0-23a6cf0b67aa",
        "b95df6dd-de05-4d12-a6a1-31c1014d0ac6"
      ]
    },
    "title": "Kihon wa Maru",
    "titles": {
      "qro": "Kihon wa Maru",
      "jpn": "きほんはまる"
    },
    "year": 2001,
    "titles_default_language": "qro"
  }
}