{
  "header": {
    "version": 4,
    "description": "Karaoke Mugen Karaoke Data File"
  },
  "medias": [
    {
      "version": "Default",
      "filename": "JPN - MILGRAM - MV - This Is How To Be In Love With You.mp4",
      "audiogain": -7.35,
      "loudnorm": "-9.69,0.06,3.50,-19.78,-0.31",
      "filesize": 99821083,
      "duration": 211,
      "default": true,
      "lyrics": [
        {
          "filename": "JPN - MILGRAM - MV - This Is How To Be In Love With You.ass",
          "default": true,
          "version": "Default"
        }
      ]
    }
  ],
  "data": {
    "created_at": "2022-03-05T18:57:40.263Z",
    "ignoreHooks": false,
    "kid": "18c334bf-a2a6-4a84-b0a3-f4f19918bc0b",
    "modified_at": "2022-03-05T19:00:36.172Z",
    "repository": "kara.moe",
    "tags": {
      "authors": [
        "fb28c6d3-a81e-40c0-9a4c-e3268c60a64b"
      ],
      "collections": [
        "c7db86a0-ff64-4044-9be4-66dd1ef1d1c1"
      ],
      "creators": [
        "f963181a-1214-47f8-b6f9-1705cbc33779"
      ],
      "families": [
        "0377db02-3af6-43b8-9b08-c759df3d25c3"
      ],
      "groups": [
        "8e209ae4-4381-438f-89dc-1b21752027d2"
      ],
      "langs": [
        "4dcf9614-7914-42aa-99f4-dbce2e059133"
      ],
      "misc": [
        "ec4fee75-71fb-45b4-9772-2ca374b4b600"
      ],
      "series": [
        "c0e3120a-d593-4051-87dd-0bc28a803a5f"
      ],
      "singers": [
        "34a77db2-c2d1-49b6-b1a1-5ef4a15990d8"
      ],
      "songtypes": [
        "7be1b15c-cff8-4b37-a649-5c90f3d569a9"
      ],
      "songwriters": [
        "48c8a778-756b-4ca8-80bc-397fb06ffc7d",
        "6d9eaa90-048f-41d5-a264-8d73df69cc22"
      ]
    },
    "titles": {
      "eng": "This Is How To Be In Love With You",
      "qro": "Ai nan desu yo",
      "jpn": "愛なんですよ"
    },
    "title": "This Is How To Be In Love With You",
    "year": 2021,
    "titles_default_language": "eng"
  }
}