{
  "header": {
    "version": 4,
    "description": "Karaoke Mugen Karaoke Data File"
  },
  "medias": [
    {
      "version": "Default",
      "filename": "JPN - Lodoss-tou senki Eiyuu Kishi Den - LIVE - Kiseki no Umi ~ Full Vers.mp4",
      "audiogain": -7.35,
      "loudnorm": "-9.31,0.17,18.90,-20.75,-1.98",
      "filesize": 142863274,
      "duration": 348,
      "default": true,
      "lyrics": [
        {
          "filename": "JPN - Lodoss-tou senki Eiyuu Kishi Den - LIVE - Kiseki no Umi ~ Full Vers.ass",
          "default": true,
          "version": "Default"
        }
      ]
    }
  ],
  "data": {
    "created_at": "2020-01-11T22:47:30.353Z",
    "ignoreHooks": false,
    "kid": "b0d907df-7891-4f9b-8b8a-288fe2f2834e",
    "modified_at": "2022-12-21T22:36:37.937Z",
    "parents": [
      "6170c77f-b9ae-42eb-b664-9b0811be11b3"
    ],
    "repository": "kara.moe",
    "tags": {
      "authors": [
        "1db1738f-acdc-42fc-aec3-60f4bddf660d"
      ],
      "collections": [
        "dbcf2c22-524d-4708-99bb-601703633927"
      ],
      "creators": [
        "e8da43a3-7058-4162-9d31-2f331dee993e"
      ],
      "families": [
        "5391f9fe-638c-415f-8dc9-958e3a2c5787"
      ],
      "groups": [
        "24db50aa-a126-4d34-a48a-e45db79c4245"
      ],
      "langs": [
        "4dcf9614-7914-42aa-99f4-dbce2e059133"
      ],
      "misc": [
        "86705d4b-24e4-4756-9687-2b9c98bcf366"
      ],
      "series": [
        "f0c79d94-ba79-42f3-a0ee-e4973f120b43"
      ],
      "singers": [
        "1e93160f-11bb-4d02-b716-4660cb29206e"
      ],
      "songtypes": [
        "a0167949-580c-4de3-bf13-497e462e02f3"
      ],
      "songwriters": [
        "97fbc0b6-6408-4273-bdb4-0c900e0ac945",
        "af0be06d-ea2d-4f46-85d1-58cf9f42532a"
      ],
      "versions": [
        "c2143a7f-6970-450e-8a79-0302db9220a9"
      ],
      "franchises": [
        "ddd2e2c9-9be3-4c6b-91aa-4e942cbe13e6"
      ]
    },
    "titles": {
      "jpn": "奇跡の海",
      "qro": "Kiseki no Umi"
    },
    "titles_default_language": "qro",
    "year": 1998
  }
}