{
  "header": {
    "version": 4,
    "description": "Karaoke Mugen Karaoke Data File"
  },
  "medias": [
    {
      "version": "Default",
      "filename": "JPN - Senki Zesshou Symphogear GX - CS LIVE - Hajimari no Babel ~ Full Vers.mp4",
      "audiogain": -1.12,
      "loudnorm": "-17.09,-6.49,5.80,-27.29,-0.54",
      "filesize": 89721864,
      "duration": 217,
      "default": true,
      "lyrics": [
        {
          "filename": "JPN - Senki Zesshou Symphogear GX - CS LIVE - Hajimari no Babel ~ Full Vers.ass",
          "default": true,
          "version": "Default"
        }
      ]
    }
  ],
  "data": {
    "created_at": "2022-06-07T23:44:29.286Z",
    "ignoreHooks": false,
    "kid": "b6867526-dde3-4a27-99eb-3943f2d27616",
    "modified_at": "2022-06-08T00:15:56.316Z",
    "repository": "kara.moe",
    "tags": {
      "authors": [
        "a5dbab74-510b-48c5-9cea-5a537a81c974"
      ],
      "collections": [
        "dbcf2c22-524d-4708-99bb-601703633927"
      ],
      "creators": [
        "d2a29c19-019f-4a3d-86ad-2dae9e41a4b1"
      ],
      "families": [
        "5391f9fe-638c-415f-8dc9-958e3a2c5787"
      ],
      "groups": [
        "8c22c899-b3ed-42da-a548-ce00f950798b",
        "ae613721-1fbe-480d-ba6b-d6d0702b184d"
      ],
      "langs": [
        "4dcf9614-7914-42aa-99f4-dbce2e059133"
      ],
      "series": [
        "86627e91-4551-4e88-899b-2cb017e853e0"
      ],
      "singers": [
        "0abac712-6493-4c55-856b-e88f2687e34b",
        "6d2045b2-80ab-45ff-a131-c4df02ef52d1",
        "7779578c-3d4e-4aa5-8f54-77023879e8e6",
        "7f71f194-f4a1-4246-9d74-a754a3989c27",
        "d2bf0734-aede-4e5c-b3a6-6d68b18192dc",
        "f2e9d52b-1b80-4fb5-8754-628462e094e5"
      ],
      "songtypes": [
        "a0167949-580c-4de3-bf13-497e462e02f3",
        "a8a2616c-b5a1-4df3-ad6f-89291bc67dee"
      ],
      "songwriters": [
        "a50ecbe0-14d8-4fdc-a6f2-e6263689a4f3",
        "af3ffe51-8059-461c-bbb8-78ea388731f3"
      ],
      "versions": [
        "c2143a7f-6970-450e-8a79-0302db9220a9"
      ],
      "franchises": [
        "61b24082-a6a9-482b-b126-0ad7be595791"
      ]
    },
    "titles": {
      "jpn": "始まりの歌",
      "qro": "Hajimari no Babel"
    },
    "titles_default_language": "qro",
    "titles_aliases": [
      "始まりの歌バベル"
    ],
    "title": "Hajimari no Babel",
    "year": 2016
  }
}