{
  "header": {
    "version": 4,
    "description": "Karaoke Mugen Karaoke Data File"
  },
  "medias": [
    {
      "version": "Default",
      "filename": "JPN - Ou-sama Ranking - Yuuki no takarabako - OP - Gold.mp4",
      "audiogain": -9.76,
      "loudnorm": "-6.78,2.31,2.70,-16.87,-0.50",
      "filesize": 27294140,
      "duration": 90,
      "default": true,
      "lyrics": [
        {
          "filename": "JPN - Ou-sama Ranking - Yuuki no takarabako - OP - Gold.ass",
          "default": true,
          "version": "Default"
        }
      ]
    }
  ],
  "data": {
    "created_at": "2023-05-24T20:54:58.929Z",
    "ignoreHooks": false,
    "kid": "69be16cb-8a0a-4fcd-9c6f-648112982169",
    "modified_at": "2023-05-24T20:54:59.685Z",
    "repository": "kara.moe",
    "tags": {
      "authors": [
        "06852e02-b77e-4106-b6f7-2d03942ad0ea"
      ],
      "collections": [
        "c7db86a0-ff64-4044-9be4-66dd1ef1d1c1"
      ],
      "creators": [
        "5e24aaad-83c9-4d8a-bbb9-37b766278ffe"
      ],
      "families": [
        "0377db02-3af6-43b8-9b08-c759df3d25c3"
      ],
      "genres": [
        "a0aeef4a-6428-45ff-a6e1-468b595930c2"
      ],
      "langs": [
        "4dcf9614-7914-42aa-99f4-dbce2e059133"
      ],
      "misc": [
        "fe819ff1-9db8-4a0f-85dc-0e322c9126c4"
      ],
      "series": [
        "65480e59-37be-427c-b6cc-b54c3e3b2bed"
      ],
      "singers": [
        "9129b6c4-b777-454d-8a36-10ecfb82743d"
      ],
      "songtypes": [
        "f02ad9b3-0bd9-4aad-85b3-9976739ba0e4"
      ],
      "songwriters": [
        "f4f0d774-76da-43c0-98cc-1fca104e0940",
        "606036ca-b66f-42ac-9b78-9e3361d9193e"
      ],
      "groups": [
        "8e209ae4-4381-438f-89dc-1b21752027d2"
      ]
    },
    "titles": {
      "eng": "Gold"
    },
    "titles_default_language": "eng",
    "year": 2023
  }
}