{
  "header": {
    "version": 4,
    "description": "Karaoke Mugen Karaoke Data File"
  },
  "medias": [
    {
      "version": "Default",
      "filename": "JPN - Naruto - OP2 - Haruka Kanata.mp4",
      "audiogain": -8.23,
      "loudnorm": "-9.15,0.04,2.10,-19.20,-0.10",
      "filesize": 34327364,
      "duration": 92,
      "default": true,
      "lyrics": [
        {
          "filename": "JPN - Naruto - OP2 - Haruka Kanata.ass",
          "default": true,
          "version": "Default",
          "subchecksum": "89a71f69341d36817ab9e7bd536d19d4"
        }
      ]
    }
  ],
  "data": {
    "created_at": "2017-10-11T17:01:30.000Z",
    "kid": "0cd2d0c2-d8bd-4c02-961f-b5224112d7c3",
    "modified_at": "2021-02-25T12:33:20.761Z",
    "repository": "kara.moe",
    "songorder": 2,
    "tags": {
      "authors": [
        "5bdaba57-27f8-4568-8806-76a807728766"
      ],
      "collections": [
        "c7db86a0-ff64-4044-9be4-66dd1ef1d1c1"
      ],
      "creators": [
        "aaff4ba6-9a12-4bac-9bd0-c0cb783e4177"
      ],
      "families": [
        "0377db02-3af6-43b8-9b08-c759df3d25c3"
      ],
      "genres": [
        "a0aeef4a-6428-45ff-a6e1-468b595930c2"
      ],
      "groups": [
        "3c14c864-533c-49e6-a3cc-6969f1233775"
      ],
      "langs": [
        "4dcf9614-7914-42aa-99f4-dbce2e059133"
      ],
      "origins": [
        "938de218-5343-4865-94d3-fb33f2eaa152"
      ],
      "series": [
        "3201e723-3e75-46f9-bb21-d991f4f7731e"
      ],
      "singers": [
        "6d7243f4-797e-40a2-980d-1fc467d456d8"
      ],
      "songtypes": [
        "f02ad9b3-0bd9-4aad-85b3-9976739ba0e4"
      ],
      "songwriters": [
        "8bede077-b96f-415c-8057-552e236fe01a"
      ],
      "franchises": [
        "3201e723-3e75-46f9-bb21-d991f4f7731e"
      ]
    },
    "title": "Haruka Kanata",
    "titles": {
      "qro": "Haruka Kanata",
      "jpn": "遥か彼方"
    },
    "year": 2002,
    "titles_default_language": "qro"
  }
}