{
  "header": {
    "description": "Karaoke Mugen Karaoke Data File",
    "version": 4
  },
  "medias": [
    {
      "version": "Default",
      "filename": "JPN - Touhou - GAME MV - Chen no Gensokyo ondo.mp4",
      "audiogain": -4.93,
      "loudnorm": "-12.70,0.46,2.30,-22.86,-0.19",
      "filesize": 15761236,
      "duration": 107,
      "default": true,
      "lyrics": [
        {
          "filename": "JPN - Touhou - GAME MV - Chen no Gensokyo ondo.ass",
          "default": true,
          "version": "Default"
        }
      ]
    }
  ],
  "data": {
    "created_at": "2022-10-09T19:52:13.696Z",
    "kid": "af373c6b-5865-47a0-8334-a2ae0df35821",
    "modified_at": "2022-10-09T19:52:13.696Z",
    "tags": {
      "authors": [
        "1fbfef73-6731-40df-ba51-65a54b9d1605"
      ],
      "collections": [
        "c7db86a0-ff64-4044-9be4-66dd1ef1d1c1"
      ],
      "creators": [
        "7ff61c06-e08a-4670-8cae-0193cec870c8"
      ],
      "groups": [
        "ae613721-1fbe-480d-ba6b-d6d0702b184d"
      ],
      "langs": [
        "4dcf9614-7914-42aa-99f4-dbce2e059133"
      ],
      "origins": [
        "ac5085db-52d8-44b4-8fbb-1697b24d2046",
        "dbedd6b3-d125-4cd8-aa32-c4175e4ca3a3"
      ],
      "series": [
        "1bdaa5a1-dfa6-4365-b746-7a0b194dafd6"
      ],
      "singers": [
        "b102151c-8b33-4549-b282-75c8c85db772"
      ],
      "songtypes": [
        "7be1b15c-cff8-4b37-a649-5c90f3d569a9"
      ],
      "songwriters": [
        "b102151c-8b33-4549-b282-75c8c85db772",
        "36ef5afc-edd0-424c-88fa-65e13575f3dd",
        "9bb6d2bd-30b1-446a-b0d4-29da1fd5f927",
        "26cb5252-8510-49e0-897c-a611a05fc056"
      ],
      "franchises": [
        "1bdaa5a1-dfa6-4365-b746-7a0b194dafd6"
      ]
    },
    "titles": {
      "jpn": "橙の幻想郷音頭",
      "qro": "Chen no Gensokyo ondo",
      "eng": "Chen's Gensokyo Marching Song"
    },
    "titles_default_language": "qro",
    "titles_aliases": [],
    "title": "Chen no Gensokyo ondo",
    "year": "2010",
    "repository": "kara.moe"
  }
}