{
  "header": {
    "version": 4,
    "description": "Karaoke Mugen Karaoke Data File"
  },
  "medias": [
    {
      "version": "Default",
      "filename": "JPN - Fractale - ED - Down By The Salley Gardens.mp4",
      "audiogain": 5.45,
      "loudnorm": "-22.83,-12.44,4.00,-33.02,0.02",
      "filesize": 49427364,
      "duration": 91,
      "default": true,
      "lyrics": [
        {
          "filename": "JPN - Fractale - ED - Down By The Salley Gardens.ass",
          "default": true,
          "version": "Default"
        }
      ]
    }
  ],
  "data": {
    "created_at": "2017-10-11T17:03:15.000Z",
    "kid": "4653bf1d-fbfd-4737-80c3-0cea1b08630b",
    "modified_at": "2021-08-26T16:00:12.550Z",
    "repository": "kara.moe",
    "tags": {
      "authors": [
        "6bebcb04-2694-453c-9e0c-eb1a2e2718d9",
        "fa399f2f-ea1d-4902-8796-ea6d8218aff0"
      ],
      "collections": [
        "c7db86a0-ff64-4044-9be4-66dd1ef1d1c1"
      ],
      "creators": [
        "b96e3686-bbe0-4b9e-815a-a278d5ff31be"
      ],
      "families": [
        "0377db02-3af6-43b8-9b08-c759df3d25c3"
      ],
      "groups": [
        "33881a14-788e-4e2a-a97d-1e5f51542a26",
        "ae613721-1fbe-480d-ba6b-d6d0702b184d"
      ],
      "langs": [
        "4dcf9614-7914-42aa-99f4-dbce2e059133"
      ],
      "misc": [
        "fe819ff1-9db8-4a0f-85dc-0e322c9126c4"
      ],
      "origins": [
        "938de218-5343-4865-94d3-fb33f2eaa152"
      ],
      "series": [
        "df08bdd3-6968-4f06-93d2-5843eb6303dd"
      ],
      "singers": [
        "8848e231-1dd4-4a60-8549-a02fffcc787e"
      ],
      "songtypes": [
        "38c77c56-2b95-4040-b676-0994a8cb0597"
      ],
      "songwriters": [
        "52248576-882d-437e-98ff-c0e5ea5cf974",
        "8848e231-1dd4-4a60-8549-a02fffcc787e"
      ]
    },
    "titles": {
      "gle": "Gort na Saileán",
      "eng": "Down By The Salley Gardens"
    },
    "title": "Down By The Salley Gardens",
    "year": 2011,
    "titles_default_language": "eng"
  }
}