{
  "header": {
    "version": 4,
    "description": "Karaoke Mugen Karaoke Data File"
  },
  "medias": [
    {
      "version": "Default",
      "filename": "JPN - Lycoris Recoil - ED - Hana no Tou.mp4",
      "audiogain": -0.69,
      "loudnorm": "-17.08,-9.71,3.80,-27.10,-0.58",
      "filesize": 39359613,
      "duration": 92,
      "default": true,
      "lyrics": [
        {
          "filename": "JPN - Lycoris Recoil - ED - Hana no Tou.ass",
          "default": true,
          "version": "Default"
        }
      ]
    }
  ],
  "data": {
    "created_at": "2022-07-12T21:04:46.853Z",
    "ignoreHooks": false,
    "kid": "f923cc00-b720-4321-926c-4018bbec6658",
    "modified_at": "2023-03-07T22:45:16.450Z",
    "repository": "kara.moe",
    "tags": {
      "authors": [
        "a78d8e52-64a8-4dde-89bf-27838a24a989"
      ],
      "collections": [
        "c7db86a0-ff64-4044-9be4-66dd1ef1d1c1"
      ],
      "creators": [
        "b96e3686-bbe0-4b9e-815a-a278d5ff31be"
      ],
      "families": [
        "0377db02-3af6-43b8-9b08-c759df3d25c3"
      ],
      "groups": [
        "8e209ae4-4381-438f-89dc-1b21752027d2",
        "df5f446f-d161-4760-8e0c-822e70ea03ae"
      ],
      "langs": [
        "4dcf9614-7914-42aa-99f4-dbce2e059133"
      ],
      "misc": [
        "fe819ff1-9db8-4a0f-85dc-0e322c9126c4"
      ],
      "origins": [
        "938de218-5343-4865-94d3-fb33f2eaa152"
      ],
      "series": [
        "28a28702-3f05-47e5-94eb-595968e43f0d"
      ],
      "singers": [
        "8e0404ba-681e-45f0-8ad0-45ca8f4687fb"
      ],
      "songtypes": [
        "38c77c56-2b95-4040-b676-0994a8cb0597"
      ],
      "songwriters": [
        "555464a8-5d71-45b6-9b0b-0b7b8dd32f40",
        "8e0404ba-681e-45f0-8ad0-45ca8f4687fb"
      ]
    },
    "titles": {
      "jpn": "花の塔",
      "qro": "Hana no Tô"
    },
    "titles_default_language": "qro",
    "titles_aliases": [
      "Tou"
    ],
    "year": 2022
  }
}