{
  "header": {
    "version": 4,
    "description": "Karaoke Mugen Karaoke Data File"
  },
  "medias": [
    {
      "version": "Default",
      "filename": "JPN - Jinrui wa Suitai Shimashita - MV - Real World ~ Full Vers.mp4",
      "audiogain": 1.07,
      "loudnorm": "-19.91,-11.73,4.50,-29.97,-0.15",
      "filesize": 190657438,
      "duration": 206,
      "default": true,
      "lyrics": [
        {
          "filename": "JPN - Jinrui wa Suitai Shimashita - MV - Real World ~ Full Vers.ass",
          "default": true,
          "version": "Default"
        }
      ]
    }
  ],
  "data": {
    "created_at": "2019-08-29T18:25:40.000Z",
    "kid": "d6872ddf-7591-4f2e-ba30-8e5783f24441",
    "modified_at": "2022-06-04T00:14:01.491Z",
    "parents": [
      "3900bca4-ec74-43c2-9fe6-bdedd7cf9425"
    ],
    "repository": "kara.moe",
    "songorder": null,
    "tags": {
      "authors": [
        "076236f4-5755-495e-a827-e86edce43e20"
      ],
      "creators": [
        "b2805292-730e-473a-96f0-fd8e7ffd1fd7"
      ],
      "families": [
        "5391f9fe-638c-415f-8dc9-958e3a2c5787"
      ],
      "groups": [
        "2b4e9972-5e17-481b-99f5-d0787c0ada56",
        "ae613721-1fbe-480d-ba6b-d6d0702b184d"
      ],
      "langs": [
        "4dcf9614-7914-42aa-99f4-dbce2e059133"
      ],
      "series": [
        "6ab5a4d2-ec8b-4557-8b48-5fbb85735b0d"
      ],
      "singers": [
        "705e40f8-00f0-46e5-838a-4181d93de4b2"
      ],
      "songtypes": [
        "7be1b15c-cff8-4b37-a649-5c90f3d569a9"
      ],
      "songwriters": [
        "222ae5d2-c7d4-4ba9-852c-681baf61ece4",
        "832bbda8-bb5b-4e9d-b7e6-460541a144d8"
      ],
      "versions": [
        "c2143a7f-6970-450e-8a79-0302db9220a9"
      ],
      "collections": [
        "dbcf2c22-524d-4708-99bb-601703633927"
      ]
    },
    "titles": {
      "eng": "Real World",
      "jpn": "リアルワールド"
    },
    "titles_default_language": "eng",
    "title": "Real World",
    "year": 2012
  }
}