{
  "header": {
    "version": 4,
    "description": "Karaoke Mugen Karaoke Data File"
  },
  "medias": [
    {
      "version": "Default",
      "filename": "JPN - Classroom of the Elite - Saison 2 - OP1 - Dance in the Game.mp4",
      "audiogain": 5.09,
      "loudnorm": "-21.52,-12.92,1.80,-31.55,-0.49",
      "filesize": 62713310,
      "duration": 89,
      "default": true,
      "lyrics": [
        {
          "filename": "JPN - Classroom of the Elite - Saison 2 - OP1 - Dance in the Game.ass",
          "default": true,
          "version": "Default"
        }
      ]
    }
  ],
  "data": {
    "created_at": "2022-08-11T18:20:22.404Z",
    "ignoreHooks": false,
    "kid": "24ecf5e2-afea-4677-b75a-d6f48add8517",
    "modified_at": "2022-08-15T00:26:09.371Z",
    "repository": "kara.moe",
    "songorder": 1,
    "tags": {
      "authors": [
        "e568de19-c003-4d37-8978-98f29ea61cb3"
      ],
      "collections": [
        "c7db86a0-ff64-4044-9be4-66dd1ef1d1c1"
      ],
      "creators": [
        "20a71a02-6670-4e6a-a5be-ad8d71df94f7"
      ],
      "families": [
        "0377db02-3af6-43b8-9b08-c759df3d25c3"
      ],
      "groups": [
        "8e209ae4-4381-438f-89dc-1b21752027d2"
      ],
      "langs": [
        "4dcf9614-7914-42aa-99f4-dbce2e059133"
      ],
      "misc": [
        "fe819ff1-9db8-4a0f-85dc-0e322c9126c4"
      ],
      "origins": [
        "938de218-5343-4865-94d3-fb33f2eaa152"
      ],
      "series": [
        "5f92a327-5f3f-496b-b7ec-288074a7fa23"
      ],
      "singers": [
        "3acbe973-912e-47ca-b5b2-6563181e0c51"
      ],
      "songtypes": [
        "f02ad9b3-0bd9-4aad-85b3-9976739ba0e4"
      ],
      "songwriters": [
        "3acbe973-912e-47ca-b5b2-6563181e0c51"
      ]
    },
    "titles": {
      "eng": "Dance in the Game"
    },
    "titles_default_language": "eng",
    "title": "Dance in the Game",
    "year": 2022
  }
}