{
  "header": {
    "version": 4,
    "description": "Karaoke Mugen Karaoke Data File"
  },
  "medias": [
    {
      "version": "Default",
      "filename": "JPN - BanG Dream! Girls Band Party - AUDIO - Natsuzora SUN! SUN! SEVEN! ~ Short Vers.mp3",
      "audiogain": -4.65,
      "loudnorm": "-12.82,-4.53,3.10,-22.92,-0.86",
      "filesize": 5112130,
      "duration": 146,
      "default": true,
      "lyrics": [
        {
          "filename": "JPN - BanG Dream! Girls Band Party - AUDIO - Natsuzora SUN! SUN! SEVEN! ~ Short Vers.ass",
          "default": true,
          "version": "Default"
        }
      ]
    }
  ],
  "data": {
    "created_at": "2023-01-29T13:35:10.217Z",
    "ignoreHooks": false,
    "kid": "5091a9c4-dee4-485a-86a5-10fe46da9862",
    "modified_at": "2023-01-29T13:39:17.388Z",
    "repository": "kara.moe",
    "tags": {
      "authors": [
        "02a290f1-5fb0-4cdc-b68a-6e9a6f2a7495"
      ],
      "collections": [
        "c7db86a0-ff64-4044-9be4-66dd1ef1d1c1"
      ],
      "creators": [
        "bd4564a8-44e5-454a-9c57-bd2a3c8a537e"
      ],
      "genres": [
        "caa86df2-0d59-474b-885c-f240a9e891b0"
      ],
      "groups": [
        "8e209ae4-4381-438f-89dc-1b21752027d2",
        "ae613721-1fbe-480d-ba6b-d6d0702b184d"
      ],
      "langs": [
        "4dcf9614-7914-42aa-99f4-dbce2e059133"
      ],
      "misc": [
        "1d6ceadf-a885-47e5-b23b-c07bf668a424"
      ],
      "series": [
        "c33cb766-6922-4340-8524-29bf7eca0fc1"
      ],
      "singers": [
        "adb2af59-5df0-4e18-a0d1-b377416ef134"
      ],
      "songtypes": [
        "42a262ae-acba-4ab5-a446-c5789c96c821"
      ],
      "songwriters": [
        "af3ffe51-8059-461c-bbb8-78ea388731f3"
      ],
      "versions": [
        "d125c80a-86c1-4321-88e9-07b7800679b6"
      ],
      "franchises": [
        "a65e956d-39ab-4995-9ede-889c30a5cbf0"
      ]
    },
    "titles": {
      "jpn": "夏空 SUN! SUN! SEVEN!",
      "qro": "Natsuzora SUN! SUN! SEVEN!"
    },
    "titles_default_language": "qro",
    "year": 2016
  }
}