{
  "header": {
    "version": 4,
    "description": "Karaoke Mugen Karaoke Data File"
  },
  "medias": [
    {
      "version": "Default",
      "filename": "JPN - Hige o Soru. Soshite Joshikousei o Hirou. - OP - Omoide Shiritori.mp4",
      "audiogain": -1.95,
      "loudnorm": "-16.04,-5.05,5.90,-26.16,-0.79",
      "filesize": 39470230,
      "duration": 90,
      "default": true,
      "lyrics": [
        {
          "filename": "JPN - Hige o Soru. Soshite Joshikousei o Hirou. - OP - Omoide Shiritori.ass",
          "default": true,
          "version": "Default"
        }
      ]
    }
  ],
  "data": {
    "created_at": "2022-01-17T22:57:26.441Z",
    "ignoreHooks": false,
    "kid": "d1667c95-d3dc-4735-9e62-9f70f968c832",
    "modified_at": "2022-01-17T22:57:26.441Z",
    "repository": "kara.moe",
    "tags": {
      "authors": [
        "6bebcb04-2694-453c-9e0c-eb1a2e2718d9"
      ],
      "collections": [
        "c7db86a0-ff64-4044-9be4-66dd1ef1d1c1"
      ],
      "creators": [
        "55f578e3-ca25-487f-8aa0-2726b2ff4895"
      ],
      "families": [
        "0377db02-3af6-43b8-9b08-c759df3d25c3"
      ],
      "groups": [
        "8e209ae4-4381-438f-89dc-1b21752027d2"
      ],
      "langs": [
        "4dcf9614-7914-42aa-99f4-dbce2e059133"
      ],
      "misc": [
        "fe819ff1-9db8-4a0f-85dc-0e322c9126c4"
      ],
      "origins": [
        "938de218-5343-4865-94d3-fb33f2eaa152"
      ],
      "series": [
        "38ebdbcd-a6f0-46d8-b26c-9a01b8b5a29c"
      ],
      "singers": [
        "873f0549-c899-4ffe-8465-076dfa6be9d7"
      ],
      "songtypes": [
        "f02ad9b3-0bd9-4aad-85b3-9976739ba0e4"
      ],
      "songwriters": [
        "15c7e3a2-8522-4854-9df6-39ca595a54fd"
      ]
    },
    "titles": {
      "qro": "Omoide Shiritori",
      "jpn": "おもいでしりとり"
    },
    "title": "Omoide Shiritori",
    "year": 2021,
    "titles_default_language": "qro"
  }
}