{
  "header": {
    "version": 4,
    "description": "Karaoke Mugen Karaoke Data File"
  },
  "medias": [
    {
      "version": "Default",
      "filename": "JPN - Kinnikuman Nisei - OP - Hustle Muscle.mp4",
      "audiogain": -3.39,
      "loudnorm": "-13.06,-0.72,2.40,-23.14,-0.19",
      "filesize": 13585006,
      "duration": 90,
      "default": true,
      "lyrics": [
        {
          "filename": "JPN - Kinnikuman Nisei - OP - Hustle Muscle.ass",
          "default": true,
          "version": "Default",
          "subchecksum": "5b00ee5169fab171bba9b83e4d5baf38"
        }
      ]
    }
  ],
  "data": {
    "created_at": "2017-10-11T17:02:43.000Z",
    "kid": "0f5647e4-fe77-40eb-ad92-0ab007c6e964",
    "modified_at": "2021-02-25T12:03:28.657Z",
    "repository": "kara.moe",
    "tags": {
      "authors": [
        "5bdaba57-27f8-4568-8806-76a807728766"
      ],
      "collections": [
        "c7db86a0-ff64-4044-9be4-66dd1ef1d1c1"
      ],
      "creators": [
        "f694bf43-b427-4244-9744-9d3f84fd8a31"
      ],
      "families": [
        "0377db02-3af6-43b8-9b08-c759df3d25c3"
      ],
      "groups": [
        "3c14c864-533c-49e6-a3cc-6969f1233775"
      ],
      "langs": [
        "4dcf9614-7914-42aa-99f4-dbce2e059133"
      ],
      "origins": [
        "938de218-5343-4865-94d3-fb33f2eaa152"
      ],
      "series": [
        "4362e40b-d020-4a10-8b4e-0b2c69ef6f2a"
      ],
      "singers": [
        "44eaa855-0f8f-466b-a742-5b801f0f6565"
      ],
      "songtypes": [
        "f02ad9b3-0bd9-4aad-85b3-9976739ba0e4"
      ],
      "songwriters": [
        "37dd20b2-85f2-4c00-a778-e4f8d82719d2",
        "7145091d-e84a-43c2-a305-152647ac1fb0"
      ],
      "franchises": [
        "253fabfb-5933-414d-a00d-86e6cd590135"
      ]
    },
    "title": "Hustle Muscle",
    "titles": {
      "eng": "HUSTLE MUSCLE"
    },
    "year": 2002,
    "titles_default_language": "eng"
  }
}