{
  "header": {
    "version": 4,
    "description": "Karaoke Mugen Karaoke Data File"
  },
  "medias": [
    {
      "version": "Default",
      "filename": "JPN - amazarashi - AUDIO - One Room Jojishi.mp3",
      "audiogain": -11.96,
      "loudnorm": "-6.70,1.90,8.10,-16.81,-1.66",
      "filesize": 4955633,
      "duration": 302,
      "default": true,
      "lyrics": [
        {
          "filename": "JPN - amazarashi - AUDIO - One Room Jojishi.ass",
          "default": true,
          "version": "Default",
          "subchecksum": "fe955881382e2867fcbc8af99a7d354c"
        }
      ]
    }
  ],
  "data": {
    "created_at": "2020-05-10T20:16:52.592Z",
    "kid": "db2f4f57-6d08-46d7-890f-70f2de30fd67",
    "modified_at": "2021-02-25T10:42:34.935Z",
    "repository": "kara.moe",
    "tags": {
      "authors": [
        "87096920-112f-485f-a310-04156cb4624d"
      ],
      "collections": [
        "c7db86a0-ff64-4044-9be4-66dd1ef1d1c1"
      ],
      "creators": [
        "9f10c180-4ed1-4a4e-9e39-c37e09b91d5f"
      ],
      "groups": [
        "60defa7b-774e-4680-8321-51b742c2e009",
        "ae613721-1fbe-480d-ba6b-d6d0702b184d"
      ],
      "langs": [
        "4dcf9614-7914-42aa-99f4-dbce2e059133"
      ],
      "misc": [
        "86705d4b-24e4-4756-9687-2b9c98bcf366"
      ],
      "singers": [
        "1e10b608-d701-4b51-9725-ccf808c44ce0"
      ],
      "songtypes": [
        "42a262ae-acba-4ab5-a446-c5789c96c821"
      ],
      "songwriters": [
        "caff84bc-059e-4a6e-b273-c857050e75f7"
      ]
    },
    "title": "One Room Jojishi",
    "titles": {
      "qro": "One Room Jojishi",
      "jpn": "ワンルーム叙事詩"
    },
    "year": 2010,
    "titles_default_language": "qro"
  }
}