{
  "header": {
    "version": 4,
    "description": "Karaoke Mugen Karaoke Data File"
  },
  "medias": [
    {
      "version": "Default",
      "filename": "JPN - Miku Hatsune - MV - Namida ~ Off Vocal Vers.mp4",
      "audiogain": -11.83,
      "loudnorm": "-5.35,2.08,4.80,-15.42,-0.12",
      "filesize": 63441243,
      "duration": 244,
      "default": true,
      "lyrics": [
        {
          "filename": "JPN - Miku Hatsune - MV - Namida ~ Off Vocal Vers.ass",
          "default": true,
          "version": "Default"
        }
      ]
    }
  ],
  "data": {
    "created_at": "2021-08-05T22:40:40.367Z",
    "kid": "4cfbd50f-59a8-418a-a2e2-64ba19777802",
    "modified_at": "2021-12-26T15:41:38.177Z",
    "parents": [
      "59b2b31c-292e-400b-845d-060f7d6b2455"
    ],
    "repository": "kara.moe",
    "tags": {
      "authors": [
        "10891649-d475-46eb-b515-8eb3c1e14622"
      ],
      "collections": [
        "c7db86a0-ff64-4044-9be4-66dd1ef1d1c1"
      ],
      "creators": [
        "d1f6cfc6-444a-4d7f-b216-42f60bec7c61"
      ],
      "families": [
        "0377db02-3af6-43b8-9b08-c759df3d25c3"
      ],
      "genres": [
        "45623cae-6d68-4304-a49b-896d1d6f4580"
      ],
      "groups": [
        "8e209ae4-4381-438f-89dc-1b21752027d2"
      ],
      "langs": [
        "4dcf9614-7914-42aa-99f4-dbce2e059133"
      ],
      "singers": [
        "4407ba0e-5de7-4add-870f-7ac95a4804c9"
      ],
      "songtypes": [
        "7be1b15c-cff8-4b37-a649-5c90f3d569a9"
      ],
      "songwriters": [
        "d1f6cfc6-444a-4d7f-b216-42f60bec7c61"
      ],
      "versions": [
        "c0cc87b9-55b9-40f0-878a-fbb9e34c151e"
      ]
    },
    "titles": {
      "eng": "Tears",
      "qro": "Namida",
      "jpn": "ナミダ"
    },
    "title": "Namida",
    "year": 2021,
    "titles_default_language": "eng"
  }
}