{
  "header": {
    "version": 4,
    "description": "Karaoke Mugen Karaoke Data File"
  },
  "medias": [
    {
      "version": "Default",
      "filename": "JPN - Love Live! School Idol Project - MV - Wonderful Rush ~ Full Vers.mp4",
      "audiogain": 0.46,
      "loudnorm": "-18.15,-5.29,3.70,-28.24,-0.58",
      "filesize": 161837891,
      "duration": 280,
      "default": true,
      "lyrics": [
        {
          "filename": "JPN - Love Live! School Idol Project - MV - Wonderful Rush ~ Full Vers.ass",
          "default": true,
          "version": "Default"
        }
      ]
    }
  ],
  "data": {
    "created_at": "2021-10-02T18:10:35.046Z",
    "ignoreHooks": false,
    "kid": "2b50c544-a4d4-4402-ac50-a0b4e43a2012",
    "modified_at": "2022-11-07T21:28:04.209Z",
    "repository": "kara.moe",
    "tags": {
      "authors": [
        "3d443636-e0b9-46f1-950e-357043331c46"
      ],
      "collections": [
        "c7db86a0-ff64-4044-9be4-66dd1ef1d1c1"
      ],
      "families": [
        "0377db02-3af6-43b8-9b08-c759df3d25c3"
      ],
      "genres": [
        "caa86df2-0d59-474b-885c-f240a9e891b0"
      ],
      "groups": [
        "ae613721-1fbe-480d-ba6b-d6d0702b184d"
      ],
      "langs": [
        "4dcf9614-7914-42aa-99f4-dbce2e059133"
      ],
      "series": [
        "dd93f278-a55d-4040-aaab-d0c50b58b087"
      ],
      "singergroups": [
        "fc107f1a-4759-4869-857f-fc1966f345f9"
      ],
      "songtypes": [
        "7be1b15c-cff8-4b37-a649-5c90f3d569a9"
      ],
      "songwriters": [
        "e9ecf976-90f3-4139-b85e-6d7d2451df6a",
        "f41e7218-6c19-4e19-9b5f-4612dcd58243"
      ],
      "versions": [
        "c2143a7f-6970-450e-8a79-0302db9220a9"
      ],
      "franchises": [
        "fd5d066e-e85a-4eea-8688-2979a887450a"
      ]
    },
    "titles": {
      "eng": "Wonderful Rush"
    },
    "titles_default_language": "eng",
    "year": 2012
  }
}