{
  "header": {
    "version": 4,
    "description": "Karaoke Mugen Karaoke Data File"
  },
  "medias": [
    {
      "version": "Default",
      "filename": "JPN - Senki Zesshou Symphogear AXZ - AUDIO IN - Luminous Gate ~ Full Vers.mp3",
      "audiogain": -5.69,
      "loudnorm": "-11.96,-3.41,3.00,-22.00,-0.32",
      "filesize": 10598793,
      "duration": 262,
      "default": true,
      "lyrics": [
        {
          "filename": "JPN - Senki Zesshou Symphogear AXZ - AUDIO IN - Luminous Gate ~ Full Vers.ass",
          "default": true,
          "version": "Default"
        }
      ]
    }
  ],
  "data": {
    "created_at": "2023-02-25T18:55:33.158Z",
    "ignoreHooks": false,
    "kid": "a00711e5-8fe8-4ae3-ab97-9c86f95f5776",
    "modified_at": "2023-02-25T18:55:33.238Z",
    "parents": [
      "661ceed3-5d1b-4185-93b5-e9f739858524"
    ],
    "repository": "kara.moe",
    "tags": {
      "authors": [
        "87096920-112f-485f-a310-04156cb4624d"
      ],
      "collections": [
        "c7db86a0-ff64-4044-9be4-66dd1ef1d1c1"
      ],
      "creators": [
        "0041fabf-4b82-4ecd-961b-e4c49b8c88be"
      ],
      "genres": [
        "b84e28f9-db1e-447f-b339-7954c3592523",
        "caa86df2-0d59-474b-885c-f240a9e891b0"
      ],
      "groups": [
        "60defa7b-774e-4680-8321-51b742c2e009",
        "ae613721-1fbe-480d-ba6b-d6d0702b184d"
      ],
      "langs": [
        "4dcf9614-7914-42aa-99f4-dbce2e059133"
      ],
      "origins": [
        "938de218-5343-4865-94d3-fb33f2eaa152"
      ],
      "series": [
        "84baaef4-5c5e-42fd-bb81-9151f280fa09"
      ],
      "singers": [
        "6d2045b2-80ab-45ff-a131-c4df02ef52d1"
      ],
      "songtypes": [
        "42a262ae-acba-4ab5-a446-c5789c96c821",
        "5e5250d9-351a-4a82-98eb-55db50ad8962"
      ],
      "songwriters": [
        "af3ffe51-8059-461c-bbb8-78ea388731f3",
        "18a5b3b4-9796-4d50-869f-1a1ebb96b1c4"
      ],
      "versions": [
        "c2143a7f-6970-450e-8a79-0302db9220a9"
      ],
      "franchises": [
        "61b24082-a6a9-482b-b126-0ad7be595791"
      ]
    },
    "titles": {
      "jpn": "ルミナスゲイト",
      "qro": "Ruminasu Geito",
      "eng": "Luminous Gate"
    },
    "titles_default_language": "eng",
    "year": 2017
  }
}