{
  "header": {
    "version": 4,
    "description": "Karaoke Mugen Karaoke Data File"
  },
  "medias": [
    {
      "version": "Default",
      "filename": "JPN - Touhou - LIVE - Cirno's Perfect Math Class ~ Cover Full Vers.mp4",
      "audiogain": -4.32,
      "loudnorm": "-13.33,-0.24,2.30,-23.46,-0.81",
      "filesize": 188332560,
      "duration": 279,
      "default": true,
      "lyrics": [
        {
          "filename": "JPN - Touhou - LIVE - Cirno's Perfect Math Class ~ Cover Full Vers.ass",
          "default": true,
          "version": "Default"
        }
      ]
    }
  ],
  "data": {
    "created_at": "2021-09-24T13:55:31.171Z",
    "ignoreHooks": false,
    "kid": "3248f311-b3a9-4ec9-8cab-f45aef896871",
    "modified_at": "2022-03-06T00:14:54.371Z",
    "parents": [
      "71ede760-e31d-43bc-ab20-7373cbdfb2f1"
    ],
    "repository": "kara.moe",
    "tags": {
      "authors": [
        "84157b43-8a7a-482c-95d3-516757353835"
      ],
      "collections": [
        "c7db86a0-ff64-4044-9be4-66dd1ef1d1c1"
      ],
      "creators": [
        "0263d413-17bb-4cee-a311-6dd896eda1c9",
        "25fc251a-0514-4bf5-a818-dd0547723f4a"
      ],
      "families": [
        "0377db02-3af6-43b8-9b08-c759df3d25c3"
      ],
      "genres": [
        "caa86df2-0d59-474b-885c-f240a9e891b0"
      ],
      "groups": [
        "8e209ae4-4381-438f-89dc-1b21752027d2"
      ],
      "langs": [
        "4dcf9614-7914-42aa-99f4-dbce2e059133"
      ],
      "misc": [
        "1d6ceadf-a885-47e5-b23b-c07bf668a424"
      ],
      "origins": [
        "5106d71b-a78e-4d19-a16d-f8fb6719538a"
      ],
      "series": [
        "1bdaa5a1-dfa6-4365-b746-7a0b194dafd6"
      ],
      "singers": [
        "2f6106ce-1a0e-42e8-a593-b9e04341cbeb",
        "e219b9c0-a427-425b-af63-e0bcb114eef9"
      ],
      "songtypes": [
        "a0167949-580c-4de3-bf13-497e462e02f3"
      ],
      "songwriters": [
        "1dae52a9-d1e0-447b-8dd3-cfd10119a3a8",
        "26cb5252-8510-49e0-897c-a611a05fc056",
        "feceb592-efac-4eda-9b03-c27cf509004c"
      ],
      "versions": [
        "03e1e1d2-8641-47b7-bbcb-39a3df9ff21c",
        "c2143a7f-6970-450e-8a79-0302db9220a9"
      ],
      "franchises": [
        "1bdaa5a1-dfa6-4365-b746-7a0b194dafd6"
      ]
    },
    "titles": {
      "eng": "Cirno's Perfect Math Class",
      "qro": "Cirno no Perfect Sansû Kyôshitsu",
      "jpn": "チルノのパーフェクトさんすう教室"
    },
    "titles_aliases": [
      "sansuu",
      "Kyoushitsu"
    ],
    "title": "Cirno's Perfect Math Class ",
    "year": 2021,
    "titles_default_language": "eng"
  }
}