{
  "header": {
    "version": 4,
    "description": "Karaoke Mugen Karaoke Data File"
  },
  "medias": [
    {
      "version": "Default",
      "filename": "JPN - Sayonara Watashi no Cramer First Touch - AUDIO IN - Can you sing along question_mark ~ Full Vers.mp3",
      "audiogain": -10.89,
      "loudnorm": "-6.59,0.47,3.10,-16.61,-0.42",
      "filesize": 10223952,
      "duration": 249,
      "default": true,
      "lyrics": [
        {
          "filename": "JPN - Sayonara Watashi no Cramer First Touch - AUDIO IN - Can you sing along question_mark ~ Full Vers.ass",
          "default": true,
          "version": "Default"
        }
      ]
    }
  ],
  "data": {
    "created_at": "2022-03-04T18:54:04.078Z",
    "ignoreHooks": false,
    "kid": "daeefdce-345f-4153-b093-7655b1314cc4",
    "modified_at": "2022-03-05T22:14:37.924Z",
    "repository": "kara.moe",
    "tags": {
      "authors": [
        "449844e4-3a1f-46e1-8a92-bf72e2d1b6f1",
        "10891649-d475-46eb-b515-8eb3c1e14622"
      ],
      "collections": [
        "c7db86a0-ff64-4044-9be4-66dd1ef1d1c1"
      ],
      "creators": [
        "6697d31b-7f60-4d11-b237-8eb72740fd8a"
      ],
      "groups": [
        "8e209ae4-4381-438f-89dc-1b21752027d2"
      ],
      "langs": [
        "4dcf9614-7914-42aa-99f4-dbce2e059133"
      ],
      "series": [
        "a37d6831-e2c2-4b76-b7b3-d9a7cef91547"
      ],
      "singers": [
        "8f1cdf03-baf0-4294-bfdf-fdeedcdbeac5"
      ],
      "songtypes": [
        "42a262ae-acba-4ab5-a446-c5789c96c821",
        "5e5250d9-351a-4a82-98eb-55db50ad8962"
      ],
      "songwriters": [
        "dd847c79-82cb-45b1-ae9b-ae2f8bd39417",
        "4f8ba040-1f56-4340-807d-eefa481ae17f"
      ],
      "versions": [
        "c2143a7f-6970-450e-8a79-0302db9220a9"
      ],
      "franchises": [
        "d4a4b4e8-2b78-47ba-a4b3-2771f3727199"
      ]
    },
    "titles": {
      "eng": "Can You Sing Along?"
    },
    "title": "Can you sing along?",
    "year": 2021,
    "titles_default_language": "eng"
  }
}