{
  "header": {
    "version": 4,
    "description": "Karaoke Mugen Karaoke Data File"
  },
  "medias": [
    {
      "version": "Default",
      "filename": "JPN - Sakurako Ouhara - AUDIO - Hirari.mp3",
      "audiogain": -10.47,
      "loudnorm": "-7.11,1.77,9.30,-17.35,-1.63",
      "filesize": 11868450,
      "duration": 295,
      "default": true,
      "lyrics": [
        {
          "filename": "JPN - Sakurako Ouhara - AUDIO - Hirari.ass",
          "default": true,
          "version": "Default"
        }
      ]
    }
  ],
  "data": {
    "created_at": "2023-05-20T16:27:49.139Z",
    "ignoreHooks": false,
    "kid": "ab7927c4-0f3a-41f3-a8a6-83ee1700caa5",
    "modified_at": "2023-05-20T16:27:49.221Z",
    "repository": "kara.moe",
    "tags": {
      "authors": [
        "7848b5dc-a5df-4577-b640-147be5288cec"
      ],
      "collections": [
        "dbcf2c22-524d-4708-99bb-601703633927"
      ],
      "creators": [
        "e8da43a3-7058-4162-9d31-2f331dee993e"
      ],
      "langs": [
        "4dcf9614-7914-42aa-99f4-dbce2e059133"
      ],
      "singers": [
        "938f242e-fc1c-45e1-992b-4330d68b777f"
      ],
      "songtypes": [
        "42a262ae-acba-4ab5-a446-c5789c96c821"
      ],
      "songwriters": [
        "5dd7794b-0054-495d-b250-1ca14d7a9989"
      ],
      "groups": [
        "ae613721-1fbe-480d-ba6b-d6d0702b184d"
      ]
    },
    "titles": {
      "jpn": "ひらり",
      "qro": "Hirari"
    },
    "titles_default_language": "qro",
    "year": 2017
  }
}