{
  "header": {
    "version": 4,
    "description": "Karaoke Mugen Karaoke Data File"
  },
  "medias": [
    {
      "version": "Default",
      "filename": "JPN - GUMI - MV - Yoidore Shirazu.mp4",
      "audiogain": -6.62,
      "loudnorm": "-10.63,1.48,3.20,-20.70,-0.51",
      "filesize": 6138021,
      "duration": 135,
      "default": true,
      "lyrics": [
        {
          "filename": "JPN - GUMI - MV - Yoidore Shirazu.ass",
          "default": true,
          "version": "Default"
        }
      ]
    }
  ],
  "data": {
    "created_at": "2022-05-24T00:47:50.315Z",
    "ignoreHooks": false,
    "kid": "378308bd-0c89-495d-946b-51a43972cd11",
    "modified_at": "2022-11-17T09:47:30.301Z",
    "repository": "kara.moe",
    "tags": {
      "authors": [
        "63d193aa-c3b3-4858-a7c9-d505d478dc3d"
      ],
      "collections": [
        "c7db86a0-ff64-4044-9be4-66dd1ef1d1c1"
      ],
      "creators": [
        "9333257c-8240-474d-a6a4-72298664634d"
      ],
      "families": [
        "0377db02-3af6-43b8-9b08-c759df3d25c3"
      ],
      "genres": [
        "45623cae-6d68-4304-a49b-896d1d6f4580"
      ],
      "groups": [
        "8e209ae4-4381-438f-89dc-1b21752027d2"
      ],
      "langs": [
        "4dcf9614-7914-42aa-99f4-dbce2e059133"
      ],
      "singers": [
        "dafdeefa-0a96-44df-9653-aeb88c400e33"
      ],
      "songtypes": [
        "7be1b15c-cff8-4b37-a649-5c90f3d569a9"
      ],
      "songwriters": [
        "13b026cd-6c17-4bd1-93ab-f49335c91799"
      ]
    },
    "titles": {
      "jpn": "酔いどれ知らず",
      "qro": "Yoidore Shirazu"
    },
    "titles_default_language": "qro",
    "year": 2022
  }
}