{
  "header": {
    "version": 4,
    "description": "Karaoke Mugen Karaoke Data File"
  },
  "medias": [
    {
      "version": "Default",
      "filename": "JPN - Inazuma Eleven - OP1 - Tachiagari yo.mp4",
      "audiogain": 1.28,
      "loudnorm": "-19.50,-6.63,2.70,-29.68,-0.57",
      "filesize": 60554049,
      "duration": 90,
      "default": true,
      "lyrics": [
        {
          "filename": "JPN - Inazuma Eleven - OP1 - Tachiagari yo.ass",
          "default": true,
          "version": "Default"
        }
      ]
    }
  ],
  "data": {
    "comment": "\"Tsunagari yo\" c'est l'opening 3 pas le 1",
    "created_at": "2017-10-11T17:01:07.000Z",
    "ignoreHooks": false,
    "kid": "83872d48-792d-467a-b726-0965191887ba",
    "modified_at": "2022-12-17T01:06:17.753Z",
    "repository": "kara.moe",
    "songorder": 1,
    "tags": {
      "authors": [
        "5bdaba57-27f8-4568-8806-76a807728766"
      ],
      "collections": [
        "c7db86a0-ff64-4044-9be4-66dd1ef1d1c1"
      ],
      "creators": [
        "03fe574b-c7f5-4520-96dc-47320c39e2cc"
      ],
      "families": [
        "0377db02-3af6-43b8-9b08-c759df3d25c3"
      ],
      "genres": [
        "a0aeef4a-6428-45ff-a6e1-468b595930c2"
      ],
      "groups": [
        "3c14c864-533c-49e6-a3cc-6969f1233775"
      ],
      "langs": [
        "4dcf9614-7914-42aa-99f4-dbce2e059133"
      ],
      "origins": [
        "938de218-5343-4865-94d3-fb33f2eaa152"
      ],
      "series": [
        "8736c98c-8f96-4e0e-96a9-1d6eb10be540"
      ],
      "singers": [
        "649d36f3-728d-4230-9655-acd474036312",
        "a3e69301-4f5a-43fd-96d4-0a51b23f34ac"
      ],
      "songtypes": [
        "f02ad9b3-0bd9-4aad-85b3-9976739ba0e4"
      ],
      "songwriters": [
        "c81a3592-d534-48b9-a1b4-f86750dd7bd0"
      ],
      "franchises": [
        "8736c98c-8f96-4e0e-96a9-1d6eb10be540"
      ]
    },
    "titles": {
      "jpn": "立ち上がリーヨ",
      "qro": "Tachiagari yo"
    },
    "titles_default_language": "qro",
    "year": 2008
  }
}