{
  "header": {
    "version": 4,
    "description": "Karaoke Mugen Karaoke Data File"
  },
  "medias": [
    {
      "version": "Default",
      "filename": "JPN - Ookami to Koushinryou - OP - Tabi no Tochuu.mp4",
      "audiogain": 4.15,
      "loudnorm": "-21.21,-8.91,5.20,-31.40,-1.51",
      "filesize": 43686047,
      "duration": 89,
      "default": true,
      "lyrics": [
        {
          "filename": "JPN - Ookami to Koushinryou - OP - Tabi no Tochuu.ass",
          "default": true,
          "version": "Default"
        }
      ]
    }
  ],
  "data": {
    "created_at": "2017-10-11T17:02:33.000Z",
    "ignoreHooks": false,
    "kid": "585274cc-4e4c-4610-8405-99cf5660b1e8",
    "modified_at": "2023-04-20T13:51:51.207Z",
    "repository": "kara.moe",
    "tags": {
      "authors": [
        "87e75487-ac53-44e7-b7b5-aede12f6e474",
        "7848b5dc-a5df-4577-b640-147be5288cec"
      ],
      "collections": [
        "c7db86a0-ff64-4044-9be4-66dd1ef1d1c1"
      ],
      "creators": [
        "09527d8b-d9b0-4f2e-96d5-e988b62ac7d8"
      ],
      "families": [
        "0377db02-3af6-43b8-9b08-c759df3d25c3"
      ],
      "groups": [
        "3c14c864-533c-49e6-a3cc-6969f1233775",
        "9a8e0fbc-dcae-4989-be82-7cad3436f1f5"
      ],
      "langs": [
        "4dcf9614-7914-42aa-99f4-dbce2e059133"
      ],
      "misc": [
        "fe819ff1-9db8-4a0f-85dc-0e322c9126c4"
      ],
      "origins": [
        "938de218-5343-4865-94d3-fb33f2eaa152"
      ],
      "series": [
        "95925674-a1b6-44d2-8710-c64961f5d700"
      ],
      "singers": [
        "4bb5740a-83ef-4107-a5a9-8e27e7c5e1be",
        "50586cd0-4bc1-410c-bfcb-f99fdd705a9d"
      ],
      "songtypes": [
        "f02ad9b3-0bd9-4aad-85b3-9976739ba0e4"
      ],
      "songwriters": [
        "1ac1b7a1-7f8d-44f1-9932-15f5ab745345",
        "4bb5740a-83ef-4107-a5a9-8e27e7c5e1be"
      ],
      "franchises": [
        "95925674-a1b6-44d2-8710-c64961f5d700"
      ]
    },
    "titles": {
      "jpn": "旅の途中",
      "qro": "Tabi no Tochû"
    },
    "titles_default_language": "qro",
    "titles_aliases": [
      "Tochuu"
    ],
    "year": 2008
  }
}