{
  "header": {
    "version": 4,
    "description": "Karaoke Mugen Karaoke Data File"
  },
  "medias": [
    {
      "version": "Default",
      "filename": "JPN - Black Clover (2017) - OP12 - Everlasting Shine.mp4",
      "audiogain": 0.77,
      "loudnorm": "-18.26,-7.58,4.30,-28.37,-0.30",
      "filesize": 55282394,
      "duration": 90,
      "default": true,
      "lyrics": [
        {
          "filename": "JPN - Black Clover (2017) - OP12 - Everlasting Shine.ass",
          "default": true,
          "version": "Default"
        }
      ]
    }
  ],
  "data": {
    "created_at": "2022-07-22T12:46:23.173Z",
    "ignoreHooks": false,
    "kid": "353eab77-eb4e-4b9b-ba48-28f5db6cacdc",
    "modified_at": "2023-02-02T15:56:18.299Z",
    "repository": "kara.moe",
    "songorder": 12,
    "tags": {
      "authors": [
        "71fa8328-ef48-4a8c-a965-7db0f182d05d"
      ],
      "collections": [
        "c7db86a0-ff64-4044-9be4-66dd1ef1d1c1"
      ],
      "creators": [
        "aaff4ba6-9a12-4bac-9bd0-c0cb783e4177"
      ],
      "families": [
        "0377db02-3af6-43b8-9b08-c759df3d25c3"
      ],
      "genres": [
        "a0aeef4a-6428-45ff-a6e1-468b595930c2"
      ],
      "groups": [
        "8c22c899-b3ed-42da-a548-ce00f950798b",
        "8e209ae4-4381-438f-89dc-1b21752027d2"
      ],
      "langs": [
        "4dcf9614-7914-42aa-99f4-dbce2e059133"
      ],
      "origins": [
        "938de218-5343-4865-94d3-fb33f2eaa152"
      ],
      "series": [
        "db775746-e1f4-49e0-9cca-e507222b80a8"
      ],
      "singers": [
        "0e7d9e0a-3bc4-4c44-ac1a-5f87db5876b5",
        "1be9fced-4607-4454-bf06-e0b10f14ba2b",
        "ae1f6c2e-cdf3-4564-b49d-8314985b0d96",
        "b1258403-eacf-4ee3-b323-651fbab89975",
        "f6239c1a-9824-4801-aa0d-770b447a19b9"
      ],
      "singergroups": [
        "46fc3e06-382f-4bbf-a079-8ecd5522f6b2"
      ],
      "songtypes": [
        "f02ad9b3-0bd9-4aad-85b3-9976739ba0e4"
      ],
      "songwriters": [
        "11aeb8e5-7295-459c-bcf7-8035b3ff942c",
        "48b4578d-f0b8-4d37-bcd0-07b489e211ec"
      ]
    },
    "titles": {
      "eng": "Everlasting Shine",
      "jpn": "永遠に光れ",
      "qro": "Eien ni Hikare"
    },
    "titles_default_language": "eng",
    "year": 2020
  }
}