{
  "header": {
    "version": 4,
    "description": "Karaoke Mugen Karaoke Data File"
  },
  "medias": [
    {
      "version": "makka na kimochi",
      "filename": "JPN - REC - OP - Cheer ~ makka na kimochi.mp4",
      "audiogain": 1.75,
      "loudnorm": "-19.37,-6.29,4.00,-29.45,0.12",
      "filesize": 18338992,
      "duration": 91,
      "default": true,
      "lyrics": [
        {
          "filename": "JPN - REC - OP - Cheer ~ makka na kimochi.ass",
          "default": true,
          "version": "Default",
          "subchecksum": "42432b44576bb8a330fe6d4f45e7ff65"
        }
      ]
    }
  ],
  "data": {
    "created_at": "2017-10-11T17:02:27.000Z",
    "kid": "2b07231c-ae48-4297-b944-dc75c115fcc2",
    "modified_at": "2021-02-25T12:50:23.629Z",
    "repository": "kara.moe",
    "tags": {
      "authors": [
        "5bdaba57-27f8-4568-8806-76a807728766"
      ],
      "collections": [
        "c7db86a0-ff64-4044-9be4-66dd1ef1d1c1"
      ],
      "creators": [
        "c3bd80ef-d1fe-427f-913f-a2ba2fe66114"
      ],
      "families": [
        "0377db02-3af6-43b8-9b08-c759df3d25c3"
      ],
      "groups": [
        "3c14c864-533c-49e6-a3cc-6969f1233775"
      ],
      "langs": [
        "4dcf9614-7914-42aa-99f4-dbce2e059133"
      ],
      "origins": [
        "938de218-5343-4865-94d3-fb33f2eaa152"
      ],
      "series": [
        "b5b093bd-42c4-4b13-93ee-1a02d626a461"
      ],
      "singers": [
        "7fd41e6a-ff39-4d3d-a6f4-06016b0088bf"
      ],
      "songtypes": [
        "f02ad9b3-0bd9-4aad-85b3-9976739ba0e4"
      ],
      "songwriters": [
        "464799a0-50ff-48ec-ba51-eac26820c0d4"
      ]
    },
    "title": "Cheer ~ makka na kimochi",
    "titles": {
      "qro": "Cheer! ~ makka na kimochi",
      "jpn": "Cheer! ～まっかなキモチ～"
    },
    "year": 2006,
    "titles_default_language": "qro"
  }
}