{
  "header": {
    "version": 4,
    "description": "Karaoke Mugen Karaoke Data File"
  },
  "medias": [
    {
      "version": "Default",
      "filename": "JPN - 3-gatsu no Lion - OP1 - Answer.mp4",
      "audiogain": -0.37,
      "loudnorm": "-17.07,-6.99,3.60,-27.25,-0.77",
      "filesize": 40832846,
      "duration": 92,
      "default": true,
      "lyrics": [
        {
          "filename": "JPN - 3-gatsu no Lion - OP1 - Answer.ass",
          "default": true,
          "version": "Default"
        }
      ]
    }
  ],
  "data": {
    "created_at": "2017-10-11T17:01:37.000Z",
    "kid": "fcb32b00-c7d5-470e-9f98-32edd1b67e18",
    "modified_at": "2021-07-25T19:11:40.023Z",
    "repository": "kara.moe",
    "songorder": 1,
    "tags": {
      "authors": [
        "cfdaf046-d5cd-419c-9e71-16d69a8eabca"
      ],
      "collections": [
        "c7db86a0-ff64-4044-9be4-66dd1ef1d1c1"
      ],
      "creators": [
        "c3bd80ef-d1fe-427f-913f-a2ba2fe66114"
      ],
      "families": [
        "0377db02-3af6-43b8-9b08-c759df3d25c3"
      ],
      "groups": [
        "8c22c899-b3ed-42da-a548-ce00f950798b",
        "ae613721-1fbe-480d-ba6b-d6d0702b184d"
      ],
      "langs": [
        "4dcf9614-7914-42aa-99f4-dbce2e059133"
      ],
      "misc": [
        "fe819ff1-9db8-4a0f-85dc-0e322c9126c4"
      ],
      "origins": [
        "938de218-5343-4865-94d3-fb33f2eaa152"
      ],
      "series": [
        "bfd9a244-40d0-4ec8-81ba-041ae07a6797"
      ],
      "singers": [
        "a027724c-6136-4dc1-b585-7ae8f780c8d2"
      ],
      "songtypes": [
        "f02ad9b3-0bd9-4aad-85b3-9976739ba0e4"
      ],
      "songwriters": [
        "20a392bf-0517-4d22-a08c-46345d1077fe"
      ],
      "franchises": [
        "bfd9a244-40d0-4ec8-81ba-041ae07a6797"
      ]
    },
    "title": "Answer",
    "titles": {
      "eng": "Answer",
      "jpn": "アンサー"
    },
    "year": 2016,
    "titles_default_language": "eng"
  }
}