{
  "header": {
    "version": 4,
    "description": "Karaoke Mugen Karaoke Data File"
  },
  "medias": [
    {
      "version": "Default",
      "filename": "JPN - Hypnosis Mic -Division Rap Battle- - MV - Stella.mp4",
      "audiogain": -7.93,
      "loudnorm": "-9.05,2.19,11.20,-19.44,-1.78",
      "filesize": 30644531,
      "duration": 289,
      "default": true,
      "lyrics": [
        {
          "filename": "JPN - Hypnosis Mic -Division Rap Battle- - MV - Stella.ass",
          "default": true,
          "version": "Default"
        }
      ]
    }
  ],
  "data": {
    "created_at": "2019-10-03T15:14:36.000Z",
    "ignoreHooks": false,
    "kid": "fd062a1e-cc4d-47f6-8a75-f3d62f044170",
    "modified_at": "2023-02-02T18:57:07.417Z",
    "repository": "kara.moe",
    "tags": {
      "authors": [
        "2a9bbf75-0722-4b4a-9935-caa92f38fdd1"
      ],
      "collections": [
        "c7db86a0-ff64-4044-9be4-66dd1ef1d1c1"
      ],
      "creators": [
        "57922aa1-eae2-4c1d-946c-bb320505b549",
        "769af53e-df08-4cb5-9cad-7503576dee49",
        "98ab71c6-8066-4d59-84a2-9833a27ec461",
        "d2a29c19-019f-4a3d-86ad-2dae9e41a4b1"
      ],
      "families": [
        "0377db02-3af6-43b8-9b08-c759df3d25c3"
      ],
      "groups": [
        "ae613721-1fbe-480d-ba6b-d6d0702b184d"
      ],
      "langs": [
        "4dcf9614-7914-42aa-99f4-dbce2e059133"
      ],
      "series": [
        "8969c1d9-a552-4216-837c-36945e5e730a"
      ],
      "singers": [
        "01c71ea7-b3d5-4ab2-927e-9f56fb3327fd",
        "6fc680bc-6637-41af-884c-ec7d86524c41",
        "d72701c8-4aa0-4619-a4ea-aea77d37422c"
      ],
      "singergroups": [
        "58083e61-6d68-48a8-a5b3-4bbfa418cf81"
      ],
      "songtypes": [
        "7be1b15c-cff8-4b37-a649-5c90f3d569a9"
      ],
      "songwriters": [
        "a4721b41-b1f1-409b-8afb-bfc57a322606",
        "d3f4b228-00b9-4842-98db-1aeb87e991ea"
      ],
      "franchises": [
        "8969c1d9-a552-4216-837c-36945e5e730a"
      ]
    },
    "titles": {
      "eng": "Stella"
    },
    "titles_default_language": "eng",
    "year": 2019
  }
}