{
  "header": {
    "version": 4,
    "description": "Karaoke Mugen Karaoke Data File"
  },
  "medias": [
    {
      "version": "Default",
      "filename": "JPN - Elf wo Karu Mono-tachi - OP - Angel Blue.mp4",
      "audiogain": 2.88,
      "loudnorm": "-22.45,-10.93,6.30,-32.59,-0.21",
      "filesize": 13366792,
      "duration": 90,
      "default": true,
      "lyrics": [
        {
          "filename": "JPN - Elf wo Karu Mono-tachi - OP - Angel Blue.ass",
          "default": true,
          "version": "Default",
          "subchecksum": "1f44cf745ad4831de8582312f568d703"
        }
      ]
    }
  ],
  "data": {
    "created_at": "2017-10-11T17:02:26.000Z",
    "kid": "c7fa5d78-4c2d-472a-a8e6-4e1818cce60a",
    "modified_at": "2021-02-25T11:15:12.670Z",
    "repository": "kara.moe",
    "tags": {
      "authors": [
        "5bdaba57-27f8-4568-8806-76a807728766"
      ],
      "collections": [
        "c7db86a0-ff64-4044-9be4-66dd1ef1d1c1"
      ],
      "creators": [
        "06b98930-5c01-4bd6-9712-9d2cc1a57ea7"
      ],
      "families": [
        "0377db02-3af6-43b8-9b08-c759df3d25c3"
      ],
      "groups": [
        "24db50aa-a126-4d34-a48a-e45db79c4245"
      ],
      "langs": [
        "4dcf9614-7914-42aa-99f4-dbce2e059133"
      ],
      "origins": [
        "938de218-5343-4865-94d3-fb33f2eaa152"
      ],
      "series": [
        "9314017b-a4ea-41b8-8549-4f81fd670a47"
      ],
      "singers": [
        "13533304-f004-4848-8fb9-cd81421603a8"
      ],
      "songtypes": [
        "f02ad9b3-0bd9-4aad-85b3-9976739ba0e4"
      ],
      "songwriters": [
        "13533304-f004-4848-8fb9-cd81421603a8",
        "cec4a4bf-3c7c-467f-8ee9-ae39cc1b923a"
      ]
    },
    "title": "Angel Blue",
    "titles": {
      "eng": "Angel Blue"
    },
    "year": 1996,
    "titles_default_language": "eng"
  }
}