{
  "header": {
    "version": 4,
    "description": "Karaoke Mugen Karaoke Data File"
  },
  "medias": [
    {
      "version": "Default",
      "filename": "JPN - Tales of Zestiria the X 2nd Season - MV - illuminate ~ Full Vers.mp4",
      "audiogain": -10.52,
      "loudnorm": "-6.53,1.76,4.80,-16.60,-1.41",
      "filesize": 64557510,
      "duration": 296,
      "default": true,
      "lyrics": [
        {
          "filename": "JPN - Tales of Zestiria the X 2nd Season - MV - illuminate ~ Full Vers.ass",
          "default": true,
          "version": "Default"
        }
      ]
    }
  ],
  "data": {
    "created_at": "2020-08-02T22:09:26.361Z",
    "kid": "dd40987b-1240-4b8c-ae31-d408035d0336",
    "modified_at": "2022-06-04T00:22:14.982Z",
    "parents": [
      "12f82acb-000f-4779-97be-e7276db316b9"
    ],
    "repository": "kara.moe",
    "songorder": null,
    "tags": {
      "authors": [
        "5cb3d0c5-479e-4224-b6ec-b27209e933a0"
      ],
      "creators": [
        "b2805292-730e-473a-96f0-fd8e7ffd1fd7"
      ],
      "families": [
        "5391f9fe-638c-415f-8dc9-958e3a2c5787"
      ],
      "groups": [
        "60defa7b-774e-4680-8321-51b742c2e009",
        "ae613721-1fbe-480d-ba6b-d6d0702b184d"
      ],
      "langs": [
        "4dcf9614-7914-42aa-99f4-dbce2e059133"
      ],
      "series": [
        "80c29a32-745f-40cb-bcf6-351a89cae445"
      ],
      "singers": [
        "da2034ae-6d61-4f43-9700-4030f097ef13"
      ],
      "songtypes": [
        "7be1b15c-cff8-4b37-a649-5c90f3d569a9"
      ],
      "songwriters": [
        "06dd0bd1-49be-44e5-9d6f-d820d29b849f",
        "da2034ae-6d61-4f43-9700-4030f097ef13",
        "fd23b66a-f3df-4e8f-98b5-3db6600e53c0"
      ],
      "versions": [
        "c2143a7f-6970-450e-8a79-0302db9220a9"
      ],
      "collections": [
        "dbcf2c22-524d-4708-99bb-601703633927"
      ],
      "franchises": [
        "457ab7f6-9644-4493-b61b-8778400aaf54"
      ]
    },
    "titles": {
      "eng": "illuminate"
    },
    "titles_default_language": "eng",
    "title": "illuminate",
    "year": 2017
  }
}