{
  "header": {
    "version": 4,
    "description": "Karaoke Mugen Karaoke Data File"
  },
  "medias": [
    {
      "version": "Default",
      "filename": "JPN - Rin Kagamine - MV - Meltdown.mp4",
      "audiogain": -13.55,
      "loudnorm": "-4.08,2.93,10.50,-14.55,-0.19",
      "filesize": 65779991,
      "duration": 332,
      "default": true,
      "lyrics": [
        {
          "filename": "JPN - Rin Kagamine - MV - Meltdown.ass",
          "default": true,
          "version": "Default"
        }
      ]
    }
  ],
  "data": {
    "created_at": "2020-07-12T17:39:58.749Z",
    "kid": "5ab34cb6-5a58-4212-9ff5-cc13804dc6db",
    "modified_at": "2021-12-28T21:02:23.840Z",
    "repository": "kara.moe",
    "tags": {
      "authors": [
        "60defa7b-774e-4680-8321-51b742c2e009"
      ],
      "collections": [
        "c7db86a0-ff64-4044-9be4-66dd1ef1d1c1"
      ],
      "creators": [
        "f686293e-633b-4c1b-99cb-a2a8ccd84157"
      ],
      "families": [
        "0377db02-3af6-43b8-9b08-c759df3d25c3"
      ],
      "genres": [
        "45623cae-6d68-4304-a49b-896d1d6f4580"
      ],
      "groups": [
        "3c14c864-533c-49e6-a3cc-6969f1233775",
        "60defa7b-774e-4680-8321-51b742c2e009"
      ],
      "langs": [
        "4dcf9614-7914-42aa-99f4-dbce2e059133"
      ],
      "misc": [
        "86705d4b-24e4-4756-9687-2b9c98bcf366"
      ],
      "singers": [
        "dbb8d613-a120-46c7-bb42-bc6c1efb61f7"
      ],
      "songtypes": [
        "7be1b15c-cff8-4b37-a649-5c90f3d569a9"
      ],
      "songwriters": [
        "16340bea-8c8f-4d23-af7b-f03c8d47758b",
        "be7fd53f-b912-4026-b329-462f8bdd28f0"
      ]
    },
    "titles": {
      "eng": "Meltdown",
      "jpn": "炉心融解"
    },
    "title": "Meltdown",
    "year": 2008,
    "titles_default_language": "eng"
  }
}