{
  "header": {
    "version": 4,
    "description": "Karaoke Mugen Karaoke Data File"
  },
  "medias": [
    {
      "version": "Default",
      "filename": "JPN - Freedom - OVA OP - This is Love.avi",
      "audiogain": -5.66,
      "loudnorm": "-11.76,-1.28,3.40,-21.84,-0.48",
      "filesize": 43314400,
      "duration": 90,
      "default": true,
      "lyrics": [
        {
          "filename": "JPN - Freedom - OVA OP - This is Love.ass",
          "default": true,
          "version": "Default",
          "subchecksum": "19a47c088056ee9f3b121b1781420487"
        }
      ]
    }
  ],
  "data": {
    "created_at": "2017-10-11T17:01:21.000Z",
    "kid": "844d107b-0739-4199-9120-d33c656a6078",
    "modified_at": "2021-02-25T11:20:59.149Z",
    "repository": "kara.moe",
    "tags": {
      "authors": [
        "5bdaba57-27f8-4568-8806-76a807728766"
      ],
      "collections": [
        "c7db86a0-ff64-4044-9be4-66dd1ef1d1c1"
      ],
      "creators": [
        "ef8f80e1-d244-4aea-b7f0-984d6dd4b82b"
      ],
      "families": [
        "0377db02-3af6-43b8-9b08-c759df3d25c3"
      ],
      "groups": [
        "3c14c864-533c-49e6-a3cc-6969f1233775"
      ],
      "langs": [
        "4dcf9614-7914-42aa-99f4-dbce2e059133"
      ],
      "origins": [
        "2a6ef087-a000-4f8e-aeb5-9a7968756a36"
      ],
      "series": [
        "e249ebf5-e495-4af4-8001-8506380b96cd"
      ],
      "singers": [
        "41a9b640-40e6-4019-a55b-9bb0e858e0fc"
      ],
      "songtypes": [
        "f02ad9b3-0bd9-4aad-85b3-9976739ba0e4"
      ],
      "songwriters": [
        "41a9b640-40e6-4019-a55b-9bb0e858e0fc"
      ]
    },
    "title": "This is Love",
    "titles": {
      "eng": "This Is Love"
    },
    "year": 2006,
    "titles_default_language": "eng"
  }
}