{
  "header": {
    "version": 4,
    "description": "Karaoke Mugen Karaoke Data File"
  },
  "medias": [
    {
      "version": "Default",
      "filename": "JPN - Kaifuku Jutsushi no Yarinaoshi - MV - Yume de Sekai wo Kaeru nara ~ Full Vers.mp4",
      "audiogain": -8.4,
      "loudnorm": "-8.15,3.82,4.50,-18.17,-1.05",
      "filesize": 138671871,
      "duration": 259,
      "default": true,
      "lyrics": [
        {
          "filename": "JPN - Kaifuku Jutsushi no Yarinaoshi - MV - Yume de Sekai wo Kaeru nara ~ Full Vers.ass",
          "default": true,
          "version": "Default"
        }
      ]
    }
  ],
  "data": {
    "created_at": "2023-03-18T10:21:38.609Z",
    "ignoreHooks": false,
    "kid": "c0041bcb-b9b9-4a73-a100-7d474a3b4cec",
    "modified_at": "2023-04-23T10:25:10.837Z",
    "parents": [
      "3b9b55da-0528-4ad7-9ebe-9b816b60f741"
    ],
    "repository": "kara.moe",
    "tags": {
      "authors": [
        "444f6842-1a6b-4ade-b8fa-e48490ebc39d"
      ],
      "collections": [
        "c7db86a0-ff64-4044-9be4-66dd1ef1d1c1"
      ],
      "creators": [
        "0a8b7d96-4af9-4b6b-80e8-44c3034caab5"
      ],
      "families": [
        "5391f9fe-638c-415f-8dc9-958e3a2c5787"
      ],
      "groups": [
        "8e209ae4-4381-438f-89dc-1b21752027d2"
      ],
      "langs": [
        "4dcf9614-7914-42aa-99f4-dbce2e059133"
      ],
      "origins": [
        "938de218-5343-4865-94d3-fb33f2eaa152"
      ],
      "series": [
        "1b2a1f54-ba5a-4545-a9fa-20d52721bd09"
      ],
      "singers": [
        "5dbfee91-dbe9-4fcf-9dd6-f7ef71f77fa8"
      ],
      "songtypes": [
        "7be1b15c-cff8-4b37-a649-5c90f3d569a9"
      ],
      "songwriters": [
        "7eecb89b-1985-4fd9-927e-a43cc24f03a5",
        "dd847c79-82cb-45b1-ae9b-ae2f8bd39417"
      ],
      "versions": [
        "c2143a7f-6970-450e-8a79-0302db9220a9"
      ]
    },
    "titles": {
      "jpn": "夢で世界を変えるなら",
      "qro": "Yume de Sekai wo Kaeru nara"
    },
    "titles_default_language": "qro",
    "year": 2021
  }
}