{
  "header": {
    "version": 4,
    "description": "Karaoke Mugen Karaoke Data File"
  },
  "medias": [
    {
      "version": "Default",
      "filename": "JPN - Evangelion Shin Gekijouban Q - MOVIE MV - Sakura Nagashi.mp4",
      "audiogain": 4.96,
      "loudnorm": "-24.12,-11.18,20.30,-35.68,-1.75",
      "filesize": 90794808,
      "duration": 275,
      "default": true,
      "lyrics": [
        {
          "filename": "JPN - Evangelion Shin Gekijouban Q - MOVIE MV - Sakura Nagashi.ass",
          "default": true,
          "version": "Default"
        }
      ]
    }
  ],
  "data": {
    "created_at": "2019-06-30T01:35:00.000Z",
    "kid": "df258c98-45e2-4570-86d6-20c7fc9a9686",
    "modified_at": "2022-07-20T11:37:51.644Z",
    "repository": "kara.moe",
    "tags": {
      "authors": [
        "1df04771-a378-4f14-a5e1-1455187d681a"
      ],
      "creators": [
        "2c3b5e17-f339-43d4-8ade-4f848d63316e"
      ],
      "families": [
        "0377db02-3af6-43b8-9b08-c759df3d25c3"
      ],
      "groups": [
        "ae613721-1fbe-480d-ba6b-d6d0702b184d"
      ],
      "langs": [
        "4dcf9614-7914-42aa-99f4-dbce2e059133"
      ],
      "origins": [
        "c8ca9dea-d8b4-48fe-8427-d911653232e9"
      ],
      "series": [
        "5b53f5cb-433b-4a8c-9afe-b5166d39b977"
      ],
      "singers": [
        "41a9b640-40e6-4019-a55b-9bb0e858e0fc"
      ],
      "songtypes": [
        "7be1b15c-cff8-4b37-a649-5c90f3d569a9"
      ],
      "songwriters": [
        "41a9b640-40e6-4019-a55b-9bb0e858e0fc",
        "d27ec107-b919-4282-a760-aae03fc2eb02",
        "f3599ec5-94ac-424a-ad35-bee211544849"
      ],
      "collections": [
        "c7db86a0-ff64-4044-9be4-66dd1ef1d1c1"
      ],
      "warnings": [
        "24371984-5e4c-4485-a937-fb0c480ca23b"
      ],
      "franchises": [
        "f5c46257-58e9-4eac-92ce-7d02fd528809"
      ]
    },
    "titles": {
      "qro": "Sakura Nagashi",
      "jpn": "桜流し"
    },
    "titles_default_language": "qro",
    "title": "Sakura Nagashi",
    "year": 2012
  }
}