{
  "header": {
    "version": 4,
    "description": "Karaoke Mugen Karaoke Data File"
  },
  "medias": [
    {
      "version": "Default",
      "filename": "JPN - Soukyuu no Fafner Dead Aggressor Exodus - ED1 - An'ya Kouro.mp4",
      "audiogain": -0.08,
      "loudnorm": "-20.10,-4.65,9.60,-30.80,-1.12",
      "filesize": 23077509,
      "duration": 93,
      "default": true,
      "lyrics": [
        {
          "filename": "JPN - Soukyuu no Fafner Dead Aggressor Exodus - ED1 - An'ya Kouro.ass",
          "default": true,
          "version": "Default"
        }
      ]
    }
  ],
  "data": {
    "created_at": "2017-10-11T17:02:25.000Z",
    "ignoreHooks": false,
    "kid": "8c848750-9f56-4cfc-9dfe-0949c424f758",
    "modified_at": "2022-09-30T21:03:00.452Z",
    "repository": "kara.moe",
    "songorder": 1,
    "tags": {
      "authors": [
        "5bdaba57-27f8-4568-8806-76a807728766"
      ],
      "collections": [
        "c7db86a0-ff64-4044-9be4-66dd1ef1d1c1"
      ],
      "creators": [
        "0e26434a-c89a-4366-85b5-9e5c4b7d4195"
      ],
      "families": [
        "0377db02-3af6-43b8-9b08-c759df3d25c3"
      ],
      "genres": [
        "f60ba57d-5ef4-49e0-b93b-d0dcbcff6592"
      ],
      "groups": [
        "ae613721-1fbe-480d-ba6b-d6d0702b184d"
      ],
      "langs": [
        "4dcf9614-7914-42aa-99f4-dbce2e059133"
      ],
      "origins": [
        "938de218-5343-4865-94d3-fb33f2eaa152"
      ],
      "series": [
        "133c97f2-4ba1-4df4-8aa6-7fc36f740212"
      ],
      "singers": [
        "78d91182-ac66-49fb-9561-1d330667d6c4"
      ],
      "songtypes": [
        "38c77c56-2b95-4040-b676-0994a8cb0597"
      ],
      "songwriters": [
        "0b54e69d-4691-4415-be0e-0dd6fd5d4e1a",
        "84a20b00-fd06-43fd-b78e-9c1a2b7b7795"
      ],
      "franchises": [
        "9f12b43c-04d5-4f45-a0b0-a35453f51b0c"
      ]
    },
    "titles": {
      "jpn": "暗夜航路",
      "qro": "An'ya Kôro"
    },
    "titles_default_language": "qro",
    "title": "An'ya Kôro",
    "year": 2014,
    "titles_aliases": [
      "Kouro"
    ]
  }
}