{
  "header": {
    "version": 4,
    "description": "Karaoke Mugen Karaoke Data File"
  },
  "medias": [
    {
      "version": "Default",
      "filename": "JPN - Asura Cryin' - OP - Spiral.mp4",
      "audiogain": -5.09,
      "loudnorm": "-12.75,-1.05,2.80,-22.85,-0.99",
      "filesize": 16290798,
      "duration": 89,
      "default": true,
      "lyrics": [
        {
          "filename": "JPN - Asura Cryin' - OP - Spiral.ass",
          "default": true,
          "version": "Default",
          "subchecksum": "d8d959a1ae415cd46e4ae1e6cb6d962f"
        }
      ]
    }
  ],
  "data": {
    "created_at": "2017-10-11T17:02:32.000Z",
    "kid": "28a0e6c7-14df-45f1-b23c-e6d66d22bc21",
    "modified_at": "2021-02-25T10:47:18.341Z",
    "repository": "kara.moe",
    "tags": {
      "authors": [
        "5bdaba57-27f8-4568-8806-76a807728766"
      ],
      "collections": [
        "c7db86a0-ff64-4044-9be4-66dd1ef1d1c1"
      ],
      "creators": [
        "2c2ecf1e-16c1-4768-aedc-3d79f54321da"
      ],
      "families": [
        "0377db02-3af6-43b8-9b08-c759df3d25c3"
      ],
      "groups": [
        "3c14c864-533c-49e6-a3cc-6969f1233775"
      ],
      "langs": [
        "4dcf9614-7914-42aa-99f4-dbce2e059133"
      ],
      "origins": [
        "938de218-5343-4865-94d3-fb33f2eaa152"
      ],
      "series": [
        "cb781bcb-0714-478c-bbab-670531bd0392"
      ],
      "singers": [
        "78d91182-ac66-49fb-9561-1d330667d6c4"
      ],
      "songtypes": [
        "f02ad9b3-0bd9-4aad-85b3-9976739ba0e4"
      ],
      "songwriters": [
        "0b54e69d-4691-4415-be0e-0dd6fd5d4e1a",
        "84a20b00-fd06-43fd-b78e-9c1a2b7b7795"
      ],
      "franchises": [
        "cb781bcb-0714-478c-bbab-670531bd0392"
      ]
    },
    "title": "Spiral",
    "titles": {
      "eng": "Spiral"
    },
    "year": 2009,
    "titles_default_language": "eng"
  }
}