{
  "header": {
    "version": 4,
    "description": "Karaoke Mugen Karaoke Data File"
  },
  "medias": [
    {
      "version": "Parodic.",
      "filename": "JPN - Death Parade - MV - Flyers ~ Parodic Vers. ~ Alternative Vers.mp4",
      "audiogain": 4.91,
      "loudnorm": "-20.94,-13.97,1.70,-31.01,-0.20",
      "filesize": 27627709,
      "duration": 81,
      "default": true,
      "lyrics": [
        {
          "filename": "JPN - Death Parade - MV - Flyers ~ Parodic Vers. ~ Alternative Vers.ass",
          "default": true,
          "version": "Default"
        }
      ]
    }
  ],
  "data": {
    "created_at": "2019-01-07T13:22:04.000Z",
    "kid": "7906b97b-d644-456d-82a9-571b51eee9a3",
    "modified_at": "2022-06-04T14:29:22.358Z",
    "parents": [
      "5ede7655-4d29-4349-a6fa-3e8f423293e3"
    ],
    "repository": "kara.moe",
    "songorder": null,
    "tags": {
      "authors": [
        "4b850d34-7ed5-456f-bb25-7b630358c169"
      ],
      "creators": [
        "ad758c5e-f56c-4d6d-a301-f20ffdb57676"
      ],
      "families": [
        "5391f9fe-638c-415f-8dc9-958e3a2c5787"
      ],
      "groups": [
        "ae613721-1fbe-480d-ba6b-d6d0702b184d"
      ],
      "langs": [
        "4dcf9614-7914-42aa-99f4-dbce2e059133"
      ],
      "misc": [
        "07af42d1-824e-407e-bf37-7fb84905484b",
        "cef35a27-3bf0-48c9-beb2-d245ba62ea6b"
      ],
      "series": [
        "0245a3e3-7356-4e0c-99a3-392e9974ee84"
      ],
      "singers": [
        "e8c4fc36-61ec-445d-8890-7166482fffd0"
      ],
      "songtypes": [
        "7be1b15c-cff8-4b37-a649-5c90f3d569a9"
      ],
      "songwriters": [
        "e1cb1994-00a9-4fa6-b2fc-f828e8b0b3fb",
        "e8c4fc36-61ec-445d-8890-7166482fffd0"
      ],
      "versions": [
        "9f63c359-d1bf-425a-bcf5-b245c2c9211d"
      ],
      "collections": [
        "c7db86a0-ff64-4044-9be4-66dd1ef1d1c1"
      ]
    },
    "titles": {
      "eng": "Flyers ~ Parodic Vers."
    },
    "titles_default_language": "eng",
    "title": "Flyers ~ Parodic Vers.",
    "year": 2015
  }
}