{
  "header": {
    "version": 4,
    "description": "Karaoke Mugen Karaoke Data File"
  },
  "medias": [
    {
      "version": "Default",
      "filename": "JPN - Senki Zesshou Symphogear GX - AUDIO CS - Seiten Galaxy Cross ~ Full Off Vocal Vers.mp3",
      "audiogain": -6.27,
      "loudnorm": "-10.53,-0.15,5.20,-20.74,-0.25",
      "filesize": 7564906,
      "duration": 279,
      "default": true,
      "lyrics": [
        {
          "filename": "JPN - Senki Zesshou Symphogear GX - AUDIO CS - Seiten Galaxy Cross ~ Full Off Vocal Vers.ass",
          "default": true,
          "version": "Default",
          "subchecksum": "54d6530b59e122ffdf30830d4a8e3fb9"
        }
      ]
    }
  ],
  "data": {
    "created_at": "2021-02-14T15:37:07.038Z",
    "kid": "c830273c-e02b-4176-ba43-232775f23490",
    "modified_at": "2021-02-25T13:00:59.844Z",
    "parents": [
      "8965aa42-99c4-49a0-9030-d792dd3d8164"
    ],
    "repository": "kara.moe",
    "tags": {
      "authors": [
        "5cb3d0c5-479e-4224-b6ec-b27209e933a0"
      ],
      "collections": [
        "c7db86a0-ff64-4044-9be4-66dd1ef1d1c1"
      ],
      "creators": [
        "d2a29c19-019f-4a3d-86ad-2dae9e41a4b1"
      ],
      "genres": [
        "caa86df2-0d59-474b-885c-f240a9e891b0"
      ],
      "groups": [
        "60defa7b-774e-4680-8321-51b742c2e009",
        "ae613721-1fbe-480d-ba6b-d6d0702b184d"
      ],
      "langs": [
        "4dcf9614-7914-42aa-99f4-dbce2e059133"
      ],
      "misc": [
        "1d6ceadf-a885-47e5-b23b-c07bf668a424"
      ],
      "origins": [
        "938de218-5343-4865-94d3-fb33f2eaa152"
      ],
      "series": [
        "86627e91-4551-4e88-899b-2cb017e853e0"
      ],
      "singers": [
        "6d2045b2-80ab-45ff-a131-c4df02ef52d1",
        "f2e9d52b-1b80-4fb5-8754-628462e094e5"
      ],
      "songtypes": [
        "42a262ae-acba-4ab5-a446-c5789c96c821",
        "a8a2616c-b5a1-4df3-ad6f-89291bc67dee"
      ],
      "songwriters": [
        "af3ffe51-8059-461c-bbb8-78ea388731f3"
      ],
      "versions": [
        "c0cc87b9-55b9-40f0-878a-fbb9e34c151e",
        "c2143a7f-6970-450e-8a79-0302db9220a9"
      ],
      "franchises": [
        "61b24082-a6a9-482b-b126-0ad7be595791"
      ]
    },
    "title": "Seiten Galaxy Cross",
    "titles": {
      "qro": "Seiten Galaxy Cross",
      "jpn": "星天ギャラクシィクロス"
    },
    "year": 2015,
    "titles_default_language": "qro"
  }
}