{
  "header": {
    "version": 4,
    "description": "Karaoke Mugen Karaoke Data File"
  },
  "medias": [
    {
      "version": "Default",
      "filename": "JPN - Black Clover (2017) - OP2 - PAiNT it BLACK.mp4",
      "audiogain": -11.03,
      "loudnorm": "-6.67,0.23,3.60,-16.73,-1.01",
      "filesize": 42123853,
      "duration": 90,
      "default": true,
      "lyrics": [
        {
          "filename": "JPN - Black Clover (2017) - OP2 - PAiNT it BLACK.ass",
          "default": true,
          "version": "Default",
          "subchecksum": "e7c0cbdabe56f251506b549cac63271b"
        }
      ]
    }
  ],
  "data": {
    "created_at": "2018-07-24T18:21:13.000Z",
    "kid": "0b99787f-9bec-4ce9-a27f-d4b321b4184b",
    "modified_at": "2021-02-25T10:53:09.225Z",
    "repository": "kara.moe",
    "songorder": 2,
    "tags": {
      "authors": [
        "b5116310-e69b-4ed4-9e47-c5c53ee69023"
      ],
      "collections": [
        "c7db86a0-ff64-4044-9be4-66dd1ef1d1c1"
      ],
      "creators": [
        "aaff4ba6-9a12-4bac-9bd0-c0cb783e4177"
      ],
      "families": [
        "0377db02-3af6-43b8-9b08-c759df3d25c3"
      ],
      "genres": [
        "a0aeef4a-6428-45ff-a6e1-468b595930c2"
      ],
      "groups": [
        "ae613721-1fbe-480d-ba6b-d6d0702b184d"
      ],
      "langs": [
        "4dcf9614-7914-42aa-99f4-dbce2e059133"
      ],
      "origins": [
        "938de218-5343-4865-94d3-fb33f2eaa152"
      ],
      "series": [
        "db775746-e1f4-49e0-9cca-e507222b80a8"
      ],
      "singers": [
        "8b877341-a725-482b-a034-d87428619ee6"
      ],
      "songtypes": [
        "f02ad9b3-0bd9-4aad-85b3-9976739ba0e4"
      ],
      "songwriters": [
        "2ac9c56b-150e-4266-ae41-d2b635b34691",
        "d2e29ba0-1c17-4d97-8f05-661ca71756a8"
      ]
    },
    "title": "PAiNT it BLACK",
    "titles": {
      "eng": "PAiNT it BLACK"
    },
    "year": 2017,
    "titles_default_language": "eng"
  }
}