{
  "header": {
    "version": 4,
    "description": "Karaoke Mugen Karaoke Data File"
  },
  "medias": [
    {
      "version": "Default",
      "filename": "JPN - Miku Hatsune - AUDIO - Nonsense Bungaku.mp3",
      "audiogain": -11.49,
      "loudnorm": "-6.05,2.47,2.50,-16.07,-0.29",
      "filesize": 3415367,
      "duration": 205,
      "default": true,
      "lyrics": [
        {
          "filename": "JPN - Miku Hatsune - AUDIO - Nonsense Bungaku.ass",
          "default": true,
          "version": "Default"
        }
      ]
    }
  ],
  "data": {
    "created_at": "2023-05-02T16:35:21.410Z",
    "ignoreHooks": false,
    "kid": "0832984e-e647-43a6-9832-5c65f8842202",
    "modified_at": "2023-05-02T16:35:54.470Z",
    "repository": "kara.moe",
    "tags": {
      "authors": [
        "a3a99b23-6c42-4d38-8863-491153187437"
      ],
      "collections": [
        "c7db86a0-ff64-4044-9be4-66dd1ef1d1c1"
      ],
      "creators": [
        "34c95391-29a5-4091-a5a7-af4913abb5c7"
      ],
      "genres": [
        "45623cae-6d68-4304-a49b-896d1d6f4580"
      ],
      "groups": [
        "ae613721-1fbe-480d-ba6b-d6d0702b184d"
      ],
      "langs": [
        "4dcf9614-7914-42aa-99f4-dbce2e059133"
      ],
      "misc": [
        "ec4fee75-71fb-45b4-9772-2ca374b4b600"
      ],
      "singers": [
        "4407ba0e-5de7-4add-870f-7ac95a4804c9"
      ],
      "songtypes": [
        "42a262ae-acba-4ab5-a446-c5789c96c821"
      ],
      "songwriters": [
        "a84f6a9f-4785-48bb-9f07-fdede3de7cae"
      ]
    },
    "titles": {
      "eng": "Literary Nonsense",
      "jpn": "ナンセンス文学",
      "qro": "Nonsense Bungaku"
    },
    "titles_default_language": "qro",
    "year": 2017
  }
}