{
  "header": {
    "version": 4,
    "description": "Karaoke Mugen Karaoke Data File"
  },
  "medias": [
    {
      "version": "Default",
      "filename": "JPN - Onipan! - ED2 - Oni Yaba!.mp4",
      "audiogain": -1.41,
      "loudnorm": "-17.11,-3.71,4.80,-27.18,-0.90",
      "filesize": 65701260,
      "duration": 89,
      "default": true,
      "lyrics": [
        {
          "filename": "JPN - Onipan! - ED2 - Oni Yaba!.ass",
          "default": true,
          "version": "Default"
        }
      ]
    }
  ],
  "data": {
    "created_at": "2022-06-26T20:48:15.456Z",
    "ignoreHooks": false,
    "kid": "1c85a604-d836-425c-86ad-d53f95900f52",
    "modified_at": "2022-06-26T20:48:45.818Z",
    "repository": "kara.moe",
    "songorder": 2,
    "tags": {
      "authors": [
        "a5dbab74-510b-48c5-9cea-5a537a81c974"
      ],
      "collections": [
        "c7db86a0-ff64-4044-9be4-66dd1ef1d1c1"
      ],
      "creators": [
        "5e24aaad-83c9-4d8a-bbb9-37b766278ffe"
      ],
      "families": [
        "0377db02-3af6-43b8-9b08-c759df3d25c3"
      ],
      "groups": [
        "8c22c899-b3ed-42da-a548-ce00f950798b",
        "8e209ae4-4381-438f-89dc-1b21752027d2"
      ],
      "langs": [
        "4dcf9614-7914-42aa-99f4-dbce2e059133"
      ],
      "origins": [
        "938de218-5343-4865-94d3-fb33f2eaa152"
      ],
      "series": [
        "f1e8163d-b24d-4cac-a27e-760cc18100da"
      ],
      "singers": [
        "017df2fa-7dc0-4dd8-8be4-6fe394271122",
        "4e39a0e7-c012-4be9-a2c9-f09cf8d3a31b",
        "af0f7155-0e24-4d7e-a10f-bda756bbde12",
        "bfee70c5-9dc8-4cda-b9af-b504b2dbe0c7"
      ],
      "songtypes": [
        "38c77c56-2b95-4040-b676-0994a8cb0597"
      ],
      "songwriters": [
        "0641a745-f1d3-4003-9f76-4ccc472fddad",
        "330d205b-72a7-4b06-947c-2e16a0868553"
      ]
    },
    "titles": {
      "jpn": "鬼ヤバッ!",
      "qro": "Oni Yaba!"
    },
    "titles_default_language": "qro",
    "title": "Oni Yaba!",
    "year": 2022
  }
}