{
  "header": {
    "version": 4,
    "description": "Karaoke Mugen Karaoke Data File"
  },
  "medias": [
    {
      "version": "Default",
      "filename": "JPN - Wake Up Girls! - ED - Kotonoha Aoba.mp4",
      "audiogain": 6.51,
      "loudnorm": "-24.63,-12.11,9.90,-35.04,-2.18",
      "filesize": 33056196,
      "duration": 89,
      "default": true,
      "lyrics": [
        {
          "filename": "JPN - Wake Up Girls! - ED - Kotonoha Aoba.ass",
          "default": true,
          "version": "Default",
          "subchecksum": "eae144e28452b9f73d11bfb2ceb54455"
        }
      ]
    }
  ],
  "data": {
    "created_at": "2017-10-11T17:01:53.000Z",
    "kid": "39c88f7a-daf5-4f1f-a299-ffd1929182e4",
    "modified_at": "2021-02-25T13:36:20.841Z",
    "repository": "kara.moe",
    "tags": {
      "authors": [
        "5bdaba57-27f8-4568-8806-76a807728766"
      ],
      "collections": [
        "c7db86a0-ff64-4044-9be4-66dd1ef1d1c1"
      ],
      "creators": [
        "5f071b2c-440f-42ce-9680-6b9067a22009",
        "cfdb2d1e-499d-47a1-b9f8-070153b5048e"
      ],
      "families": [
        "0377db02-3af6-43b8-9b08-c759df3d25c3"
      ],
      "genres": [
        "caa86df2-0d59-474b-885c-f240a9e891b0"
      ],
      "groups": [
        "ae613721-1fbe-480d-ba6b-d6d0702b184d"
      ],
      "langs": [
        "4dcf9614-7914-42aa-99f4-dbce2e059133"
      ],
      "origins": [
        "938de218-5343-4865-94d3-fb33f2eaa152"
      ],
      "series": [
        "dfae4ecd-cf57-4e25-be2a-3fb62b9cf15d"
      ],
      "singers": [
        "994d1d73-6652-4a27-ae41-bece9034dd13"
      ],
      "songtypes": [
        "38c77c56-2b95-4040-b676-0994a8cb0597"
      ],
      "songwriters": [
        "30dd86d9-5892-4cd0-b02a-9ab335032cc5",
        "59048889-1e11-42b3-bd82-78802eab40cd"
      ]
    },
    "title": "Kotonoha Aoba",
    "titles": {
      "qro": "Kotonoha Aoba",
      "jpn": "言の葉 青葉"
    },
    "year": 2014,
    "titles_default_language": "qro"
  }
}