{
  "header": {
    "version": 4,
    "description": "Karaoke Mugen Karaoke Data File"
  },
  "medias": [
    {
      "version": "Default",
      "filename": "JPN - Shoubushi Densetsu Tetsuya - OP - REACH OUT.mp4",
      "audiogain": -3.16,
      "loudnorm": "-14.26,0.94,2.60,-24.45,-0.19",
      "filesize": 17832450,
      "duration": 109,
      "default": true,
      "lyrics": [
        {
          "filename": "JPN - Shoubushi Densetsu Tetsuya - OP - REACH OUT.ass",
          "default": true,
          "version": "Default"
        }
      ]
    }
  ],
  "data": {
    "created_at": "2017-10-11T17:01:33.000Z",
    "ignoreHooks": false,
    "kid": "d3ea3909-58b8-4633-825d-3c6b5af00fdf",
    "modified_at": "2022-09-24T13:30:42.386Z",
    "repository": "kara.moe",
    "tags": {
      "authors": [
        "5bdaba57-27f8-4568-8806-76a807728766"
      ],
      "collections": [
        "c7db86a0-ff64-4044-9be4-66dd1ef1d1c1"
      ],
      "creators": [
        "f694bf43-b427-4244-9744-9d3f84fd8a31"
      ],
      "families": [
        "0377db02-3af6-43b8-9b08-c759df3d25c3"
      ],
      "groups": [
        "3c14c864-533c-49e6-a3cc-6969f1233775"
      ],
      "langs": [
        "4dcf9614-7914-42aa-99f4-dbce2e059133"
      ],
      "origins": [
        "938de218-5343-4865-94d3-fb33f2eaa152"
      ],
      "series": [
        "55fbb645-731d-4e51-b709-3eddac53c637"
      ],
      "singers": [
        "3237b627-d72c-4df2-afe1-40241a7b7bef"
      ],
      "songtypes": [
        "f02ad9b3-0bd9-4aad-85b3-9976739ba0e4"
      ],
      "songwriters": [
        "55cd560d-18e8-4f80-9106-cfe59d572456",
        "9adaf9e3-8fa7-4942-9128-afc499f8ca54"
      ]
    },
    "titles": {
      "eng": "REACH OUT"
    },
    "titles_default_language": "eng",
    "title": "REACH OUT",
    "year": 2000
  }
}