{
  "header": {
    "version": 4,
    "description": "Karaoke Mugen Karaoke Data File"
  },
  "medias": [
    {
      "version": "Default",
      "filename": "JPN - Karneval (2013) - OP - Henai no Rondo.mp4",
      "audiogain": 2.63,
      "loudnorm": "-19.50,-11.36,4.60,-29.64,-1.20",
      "filesize": 34098544,
      "duration": 91,
      "default": true,
      "lyrics": [
        {
          "filename": "JPN - Karneval (2013) - OP - Henai no Rondo.ass",
          "default": true,
          "version": "Default",
          "subchecksum": "659690939cb2abf0f875d6fd06ce91e6"
        }
      ]
    }
  ],
  "data": {
    "created_at": "2017-10-11T17:02:29.000Z",
    "kid": "c3986586-fb7e-40a7-8102-b9fba17a8b8b",
    "modified_at": "2021-02-25T11:55:32.786Z",
    "repository": "kara.moe",
    "tags": {
      "authors": [
        "5bdaba57-27f8-4568-8806-76a807728766"
      ],
      "collections": [
        "c7db86a0-ff64-4044-9be4-66dd1ef1d1c1"
      ],
      "creators": [
        "345edf8e-218e-47e7-ba1a-a15a623da4c5"
      ],
      "families": [
        "0377db02-3af6-43b8-9b08-c759df3d25c3"
      ],
      "groups": [
        "ae613721-1fbe-480d-ba6b-d6d0702b184d"
      ],
      "langs": [
        "4dcf9614-7914-42aa-99f4-dbce2e059133"
      ],
      "origins": [
        "938de218-5343-4865-94d3-fb33f2eaa152"
      ],
      "series": [
        "851e5c82-cac8-4db4-a56b-e260184ad1ec"
      ],
      "singers": [
        "213ca674-9084-40ad-a7a8-c84d8108fce9"
      ],
      "songtypes": [
        "f02ad9b3-0bd9-4aad-85b3-9976739ba0e4"
      ],
      "songwriters": [
        "8e1f109c-a1d4-40d6-9a55-32abdb12993c",
        "b26b49e2-d439-48b3-8c0f-c7c25648c48a"
      ]
    },
    "title": "Henai no Rondo",
    "titles": {
      "qro": "Hen'ai no Rondo",
      "jpn": "偏愛の輪舞曲"
    },
    "year": 2013,
    "titles_aliases": [
      "Henai no Rondo"
    ],
    "titles_default_language": "qro"
  }
}