{
  "header": {
    "version": 4,
    "description": "Karaoke Mugen Karaoke Data File"
  },
  "medias": [
    {
      "version": "Default",
      "filename": "JPN - The iDOLM@STER - OP1 - READY!!.mp4",
      "audiogain": -2.13,
      "loudnorm": "-16.91,-5.99,4.50,-27.00,-0.16",
      "filesize": 38950217,
      "duration": 92,
      "default": true,
      "lyrics": [
        {
          "filename": "JPN - The iDOLM@STER - OP1 - READY!!.ass",
          "default": true,
          "version": "Default"
        }
      ]
    }
  ],
  "data": {
    "created_at": "2017-10-11T17:02:46.000Z",
    "kid": "c4497276-3a7f-49b0-bbb7-24f5216bdde7",
    "modified_at": "2021-10-28T18:03:36.592Z",
    "repository": "kara.moe",
    "songorder": 1,
    "tags": {
      "authors": [
        "fa399f2f-ea1d-4902-8796-ea6d8218aff0"
      ],
      "collections": [
        "c7db86a0-ff64-4044-9be4-66dd1ef1d1c1"
      ],
      "families": [
        "0377db02-3af6-43b8-9b08-c759df3d25c3"
      ],
      "genres": [
        "caa86df2-0d59-474b-885c-f240a9e891b0"
      ],
      "groups": [
        "9a8e0fbc-dcae-4989-be82-7cad3436f1f5",
        "ae613721-1fbe-480d-ba6b-d6d0702b184d"
      ],
      "langs": [
        "4dcf9614-7914-42aa-99f4-dbce2e059133"
      ],
      "misc": [
        "fe819ff1-9db8-4a0f-85dc-0e322c9126c4"
      ],
      "origins": [
        "938de218-5343-4865-94d3-fb33f2eaa152"
      ],
      "series": [
        "d34ceea8-7d7c-4d85-9213-18d24d2b7666"
      ],
      "singers": [
        "01d27ab4-ba4d-4225-af49-d0ad6d861e61",
        "08bfd717-9f49-4dbd-8037-5a750964fda8",
        "1479a024-81fb-47b3-8990-02964fbda606",
        "1b168e50-934e-4d55-8772-53f71b94a001",
        "2d776945-754d-453a-aba7-836a3da5e28b",
        "4d3d3977-6aa4-47ee-b216-a2955a5f60b9",
        "51abb542-01b4-4267-821e-56c07d9a2705",
        "62f83f56-b7bc-4092-9c07-b79758bdfac3",
        "6b75c031-a5e4-4779-86e8-fba0e96bd29a",
        "6b9e0c83-60db-4f0f-bf10-63c37a8198d6",
        "72c2ad44-cf43-4322-99aa-d71df5cbe8a6",
        "cf4351d6-7a21-41cf-ac5e-0601fc673915",
        "de5be408-bbf9-48a5-913b-0e1e82872585"
      ],
      "songtypes": [
        "f02ad9b3-0bd9-4aad-85b3-9976739ba0e4"
      ],
      "songwriters": [
        "56fed300-010f-4abd-91d7-a384615191bf",
        "d7658a75-7945-4f08-8233-02f38dc385ba"
      ],
      "franchises": [
        "d34ceea8-7d7c-4d85-9213-18d24d2b7666"
      ]
    },
    "titles": {
      "eng": "READY!!"
    },
    "title": "READY!!",
    "year": 2011,
    "titles_default_language": "eng"
  }
}