{
  "header": {
    "version": 4,
    "description": "Karaoke Mugen Karaoke Data File"
  },
  "medias": [
    {
      "version": "Default",
      "filename": "JPN - Kidou Senshi Gundam SEED ~ HD Remaster - ED2 - Distance.mp4",
      "audiogain": -1.64,
      "loudnorm": "-16.03,-3.06,5.70,-26.49,-0.28",
      "filesize": 138203042,
      "duration": 75,
      "default": true,
      "lyrics": [
        {
          "filename": "JPN - Kidou Senshi Gundam SEED ~ HD Remaster - ED2 - Distance.ass",
          "default": true,
          "version": "Default"
        }
      ]
    }
  ],
  "data": {
    "created_at": "2023-06-10T11:51:31.478Z",
    "ignoreHooks": false,
    "kid": "b78b6e04-25fc-4162-9102-b0793ce9f7b9",
    "modified_at": "2023-06-10T11:51:31.478Z",
    "repository": "kara.moe",
    "songorder": 2,
    "tags": {
      "authors": [
        "df9cb48f-334e-4ceb-b26e-e254ad323492"
      ],
      "collections": [
        "c7db86a0-ff64-4044-9be4-66dd1ef1d1c1"
      ],
      "families": [
        "0377db02-3af6-43b8-9b08-c759df3d25c3"
      ],
      "genres": [
        "28650021-2b2a-4a55-aff4-85dd4896c687",
        "f60ba57d-5ef4-49e0-b93b-d0dcbcff6592"
      ],
      "groups": [
        "ae613721-1fbe-480d-ba6b-d6d0702b184d"
      ],
      "langs": [
        "4dcf9614-7914-42aa-99f4-dbce2e059133"
      ],
      "misc": [
        "fe819ff1-9db8-4a0f-85dc-0e322c9126c4"
      ],
      "origins": [
        "938de218-5343-4865-94d3-fb33f2eaa152"
      ],
      "series": [
        "0db14985-bb3d-4b08-9187-db80a5e6dd35"
      ],
      "singers": [
        "05c1d835-770f-471c-a565-e48c558909c1"
      ],
      "songtypes": [
        "38c77c56-2b95-4040-b676-0994a8cb0597"
      ],
      "songwriters": [
        "1f324dc7-f858-415b-bbc1-41fcce3d6ac7"
      ],
      "franchises": [
        "e6ade589-c2e4-49a1-acdb-ea9b03e57240"
      ]
    },
    "titles": {
      "jpn": "Distance"
    },
    "titles_default_language": "jpn",
    "titles_aliases": [],
    "year": 2011
  }
}