{
  "header": {
    "version": 4,
    "description": "Karaoke Mugen Karaoke Data File"
  },
  "medias": [
    {
      "version": "Default",
      "filename": "JPN - Toradora! - ED1 - Vanilla Salt.mp4",
      "audiogain": 1.85,
      "loudnorm": "-19.76,-7.27,2.90,-29.87,-0.04",
      "filesize": 12732997,
      "duration": 92,
      "default": true,
      "lyrics": [
        {
          "filename": "JPN - Toradora! - ED1 - Vanilla Salt.ass",
          "default": true,
          "version": "Default",
          "subchecksum": "2d8568ab867a022b37a05d902168fad5"
        }
      ]
    }
  ],
  "data": {
    "created_at": "2017-10-11T17:02:13.000Z",
    "kid": "d4d1a1ba-aa93-439c-b606-95f2335b79e8",
    "modified_at": "2021-02-25T13:26:27.660Z",
    "repository": "kara.moe",
    "songorder": 1,
    "tags": {
      "authors": [
        "5bdaba57-27f8-4568-8806-76a807728766"
      ],
      "collections": [
        "c7db86a0-ff64-4044-9be4-66dd1ef1d1c1"
      ],
      "creators": [
        "802a8ac8-b16f-40a4-944b-99956798c906"
      ],
      "families": [
        "0377db02-3af6-43b8-9b08-c759df3d25c3"
      ],
      "groups": [
        "3c14c864-533c-49e6-a3cc-6969f1233775",
        "9a8e0fbc-dcae-4989-be82-7cad3436f1f5"
      ],
      "langs": [
        "4dcf9614-7914-42aa-99f4-dbce2e059133"
      ],
      "origins": [
        "938de218-5343-4865-94d3-fb33f2eaa152"
      ],
      "series": [
        "b0179770-b4ea-468c-82b5-09e4bfb57f08"
      ],
      "singers": [
        "a6042b25-be94-49bf-ab1b-1ba48a565df3"
      ],
      "songtypes": [
        "38c77c56-2b95-4040-b676-0994a8cb0597"
      ],
      "songwriters": [
        "36a4860d-57a2-4254-8473-45367da94d31",
        "ce347a86-3099-4789-9550-8cbedf4a67be"
      ]
    },
    "title": "Vanilla Salt",
    "titles": {
      "eng": "Vanilla Salt",
      "jpn": "バニラソルト"
    },
    "year": 2008,
    "titles_default_language": "eng"
  }
}