{
  "header": {
    "version": 4,
    "description": "Karaoke Mugen Karaoke Data File"
  },
  "medias": [
    {
      "version": "Default",
      "filename": "JPN - Touhou - AUDIO - Speedy Night.mp3",
      "audiogain": -11.64,
      "loudnorm": "-4.96,1.66,3.10,-15.01,-0.56",
      "filesize": 8842934,
      "duration": 255,
      "default": true,
      "lyrics": [
        {
          "filename": "JPN - Touhou - AUDIO - Speedy Night.ass",
          "default": true,
          "version": "Default"
        }
      ]
    }
  ],
  "data": {
    "created_at": "2022-06-12T13:46:48.686Z",
    "ignoreHooks": false,
    "kid": "5a3327cf-d8fe-458a-88c7-a10a1b279d3c",
    "modified_at": "2023-04-29T16:53:36.808Z",
    "repository": "kara.moe",
    "tags": {
      "authors": [
        "db867b9b-f487-444d-9f24-142c4324a235"
      ],
      "collections": [
        "c7db86a0-ff64-4044-9be4-66dd1ef1d1c1"
      ],
      "groups": [
        "ae613721-1fbe-480d-ba6b-d6d0702b184d"
      ],
      "langs": [
        "4dcf9614-7914-42aa-99f4-dbce2e059133"
      ],
      "series": [
        "1bdaa5a1-dfa6-4365-b746-7a0b194dafd6"
      ],
      "singers": [
        "cf6d7c36-312d-4167-bdf3-e6e8e6d75be1"
      ],
      "singergroups": [
        "45ad128c-a37d-4b3d-88db-eca4fc821e96"
      ],
      "songtypes": [
        "42a262ae-acba-4ab5-a446-c5789c96c821"
      ],
      "songwriters": [
        "26cb5252-8510-49e0-897c-a611a05fc056",
        "2b60a43d-4920-4f46-a6f0-125923868ac6",
        "397f826b-4fae-4050-9852-566b14c8f227",
        "cf6d7c36-312d-4167-bdf3-e6e8e6d75be1"
      ],
      "franchises": [
        "1bdaa5a1-dfa6-4365-b746-7a0b194dafd6"
      ]
    },
    "titles": {
      "eng": "Speedy Night"
    },
    "titles_default_language": "eng",
    "year": 2013
  }
}