{
  "header": {
    "version": 4,
    "description": "Karaoke Mugen Karaoke Data File"
  },
  "medias": [
    {
      "version": "Default",
      "filename": "JPN - Camui Gackpo, GUMI, KAITO - MV - EveR LastinG NighT.mp4",
      "audiogain": -9.71,
      "loudnorm": "-7.12,2.07,5.10,-17.38,-0.88",
      "filesize": 93503330,
      "duration": 328,
      "default": true,
      "lyrics": [
        {
          "filename": "JPN - Camui Gackpo, GUMI, KAITO - MV - EveR LastinG NighT.ass",
          "default": true,
          "version": "Default"
        }
      ]
    }
  ],
  "data": {
    "created_at": "2018-04-03T18:50:44.000Z",
    "kid": "5c4a4d33-d8a9-46e2-999b-e478c96c7665",
    "modified_at": "2021-12-28T20:31:47.038Z",
    "repository": "kara.moe",
    "tags": {
      "authors": [
        "8c22c899-b3ed-42da-a548-ce00f950798b"
      ],
      "collections": [
        "c7db86a0-ff64-4044-9be4-66dd1ef1d1c1"
      ],
      "creators": [
        "2aba1cb4-6030-49a5-8f5b-a467f79d9dc5"
      ],
      "genres": [
        "45623cae-6d68-4304-a49b-896d1d6f4580"
      ],
      "groups": [
        "8c22c899-b3ed-42da-a548-ce00f950798b",
        "ae613721-1fbe-480d-ba6b-d6d0702b184d"
      ],
      "langs": [
        "4dcf9614-7914-42aa-99f4-dbce2e059133"
      ],
      "misc": [
        "86705d4b-24e4-4756-9687-2b9c98bcf366"
      ],
      "singers": [
        "088ee286-73a1-4919-8503-68dbc81df761",
        "38ec16e6-9ede-415c-8586-ab11bb5c8355",
        "42e22ca1-af49-4588-90e3-671ab88f2258",
        "4407ba0e-5de7-4add-870f-7ac95a4804c9",
        "79f710d5-270e-4b17-957e-037ff0eae3fe",
        "7ce72adb-b4f2-42d9-b628-360b759a03df",
        "dafdeefa-0a96-44df-9653-aeb88c400e33",
        "dbb8d613-a120-46c7-bb42-bc6c1efb61f7"
      ],
      "songtypes": [
        "7be1b15c-cff8-4b37-a649-5c90f3d569a9"
      ],
      "songwriters": [
        "502f6283-cf5a-420c-bac4-a11e2c79f48c",
        "875bd7fd-9599-4be0-ab86-f5668fac586a"
      ]
    },
    "titles": {
      "eng": "EveR ∞ LastinG ∞ NighT"
    },
    "title": "EveR ∞ LastinG ∞ NighT",
    "year": 2014,
    "titles_default_language": "eng"
  }
}