{
  "header": {
    "version": 4,
    "description": "Karaoke Mugen Karaoke Data File"
  },
  "medias": [
    {
      "version": "Default",
      "filename": "JPN - Hajimete no Gal - OP - Hajimete no SEASON.mp4",
      "audiogain": -8.41,
      "loudnorm": "-9.23,0.00,3.30,-19.24,-0.38",
      "filesize": 30682126,
      "duration": 90,
      "default": true,
      "lyrics": [
        {
          "filename": "JPN - Hajimete no Gal - OP - Hajimete no SEASON.ass",
          "default": true,
          "version": "Default",
          "subchecksum": "cbf110032ae9912055ace870e8ae8e90"
        }
      ]
    }
  ],
  "data": {
    "created_at": "2018-07-25T19:55:29.000Z",
    "kid": "50942ce9-80f9-4750-b510-f81c618b4fe2",
    "modified_at": "2021-02-25T11:35:56.029Z",
    "repository": "kara.moe",
    "tags": {
      "authors": [
        "b5116310-e69b-4ed4-9e47-c5c53ee69023"
      ],
      "collections": [
        "c7db86a0-ff64-4044-9be4-66dd1ef1d1c1"
      ],
      "creators": [
        "9d11a5bd-c259-43b2-9368-dc19cb636254"
      ],
      "families": [
        "0377db02-3af6-43b8-9b08-c759df3d25c3"
      ],
      "groups": [
        "ae613721-1fbe-480d-ba6b-d6d0702b184d"
      ],
      "langs": [
        "4dcf9614-7914-42aa-99f4-dbce2e059133"
      ],
      "origins": [
        "938de218-5343-4865-94d3-fb33f2eaa152"
      ],
      "series": [
        "fcad4b2c-d268-4d80-89f7-20038deb7905"
      ],
      "singers": [
        "5a756fb5-6683-4971-90ca-9c74e9c89e58"
      ],
      "songtypes": [
        "f02ad9b3-0bd9-4aad-85b3-9976739ba0e4"
      ],
      "songwriters": [
        "6b469883-82b3-4fa3-8b2b-c374aab91f81",
        "817a9cb7-27ad-4639-8050-e4d00e9c6a2e"
      ]
    },
    "title": "Hajimete no SEASON",
    "titles": {
      "qro": "Hajimete no SEASON",
      "jpn": "はじめてのSEASON"
    },
    "year": 2017,
    "titles_default_language": "qro"
  }
}