{
  "header": {
    "version": 4,
    "description": "Karaoke Mugen Karaoke Data File"
  },
  "medias": [
    {
      "version": "Default",
      "filename": "JPN - Sukeban Deka - ED1 - Shiroi Honou.mp4",
      "audiogain": -5.98,
      "loudnorm": "-11.88,-0.84,3.40,-21.95,-0.52",
      "filesize": 43536176,
      "duration": 110,
      "default": true,
      "lyrics": [
        {
          "filename": "JPN - Sukeban Deka - ED1 - Shiroi Honou.ass",
          "default": true,
          "version": "Default"
        }
      ]
    }
  ],
  "data": {
    "created_at": "2017-10-11T17:02:33.000Z",
    "ignoreHooks": false,
    "kid": "93ced934-b5c5-4350-be57-e0e5ba99aa39",
    "modified_at": "2022-10-03T18:46:24.431Z",
    "repository": "kara.moe",
    "songorder": 1,
    "tags": {
      "authors": [
        "3f0f8e56-946b-4091-a385-d992733b346f"
      ],
      "collections": [
        "c7db86a0-ff64-4044-9be4-66dd1ef1d1c1"
      ],
      "creators": [
        "75cd9c99-a991-449e-9b5c-954410edbe60"
      ],
      "families": [
        "5391f9fe-638c-415f-8dc9-958e3a2c5787"
      ],
      "groups": [
        "7792cc27-9ff9-4d47-9287-2338b7db1575"
      ],
      "langs": [
        "4dcf9614-7914-42aa-99f4-dbce2e059133"
      ],
      "origins": [
        "938de218-5343-4865-94d3-fb33f2eaa152"
      ],
      "series": [
        "210516c2-1655-4fc7-b0e4-5505aa2186a3"
      ],
      "singers": [
        "2a373bc9-358a-4ab4-a915-4cd1f2d3ca2e"
      ],
      "songtypes": [
        "38c77c56-2b95-4040-b676-0994a8cb0597"
      ],
      "songwriters": [
        "d5945653-fb1c-4775-b31b-977fc6e06ae4",
        "f29da5f3-027d-4eea-9abc-f8b99e93fce6"
      ],
      "franchises": [
        "e975b374-da47-4576-be33-102b2fd85638",
        "210516c2-1655-4fc7-b0e4-5505aa2186a3"
      ]
    },
    "titles": {
      "jpn": "白い炎",
      "qro": "Shiroi Honô"
    },
    "titles_default_language": "qro",
    "titles_aliases": [
      "Honoo",
      "Honou"
    ],
    "title": "Shiroi Honô",
    "year": 1985
  }
}