{
  "header": {
    "version": 4,
    "description": "Karaoke Mugen Karaoke Data File"
  },
  "medias": [
    {
      "version": "Default",
      "filename": "JPN - Chainsaw Man - MV - Deep down ~ Full Vers.mp4",
      "audiogain": -9.06,
      "loudnorm": "-8.45,0.79,7.00,-18.93,-1.41",
      "filesize": 47647683,
      "duration": 236,
      "default": true,
      "lyrics": [
        {
          "filename": "JPN - Chainsaw Man - MV - Deep down ~ Full Vers.ass",
          "default": true,
          "version": "Default"
        }
      ]
    }
  ],
  "data": {
    "created_at": "2023-03-23T13:53:09.108Z",
    "ignoreHooks": false,
    "kid": "d48dc206-18ba-4f34-a678-d6ff2614629a",
    "modified_at": "2023-03-23T13:57:40.447Z",
    "parents": [
      "e4f963a3-54b6-40f2-a586-bb885d362fed"
    ],
    "repository": "kara.moe",
    "tags": {
      "authors": [
        "9cdf3b70-3550-457c-bdb9-038f3253c6ad"
      ],
      "collections": [
        "c7db86a0-ff64-4044-9be4-66dd1ef1d1c1"
      ],
      "creators": [
        "b3d2e5b5-14e5-4262-8440-98c32d5f0b13"
      ],
      "families": [
        "5391f9fe-638c-415f-8dc9-958e3a2c5787"
      ],
      "genres": [
        "a0aeef4a-6428-45ff-a6e1-468b595930c2"
      ],
      "groups": [
        "8e209ae4-4381-438f-89dc-1b21752027d2"
      ],
      "langs": [
        "4dcf9614-7914-42aa-99f4-dbce2e059133"
      ],
      "origins": [
        "938de218-5343-4865-94d3-fb33f2eaa152"
      ],
      "series": [
        "0223cfec-8497-42fc-a5f4-b8eb0589c014"
      ],
      "singers": [
        "6cfc20ab-c855-4f24-8bed-0981e465630b"
      ],
      "songtypes": [
        "7be1b15c-cff8-4b37-a649-5c90f3d569a9"
      ],
      "songwriters": [
        "009f62cd-58e5-44f6-b300-4f25653f1973",
        "2e19d29c-b48c-47c6-9039-a29931e4fe68",
        "40e21498-05c9-4fd1-ae2e-76bd9b2d136a",
        "68890898-72a2-44a1-bdfc-f9c9d9c03899"
      ],
      "versions": [
        "c2143a7f-6970-450e-8a79-0302db9220a9"
      ]
    },
    "titles": {
      "eng": "Deep down"
    },
    "titles_default_language": "eng",
    "year": 2022
  }
}