{
  "header": {
    "version": 4,
    "description": "Karaoke Mugen Karaoke Data File"
  },
  "medias": [
    {
      "version": "Default",
      "filename": "JPN - Touhou - MV - Artificial Children.mp4",
      "audiogain": -10.87,
      "loudnorm": "-6.03,2.06,4.50,-16.21,-0.11",
      "filesize": 17808403,
      "duration": 175,
      "default": true,
      "lyrics": [
        {
          "filename": "JPN - Touhou - MV - Artificial Children.ass",
          "default": true,
          "version": "Default",
          "subchecksum": "96bc2e56b8d485b66759a5ae738b41ea"
        }
      ]
    }
  ],
  "data": {
    "created_at": "2017-11-25T19:31:13.000Z",
    "kid": "23b50319-24d8-45d1-b888-dc315e795fe4",
    "modified_at": "2021-02-25T13:27:23.148Z",
    "repository": "kara.moe",
    "tags": {
      "authors": [
        "09c0bae3-a2f0-4e47-bf66-629df6dc4b55"
      ],
      "collections": [
        "c7db86a0-ff64-4044-9be4-66dd1ef1d1c1"
      ],
      "creators": [
        "25fc251a-0514-4bf5-a818-dd0547723f4a",
        "a56ed9e7-a3dc-4203-b91c-4128bcf7bfa9"
      ],
      "families": [
        "0377db02-3af6-43b8-9b08-c759df3d25c3"
      ],
      "groups": [
        "3c14c864-533c-49e6-a3cc-6969f1233775"
      ],
      "langs": [
        "4dcf9614-7914-42aa-99f4-dbce2e059133"
      ],
      "series": [
        "1bdaa5a1-dfa6-4365-b746-7a0b194dafd6"
      ],
      "singers": [
        "98cd2e0e-44fb-4feb-aada-1b418e94af37"
      ],
      "songtypes": [
        "7be1b15c-cff8-4b37-a649-5c90f3d569a9"
      ],
      "songwriters": [
        "1dae52a9-d1e0-447b-8dd3-cfd10119a3a8",
        "26cb5252-8510-49e0-897c-a611a05fc056",
        "feceb592-efac-4eda-9b03-c27cf509004c"
      ],
      "franchises": [
        "1bdaa5a1-dfa6-4365-b746-7a0b194dafd6"
      ]
    },
    "title": "Artificial Children",
    "titles": {
      "eng": "Artificial Children",
      "jpn": "アーティフィシャル・チルドレン"
    },
    "year": 2007,
    "titles_default_language": "eng"
  }
}