{
  "header": {
    "version": 4,
    "description": "Karaoke Mugen Karaoke Data File"
  },
  "medias": [
    {
      "version": "Default",
      "filename": "JPN - NANA - ED2 - Starless Night.mp4",
      "audiogain": -1.44,
      "loudnorm": "-17.47,-5.10,7.00,-27.66,-0.50",
      "filesize": 30741194,
      "duration": 101,
      "default": true,
      "lyrics": [
        {
          "filename": "JPN - NANA - ED2 - Starless Night.ass",
          "default": true,
          "version": "Default",
          "subchecksum": "bd75a518552e2ea1c49360f98c1277c8"
        }
      ]
    }
  ],
  "data": {
    "created_at": "2017-10-11T17:02:36.000Z",
    "kid": "df7cb49b-7375-4ab9-9fb0-278c73272bb4",
    "modified_at": "2021-02-25T12:32:29.488Z",
    "repository": "kara.moe",
    "songorder": 2,
    "tags": {
      "authors": [
        "5bdaba57-27f8-4568-8806-76a807728766"
      ],
      "collections": [
        "c7db86a0-ff64-4044-9be4-66dd1ef1d1c1"
      ],
      "creators": [
        "9c5cf6ba-0bc8-4cfe-a63c-e9be3a14e9fd"
      ],
      "families": [
        "0377db02-3af6-43b8-9b08-c759df3d25c3"
      ],
      "groups": [
        "3c14c864-533c-49e6-a3cc-6969f1233775"
      ],
      "langs": [
        "4dcf9614-7914-42aa-99f4-dbce2e059133"
      ],
      "origins": [
        "938de218-5343-4865-94d3-fb33f2eaa152"
      ],
      "series": [
        "6393edba-8ecb-44e6-8a1d-e80b6e007a12"
      ],
      "singers": [
        "1b4d0d00-1f9e-40ad-b560-f69c7dbe8d55"
      ],
      "songtypes": [
        "38c77c56-2b95-4040-b676-0994a8cb0597"
      ],
      "songwriters": [
        "010edbd3-10ed-490e-84cb-7c21c5dc91e4",
        "1b4d0d00-1f9e-40ad-b560-f69c7dbe8d55",
        "dd4e2bbb-d809-4f0f-b152-1a7949946aea"
      ]
    },
    "title": "Starless Night",
    "titles": {
      "eng": "Starless Night"
    },
    "year": 2006,
    "titles_default_language": "eng"
  }
}