{
  "header": {
    "version": 4,
    "description": "Karaoke Mugen Karaoke Data File"
  },
  "medias": [
    {
      "version": "Default",
      "filename": "JPN - Suzumiya Haruhi-chan no Yuuutsu - ONA ED - Atogaki no You na Mono.mp4",
      "audiogain": -7.01,
      "loudnorm": "-11.24,-0.13,5.00,-21.35,-1.21",
      "filesize": 14089624,
      "duration": 62,
      "default": true,
      "lyrics": [
        {
          "filename": "JPN - Suzumiya Haruhi-chan no Yuuutsu - ONA ED - Atogaki no You na Mono.ass",
          "default": true,
          "version": "Default"
        }
      ]
    }
  ],
  "data": {
    "created_at": "2017-10-11T17:03:01.000Z",
    "ignoreHooks": false,
    "kid": "dcf74b60-6076-4662-b439-e74be0338487",
    "modified_at": "2022-09-30T20:56:31.085Z",
    "repository": "kara.moe",
    "tags": {
      "authors": [
        "a5dbab74-510b-48c5-9cea-5a537a81c974"
      ],
      "collections": [
        "c7db86a0-ff64-4044-9be4-66dd1ef1d1c1"
      ],
      "creators": [
        "d93786af-5098-49b2-9928-37edfb3d0322"
      ],
      "families": [
        "0377db02-3af6-43b8-9b08-c759df3d25c3"
      ],
      "groups": [
        "3c14c864-533c-49e6-a3cc-6969f1233775",
        "8c22c899-b3ed-42da-a548-ce00f950798b"
      ],
      "langs": [
        "4dcf9614-7914-42aa-99f4-dbce2e059133"
      ],
      "origins": [
        "8db3e098-06ef-45e5-bba9-cb04a21c1e66"
      ],
      "series": [
        "82482bd4-06d6-4605-85b0-41fe5831a44a"
      ],
      "singers": [
        "488aea99-01a0-4c2c-b475-b61d99efe994",
        "7140944e-9958-4f10-a048-7fc955cc7534",
        "7ed26e66-b3b8-4fb0-8874-bec0d0158f07",
        "8c3ef7dd-5265-4527-ac49-c604ab822add",
        "c1e76c7e-a498-45b7-a1f5-9ec89f0bf560"
      ],
      "songtypes": [
        "38c77c56-2b95-4040-b676-0994a8cb0597"
      ],
      "songwriters": [
        "d7658a75-7945-4f08-8233-02f38dc385ba",
        "f41e7218-6c19-4e19-9b5f-4612dcd58243"
      ],
      "franchises": [
        "4f132535-c7b6-4147-a324-6995aad44df7"
      ]
    },
    "titles": {
      "jpn": "あとがきのようなもの",
      "qro": "Atogaki no Yô na Mono"
    },
    "titles_default_language": "qro",
    "title": "Atogaki no Yô na Mono",
    "year": 2009,
    "titles_aliases": [
      "You"
    ]
  }
}