{
  "header": {
    "version": 4,
    "description": "Karaoke Mugen Karaoke Data File"
  },
  "medias": [
    {
      "version": "Default",
      "filename": "JPN - Love Live! School Idol Project 2nd Season - IN - Shocking Party.mp4",
      "audiogain": 6.02,
      "loudnorm": "-22.79,-10.25,1.50,-32.81,-0.57",
      "filesize": 70283694,
      "duration": 71,
      "default": true,
      "lyrics": [
        {
          "filename": "JPN - Love Live! School Idol Project 2nd Season - IN - Shocking Party.ass",
          "default": true,
          "version": "Default",
          "subchecksum": "1ba8e9368e8cce7fc61cf25327fe75c1"
        }
      ]
    }
  ],
  "data": {
    "created_at": "2020-02-11T22:43:54.739Z",
    "kid": "e3d6f7b2-ef49-4b58-9d1d-0ba89135a6b4",
    "modified_at": "2021-02-25T12:13:26.194Z",
    "repository": "kara.moe",
    "tags": {
      "authors": [
        "769d217c-f442-4747-a17c-02340b5edb89"
      ],
      "collections": [
        "c7db86a0-ff64-4044-9be4-66dd1ef1d1c1"
      ],
      "creators": [
        "ef8f80e1-d244-4aea-b7f0-984d6dd4b82b"
      ],
      "families": [
        "0377db02-3af6-43b8-9b08-c759df3d25c3"
      ],
      "genres": [
        "caa86df2-0d59-474b-885c-f240a9e891b0"
      ],
      "groups": [
        "8c22c899-b3ed-42da-a548-ce00f950798b",
        "ae613721-1fbe-480d-ba6b-d6d0702b184d"
      ],
      "langs": [
        "4dcf9614-7914-42aa-99f4-dbce2e059133"
      ],
      "misc": [
        "1d6ceadf-a885-47e5-b23b-c07bf668a424"
      ],
      "origins": [
        "938de218-5343-4865-94d3-fb33f2eaa152"
      ],
      "series": [
        "d2727318-2c3f-4956-bb4f-ac8d4af7b18c"
      ],
      "singers": [
        "15f17384-9854-4f0a-b76b-54f1172ae5b4",
        "5f3fd740-d5e4-43f1-a8a3-a0db0ad8dfe3",
        "7c3886c0-356d-4840-83ad-afa700d96061",
        "dbfd779d-956f-465a-ad28-bd745ddaea17"
      ],
      "songtypes": [
        "5e5250d9-351a-4a82-98eb-55db50ad8962"
      ],
      "songwriters": [
        "12808328-f8b1-4569-be1c-b103944e9161",
        "f41e7218-6c19-4e19-9b5f-4612dcd58243"
      ],
      "franchises": [
        "fd5d066e-e85a-4eea-8688-2979a887450a"
      ]
    },
    "title": "Shocking Party",
    "titles": {
      "eng": "Shocking Party"
    },
    "year": 2014,
    "titles_default_language": "eng"
  }
}