{
  "header": {
    "version": 4,
    "description": "Karaoke Mugen Karaoke Data File"
  },
  "medias": [
    {
      "version": "Default",
      "filename": "JPN - Spy Kyoushitsu - OP - Tomoshibi.mp4",
      "audiogain": -0.67,
      "loudnorm": "-16.61,-5.98,4.80,-26.82,-0.79",
      "filesize": 42817300,
      "duration": 88,
      "default": true,
      "lyrics": [
        {
          "filename": "JPN - Spy Kyoushitsu - OP - Tomoshibi.ass",
          "default": true,
          "version": "Default"
        }
      ]
    }
  ],
  "data": {
    "created_at": "2023-04-23T09:30:02.376Z",
    "ignoreHooks": false,
    "kid": "91210238-8087-4f38-9d11-651d324fa81e",
    "modified_at": "2023-04-23T10:06:02.815Z",
    "repository": "kara.moe",
    "tags": {
      "authors": [
        "4c76be02-5a14-486e-ab53-5caaa8f77751"
      ],
      "collections": [
        "c7db86a0-ff64-4044-9be4-66dd1ef1d1c1"
      ],
      "creators": [
        "5c15c11c-e09d-4a4f-ab3d-143d69439fc2"
      ],
      "families": [
        "0377db02-3af6-43b8-9b08-c759df3d25c3"
      ],
      "groups": [
        "8e209ae4-4381-438f-89dc-1b21752027d2",
        "df5f446f-d161-4760-8e0c-822e70ea03ae"
      ],
      "langs": [
        "4dcf9614-7914-42aa-99f4-dbce2e059133"
      ],
      "origins": [
        "938de218-5343-4865-94d3-fb33f2eaa152"
      ],
      "series": [
        "ca1a92f2-a3f1-4c20-a75d-bc710ad4bf09"
      ],
      "singers": [
        "b9a32dcb-b60b-4f51-8687-6f45d1224d88"
      ],
      "songtypes": [
        "f02ad9b3-0bd9-4aad-85b3-9976739ba0e4"
      ],
      "songwriters": [
        "b9a32dcb-b60b-4f51-8687-6f45d1224d88",
        "f91f0575-9ddf-4d2d-833d-5e2ed8c74f5f"
      ]
    },
    "titles": {
      "jpn": "灯火",
      "qro": "Tomoshibi"
    },
    "titles_default_language": "qro",
    "year": 2022
  }
}