{
  "header": {
    "version": 4,
    "description": "Karaoke Mugen Karaoke Data File"
  },
  "medias": [
    {
      "version": "Default",
      "filename": "JPN - beatMARIO - REMIX MV - Respect Fujin.mp4",
      "audiogain": -5.29,
      "loudnorm": "-13.06,0.06,4.80,-23.22,-1.16",
      "filesize": 91883216,
      "duration": 224,
      "default": true,
      "lyrics": [
        {
          "filename": "JPN - beatMARIO - REMIX MV - Respect Fujin.ass",
          "default": true,
          "version": "Default"
        }
      ]
    }
  ],
  "data": {
    "created_at": "2021-04-19T16:50:53.716Z",
    "ignoreHooks": false,
    "kid": "0495f286-e26f-40fb-afe8-cd43deecf033",
    "modified_at": "2022-02-21T11:33:41.469Z",
    "repository": "kara.moe",
    "tags": {
      "authors": [
        "84157b43-8a7a-482c-95d3-516757353835"
      ],
      "collections": [
        "c7db86a0-ff64-4044-9be4-66dd1ef1d1c1"
      ],
      "creators": [
        "2b873ad5-a3ce-4abf-9f11-6f600e6e6ba0"
      ],
      "families": [
        "0377db02-3af6-43b8-9b08-c759df3d25c3"
      ],
      "groups": [
        "8e209ae4-4381-438f-89dc-1b21752027d2"
      ],
      "langs": [
        "4dcf9614-7914-42aa-99f4-dbce2e059133"
      ],
      "misc": [
        "ec4360fa-3e3c-4f6f-b0e1-fb8b12b6dd18",
        "ec4fee75-71fb-45b4-9772-2ca374b4b600"
      ],
      "origins": [
        "ac5085db-52d8-44b4-8fbb-1697b24d2046"
      ],
      "singers": [
        "5e9a5d91-ea80-4515-acdf-43f023a54467"
      ],
      "songtypes": [
        "7be1b15c-cff8-4b37-a649-5c90f3d569a9"
      ],
      "songwriters": [
        "5e9a5d91-ea80-4515-acdf-43f023a54467",
        "a76aee83-33a5-493a-9a0c-4b57d70ec877"
      ]
    },
    "titles": {
      "qro": "Respect Fûjin",
      "jpn": "リスペク風神"
    },
    "title": "Respect Fujin",
    "year": 2020,
    "titles_aliases": [
      "RISUPEKU fuujin"
    ],
    "titles_default_language": "qro"
  }
}