{
  "header": {
    "version": 4,
    "description": "Karaoke Mugen Karaoke Data File"
  },
  "medias": [
    {
      "version": "Animation One Piece 10 Shûnen.",
      "filename": "JPN - One Piece - OP10 - We Are! ~ Animation One Piece 10 Shuunen Vers.mp4",
      "audiogain": -7.88,
      "loudnorm": "-9.41,0.83,3.70,-19.47,-0.74",
      "filesize": 86271297,
      "duration": 150,
      "default": true,
      "lyrics": [
        {
          "filename": "JPN - One Piece - OP10 - We Are! ~ Animation One Piece 10 Shuunen Vers.ass",
          "default": true,
          "version": "Default",
          "subchecksum": "8026867abe5e027f6e4a807b66786a0a"
        }
      ]
    }
  ],
  "data": {
    "created_at": "2017-10-11T17:02:09.000Z",
    "kid": "0100664a-40b5-4205-a884-d7dcae6beb77",
    "modified_at": "2021-02-25T12:40:53.460Z",
    "repository": "kara.moe",
    "songorder": 10,
    "tags": {
      "authors": [
        "5bdaba57-27f8-4568-8806-76a807728766"
      ],
      "collections": [
        "c7db86a0-ff64-4044-9be4-66dd1ef1d1c1"
      ],
      "creators": [
        "f694bf43-b427-4244-9744-9d3f84fd8a31"
      ],
      "families": [
        "0377db02-3af6-43b8-9b08-c759df3d25c3"
      ],
      "genres": [
        "a0aeef4a-6428-45ff-a6e1-468b595930c2"
      ],
      "groups": [
        "3c14c864-533c-49e6-a3cc-6969f1233775"
      ],
      "langs": [
        "4dcf9614-7914-42aa-99f4-dbce2e059133"
      ],
      "origins": [
        "938de218-5343-4865-94d3-fb33f2eaa152"
      ],
      "series": [
        "955758fc-ef9b-441e-b9e3-33dd2caf2753"
      ],
      "singers": [
        "db933fff-27d9-4bb2-9eb1-dc1beae18578"
      ],
      "songtypes": [
        "f02ad9b3-0bd9-4aad-85b3-9976739ba0e4"
      ],
      "songwriters": [
        "2461dcff-0d44-481a-9841-a8ae3e3d53db",
        "ad9de3e0-673e-459b-ac88-178ae5e04341"
      ],
      "versions": [
        "9f63c359-d1bf-425a-bcf5-b245c2c9211d"
      ],
      "franchises": [
        "955758fc-ef9b-441e-b9e3-33dd2caf2753"
      ]
    },
    "title": "We Are! ~ Animation One Piece 10 Shûnen Vers.",
    "titles": {
      "eng": "We Are! ~ Animation One Piece 10 Shûnen Vers.",
      "qro": "We Are! ~ Animation One Piece 10 Shûnen Vers.",
      "jpn": "ウィーアー!"
    },
    "year": 2008,
    "titles_default_language": "eng"
  }
}