{
  "header": {
    "version": 4,
    "description": "Karaoke Mugen Karaoke Data File"
  },
  "medias": [
    {
      "version": "Default",
      "filename": "JPN - Suisei Hoshimachi - STREAM - Tsubasa wo Kudasai ~ Cover Vers.mp4",
      "audiogain": -0.51,
      "loudnorm": "-17.01,-7.42,5.40,-27.78,0.12",
      "filesize": 17246799,
      "duration": 98,
      "default": true,
      "lyrics": [
        {
          "filename": "JPN - Suisei Hoshimachi - STREAM - Tsubasa wo Kudasai ~ Cover Vers.ass",
          "default": true,
          "version": "Default"
        }
      ]
    }
  ],
  "data": {
    "created_at": "2021-05-09T14:26:06.160Z",
    "kid": "ecd37ed9-4bf6-49d8-b502-e2903103d23e",
    "modified_at": "2021-12-27T17:46:43.535Z",
    "parents": [
      "0efd6b44-ee2d-4502-ad13-473f6cffbff4"
    ],
    "repository": "kara.moe",
    "tags": {
      "authors": [
        "1631228b-9125-497a-aafc-66f920a44a02"
      ],
      "collections": [
        "c7db86a0-ff64-4044-9be4-66dd1ef1d1c1"
      ],
      "creators": [
        "0263d413-17bb-4cee-a311-6dd896eda1c9"
      ],
      "families": [
        "0377db02-3af6-43b8-9b08-c759df3d25c3"
      ],
      "groups": [
        "8c22c899-b3ed-42da-a548-ce00f950798b",
        "8e209ae4-4381-438f-89dc-1b21752027d2"
      ],
      "langs": [
        "4dcf9614-7914-42aa-99f4-dbce2e059133"
      ],
      "origins": [
        "5106d71b-a78e-4d19-a16d-f8fb6719538a"
      ],
      "singers": [
        "83b3a34b-d13b-452c-8574-d63545edf650"
      ],
      "songtypes": [
        "55ce3d79-dcc2-453c-b00a-60ce0c1eba1c"
      ],
      "songwriters": [
        "beaee245-06af-4ff5-b508-862caf76e9e9"
      ],
      "versions": [
        "03e1e1d2-8641-47b7-bbcb-39a3df9ff21c"
      ]
    },
    "titles": {
      "qro": "Tsubasa wo Kudasai",
      "jpn": "翼をください"
    },
    "title": "Tsubasa wo Kudasai",
    "year": 2020,
    "titles_default_language": "qro"
  }
}