{
  "header": {
    "version": 4,
    "description": "Karaoke Mugen Karaoke Data File"
  },
  "medias": [
    {
      "version": "Default",
      "filename": "JPN - Romantic Killer - ONA ED - Romantic Love Renai Shimasen ka.mp4",
      "audiogain": -2.47,
      "loudnorm": "-14.54,-5.13,7.50,-24.83,-1.48",
      "filesize": 29988550,
      "duration": 99,
      "default": true,
      "lyrics": [
        {
          "filename": "JPN - Romantic Killer - ONA ED - Romantic Love Renai Shimasen ka.ass",
          "default": true,
          "version": "Default"
        }
      ]
    }
  ],
  "data": {
    "created_at": "2022-11-05T11:04:49.725Z",
    "ignoreHooks": false,
    "kid": "41859375-a012-4217-9345-2beab2918816",
    "modified_at": "2022-11-05T11:04:50.169Z",
    "repository": "kara.moe",
    "tags": {
      "authors": [
        "ee8628c8-9b7f-415b-bc0d-9b712d5daf8c"
      ],
      "collections": [
        "c7db86a0-ff64-4044-9be4-66dd1ef1d1c1"
      ],
      "creators": [
        "9330a266-0786-4fbd-838a-a7a96ac5c049"
      ],
      "families": [
        "0377db02-3af6-43b8-9b08-c759df3d25c3"
      ],
      "groups": [
        "8e209ae4-4381-438f-89dc-1b21752027d2"
      ],
      "langs": [
        "4dcf9614-7914-42aa-99f4-dbce2e059133"
      ],
      "origins": [
        "8db3e098-06ef-45e5-bba9-cb04a21c1e66"
      ],
      "series": [
        "3fca616b-a420-4494-bfca-03b777209222"
      ],
      "singers": [
        "5b21d12f-ac04-4272-882c-df57865ca6b9"
      ],
      "songtypes": [
        "38c77c56-2b95-4040-b676-0994a8cb0597"
      ],
      "songwriters": [
        "c786a8e4-a740-4031-849e-c7aed853b0ea",
        "f2d7b99d-52df-4590-8828-7d89c44d9930"
      ]
    },
    "titles": {
      "jpn": "Romantic Love〜恋愛しませんか？☆〜",
      "qro": "Romantic Love 〜 Renai Shimasen ka？☆〜"
    },
    "titles_default_language": "qro",
    "titles_aliases": [
      "ren'ai shimasenka"
    ],
    "title": "Romantic Love 〜 Renai Shimasen ka？☆〜",
    "year": 2022
  }
}