{
  "header": {
    "version": 4,
    "description": "Karaoke Mugen Karaoke Data File"
  },
  "medias": [
    {
      "version": "Default",
      "filename": "JPN - YOASOBI - MV - Mou Sukoshi Dake ~ Off Vocal Vers.mp4",
      "audiogain": -5.92,
      "loudnorm": "-10.37,0.48,5.70,-20.50,-0.71",
      "filesize": 73903245,
      "duration": 220,
      "default": true,
      "lyrics": [
        {
          "filename": "JPN - YOASOBI - MV - Mou Sukoshi Dake ~ Off Vocal Vers.ass",
          "default": true,
          "version": "Default"
        }
      ]
    }
  ],
  "data": {
    "created_at": "2023-05-20T17:45:49.796Z",
    "ignoreHooks": false,
    "kid": "93d8d501-4e11-4c45-a2a9-532124e8a674",
    "modified_at": "2023-05-20T17:45:49.890Z",
    "parents": [
      "5d9b60be-47ac-4ea7-98f3-0d5b3630c77e"
    ],
    "repository": "kara.moe",
    "tags": {
      "authors": [
        "fc081222-a5c6-4b2b-a1d0-b6da2bf42ccc"
      ],
      "collections": [
        "c7db86a0-ff64-4044-9be4-66dd1ef1d1c1",
        "dbcf2c22-524d-4708-99bb-601703633927"
      ],
      "creators": [
        "6fa9de67-21cf-420b-9ddb-57edb5abe523"
      ],
      "families": [
        "0377db02-3af6-43b8-9b08-c759df3d25c3"
      ],
      "groups": [
        "8e209ae4-4381-438f-89dc-1b21752027d2"
      ],
      "langs": [
        "4dcf9614-7914-42aa-99f4-dbce2e059133"
      ],
      "singergroups": [
        "e028a7e9-d3f2-4df7-a6ba-c7f78e98b549"
      ],
      "songtypes": [
        "7be1b15c-cff8-4b37-a649-5c90f3d569a9"
      ],
      "songwriters": [
        "ac03c264-7085-486b-a47f-3e7574e51a33"
      ],
      "versions": [
        "c0cc87b9-55b9-40f0-878a-fbb9e34c151e"
      ]
    },
    "titles": {
      "jpn": "もう少しだけ",
      "qro": "Mô Sukoshi Dake"
    },
    "titles_default_language": "qro",
    "titles_aliases": [
      "Mou"
    ],
    "year": 2021
  }
}