{
  "header": {
    "version": 4,
    "description": "Karaoke Mugen Karaoke Data File"
  },
  "medias": [
    {
      "version": "Default",
      "filename": "JPN - BAND-MAID - MV - Unleash!!!!!.mp4",
      "audiogain": -7.63,
      "loudnorm": "-8.43,-0.14,1.40,-18.57,-0.26",
      "filesize": 56078601,
      "duration": 189,
      "default": true,
      "lyrics": [
        {
          "filename": "JPN - BAND-MAID - MV - Unleash!!!!!.ass",
          "default": true,
          "version": "Default"
        }
      ]
    }
  ],
  "data": {
    "created_at": "2022-09-01T18:33:15.372Z",
    "ignoreHooks": false,
    "kid": "8fbe4a28-81cd-4357-a865-4833de73114c",
    "modified_at": "2022-09-14T21:30:24.762Z",
    "repository": "kara.moe",
    "tags": {
      "authors": [
        "449844e4-3a1f-46e1-8a92-bf72e2d1b6f1"
      ],
      "collections": [
        "dbcf2c22-524d-4708-99bb-601703633927"
      ],
      "creators": [
        "97e62433-0f2f-4e1b-ba1e-109eec95dc11"
      ],
      "families": [
        "5391f9fe-638c-415f-8dc9-958e3a2c5787",
        "0377db02-3af6-43b8-9b08-c759df3d25c3"
      ],
      "groups": [
        "8e209ae4-4381-438f-89dc-1b21752027d2"
      ],
      "langs": [
        "4dcf9614-7914-42aa-99f4-dbce2e059133"
      ],
      "singers": [
        "39a513a6-ca71-4f8d-a7d1-0c375b69b807"
      ],
      "songtypes": [
        "7be1b15c-cff8-4b37-a649-5c90f3d569a9"
      ],
      "songwriters": [
        "1026dc27-22b2-4434-8134-25b7793fa497",
        "3182691a-3f2d-42ef-bcf9-c15d494009bb",
        "39a513a6-ca71-4f8d-a7d1-0c375b69b807"
      ]
    },
    "titles": {
      "eng": "Unleash!!!!!"
    },
    "titles_default_language": "eng",
    "title": "Unleash!!!!!",
    "year": 2022
  }
}