{
  "header": {
    "version": 4,
    "description": "Karaoke Mugen Karaoke Data File"
  },
  "medias": [
    {
      "version": "Default",
      "filename": "JPN - Tomo-chan wa Onnanoko! - OP - Kurae! Telepathy.mp4",
      "audiogain": -0.64,
      "loudnorm": "-16.15,-4.15,2.80,-26.18,-0.79",
      "filesize": 55664861,
      "duration": 89,
      "default": true,
      "lyrics": [
        {
          "filename": "JPN - Tomo-chan wa Onnanoko! - OP - Kurae! Telepathy.ass",
          "default": true,
          "version": "Default"
        }
      ]
    }
  ],
  "data": {
    "created_at": "2023-05-08T21:05:11.546Z",
    "ignoreHooks": false,
    "kid": "a822db6b-33ae-4add-be03-8460e74dfb02",
    "modified_at": "2023-05-08T23:44:39.100Z",
    "repository": "kara.moe",
    "tags": {
      "authors": [
        "f70c7314-b8d3-4bf4-96a0-dc8b2c5a6c94"
      ],
      "collections": [
        "c7db86a0-ff64-4044-9be4-66dd1ef1d1c1"
      ],
      "creators": [
        "4265e6a3-41bf-46ca-903a-b6e4551a901f"
      ],
      "families": [
        "0377db02-3af6-43b8-9b08-c759df3d25c3"
      ],
      "groups": [
        "8e209ae4-4381-438f-89dc-1b21752027d2"
      ],
      "langs": [
        "4dcf9614-7914-42aa-99f4-dbce2e059133"
      ],
      "misc": [
        "fe819ff1-9db8-4a0f-85dc-0e322c9126c4"
      ],
      "origins": [
        "938de218-5343-4865-94d3-fb33f2eaa152"
      ],
      "series": [
        "95589c30-0eac-4102-9fa9-4f98a605c829"
      ],
      "singers": [
        "9eb9920e-324b-4ac9-b2b5-c9d23f52fb80"
      ],
      "songtypes": [
        "f02ad9b3-0bd9-4aad-85b3-9976739ba0e4"
      ],
      "songwriters": [
        "c09fc171-9a97-415d-a631-60561280e194"
      ]
    },
    "titles": {
      "jpn": "くらえ! テレパシー",
      "qro": "Kurae! Telepathy"
    },
    "titles_default_language": "qro",
    "year": 2023
  }
}