{
  "header": {
    "version": 4,
    "description": "Karaoke Mugen Karaoke Data File"
  },
  "medias": [
    {
      "version": "Default",
      "filename": "JPN - Nanatsu no Taizai Imashime no Fukkatsu - OP1 - Howling.mp4",
      "audiogain": -7.31,
      "loudnorm": "-9.55,1.32,3.10,-19.62,-0.35",
      "filesize": 40330897,
      "duration": 91,
      "default": true,
      "lyrics": [
        {
          "filename": "JPN - Nanatsu no Taizai Imashime no Fukkatsu - OP1 - Howling.ass",
          "default": true,
          "version": "Default"
        }
      ]
    }
  ],
  "data": {
    "created_at": "2018-06-18T15:29:08.000Z",
    "ignoreHooks": false,
    "kid": "7b6dd256-4560-4140-966a-549547139fe1",
    "modified_at": "2023-03-04T01:33:18.642Z",
    "repository": "kara.moe",
    "songorder": 1,
    "tags": {
      "authors": [
        "b5116310-e69b-4ed4-9e47-c5c53ee69023"
      ],
      "collections": [
        "c7db86a0-ff64-4044-9be4-66dd1ef1d1c1"
      ],
      "creators": [
        "b96e3686-bbe0-4b9e-815a-a278d5ff31be"
      ],
      "families": [
        "0377db02-3af6-43b8-9b08-c759df3d25c3"
      ],
      "genres": [
        "a0aeef4a-6428-45ff-a6e1-468b595930c2"
      ],
      "groups": [
        "ae613721-1fbe-480d-ba6b-d6d0702b184d"
      ],
      "langs": [
        "4dcf9614-7914-42aa-99f4-dbce2e059133"
      ],
      "origins": [
        "938de218-5343-4865-94d3-fb33f2eaa152"
      ],
      "series": [
        "0fabe917-c003-4512-be93-746b1276492e"
      ],
      "singers": [
        "213ca674-9084-40ad-a7a8-c84d8108fce9"
      ],
      "singergroups": [
        "fa3c1f40-c7ef-4ba2-9630-f540bcf94b43"
      ],
      "songtypes": [
        "f02ad9b3-0bd9-4aad-85b3-9976739ba0e4"
      ],
      "songwriters": [
        "059c908e-e210-4405-a509-04ae79271c6e",
        "6a88984a-ec66-4027-b53c-66fb74ea3ab9",
        "8e1f109c-a1d4-40d6-9a55-32abdb12993c",
        "ad341f74-d55c-43fb-829a-c41927619998",
        "b26b49e2-d439-48b3-8c0f-c7c25648c48a"
      ],
      "franchises": [
        "72476610-0ddd-4261-8ff7-a98ecaf66563"
      ]
    },
    "titles": {
      "eng": "Howling"
    },
    "titles_default_language": "eng",
    "year": 2018
  }
}