{
  "header": {
    "version": 4,
    "description": "Karaoke Mugen Karaoke Data File"
  },
  "medias": [
    {
      "version": "Default",
      "filename": "JPN - Uma Musume Pretty Derby Season 2 - ED1 - Komorebi no Yell.mp4",
      "audiogain": -0.27,
      "loudnorm": "-18.27,-7.40,9.60,-28.51,-2.25",
      "filesize": 15697454,
      "duration": 80,
      "default": true,
      "lyrics": [
        {
          "filename": "JPN - Uma Musume Pretty Derby Season 2 - ED1 - Komorebi no Yell.ass",
          "default": true,
          "version": "Default"
        }
      ]
    }
  ],
  "data": {
    "created_at": "2021-12-15T16:36:21.237Z",
    "ignoreHooks": false,
    "kid": "a1c0551e-e753-4d67-b721-843351d6a2e4",
    "modified_at": "2022-01-10T20:56:23.504Z",
    "repository": "kara.moe",
    "songorder": 1,
    "tags": {
      "authors": [
        "06852e02-b77e-4106-b6f7-2d03942ad0ea"
      ],
      "collections": [
        "c7db86a0-ff64-4044-9be4-66dd1ef1d1c1"
      ],
      "creators": [
        "344cb973-3dac-4bac-b6b0-71243417856b",
        "e7a5481a-0159-4801-abcb-238fad1ff17a",
        "b2805292-730e-473a-96f0-fd8e7ffd1fd7"
      ],
      "families": [
        "0377db02-3af6-43b8-9b08-c759df3d25c3"
      ],
      "groups": [
        "8e209ae4-4381-438f-89dc-1b21752027d2"
      ],
      "langs": [
        "4dcf9614-7914-42aa-99f4-dbce2e059133"
      ],
      "misc": [
        "1d6ceadf-a885-47e5-b23b-c07bf668a424",
        "fe819ff1-9db8-4a0f-85dc-0e322c9126c4"
      ],
      "origins": [
        "938de218-5343-4865-94d3-fb33f2eaa152"
      ],
      "series": [
        "bd8bad1a-fe10-4058-9a8b-6caa80e55cb7"
      ],
      "singers": [
        "471fa3a9-f473-4c5b-a0bc-66ae8cd1072c",
        "fae72c0f-4ef4-4268-9bff-465a0dec95e4"
      ],
      "songtypes": [
        "38c77c56-2b95-4040-b676-0994a8cb0597"
      ],
      "songwriters": [
        "00cd2c1f-8012-4366-adcd-0340a340c29a",
        "ea1c607b-5c00-40a0-91c6-5b01b881b566"
      ],
      "franchises": [
        "79f8c677-ee95-452f-bd36-798402079d72"
      ]
    },
    "titles": {
      "qro": "Komorebi no Yell",
      "jpn": "木漏れ日のエール"
    },
    "title": "Komorebi no Yell",
    "year": 2021,
    "titles_default_language": "qro"
  }
}