{
  "header": {
    "version": 4,
    "description": "Karaoke Mugen Karaoke Data File"
  },
  "medias": [
    {
      "version": "Default",
      "filename": "JPN - Dragon Quest Dai no Daibouken (2020) - ED2 - Akashi.mp4",
      "audiogain": 5.97,
      "loudnorm": "-23.43,-11.33,4.90,-33.57,-1.27",
      "filesize": 35230126,
      "duration": 92,
      "default": true,
      "lyrics": [
        {
          "filename": "JPN - Dragon Quest Dai no Daibouken (2020) - ED2 - Akashi.ass",
          "default": true,
          "version": "Default"
        }
      ]
    }
  ],
  "data": {
    "comment": "Modification vidéo pour une version creditless. UniversJB",
    "created_at": "2021-04-13T17:55:35.904Z",
    "ignoreHooks": false,
    "kid": "0ee5fdd7-c351-43a4-b7e9-918b6dc18bf6",
    "modified_at": "2022-06-07T10:52:12.015Z",
    "repository": "kara.moe",
    "songorder": 2,
    "tags": {
      "authors": [
        "06852e02-b77e-4106-b6f7-2d03942ad0ea"
      ],
      "collections": [
        "c7db86a0-ff64-4044-9be4-66dd1ef1d1c1"
      ],
      "creators": [
        "f694bf43-b427-4244-9744-9d3f84fd8a31"
      ],
      "families": [
        "0377db02-3af6-43b8-9b08-c759df3d25c3"
      ],
      "genres": [
        "a0aeef4a-6428-45ff-a6e1-468b595930c2"
      ],
      "groups": [
        "8e209ae4-4381-438f-89dc-1b21752027d2"
      ],
      "langs": [
        "4dcf9614-7914-42aa-99f4-dbce2e059133"
      ],
      "misc": [
        "fe819ff1-9db8-4a0f-85dc-0e322c9126c4"
      ],
      "origins": [
        "938de218-5343-4865-94d3-fb33f2eaa152"
      ],
      "series": [
        "c2a4968f-e8b0-471e-8ecc-bb8ba11524fc"
      ],
      "singers": [
        "a0d88b82-6c40-43de-9bdf-5acc730e08cf"
      ],
      "songtypes": [
        "38c77c56-2b95-4040-b676-0994a8cb0597"
      ],
      "songwriters": [
        "31710905-3c57-463d-b23b-da2434dfbfc8",
        "60afc5bc-1b32-4dee-8964-088726bfb587"
      ],
      "franchises": [
        "165eabeb-1b7e-4ffd-b47c-61db748ccb3c"
      ]
    },
    "titles": {
      "qro": "Akashi",
      "jpn": "アカシ"
    },
    "titles_default_language": "qro",
    "title": "Akashi",
    "year": 2021
  }
}