{
  "header": {
    "version": 4,
    "description": "Karaoke Mugen Karaoke Data File"
  },
  "medias": [
    {
      "version": "Default",
      "filename": "JPN - the pillows - MV - Moondust.mp4",
      "audiogain": -5.39,
      "loudnorm": "-11.26,0.80,3.40,-21.36,-0.65",
      "filesize": 50711867,
      "duration": 346,
      "default": true,
      "lyrics": [
        {
          "filename": "JPN - the pillows - MV - Moondust.ass",
          "default": true,
          "version": "Default"
        }
      ]
    }
  ],
  "data": {
    "created_at": "2019-09-27T18:29:12.000Z",
    "kid": "97db8ced-bd5b-454c-807a-e81f583addd6",
    "modified_at": "2022-06-04T00:19:29.971Z",
    "repository": "kara.moe",
    "songorder": null,
    "tags": {
      "authors": [
        "4b834f78-16da-4e4d-926f-b93968affb69"
      ],
      "creators": [
        "90caf15e-bc86-46e1-8793-9af7906c8310"
      ],
      "families": [
        "5391f9fe-638c-415f-8dc9-958e3a2c5787"
      ],
      "groups": [
        "2b4e9972-5e17-481b-99f5-d0787c0ada56",
        "ae613721-1fbe-480d-ba6b-d6d0702b184d"
      ],
      "langs": [
        "4dcf9614-7914-42aa-99f4-dbce2e059133"
      ],
      "misc": [
        "86705d4b-24e4-4756-9687-2b9c98bcf366"
      ],
      "singers": [
        "278eeffa-7d51-48a4-85a7-b10843f26cdf"
      ],
      "songtypes": [
        "7be1b15c-cff8-4b37-a649-5c90f3d569a9"
      ],
      "collections": [
        "dbcf2c22-524d-4708-99bb-601703633927"
      ]
    },
    "titles": {
      "eng": "Moondust",
      "jpn": "ムーンダスト"
    },
    "titles_default_language": "eng",
    "title": "Moondust",
    "year": 2014
  }
}