{
  "header": {
    "version": 4,
    "description": "Karaoke Mugen Karaoke Data File"
  },
  "medias": [
    {
      "version": "Default",
      "filename": "JPN - Touhou - MV - Akai Tsuki (Dawn Star).avi",
      "audiogain": -7.83,
      "loudnorm": "-10.80,0.12,3.90,-20.80,-0.68",
      "filesize": 77304780,
      "duration": 267,
      "default": true,
      "lyrics": [
        {
          "filename": "JPN - Touhou - MV - Akai Tsuki (Dawn Star).ass",
          "default": true,
          "version": "Default"
        }
      ]
    }
  ],
  "data": {
    "created_at": "2017-10-11T17:01:27.000Z",
    "ignoreHooks": false,
    "kid": "182038f0-6b72-43c1-aeeb-71cdc296c41f",
    "modified_at": "2022-12-22T16:08:50.583Z",
    "repository": "kara.moe",
    "tags": {
      "authors": [
        "5bdaba57-27f8-4568-8806-76a807728766"
      ],
      "collections": [
        "c7db86a0-ff64-4044-9be4-66dd1ef1d1c1"
      ],
      "creators": [
        "a56ed9e7-a3dc-4203-b91c-4128bcf7bfa9",
        "f8d68918-3c62-4e06-acae-e8f77ac8902e"
      ],
      "families": [
        "0377db02-3af6-43b8-9b08-c759df3d25c3"
      ],
      "groups": [
        "3c14c864-533c-49e6-a3cc-6969f1233775"
      ],
      "langs": [
        "4dcf9614-7914-42aa-99f4-dbce2e059133"
      ],
      "series": [
        "1bdaa5a1-dfa6-4365-b746-7a0b194dafd6"
      ],
      "singers": [
        "36782856-d932-422d-b25b-aab64c024731"
      ],
      "songtypes": [
        "7be1b15c-cff8-4b37-a649-5c90f3d569a9"
      ],
      "songwriters": [
        "26cb5252-8510-49e0-897c-a611a05fc056",
        "36782856-d932-422d-b25b-aab64c024731",
        "5a2331d0-48dd-4928-9311-14831950260b"
      ],
      "franchises": [
        "1bdaa5a1-dfa6-4365-b746-7a0b194dafd6"
      ]
    },
    "titles": {
      "jpn": "赤い月 (Dawn Star)",
      "qro": "Akai Tsuki (Dawn Star)"
    },
    "titles_default_language": "qro",
    "year": 2009
  }
}