{
  "header": {
    "version": 4,
    "description": "Karaoke Mugen Karaoke Data File"
  },
  "medias": [
    {
      "version": "Default",
      "filename": "JPN - Yusha ga Shinda! - OP - Shinda!.mp4",
      "audiogain": -1.36,
      "loudnorm": "-16.01,-6.42,4.00,-26.05,-0.50",
      "filesize": 59159918,
      "duration": 89,
      "default": true,
      "lyrics": [
        {
          "filename": "JPN - Yusha ga Shinda! - OP - Shinda!.ass",
          "default": true,
          "version": "Default"
        }
      ]
    }
  ],
  "data": {
    "comment": "Rajouter le titre officiel anglais pour l'oeuvre:  \"The Legendary Hero is Dead!\"",
    "created_at": "2023-04-21T23:04:18.745Z",
    "ignoreHooks": false,
    "kid": "801d6a32-8a17-4a16-bf49-9facaf8d4275",
    "modified_at": "2023-04-21T23:09:34.695Z",
    "repository": "kara.moe",
    "tags": {
      "authors": [
        "5c7df057-1721-436c-8244-17aae35ff388"
      ],
      "collections": [
        "c7db86a0-ff64-4044-9be4-66dd1ef1d1c1"
      ],
      "creators": [
        "58186e9d-9478-47dc-8c95-eeea5c0a3317"
      ],
      "families": [
        "0377db02-3af6-43b8-9b08-c759df3d25c3"
      ],
      "groups": [
        "8e209ae4-4381-438f-89dc-1b21752027d2"
      ],
      "langs": [
        "4dcf9614-7914-42aa-99f4-dbce2e059133"
      ],
      "origins": [
        "938de218-5343-4865-94d3-fb33f2eaa152"
      ],
      "series": [
        "7ad31696-741e-4fa4-9820-885876eca7d5"
      ],
      "singers": [
        "b531ddea-8318-4347-a511-cda312bf5182"
      ],
      "songtypes": [
        "f02ad9b3-0bd9-4aad-85b3-9976739ba0e4"
      ],
      "songwriters": [
        "1619efbc-8c6a-4b57-87be-0e537d1b27dc",
        "b531ddea-8318-4347-a511-cda312bf5182"
      ]
    },
    "titles": {
      "jpn": "死んだ！",
      "qro": "Shinda!"
    },
    "titles_default_language": "qro",
    "year": 2023
  }
}