{
  "header": {
    "version": 4,
    "description": "Karaoke Mugen Karaoke Data File"
  },
  "medias": [
    {
      "version": "Default",
      "filename": "JPN - Touhou - MV - Suiseimushi -Hedonism-.mp4",
      "audiogain": 0.64,
      "loudnorm": "-17.12,-8.18,3.90,-27.14,-0.37",
      "filesize": 202120167,
      "duration": 220,
      "default": true,
      "lyrics": [
        {
          "filename": "JPN - Touhou - MV - Suiseimushi -Hedonism-.ass",
          "default": true,
          "version": "Default"
        }
      ]
    }
  ],
  "data": {
    "created_at": "2021-10-16T22:03:23.844Z",
    "ignoreHooks": false,
    "kid": "7c408c1a-8be7-4d57-a63c-782588352a05",
    "modified_at": "2023-05-20T13:13:52.898Z",
    "repository": "kara.moe",
    "tags": {
      "authors": [
        "dacb0560-9eee-45e3-a97e-294ca9f49d23"
      ],
      "collections": [
        "c7db86a0-ff64-4044-9be4-66dd1ef1d1c1"
      ],
      "families": [
        "0377db02-3af6-43b8-9b08-c759df3d25c3"
      ],
      "groups": [
        "8c22c899-b3ed-42da-a548-ce00f950798b",
        "ae613721-1fbe-480d-ba6b-d6d0702b184d"
      ],
      "langs": [
        "4dcf9614-7914-42aa-99f4-dbce2e059133"
      ],
      "origins": [
        "ac5085db-52d8-44b4-8fbb-1697b24d2046"
      ],
      "series": [
        "1bdaa5a1-dfa6-4365-b746-7a0b194dafd6"
      ],
      "singers": [
        "a6e3509f-befc-4b8b-ac1c-3614e1c32447"
      ],
      "singergroups": [
        "eb49131c-b890-422d-9947-0e82292801e1"
      ],
      "songtypes": [
        "7be1b15c-cff8-4b37-a649-5c90f3d569a9"
      ],
      "songwriters": [
        "26cb5252-8510-49e0-897c-a611a05fc056",
        "3059eca0-7b9f-41e0-a5a6-2e7e3be5d025",
        "a6e3509f-befc-4b8b-ac1c-3614e1c32447"
      ],
      "franchises": [
        "1bdaa5a1-dfa6-4365-b746-7a0b194dafd6"
      ]
    },
    "titles": {
      "jpn": "酔生夢死 -Hedonism-",
      "qro": "Suiseimushi -Hedonism-"
    },
    "titles_default_language": "qro",
    "year": 2017
  }
}