{
  "header": {
    "version": 4,
    "description": "Karaoke Mugen Karaoke Data File"
  },
  "medias": [
    {
      "version": "Default",
      "filename": "JPN - Slayers Next - IN - Otome no Inori.avi",
      "audiogain": -4.18,
      "loudnorm": "-15.37,-2.50,3.90,-25.45,-0.28",
      "filesize": 20074494,
      "duration": 76,
      "default": true,
      "lyrics": [
        {
          "filename": "JPN - Slayers Next - IN - Otome no Inori.ass",
          "default": true,
          "version": "Default",
          "subchecksum": "9c76aefa091874ed64624233e2bfd35d"
        }
      ]
    }
  ],
  "data": {
    "created_at": "2017-10-11T17:01:19.000Z",
    "kid": "ba0642cf-baf7-4305-b75f-f1d4be5093ee",
    "modified_at": "2021-02-25T13:08:39.240Z",
    "repository": "kara.moe",
    "tags": {
      "authors": [
        "5bdaba57-27f8-4568-8806-76a807728766"
      ],
      "collections": [
        "c7db86a0-ff64-4044-9be4-66dd1ef1d1c1"
      ],
      "creators": [
        "0822b053-2365-4998-bb04-b09b5f8c4e54"
      ],
      "families": [
        "0377db02-3af6-43b8-9b08-c759df3d25c3"
      ],
      "groups": [
        "24db50aa-a126-4d34-a48a-e45db79c4245"
      ],
      "langs": [
        "4dcf9614-7914-42aa-99f4-dbce2e059133"
      ],
      "origins": [
        "938de218-5343-4865-94d3-fb33f2eaa152"
      ],
      "series": [
        "1f2c7245-1612-44f5-bc1a-6e6a99cc7d37"
      ],
      "singers": [
        "326621ef-f074-4b13-9921-9728c65a6dff",
        "ae4193ce-de4b-4b80-bff6-95ca8706fd67"
      ],
      "songtypes": [
        "5e5250d9-351a-4a82-98eb-55db50ad8962"
      ],
      "songwriters": [
        "6a753fb0-b967-466a-93d5-9cb565276787",
        "de7666b1-3e5a-475a-b5a8-14202d9de90e"
      ],
      "franchises": [
        "6adad8cc-6f70-4fc9-bc1b-92d805bb3103"
      ]
    },
    "title": "Otome no Inori",
    "titles": {
      "qro": "Otome no Inori",
      "jpn": "乙女の祈り"
    },
    "year": 1996,
    "titles_default_language": "qro"
  }
}