{
  "header": {
    "version": 4,
    "description": "Karaoke Mugen Karaoke Data File"
  },
  "medias": [
    {
      "version": "Default",
      "filename": "JPN - Project SEKAI COLORFUL STAGE! - GAME AMV - Telecaster B Boy ~ Cover Short Vers.mp4",
      "audiogain": -9.06,
      "loudnorm": "-8.68,0.66,3.60,-18.80,-0.74",
      "filesize": 33009831,
      "duration": 95,
      "default": true,
      "lyrics": [
        {
          "filename": "JPN - Project SEKAI COLORFUL STAGE! - GAME AMV - Telecaster B Boy ~ Cover Short Vers.ass",
          "default": true,
          "version": "Default"
        }
      ]
    }
  ],
  "data": {
    "created_at": "2022-11-20T17:22:37.310Z",
    "ignoreHooks": false,
    "kid": "603bc978-e0e0-4921-a45e-3fc495cc7d04",
    "modified_at": "2022-12-26T22:32:18.747Z",
    "repository": "kara.moe",
    "tags": {
      "authors": [
        "a3a99b23-6c42-4d38-8863-491153187437"
      ],
      "collections": [
        "c7db86a0-ff64-4044-9be4-66dd1ef1d1c1"
      ],
      "creators": [
        "166c6691-d50d-4717-a44d-755376bcc899"
      ],
      "families": [
        "0377db02-3af6-43b8-9b08-c759df3d25c3"
      ],
      "genres": [
        "45623cae-6d68-4304-a49b-896d1d6f4580"
      ],
      "groups": [
        "8e209ae4-4381-438f-89dc-1b21752027d2"
      ],
      "langs": [
        "4dcf9614-7914-42aa-99f4-dbce2e059133"
      ],
      "misc": [
        "1d6ceadf-a885-47e5-b23b-c07bf668a424"
      ],
      "origins": [
        "ac5085db-52d8-44b4-8fbb-1697b24d2046",
        "dbedd6b3-d125-4cd8-aa32-c4175e4ca3a3"
      ],
      "platforms": [
        "213a1a15-e73a-4a08-b3f6-b6e2745a82e5"
      ],
      "series": [
        "192b33fb-638a-4680-bdb2-a5adb9889849"
      ],
      "singers": [
        "1a2a3b83-6635-4b06-8574-4154df44feac",
        "48dc9597-7cd1-482f-8dc0-3e7c72f4b7c3",
        "7ce72adb-b4f2-42d9-b628-360b759a03df",
        "c889c0b5-a571-408f-8b6a-b3c1d4c6296f",
        "fae72c0f-4ef4-4268-9bff-465a0dec95e4"
      ],
      "singergroups": [
        "3978f3e3-2631-47a9-bfc8-9d2804c1074d"
      ],
      "songtypes": [
        "a6c79ce5-89ee-4d50-afe8-3abd7317f6c2"
      ],
      "songwriters": [
        "73871a7b-3a4e-45bc-9e70-ff0a7c784c16"
      ],
      "versions": [
        "03e1e1d2-8641-47b7-bbcb-39a3df9ff21c",
        "d125c80a-86c1-4321-88e9-07b7800679b6"
      ]
    },
    "titles": {
      "eng": "Telecaster B Boy",
      "jpn": "テレキャスタービーボーイ"
    },
    "titles_default_language": "eng",
    "year": 2021
  }
}