{
  "header": {
    "version": 4,
    "description": "Karaoke Mugen Karaoke Data File"
  },
  "medias": [
    {
      "version": "Default",
      "filename": "JPN - Touhou - MV - Traveling Without Shakehands.mp4",
      "audiogain": -2.79,
      "loudnorm": "-14.35,-5.40,2.20,-24.47,-0.18",
      "filesize": 24326605,
      "duration": 267,
      "default": true,
      "lyrics": [
        {
          "filename": "JPN - Touhou - MV - Traveling Without Shakehands.ass",
          "default": true,
          "version": "Default"
        }
      ]
    }
  ],
  "data": {
    "created_at": "2022-10-03T17:51:43.670Z",
    "ignoreHooks": false,
    "kid": "9dc3dd49-86e1-4f00-bc79-7edc884f4434",
    "modified_at": "2022-10-03T17:51:44.449Z",
    "repository": "kara.moe",
    "tags": {
      "authors": [
        "1fbfef73-6731-40df-ba51-65a54b9d1605"
      ],
      "collections": [
        "c7db86a0-ff64-4044-9be4-66dd1ef1d1c1"
      ],
      "creators": [
        "ad4c9a45-6385-48ff-9468-1a056c486239",
        "837e596b-e7c3-4389-bd44-67e819f6fbc1"
      ],
      "families": [
        "0377db02-3af6-43b8-9b08-c759df3d25c3"
      ],
      "langs": [
        "4dcf9614-7914-42aa-99f4-dbce2e059133"
      ],
      "origins": [
        "ac5085db-52d8-44b4-8fbb-1697b24d2046"
      ],
      "series": [
        "1bdaa5a1-dfa6-4365-b746-7a0b194dafd6"
      ],
      "singers": [
        "4cb575ae-a999-4234-9417-31580bcfab94",
        "95995521-0e6f-4cf2-92a3-6e536c6e4747"
      ],
      "songtypes": [
        "7be1b15c-cff8-4b37-a649-5c90f3d569a9"
      ],
      "songwriters": [
        "26cb5252-8510-49e0-897c-a611a05fc056",
        "ad4c9a45-6385-48ff-9468-1a056c486239"
      ],
      "franchises": [
        "1bdaa5a1-dfa6-4365-b746-7a0b194dafd6"
      ],
      "groups": [
        "ae613721-1fbe-480d-ba6b-d6d0702b184d"
      ]
    },
    "titles": {
      "eng": "Traveling Without Shakehands",
      "jpn": "トラベリング・ウィズアウト・シェイクハンズ"
    },
    "titles_default_language": "eng",
    "titles_aliases": [
      "\"shakehands\""
    ],
    "title": "Traveling Without Shakehands",
    "year": 2013
  }
}