{
  "header": {
    "version": 4,
    "description": "Karaoke Mugen Karaoke Data File"
  },
  "medias": [
    {
      "version": "Default",
      "filename": "JPN - Nisekoi - OP1 - CLICK.mp4",
      "audiogain": -7.19,
      "loudnorm": "-10.16,-0.38,1.80,-20.27,-0.06",
      "filesize": 78715929,
      "duration": 92,
      "default": true,
      "lyrics": [
        {
          "filename": "JPN - Nisekoi - OP1 - CLICK.ass",
          "default": true,
          "version": "Default",
          "subchecksum": "c02b1d41cfa6b4d99651b7736cb77523"
        }
      ]
    }
  ],
  "data": {
    "created_at": "2017-10-11T17:01:25.000Z",
    "kid": "851766e8-2a91-450c-92a6-623a2b5e9de6",
    "modified_at": "2021-07-03T17:42:52.183Z",
    "repository": "kara.moe",
    "songorder": 1,
    "tags": {
      "authors": [
        "5a629611-96b4-422c-b309-ba7a58e263a2"
      ],
      "collections": [
        "c7db86a0-ff64-4044-9be4-66dd1ef1d1c1"
      ],
      "creators": [
        "c3bd80ef-d1fe-427f-913f-a2ba2fe66114"
      ],
      "families": [
        "0377db02-3af6-43b8-9b08-c759df3d25c3"
      ],
      "groups": [
        "ae613721-1fbe-480d-ba6b-d6d0702b184d"
      ],
      "langs": [
        "4dcf9614-7914-42aa-99f4-dbce2e059133"
      ],
      "misc": [
        "fe819ff1-9db8-4a0f-85dc-0e322c9126c4"
      ],
      "origins": [
        "938de218-5343-4865-94d3-fb33f2eaa152"
      ],
      "series": [
        "648dcd60-220b-4211-a8ce-23086723374b"
      ],
      "singers": [
        "ff590105-5f65-4b1f-adf9-2cfb5b789428"
      ],
      "songtypes": [
        "f02ad9b3-0bd9-4aad-85b3-9976739ba0e4"
      ],
      "songwriters": [
        "0098edaf-b60b-4b75-bc82-ccf824f506ce"
      ],
      "franchises": [
        "648dcd60-220b-4211-a8ce-23086723374b"
      ]
    },
    "title": "CLICK",
    "titles": {
      "eng": "CLICK"
    },
    "year": 2014,
    "titles_default_language": "eng"
  }
}