{
  "header": {
    "version": 4,
    "description": "Karaoke Mugen Karaoke Data File"
  },
  "medias": [
    {
      "version": "Default",
      "filename": "JPN - Steins Gate - GAME PSP OP - Uchuu Engineer.mp4",
      "audiogain": -2.99,
      "loudnorm": "-14.60,-0.97,7.10,-24.96,-1.43",
      "filesize": 31433469,
      "duration": 119,
      "default": true,
      "lyrics": [
        {
          "filename": "JPN - Steins Gate - GAME PSP OP - Uchuu Engineer.ass",
          "default": true,
          "version": "Default"
        }
      ]
    }
  ],
  "data": {
    "created_at": "2017-10-11T17:01:07.000Z",
    "ignoreHooks": false,
    "kid": "074608b2-ed24-42c0-a83e-d79bf0698f8a",
    "modified_at": "2022-10-03T18:37:18.289Z",
    "repository": "kara.moe",
    "tags": {
      "authors": [
        "5bdaba57-27f8-4568-8806-76a807728766"
      ],
      "collections": [
        "c7db86a0-ff64-4044-9be4-66dd1ef1d1c1"
      ],
      "creators": [
        "7a8ad2ad-018d-4341-9be4-77bfc39a6edd",
        "d8c36618-4baf-4969-a667-188a901a1f00"
      ],
      "groups": [
        "ae613721-1fbe-480d-ba6b-d6d0702b184d"
      ],
      "langs": [
        "4dcf9614-7914-42aa-99f4-dbce2e059133"
      ],
      "origins": [
        "2f96e82c-c61b-4413-817e-e6b247509b95",
        "dbedd6b3-d125-4cd8-aa32-c4175e4ca3a3"
      ],
      "platforms": [
        "6b101aff-4b7b-4b0d-b35e-0f1b67e38c9b"
      ],
      "series": [
        "afc0f5fc-26e3-4292-b818-1e96c196988a"
      ],
      "singers": [
        "3b97f60d-23e3-4e23-bf7f-9835bba682a7"
      ],
      "songtypes": [
        "f02ad9b3-0bd9-4aad-85b3-9976739ba0e4"
      ],
      "songwriters": [
        "66339ced-7df9-40c8-aefd-59b2990df294"
      ],
      "franchises": [
        "afc0f5fc-26e3-4292-b818-1e96c196988a"
      ]
    },
    "titles": {
      "jpn": "宇宙エンジニア",
      "qro": "Uchû Engineer"
    },
    "titles_default_language": "qro",
    "titles_aliases": [
      "Uchuu"
    ],
    "title": "Uchû Engineer",
    "year": 2011
  }
}