{
  "header": {
    "version": 4,
    "description": "Karaoke Mugen Karaoke Data File"
  },
  "medias": [
    {
      "version": "Default",
      "filename": "JPN - Super Robot Taisen - PS2 GAME IN - SKILL.avi",
      "audiogain": -9.64,
      "loudnorm": "-7.93,1.89,5.50,-18.05,-1.33",
      "filesize": 65782182,
      "duration": 312,
      "default": true,
      "lyrics": [
        {
          "filename": "JPN - Super Robot Taisen - PS2 GAME IN - SKILL.ass",
          "default": true,
          "version": "Default",
          "subchecksum": "506eb9c6eda51dbfc52a60a1a13b17cb"
        }
      ]
    }
  ],
  "data": {
    "created_at": "2017-10-11T17:01:35.000Z",
    "kid": "01850287-3797-4e6e-afee-143e0645e882",
    "modified_at": "2021-02-25T13:13:57.994Z",
    "repository": "kara.moe",
    "tags": {
      "authors": [
        "5bdaba57-27f8-4568-8806-76a807728766"
      ],
      "collections": [
        "c7db86a0-ff64-4044-9be4-66dd1ef1d1c1"
      ],
      "creators": [
        "cce4d4a6-abcc-4627-94fa-4bc7ccbacf81"
      ],
      "groups": [
        "3c14c864-533c-49e6-a3cc-6969f1233775"
      ],
      "langs": [
        "4dcf9614-7914-42aa-99f4-dbce2e059133"
      ],
      "misc": [
        "86705d4b-24e4-4756-9687-2b9c98bcf366"
      ],
      "platforms": [
        "2173004e-21da-45c9-9dfb-26014423c566"
      ],
      "series": [
        "4e88aee3-4cb9-4342-bac8-6c0819b3a014"
      ],
      "singers": [
        "a14aaac9-98b8-4298-a7d6-ea4945750704"
      ],
      "songtypes": [
        "5e5250d9-351a-4a82-98eb-55db50ad8962"
      ],
      "songwriters": [
        "162799fe-de2f-4f72-99a2-8c606aee4f2d",
        "44eaa855-0f8f-466b-a742-5b801f0f6565"
      ],
      "franchises": [
        "4e88aee3-4cb9-4342-bac8-6c0819b3a014"
      ],
      "origins": [
        "dbedd6b3-d125-4cd8-aa32-c4175e4ca3a3"
      ]
    },
    "title": "SKILL",
    "titles": {
      "eng": "SKILL"
    },
    "year": 2003,
    "titles_default_language": "eng"
  }
}