{
  "header": {
    "version": 4,
    "description": "Karaoke Mugen Karaoke Data File"
  },
  "medias": [
    {
      "version": "Default",
      "filename": "JPN - GUMI, Miku Hatsune - MV - Nou Shou Sakuretsu Girl.mp4",
      "audiogain": -10.37,
      "loudnorm": "-6.11,2.03,3.40,-16.21,-0.19",
      "filesize": 19173843,
      "duration": 191,
      "default": true,
      "lyrics": [
        {
          "filename": "JPN - GUMI, Miku Hatsune - MV - Nou Shou Sakuretsu Girl.ass",
          "default": true,
          "version": "Default"
        }
      ]
    }
  ],
  "data": {
    "created_at": "2018-04-05T22:51:26.000Z",
    "kid": "1303ac6f-1a2d-4dfb-b458-2e3f7b4152af",
    "modified_at": "2021-12-28T20:35:31.496Z",
    "repository": "kara.moe",
    "tags": {
      "authors": [
        "8c22c899-b3ed-42da-a548-ce00f950798b"
      ],
      "collections": [
        "c7db86a0-ff64-4044-9be4-66dd1ef1d1c1"
      ],
      "creators": [
        "fdacbbf3-1348-4c4a-84f8-196870818708"
      ],
      "genres": [
        "45623cae-6d68-4304-a49b-896d1d6f4580"
      ],
      "groups": [
        "8c22c899-b3ed-42da-a548-ce00f950798b",
        "ae613721-1fbe-480d-ba6b-d6d0702b184d"
      ],
      "langs": [
        "4dcf9614-7914-42aa-99f4-dbce2e059133"
      ],
      "misc": [
        "ec4fee75-71fb-45b4-9772-2ca374b4b600"
      ],
      "singers": [
        "4407ba0e-5de7-4add-870f-7ac95a4804c9",
        "dafdeefa-0a96-44df-9653-aeb88c400e33"
      ],
      "songtypes": [
        "7be1b15c-cff8-4b37-a649-5c90f3d569a9"
      ],
      "songwriters": [
        "da3c407d-2525-4118-be1e-295ffe2cc4d9"
      ]
    },
    "titles": {
      "eng": "Brain Fluid Explosion Girl",
      "qro": "Noushou Sakuretsu Girl",
      "jpn": "脳漿炸裂ガール"
    },
    "title": "Nou Shou Sakuretsu Girl",
    "year": 2012,
    "titles_default_language": "eng"
  }
}