{
  "header": {
    "version": 4,
    "description": "Karaoke Mugen Karaoke Data File"
  },
  "medias": [
    {
      "version": "Default",
      "filename": "JPN - Kizuna no Allele - OP - MirAI wave!.mp4",
      "audiogain": 2.06,
      "loudnorm": "-18.65,-9.43,3.50,-28.70,-0.53",
      "filesize": 25140742,
      "duration": 89,
      "default": true,
      "lyrics": [
        {
          "filename": "JPN - Kizuna no Allele - OP - MirAI wave!.ass",
          "default": true,
          "version": "Default"
        }
      ]
    }
  ],
  "data": {
    "created_at": "2023-04-25T21:18:54.226Z",
    "ignoreHooks": false,
    "kid": "555846cc-2af6-4858-b752-c9ab2f84d9e5",
    "modified_at": "2023-04-25T21:18:54.295Z",
    "repository": "kara.moe",
    "tags": {
      "authors": [
        "7848b5dc-a5df-4577-b640-147be5288cec"
      ],
      "collections": [
        "c7db86a0-ff64-4044-9be4-66dd1ef1d1c1"
      ],
      "creators": [
        "00de1fc0-0041-4091-8da5-31b3bba2ff98",
        "5e24aaad-83c9-4d8a-bbb9-37b766278ffe"
      ],
      "families": [
        "0377db02-3af6-43b8-9b08-c759df3d25c3"
      ],
      "genres": [
        "caa86df2-0d59-474b-885c-f240a9e891b0"
      ],
      "langs": [
        "4dcf9614-7914-42aa-99f4-dbce2e059133"
      ],
      "misc": [
        "fe819ff1-9db8-4a0f-85dc-0e322c9126c4"
      ],
      "series": [
        "e161097d-b009-4107-ba36-d6ca978782ff"
      ],
      "singergroups": [
        "c3bc46e4-dbdf-40d1-bd81-b6c58a468a22"
      ],
      "songtypes": [
        "f02ad9b3-0bd9-4aad-85b3-9976739ba0e4"
      ],
      "songwriters": [
        "65510396-b0c9-4903-a824-b617ab217532",
        "75fde65e-e14f-4287-9499-7e4988c8924d"
      ],
      "groups": [
        "8e209ae4-4381-438f-89dc-1b21752027d2"
      ]
    },
    "titles": {
      "qro": "MirAI wave!"
    },
    "titles_default_language": "qro",
    "year": 2023
  }
}