{
  "header": {
    "version": 4,
    "description": "Karaoke Mugen Karaoke Data File"
  },
  "medias": [
    {
      "version": "Default",
      "filename": "JPN - Code Geass Hangyaku no Lelouch - OP1 - COLORS ~ Alternative Vers.mp4",
      "audiogain": 1.83,
      "loudnorm": "-18.68,-6.80,2.70,-28.93,-0.11",
      "filesize": 41302527,
      "duration": 91,
      "default": true,
      "lyrics": [
        {
          "filename": "JPN - Code Geass Hangyaku no Lelouch - OP1 - COLORS ~ Alternative Vers.ass",
          "default": true,
          "version": "Default"
        }
      ]
    }
  ],
  "data": {
    "created_at": "2017-10-11T17:01:04.000Z",
    "ignoreHooks": false,
    "kid": "21e913e8-3a73-410d-b7c9-b86a672d1494",
    "modified_at": "2023-03-04T01:36:26.614Z",
    "parents": [
      "5785f80a-8f03-43a1-907e-e076b8b69a17"
    ],
    "repository": "kara.moe",
    "songorder": 1,
    "tags": {
      "authors": [
        "5bdaba57-27f8-4568-8806-76a807728766"
      ],
      "collections": [
        "c7db86a0-ff64-4044-9be4-66dd1ef1d1c1"
      ],
      "creators": [
        "ef8f80e1-d244-4aea-b7f0-984d6dd4b82b"
      ],
      "families": [
        "0377db02-3af6-43b8-9b08-c759df3d25c3"
      ],
      "genres": [
        "f60ba57d-5ef4-49e0-b93b-d0dcbcff6592"
      ],
      "groups": [
        "3c14c864-533c-49e6-a3cc-6969f1233775"
      ],
      "langs": [
        "4dcf9614-7914-42aa-99f4-dbce2e059133"
      ],
      "origins": [
        "938de218-5343-4865-94d3-fb33f2eaa152"
      ],
      "series": [
        "1cb3b851-435a-4078-8619-8711f963a92f"
      ],
      "singergroups": [
        "fa3c1f40-c7ef-4ba2-9630-f540bcf94b43"
      ],
      "songtypes": [
        "f02ad9b3-0bd9-4aad-85b3-9976739ba0e4"
      ],
      "songwriters": [
        "059c908e-e210-4405-a509-04ae79271c6e",
        "6a88984a-ec66-4027-b53c-66fb74ea3ab9",
        "ad341f74-d55c-43fb-829a-c41927619998"
      ],
      "versions": [
        "9f63c359-d1bf-425a-bcf5-b245c2c9211d"
      ],
      "franchises": [
        "1cb3b851-435a-4078-8619-8711f963a92f"
      ]
    },
    "titles": {
      "eng": "COLORS"
    },
    "titles_default_language": "eng",
    "year": 2006
  }
}