{
  "header": {
    "version": 4,
    "description": "Karaoke Mugen Karaoke Data File"
  },
  "medias": [
    {
      "version": "Default",
      "filename": "JPN - Miku Hatsune - MV - Kimagure Mercy ~ Off Vocal Vers.mp4",
      "audiogain": -3.02,
      "loudnorm": "-14.03,-0.01,3.90,-24.15,-0.57",
      "filesize": 99352054,
      "duration": 208,
      "default": true,
      "lyrics": [
        {
          "filename": "JPN - Miku Hatsune - MV - Kimagure Mercy ~ Off Vocal Vers.ass",
          "default": true,
          "version": "Default"
        }
      ]
    }
  ],
  "data": {
    "created_at": "2023-05-02T21:14:14.425Z",
    "ignoreHooks": false,
    "kid": "bb082580-8cfa-4425-a407-74c890279214",
    "modified_at": "2023-05-02T21:14:14.529Z",
    "parents": [
      "b8a9a21f-1a7c-498b-b459-5ba9747833c6"
    ],
    "repository": "kara.moe",
    "tags": {
      "authors": [
        "84157b43-8a7a-482c-95d3-516757353835",
        "10891649-d475-46eb-b515-8eb3c1e14622"
      ],
      "collections": [
        "c7db86a0-ff64-4044-9be4-66dd1ef1d1c1"
      ],
      "families": [
        "0377db02-3af6-43b8-9b08-c759df3d25c3"
      ],
      "genres": [
        "45623cae-6d68-4304-a49b-896d1d6f4580"
      ],
      "groups": [
        "ae613721-1fbe-480d-ba6b-d6d0702b184d"
      ],
      "langs": [
        "4dcf9614-7914-42aa-99f4-dbce2e059133"
      ],
      "singers": [
        "4407ba0e-5de7-4add-870f-7ac95a4804c9"
      ],
      "songtypes": [
        "7be1b15c-cff8-4b37-a649-5c90f3d569a9"
      ],
      "songwriters": [
        "298c0a40-668d-4380-93d9-31e4946cc7de",
        "b61974e3-ec0d-4514-9f55-688c3fc87039"
      ],
      "versions": [
        "c0cc87b9-55b9-40f0-878a-fbb9e34c151e"
      ]
    },
    "titles": {
      "jpn": "気まぐれメルシィ",
      "qro": "Kimagure Mercy"
    },
    "titles_default_language": "qro",
    "year": 2016
  }
}