{
  "header": {
    "version": 4,
    "description": "Karaoke Mugen Karaoke Data File"
  },
  "medias": [
    {
      "version": "Default",
      "filename": "JPN - Tsukipro The Animation - AUDIO IN - Summer Session.mp3",
      "audiogain": -10.28,
      "loudnorm": "-6.68,2.14,1.40,-16.72,-0.41",
      "filesize": 8008391,
      "duration": 272,
      "default": true,
      "lyrics": [
        {
          "filename": "JPN - Tsukipro The Animation - AUDIO IN - Summer Session.ass",
          "default": true,
          "version": "Default"
        }
      ]
    }
  ],
  "data": {
    "created_at": "2022-06-30T14:39:34.303Z",
    "ignoreHooks": false,
    "kid": "6e67d037-5386-4e52-8720-77ddd5a3cc4c",
    "modified_at": "2022-11-03T12:58:35.063Z",
    "repository": "kara.moe",
    "tags": {
      "authors": [
        "ee8628c8-9b7f-415b-bc0d-9b712d5daf8c"
      ],
      "collections": [
        "c7db86a0-ff64-4044-9be4-66dd1ef1d1c1"
      ],
      "creators": [
        "ba84dbcd-1719-4636-a093-5e54f8d173ff"
      ],
      "genres": [
        "caa86df2-0d59-474b-885c-f240a9e891b0"
      ],
      "groups": [
        "ae613721-1fbe-480d-ba6b-d6d0702b184d"
      ],
      "langs": [
        "4dcf9614-7914-42aa-99f4-dbce2e059133"
      ],
      "misc": [
        "1d6ceadf-a885-47e5-b23b-c07bf668a424"
      ],
      "series": [
        "6dff7627-f2d1-44c9-8eae-9d243dab3237"
      ],
      "singers": [
        "5eb0c9ec-bb8e-4e9a-9b0b-2732ba2029f0",
        "d182360c-21ed-4887-a15f-8640f11a934a"
      ],
      "singergroups": [
        "f9cfa326-50a2-47f8-a9d0-c8ce6efc88e7"
      ],
      "songtypes": [
        "42a262ae-acba-4ab5-a446-c5789c96c821",
        "5e5250d9-351a-4a82-98eb-55db50ad8962"
      ],
      "songwriters": [
        "a00c9f59-2318-4ec2-b8c1-235dd0635ccb"
      ],
      "franchises": [
        "ac8c6bdb-a96f-4893-b434-78d9fbdf673e"
      ]
    },
    "titles": {
      "eng": "Summer Session"
    },
    "titles_default_language": "eng",
    "title": "Summer Session",
    "year": 2015
  }
}