{
  "header": {
    "version": 4,
    "description": "Karaoke Mugen Karaoke Data File"
  },
  "medias": [
    {
      "version": "Default",
      "filename": "JPN - Kakegurui Twin - ONA ED - Queen's Bluff.mp4",
      "audiogain": -9.73,
      "loudnorm": "-7.40,2.80,3.90,-17.42,-0.97",
      "filesize": 34165350,
      "duration": 90,
      "default": true,
      "lyrics": [
        {
          "filename": "JPN - Kakegurui Twin - ONA ED - Queen's Bluff.ass",
          "default": true,
          "version": "Default"
        }
      ]
    }
  ],
  "data": {
    "created_at": "2022-10-23T15:19:14.045Z",
    "ignoreHooks": false,
    "kid": "caab5085-afb0-4f90-a648-2b0de315db11",
    "modified_at": "2022-12-07T03:55:47.299Z",
    "repository": "kara.moe",
    "tags": {
      "authors": [
        "7848b5dc-a5df-4577-b640-147be5288cec"
      ],
      "collections": [
        "c7db86a0-ff64-4044-9be4-66dd1ef1d1c1"
      ],
      "creators": [
        "0a86e9ea-5e17-4371-8f2a-60c818324d58",
        "0bd06f36-7f7e-4391-8848-7f3573222380",
        "e8bbf351-dd7d-4048-886a-84dbc2fe0cfe"
      ],
      "families": [
        "0377db02-3af6-43b8-9b08-c759df3d25c3"
      ],
      "groups": [
        "8e209ae4-4381-438f-89dc-1b21752027d2"
      ],
      "langs": [
        "4dcf9614-7914-42aa-99f4-dbce2e059133"
      ],
      "misc": [
        "1d6ceadf-a885-47e5-b23b-c07bf668a424"
      ],
      "origins": [
        "8db3e098-06ef-45e5-bba9-cb04a21c1e66"
      ],
      "series": [
        "8fabe924-7391-48ad-994a-61d83b948d07"
      ],
      "singers": [
        "50ace48d-4f9f-47e6-894d-5d66c9fd2014",
        "5d3e8ad0-0315-423b-a6cf-4ebed7ad5093",
        "7e4bddde-27db-412b-b37d-678d367864af",
        "8f4dc795-4e05-4e8f-a5fc-61e45e229402",
        "92adbbb5-d77d-4ab5-9ea6-81cb0f04800a"
      ],
      "singergroups": [
        "d1824d3d-fe54-4fea-b529-355f7b6517f7"
      ],
      "songtypes": [
        "38c77c56-2b95-4040-b676-0994a8cb0597"
      ],
      "songwriters": [
        "9661f44f-aa2d-4e36-a077-3bb7b3784173"
      ],
      "franchises": [
        "5ae9840b-fd0b-44ab-aa7a-f2e3428d16f7"
      ]
    },
    "titles": {
      "eng": "Queen's Bluff"
    },
    "titles_default_language": "eng",
    "year": 2022
  }
}