{
  "header": {
    "version": 4,
    "description": "Karaoke Mugen Karaoke Data File"
  },
  "medias": [
    {
      "version": "Default",
      "filename": "JPN - Kyou Hanabasami, Leona Shishigami, RukiRuki - AMV - Unknown Mother-Goose ~ Cover Vers.mp4",
      "audiogain": 0.09,
      "loudnorm": "-17.10,-6.77,4.30,-27.16,-0.18",
      "filesize": 112243979,
      "duration": 271,
      "default": true,
      "lyrics": [
        {
          "filename": "JPN - Kyou Hanabasami, Leona Shishigami, RukiRuki - AMV - Unknown Mother-Goose ~ Cover Vers.ass",
          "default": true,
          "version": "Default"
        }
      ]
    }
  ],
  "data": {
    "created_at": "2021-03-06T15:30:18.150Z",
    "ignoreHooks": false,
    "kid": "f8a0a25f-0e79-4e64-a46a-2e8f97d760c1",
    "modified_at": "2022-04-18T18:58:12.246Z",
    "parents": [
      "caf75f7d-74cf-4d90-a195-3ff5c0b93ed7"
    ],
    "repository": "kara.moe",
    "tags": {
      "authors": [
        "1631228b-9125-497a-aafc-66f920a44a02"
      ],
      "collections": [
        "c7db86a0-ff64-4044-9be4-66dd1ef1d1c1"
      ],
      "creators": [
        "a4fb015c-0881-4a6b-971d-b53f9d3ba1b1"
      ],
      "families": [
        "0377db02-3af6-43b8-9b08-c759df3d25c3"
      ],
      "groups": [
        "8c22c899-b3ed-42da-a548-ce00f950798b",
        "ae613721-1fbe-480d-ba6b-d6d0702b184d"
      ],
      "langs": [
        "4dcf9614-7914-42aa-99f4-dbce2e059133"
      ],
      "misc": [
        "ec4fee75-71fb-45b4-9772-2ca374b4b600"
      ],
      "origins": [
        "ac5085db-52d8-44b4-8fbb-1697b24d2046"
      ],
      "singers": [
        "27b30573-f5ba-4190-ab00-d988ae1d77e2",
        "5073c58c-b0ac-4e5f-9db5-bc51313cc328",
        "f98be327-83db-42ba-9132-1a00cd9d562b"
      ],
      "songtypes": [
        "a6c79ce5-89ee-4d50-afe8-3abd7317f6c2"
      ],
      "songwriters": [
        "26f212a2-3dcc-40f0-8b0e-0e65b6bdb80e",
        "355b89ea-0c1e-4091-9fe2-7e97a51fbcc5",
        "3d9cfa91-782e-450f-99d1-911f51560af7",
        "a1fa74a3-4185-4faf-aae6-d1b9f07784f0",
        "aa4108b3-914c-4ad6-8c72-2d13457e3ed3",
        "b08f2c69-8493-4187-a86d-495b91f1a6a5"
      ],
      "versions": [
        "03e1e1d2-8641-47b7-bbcb-39a3df9ff21c"
      ]
    },
    "titles": {
      "eng": "Unknown Mother-Goose",
      "jpn": "アンノウンマザーグース"
    },
    "titles_default_language": "eng",
    "title": "Unknown Mother-Goose",
    "year": 2019
  }
}