{
  "header": {
    "version": 4,
    "description": "Karaoke Mugen Karaoke Data File"
  },
  "medias": [
    {
      "version": "Default",
      "filename": "JPN - Love Live! Nijigasaki Gakuen School Idol Doukoukai - AUDIO - Romance no Naka de ~ Full Vers.mp3",
      "audiogain": -9.53,
      "loudnorm": "-7.42,1.57,3.40,-17.45,-0.40",
      "filesize": 10862024,
      "duration": 263,
      "default": true,
      "lyrics": [
        {
          "filename": "JPN - Love Live! Nijigasaki Gakuen School Idol Doukoukai - AUDIO - Romance no Naka de ~ Full Vers.ass",
          "default": true,
          "version": "Default"
        }
      ]
    }
  ],
  "data": {
    "created_at": "2023-02-12T17:24:14.711Z",
    "ignoreHooks": false,
    "kid": "c0cd55fb-8b9d-4267-90cd-ab7c5698ae39",
    "modified_at": "2023-03-22T01:13:44.049Z",
    "repository": "kara.moe",
    "tags": {
      "authors": [
        "449844e4-3a1f-46e1-8a92-bf72e2d1b6f1"
      ],
      "collections": [
        "dbcf2c22-524d-4708-99bb-601703633927"
      ],
      "creators": [
        "b2805292-730e-473a-96f0-fd8e7ffd1fd7"
      ],
      "genres": [
        "caa86df2-0d59-474b-885c-f240a9e891b0"
      ],
      "groups": [
        "8e209ae4-4381-438f-89dc-1b21752027d2"
      ],
      "langs": [
        "4dcf9614-7914-42aa-99f4-dbce2e059133"
      ],
      "misc": [
        "1d6ceadf-a885-47e5-b23b-c07bf668a424"
      ],
      "series": [
        "9609e3a6-60db-412a-9d81-e9d9d2e0fb79"
      ],
      "singers": [
        "1fd01df9-13c6-4442-a8c9-4d7922152b32",
        "747cd011-3914-4212-9079-0da3dd845831",
        "458ec0c5-db5e-4103-af88-b15a1699264d"
      ],
      "singergroups": [
        "bb9989c8-4c91-464c-9267-b453af9ec286"
      ],
      "songtypes": [
        "42a262ae-acba-4ab5-a446-c5789c96c821"
      ],
      "songwriters": [
        "1e5f554d-bc51-4978-9a7b-9396fc2ce272",
        "6313eff7-b338-4e38-8129-482b2ad32054"
      ],
      "versions": [
        "c2143a7f-6970-450e-8a79-0302db9220a9"
      ],
      "franchises": [
        "fd5d066e-e85a-4eea-8688-2979a887450a"
      ]
    },
    "titles": {
      "jpn": "ロマンスの中で",
      "qro": "Romance no Naka de"
    },
    "titles_default_language": "qro",
    "year": 2022
  }
}