{
  "header": {
    "version": 4,
    "description": "Karaoke Mugen Karaoke Data File"
  },
  "medias": [
    {
      "version": "Default",
      "filename": "JPN - Tales of The Abyss - MV - Karma ~ Full Vers.mp4",
      "audiogain": -5.99,
      "loudnorm": "-11.80,-0.49,6.10,-21.88,-0.61",
      "filesize": 19837657,
      "duration": 213,
      "default": true,
      "lyrics": [
        {
          "filename": "JPN - Tales of The Abyss - MV - Karma ~ Full Vers.ass",
          "default": true,
          "version": "Default"
        }
      ]
    }
  ],
  "data": {
    "created_at": "2019-11-24T17:14:28.088Z",
    "kid": "5f7bdabd-78f5-4390-9078-96798b1cd973",
    "modified_at": "2022-06-04T00:15:03.534Z",
    "parents": [
      "978e5019-b666-4b09-86fd-988cf661e642"
    ],
    "repository": "kara.moe",
    "songorder": null,
    "tags": {
      "authors": [
        "1db1738f-acdc-42fc-aec3-60f4bddf660d"
      ],
      "creators": [
        "6697d31b-7f60-4d11-b237-8eb72740fd8a"
      ],
      "families": [
        "5391f9fe-638c-415f-8dc9-958e3a2c5787"
      ],
      "groups": [
        "3c14c864-533c-49e6-a3cc-6969f1233775"
      ],
      "langs": [
        "4dcf9614-7914-42aa-99f4-dbce2e059133"
      ],
      "series": [
        "e5d63121-29d4-45a5-aac1-79587118a1ee"
      ],
      "singers": [
        "a027724c-6136-4dc1-b585-7ae8f780c8d2"
      ],
      "songtypes": [
        "7be1b15c-cff8-4b37-a649-5c90f3d569a9"
      ],
      "songwriters": [
        "20a392bf-0517-4d22-a08c-46345d1077fe"
      ],
      "versions": [
        "c2143a7f-6970-450e-8a79-0302db9220a9"
      ],
      "collections": [
        "dbcf2c22-524d-4708-99bb-601703633927"
      ],
      "franchises": [
        "457ab7f6-9644-4493-b61b-8778400aaf54"
      ]
    },
    "titles": {
      "qro": "Karma",
      "jpn": "カルマ"
    },
    "titles_default_language": "qro",
    "title": "Karma",
    "year": 2005
  }
}