{
  "header": {
    "version": 4,
    "description": "Karaoke Mugen Karaoke Data File"
  },
  "medias": [
    {
      "version": "Default",
      "filename": "JPN - Robot Girls Z - OP - Team Z no Chikara.mp4",
      "audiogain": -2.3,
      "loudnorm": "-16.02,-6.78,2.30,-26.09,-0.11",
      "filesize": 52600843,
      "duration": 91,
      "default": true,
      "lyrics": [
        {
          "filename": "JPN - Robot Girls Z - OP - Team Z no Chikara.ass",
          "default": true,
          "version": "Default",
          "subchecksum": "fb030f5649af75417f563ed0ef0712bc"
        }
      ]
    }
  ],
  "data": {
    "created_at": "2017-10-11T17:01:37.000Z",
    "kid": "98d75fe7-5d06-48b1-a737-cac8eae88357",
    "modified_at": "2021-02-25T12:52:27.352Z",
    "repository": "kara.moe",
    "tags": {
      "authors": [
        "8c22c899-b3ed-42da-a548-ce00f950798b"
      ],
      "collections": [
        "c7db86a0-ff64-4044-9be4-66dd1ef1d1c1"
      ],
      "creators": [
        "f694bf43-b427-4244-9744-9d3f84fd8a31"
      ],
      "families": [
        "0377db02-3af6-43b8-9b08-c759df3d25c3"
      ],
      "groups": [
        "8c22c899-b3ed-42da-a548-ce00f950798b",
        "ae613721-1fbe-480d-ba6b-d6d0702b184d"
      ],
      "langs": [
        "4dcf9614-7914-42aa-99f4-dbce2e059133"
      ],
      "misc": [
        "fe819ff1-9db8-4a0f-85dc-0e322c9126c4"
      ],
      "origins": [
        "938de218-5343-4865-94d3-fb33f2eaa152"
      ],
      "series": [
        "da39d8d0-381a-4be7-9468-700ad32919e5"
      ],
      "singers": [
        "043e0862-458d-4803-8c55-41c378ab4877",
        "7e153b87-dd5f-4ce1-b187-9941ca95ce3e",
        "e2daa417-6c90-4d99-9344-cb59f5cbef02"
      ],
      "songtypes": [
        "f02ad9b3-0bd9-4aad-85b3-9976739ba0e4"
      ],
      "songwriters": [
        "dad1f625-061f-4396-b3f4-7bb0a422875e"
      ]
    },
    "title": "Team Z no Chikara",
    "titles": {
      "qro": "Team Z no Chikara",
      "jpn": "チームZのチカラ"
    },
    "year": 2014,
    "titles_default_language": "qro"
  }
}