{
  "header": {
    "version": 4,
    "description": "Karaoke Mugen Karaoke Data File"
  },
  "medias": [
    {
      "version": "Default",
      "filename": "JPN - Ninja Slayer From Animation - ONA ED1 - Killmister.mp4",
      "audiogain": 0.03,
      "loudnorm": "-17.10,-7.13,4.30,-27.23,-0.92",
      "filesize": 19428716,
      "duration": 91,
      "default": true,
      "lyrics": [
        {
          "filename": "JPN - Ninja Slayer From Animation - ONA ED1 - Killmister.ass",
          "default": true,
          "version": "Default"
        }
      ]
    }
  ],
  "data": {
    "created_at": "2023-02-21T18:31:09.870Z",
    "ignoreHooks": false,
    "kid": "eb614b5f-e442-4ef5-a14f-49a33a0f9445",
    "modified_at": "2023-02-21T18:31:43.611Z",
    "repository": "kara.moe",
    "songorder": 1,
    "tags": {
      "authors": [
        "4ac9beaf-6d3c-4c22-b202-03b4d88198aa"
      ],
      "collections": [
        "c7db86a0-ff64-4044-9be4-66dd1ef1d1c1"
      ],
      "creators": [
        "9a515ca0-48ae-4ded-ac8f-3cccc586794a"
      ],
      "families": [
        "0377db02-3af6-43b8-9b08-c759df3d25c3"
      ],
      "groups": [
        "8c22c899-b3ed-42da-a548-ce00f950798b",
        "ae613721-1fbe-480d-ba6b-d6d0702b184d"
      ],
      "langs": [
        "4dcf9614-7914-42aa-99f4-dbce2e059133"
      ],
      "origins": [
        "8db3e098-06ef-45e5-bba9-cb04a21c1e66"
      ],
      "series": [
        "3ec8ce76-f5cd-4c1f-8fcf-505de32ab1c0"
      ],
      "singers": [
        "9413345d-5cdd-4b35-8ff4-bde36b9930c3"
      ],
      "songtypes": [
        "38c77c56-2b95-4040-b676-0994a8cb0597"
      ],
      "songwriters": [
        "fb6b5348-596c-4ca4-8ee9-4ee728eb8ef0"
      ]
    },
    "titles": {
      "jpn": "キルミスター",
      "qro": "Killmister"
    },
    "titles_default_language": "qro",
    "year": 2015
  }
}