{
  "header": {
    "version": 4,
    "description": "Karaoke Mugen Karaoke Data File"
  },
  "medias": [
    {
      "version": "Default",
      "filename": "JPN - Ikinari Anata ni Koishiteru - GAME OP - I wo Tokinasai.mp4",
      "audiogain": -9.59,
      "loudnorm": "-8.17,1.45,9.60,-18.52,-1.37",
      "filesize": 21789677,
      "duration": 110,
      "default": true,
      "lyrics": [
        {
          "filename": "JPN - Ikinari Anata ni Koishiteru - GAME OP - I wo Tokinasai.ass",
          "default": true,
          "version": "Default",
          "subchecksum": "959843aec2a4df5cc2c2e8f0e7deb4c5"
        }
      ]
    }
  ],
  "data": {
    "created_at": "2017-11-06T20:42:16.000Z",
    "kid": "5a8ceaed-dc27-41ff-82b0-93afb0d41a0c",
    "modified_at": "2021-02-25T11:46:28.000Z",
    "repository": "kara.moe",
    "tags": {
      "authors": [
        "b332f604-b144-4f33-9145-ff61cb670a4f"
      ],
      "collections": [
        "c7db86a0-ff64-4044-9be4-66dd1ef1d1c1"
      ],
      "creators": [
        "94326b43-04c2-4a96-9b95-a8440435033d"
      ],
      "groups": [
        "8c22c899-b3ed-42da-a548-ce00f950798b",
        "ae613721-1fbe-480d-ba6b-d6d0702b184d"
      ],
      "langs": [
        "4dcf9614-7914-42aa-99f4-dbce2e059133"
      ],
      "origins": [
        "2f96e82c-c61b-4413-817e-e6b247509b95",
        "dbedd6b3-d125-4cd8-aa32-c4175e4ca3a3"
      ],
      "series": [
        "acdfd70d-a5c7-42db-92b9-58ea759a437d"
      ],
      "singers": [
        "2e4a627e-b3af-43b6-afaf-a5b055bc29f4"
      ],
      "songtypes": [
        "f02ad9b3-0bd9-4aad-85b3-9976739ba0e4"
      ],
      "songwriters": [
        "e38b59d7-3577-421a-be48-932dd10f6145",
        "e9fd27e9-2b50-4425-b3b1-1b901ff7471a"
      ]
    },
    "title": "I wo Tokinasai",
    "titles": {
      "qro": "i wo Tokinasai",
      "jpn": "iを解きなさい"
    },
    "year": 2011,
    "titles_default_language": "qro"
  }
}