{
  "header": {
    "version": 4,
    "description": "Karaoke Mugen Karaoke Data File"
  },
  "medias": [
    {
      "version": "Default",
      "filename": "JPN - Kokoro Connect - ED1 - Kokoro no Kara.mp4",
      "audiogain": 0.61,
      "loudnorm": "-18.53,-6.19,5.80,-28.74,0.07",
      "filesize": 26888367,
      "duration": 92,
      "default": true,
      "lyrics": [
        {
          "filename": "JPN - Kokoro Connect - ED1 - Kokoro no Kara.ass",
          "default": true,
          "version": "Default"
        }
      ]
    }
  ],
  "data": {
    "created_at": "2021-03-11T15:35:52.422Z",
    "ignoreHooks": false,
    "kid": "724c241b-9690-4a73-9c86-7d780640aa9d",
    "modified_at": "2022-03-29T17:21:51.514Z",
    "repository": "kara.moe",
    "songorder": 1,
    "tags": {
      "authors": [
        "ba4c7606-1e96-4c45-8e21-d5103477336b"
      ],
      "collections": [
        "c7db86a0-ff64-4044-9be4-66dd1ef1d1c1"
      ],
      "creators": [
        "bee26a9b-bc7b-4cdc-9317-6c9ee6707706"
      ],
      "families": [
        "0377db02-3af6-43b8-9b08-c759df3d25c3"
      ],
      "groups": [
        "2b4e9972-5e17-481b-99f5-d0787c0ada56",
        "ae613721-1fbe-480d-ba6b-d6d0702b184d"
      ],
      "langs": [
        "4dcf9614-7914-42aa-99f4-dbce2e059133"
      ],
      "origins": [
        "938de218-5343-4865-94d3-fb33f2eaa152"
      ],
      "series": [
        "e10cbe47-b801-4ebb-8d3d-2e0157d54b57"
      ],
      "singers": [
        "11846a94-2965-4798-9603-a9dec631ad3e",
        "7d210f33-27ba-4e28-8e54-fb74848c3829"
      ],
      "songtypes": [
        "38c77c56-2b95-4040-b676-0994a8cb0597"
      ],
      "songwriters": [
        "353c94da-0e1e-4cf1-b6de-ee5b81a4e332",
        "11846a94-2965-4798-9603-a9dec631ad3e"
      ]
    },
    "titles": {
      "qro": "Kokoro no Kara",
      "jpn": "ココロノカラ"
    },
    "titles_default_language": "qro",
    "title": "Kokoro no Kara",
    "year": 2012
  }
}