{
  "header": {
    "version": 4,
    "description": "Karaoke Mugen Karaoke Data File"
  },
  "medias": [
    {
      "version": "Default",
      "filename": "JPN - NEEDY GIRL OVERDOSE - GAME PC MV - INTERNET OVERDOSE ~ Full Vers.mp4",
      "audiogain": -8.61,
      "loudnorm": "-7.84,2.29,4.40,-18.05,-0.37",
      "filesize": 359740468,
      "duration": 222,
      "default": true,
      "lyrics": [
        {
          "filename": "JPN - NEEDY GIRL OVERDOSE - GAME PC MV - INTERNET OVERDOSE ~ Full Vers.ass",
          "default": true,
          "version": "Default"
        }
      ]
    }
  ],
  "data": {
    "created_at": "2022-06-07T21:28:20.292Z",
    "ignoreHooks": false,
    "kid": "195db8d7-7adc-4c79-bd3b-a26ee1e76217",
    "modified_at": "2022-06-07T21:28:42.583Z",
    "repository": "kara.moe",
    "tags": {
      "authors": [
        "84157b43-8a7a-482c-95d3-516757353835"
      ],
      "collections": [
        "c7db86a0-ff64-4044-9be4-66dd1ef1d1c1"
      ],
      "creators": [
        "5c15a84c-6a6c-4d10-a57e-22157cedc4e6"
      ],
      "groups": [
        "8e209ae4-4381-438f-89dc-1b21752027d2"
      ],
      "langs": [
        "4dcf9614-7914-42aa-99f4-dbce2e059133"
      ],
      "misc": [
        "ec4fee75-71fb-45b4-9772-2ca374b4b600"
      ],
      "platforms": [
        "3c15f758-e1bc-4266-8bb9-3c14112f504a"
      ],
      "series": [
        "dea464df-b3a6-4d94-ab80-3a658d79fb95"
      ],
      "singers": [
        "06c618ba-0261-4ad5-9a40-e2d31ef6c330"
      ],
      "songtypes": [
        "7be1b15c-cff8-4b37-a649-5c90f3d569a9"
      ],
      "songwriters": [
        "17d8bcf5-b197-41fd-9e23-2b8826f83995"
      ],
      "versions": [
        "c2143a7f-6970-450e-8a79-0302db9220a9"
      ],
      "origins": [
        "dbedd6b3-d125-4cd8-aa32-c4175e4ca3a3"
      ]
    },
    "titles": {
      "eng": "INTERNET OVERDOSE"
    },
    "titles_default_language": "eng",
    "title": "INTERNET OVERDOSE",
    "year": 2021
  }
}