{
  "header": {
    "version": 4,
    "description": "Karaoke Mugen Karaoke Data File"
  },
  "medias": [
    {
      "version": "Default",
      "filename": "JPN - Boku no Hero Academia S5 - OP2 - Merry-Go-Round.mp4",
      "audiogain": 2.07,
      "loudnorm": "-20.00,-6.13,7.30,-30.13,-0.62",
      "filesize": 32764712,
      "duration": 89,
      "default": true,
      "lyrics": [
        {
          "filename": "JPN - Boku no Hero Academia S5 - OP2 - Merry-Go-Round.ass",
          "default": true,
          "version": "Default"
        }
      ]
    }
  ],
  "data": {
    "created_at": "2021-08-31T21:34:39.720Z",
    "kid": "cf464d75-f118-4e63-88bf-c62247b0ff22",
    "modified_at": "2021-09-11T15:50:05.552Z",
    "repository": "kara.moe",
    "songorder": 2,
    "tags": {
      "authors": [
        "05c1e4ad-32ba-490e-8f3c-5cd491c96d85"
      ],
      "collections": [
        "c7db86a0-ff64-4044-9be4-66dd1ef1d1c1"
      ],
      "creators": [
        "57ffcdd9-7e4f-4971-85ce-0fb3aa8151ac"
      ],
      "families": [
        "0377db02-3af6-43b8-9b08-c759df3d25c3"
      ],
      "genres": [
        "a0aeef4a-6428-45ff-a6e1-468b595930c2"
      ],
      "groups": [
        "8e209ae4-4381-438f-89dc-1b21752027d2"
      ],
      "langs": [
        "4dcf9614-7914-42aa-99f4-dbce2e059133"
      ],
      "origins": [
        "938de218-5343-4865-94d3-fb33f2eaa152"
      ],
      "series": [
        "b20de420-423f-4a84-91c5-123e99f3b1b5"
      ],
      "singers": [
        "814943f5-30aa-4229-b2ed-120f25825b27"
      ],
      "songtypes": [
        "f02ad9b3-0bd9-4aad-85b3-9976739ba0e4"
      ],
      "songwriters": [
        "3dde98ed-a3a6-473d-8fd2-3dd81eb92b26",
        "6cb0e364-b9d2-4fa9-8dfb-98b095c7ac47"
      ],
      "franchises": [
        "8c9bbcc8-9928-46d1-aecd-7a31a8c9bba3"
      ]
    },
    "titles": {
      "eng": "Merry-Go-Round"
    },
    "title": "Merry-Go-Round",
    "year": 2021,
    "titles_default_language": "eng"
  }
}