{
  "header": {
    "version": 4,
    "description": "Karaoke Mugen Karaoke Data File"
  },
  "medias": [
    {
      "version": "Default",
      "filename": "JPN - Suisei Hoshimachi - AUDIO - Damn Good Day.mp3",
      "audiogain": -10.05,
      "loudnorm": "-6.67,0.64,3.00,-16.98,-0.45",
      "filesize": 7722886,
      "duration": 182,
      "default": true,
      "lyrics": [
        {
          "filename": "JPN - Suisei Hoshimachi - AUDIO - Damn Good Day.ass",
          "default": true,
          "version": "Default"
        }
      ]
    }
  ],
  "data": {
    "created_at": "2023-02-04T16:25:53.309Z",
    "ignoreHooks": false,
    "kid": "611e46da-066e-40df-b5fa-8a850f204ff6",
    "modified_at": "2023-02-04T16:25:53.658Z",
    "repository": "kara.moe",
    "tags": {
      "authors": [
        "79e0aa7d-da9a-4e9a-aa2b-64056a83b49b"
      ],
      "collections": [
        "c7db86a0-ff64-4044-9be4-66dd1ef1d1c1"
      ],
      "creators": [
        "0263d413-17bb-4cee-a311-6dd896eda1c9"
      ],
      "groups": [
        "8e209ae4-4381-438f-89dc-1b21752027d2"
      ],
      "langs": [
        "4dcf9614-7914-42aa-99f4-dbce2e059133"
      ],
      "origins": [
        "5106d71b-a78e-4d19-a16d-f8fb6719538a"
      ],
      "singers": [
        "83b3a34b-d13b-452c-8574-d63545edf650"
      ],
      "songtypes": [
        "42a262ae-acba-4ab5-a446-c5789c96c821"
      ],
      "songwriters": [
        "05dcfd3a-8364-4fc9-891f-ad37784cd104"
      ]
    },
    "titles": {
      "eng": "Damn Good Day"
    },
    "titles_default_language": "eng",
    "year": 2023
  }
}