{
  "header": {
    "version": 4,
    "description": "Karaoke Mugen Karaoke Data File"
  },
  "medias": [
    {
      "version": "Default",
      "filename": "JPN - SD Gundam Force - MV - Kokoro Odoru ~ Full Vers.mp4",
      "audiogain": -1.23,
      "loudnorm": "-15.75,-5.45,2.50,-25.88,-0.14",
      "filesize": 44862140,
      "duration": 268,
      "default": true,
      "lyrics": [
        {
          "filename": "JPN - SD Gundam Force - MV - Kokoro Odoru ~ Full Vers.ass",
          "default": true,
          "version": "Default"
        }
      ]
    }
  ],
  "data": {
    "created_at": "2020-07-21T22:22:35.734Z",
    "kid": "d2a9127c-3664-4bc3-911e-73b2c7c015af",
    "modified_at": "2022-06-04T00:23:09.540Z",
    "parents": [
      "b9badae1-c9b7-44a9-be6b-4714cc061273"
    ],
    "repository": "kara.moe",
    "songorder": null,
    "tags": {
      "authors": [
        "87096920-112f-485f-a310-04156cb4624d"
      ],
      "creators": [
        "6fa9de67-21cf-420b-9ddb-57edb5abe523"
      ],
      "families": [
        "5391f9fe-638c-415f-8dc9-958e3a2c5787"
      ],
      "groups": [
        "3c14c864-533c-49e6-a3cc-6969f1233775",
        "60defa7b-774e-4680-8321-51b742c2e009"
      ],
      "langs": [
        "4dcf9614-7914-42aa-99f4-dbce2e059133"
      ],
      "series": [
        "65e36254-13ba-4d33-b975-97d3161da26e"
      ],
      "singers": [
        "69947b25-a0cd-470c-b90a-4bc09cba6ef3"
      ],
      "songtypes": [
        "7be1b15c-cff8-4b37-a649-5c90f3d569a9"
      ],
      "songwriters": [
        "69947b25-a0cd-470c-b90a-4bc09cba6ef3"
      ],
      "versions": [
        "c2143a7f-6970-450e-8a79-0302db9220a9"
      ],
      "collections": [
        "dbcf2c22-524d-4708-99bb-601703633927"
      ],
      "franchises": [
        "e6ade589-c2e4-49a1-acdb-ea9b03e57240"
      ]
    },
    "titles": {
      "qro": "Kokoro Odoru",
      "jpn": "ココロオドル"
    },
    "titles_default_language": "qro",
    "title": "Kokoro Odoru",
    "year": 2004
  }
}