{
  "header": {
    "version": 4,
    "description": "Karaoke Mugen Karaoke Data File"
  },
  "medias": [
    {
      "version": "Default",
      "filename": "JPN - Fuuki Makimiya, Miku Hatsune - MV - Yueni You and Me.mp4",
      "audiogain": -7.69,
      "loudnorm": "-8.13,1.87,3.60,-18.33,-0.65",
      "filesize": 10436991,
      "duration": 180,
      "default": true,
      "lyrics": [
        {
          "filename": "JPN - Fuuki Makimiya, Miku Hatsune - MV - Yueni You and Me.ass",
          "default": true,
          "version": "Default"
        }
      ]
    }
  ],
  "data": {
    "created_at": "2023-02-02T18:52:41.720Z",
    "ignoreHooks": false,
    "kid": "3c0bc37a-5300-422c-959a-691bef644f91",
    "modified_at": "2023-02-02T18:53:21.941Z",
    "repository": "kara.moe",
    "tags": {
      "authors": [
        "ee8628c8-9b7f-415b-bc0d-9b712d5daf8c"
      ],
      "collections": [
        "c7db86a0-ff64-4044-9be4-66dd1ef1d1c1",
        "dbcf2c22-524d-4708-99bb-601703633927"
      ],
      "creators": [
        "54b1c32a-f8dc-47ed-8401-22dc30ce2322"
      ],
      "families": [
        "0377db02-3af6-43b8-9b08-c759df3d25c3"
      ],
      "genres": [
        "45623cae-6d68-4304-a49b-896d1d6f4580"
      ],
      "groups": [
        "ae613721-1fbe-480d-ba6b-d6d0702b184d"
      ],
      "langs": [
        "4dcf9614-7914-42aa-99f4-dbce2e059133"
      ],
      "misc": [
        "1d6ceadf-a885-47e5-b23b-c07bf668a424"
      ],
      "singers": [
        "4407ba0e-5de7-4add-870f-7ac95a4804c9",
        "a5a25870-c987-4a3c-993c-646caf4225dc"
      ],
      "songtypes": [
        "7be1b15c-cff8-4b37-a649-5c90f3d569a9"
      ],
      "songwriters": [
        "54b1c32a-f8dc-47ed-8401-22dc30ce2322"
      ]
    },
    "titles": {
      "eng": "Therefore You and Me",
      "jpn": "故にユーエンミ―",
      "qro": "Yueni You and Me"
    },
    "titles_default_language": "qro",
    "year": 2014
  }
}