{
  "header": {
    "version": 4,
    "description": "Karaoke Mugen Karaoke Data File"
  },
  "medias": [
    {
      "version": "Default",
      "filename": "JPN - Yu-Gi-Oh! ARC-V - ED4 - Speaking.mp4",
      "audiogain": 2.34,
      "loudnorm": "-18.83,-10.49,7.60,-28.91,-1.44",
      "filesize": 76893982,
      "duration": 90,
      "default": true,
      "lyrics": [
        {
          "filename": "JPN - Yu-Gi-Oh! ARC-V - ED4 - Speaking.ass",
          "default": true,
          "version": "Default",
          "subchecksum": "f1e081175851e03e6d4554a4d8ff2f19"
        }
      ]
    }
  ],
  "data": {
    "created_at": "2018-06-26T15:09:14.000Z",
    "kid": "dfe5ea72-2a53-4d21-b86d-16f92ecd1e95",
    "modified_at": "2021-02-25T13:41:53.808Z",
    "repository": "kara.moe",
    "songorder": 4,
    "tags": {
      "authors": [
        "05c1e4ad-32ba-490e-8f3c-5cd491c96d85"
      ],
      "collections": [
        "c7db86a0-ff64-4044-9be4-66dd1ef1d1c1"
      ],
      "creators": [
        "3416bd66-667d-4c3f-91f3-6e692001ef25"
      ],
      "families": [
        "0377db02-3af6-43b8-9b08-c759df3d25c3"
      ],
      "groups": [
        "ae613721-1fbe-480d-ba6b-d6d0702b184d"
      ],
      "langs": [
        "4dcf9614-7914-42aa-99f4-dbce2e059133"
      ],
      "origins": [
        "938de218-5343-4865-94d3-fb33f2eaa152"
      ],
      "series": [
        "5477f727-19f1-457b-9c0f-46a572ae29ec"
      ],
      "singers": [
        "c90e7377-96a3-4476-851c-c8fa743748d3"
      ],
      "songtypes": [
        "38c77c56-2b95-4040-b676-0994a8cb0597"
      ],
      "songwriters": [
        "6e59f1d5-9dfe-436d-a44d-5698f87b9fb7"
      ],
      "franchises": [
        "e6b60e16-dac4-4bc2-8c7d-b80a4422fc3a"
      ]
    },
    "title": "Speaking",
    "titles": {
      "eng": "Speaking"
    },
    "year": 2015,
    "titles_default_language": "eng"
  }
}