{
  "header": {
    "version": 4,
    "description": "Karaoke Mugen Karaoke Data File"
  },
  "medias": [
    {
      "version": "Default",
      "filename": "JPN - Chobits - ED2 - Ningyo Hime.mp4",
      "audiogain": 3.59,
      "loudnorm": "-20.33,-7.22,2.00,-30.47,-0.39",
      "filesize": 22211929,
      "duration": 92,
      "default": true,
      "lyrics": [
        {
          "filename": "JPN - Chobits - ED2 - Ningyo Hime.ass",
          "default": true,
          "version": "Default",
          "subchecksum": "0a483bfb7a896ff448511ea5e1c9d26b"
        }
      ]
    }
  ],
  "data": {
    "created_at": "2017-10-11T17:03:03.000Z",
    "kid": "fe103d38-8480-4f59-8a0b-b98e670a545a",
    "modified_at": "2021-02-25T11:01:14.886Z",
    "repository": "kara.moe",
    "songorder": 2,
    "tags": {
      "authors": [
        "5bdaba57-27f8-4568-8806-76a807728766"
      ],
      "collections": [
        "c7db86a0-ff64-4044-9be4-66dd1ef1d1c1"
      ],
      "creators": [
        "9c5cf6ba-0bc8-4cfe-a63c-e9be3a14e9fd"
      ],
      "families": [
        "0377db02-3af6-43b8-9b08-c759df3d25c3"
      ],
      "groups": [
        "3c14c864-533c-49e6-a3cc-6969f1233775"
      ],
      "langs": [
        "4dcf9614-7914-42aa-99f4-dbce2e059133"
      ],
      "origins": [
        "938de218-5343-4865-94d3-fb33f2eaa152"
      ],
      "series": [
        "40290dd3-afa6-4b3c-b83f-f3d27eddd3bf"
      ],
      "singers": [
        "6008adae-7997-4a23-ac14-f51cfe4ec984"
      ],
      "songtypes": [
        "38c77c56-2b95-4040-b676-0994a8cb0597"
      ],
      "songwriters": [
        "73525bf5-806c-4f56-b5c1-295b2ae9fde0",
        "9aad3216-29d1-4e8f-b113-d5eed0deb1a4"
      ]
    },
    "title": "Ningyo Hime",
    "titles": {
      "qro": "Ningyo Hime",
      "jpn": "ニンギョヒメ"
    },
    "year": 2002,
    "titles_default_language": "qro"
  }
}