{
  "header": {
    "version": 4,
    "description": "Karaoke Mugen Karaoke Data File"
  },
  "medias": [
    {
      "version": "Default",
      "filename": "JPN - Dorohedoro - ED1 - Who am I question_mark.mp4",
      "audiogain": 2.12,
      "loudnorm": "-18.90,-7.01,3.80,-29.04,0.07",
      "filesize": 12937286,
      "duration": 90,
      "default": true,
      "lyrics": [
        {
          "filename": "JPN - Dorohedoro - ED1 - Who am I question_mark.ass",
          "default": true,
          "version": "Default",
          "subchecksum": "96b5041e58c479a31cab52aa622a2269"
        }
      ]
    }
  ],
  "data": {
    "created_at": "2020-01-13T18:25:31.209Z",
    "kid": "ec6b6887-da20-4aac-9356-636c7fe8d023",
    "modified_at": "2021-02-25T11:11:10.046Z",
    "repository": "kara.moe",
    "songorder": 1,
    "tags": {
      "authors": [
        "06852e02-b77e-4106-b6f7-2d03942ad0ea"
      ],
      "collections": [
        "c7db86a0-ff64-4044-9be4-66dd1ef1d1c1"
      ],
      "creators": [
        "0a86e9ea-5e17-4371-8f2a-60c818324d58"
      ],
      "families": [
        "0377db02-3af6-43b8-9b08-c759df3d25c3"
      ],
      "groups": [
        "8e209ae4-4381-438f-89dc-1b21752027d2"
      ],
      "langs": [
        "4dcf9614-7914-42aa-99f4-dbce2e059133",
        "de5eda1c-5fb3-46a6-9606-d4554fc5a1d6"
      ],
      "misc": [
        "fe819ff1-9db8-4a0f-85dc-0e322c9126c4"
      ],
      "origins": [
        "938de218-5343-4865-94d3-fb33f2eaa152"
      ],
      "series": [
        "8c46d4fc-027f-404d-89f0-6d90365e1b45"
      ],
      "singers": [
        "02268bf0-9541-48a7-9fa2-66edf5a96091"
      ],
      "songtypes": [
        "38c77c56-2b95-4040-b676-0994a8cb0597"
      ],
      "songwriters": [
        "895ceb3c-0bee-4f59-aa9f-28e0168453c0"
      ]
    },
    "title": "Who am I?",
    "titles": {
      "eng": "Who am I?"
    },
    "year": 2020,
    "titles_default_language": "eng"
  }
}