{
  "header": {
    "version": 4,
    "description": "Karaoke Mugen Karaoke Data File"
  },
  "medias": [
    {
      "version": "Default",
      "filename": "JPN - Touhou - MV - D-89.mp4",
      "audiogain": -4.48,
      "loudnorm": "-13.99,-4.99,5.10,-24.00,-0.20",
      "filesize": 9051830,
      "duration": 208,
      "default": true,
      "lyrics": [
        {
          "filename": "JPN - Touhou - MV - D-89.ass",
          "default": true,
          "version": "Default"
        }
      ]
    }
  ],
  "data": {
    "created_at": "2022-10-02T11:33:58.905Z",
    "ignoreHooks": false,
    "kid": "30dc9601-4cf0-4e55-9c4f-5a37aab48f38",
    "modified_at": "2022-10-02T11:33:59.629Z",
    "repository": "kara.moe",
    "tags": {
      "authors": [
        "1fbfef73-6731-40df-ba51-65a54b9d1605"
      ],
      "collections": [
        "c7db86a0-ff64-4044-9be4-66dd1ef1d1c1"
      ],
      "creators": [
        "ad4c9a45-6385-48ff-9468-1a056c486239"
      ],
      "families": [
        "0377db02-3af6-43b8-9b08-c759df3d25c3"
      ],
      "langs": [
        "4dcf9614-7914-42aa-99f4-dbce2e059133"
      ],
      "origins": [
        "ac5085db-52d8-44b4-8fbb-1697b24d2046"
      ],
      "series": [
        "1bdaa5a1-dfa6-4365-b746-7a0b194dafd6"
      ],
      "singers": [
        "4cb575ae-a999-4234-9417-31580bcfab94"
      ],
      "songtypes": [
        "7be1b15c-cff8-4b37-a649-5c90f3d569a9"
      ],
      "songwriters": [
        "26cb5252-8510-49e0-897c-a611a05fc056",
        "1beb86fb-499b-412b-833d-3b8d5db091b0",
        "4cb575ae-a999-4234-9417-31580bcfab94"
      ],
      "franchises": [
        "1bdaa5a1-dfa6-4365-b746-7a0b194dafd6"
      ],
      "groups": [
        "3c14c864-533c-49e6-a3cc-6969f1233775"
      ]
    },
    "titles": {
      "eng": "D-89"
    },
    "titles_default_language": "eng",
    "title": "D-89",
    "year": 2009
  }
}