{
  "header": {
    "version": 4,
    "description": "Karaoke Mugen Karaoke Data File"
  },
  "medias": [
    {
      "version": "Default",
      "filename": "JPN - Beatless - OP1 - Error.mp4",
      "audiogain": -1.47,
      "loudnorm": "-17.21,-2.74,9.40,-27.50,-1.82",
      "filesize": 46118744,
      "duration": 90,
      "default": true,
      "lyrics": [
        {
          "filename": "JPN - Beatless - OP1 - Error.ass",
          "default": true,
          "version": "Default",
          "subchecksum": "0d078753bb8c0ca994ceee6a08586a54"
        }
      ]
    }
  ],
  "data": {
    "created_at": "2018-06-18T19:40:28.000Z",
    "kid": "81f6989a-75cd-43a8-8d6b-f7b1a97c51d7",
    "modified_at": "2021-02-25T10:51:30.039Z",
    "repository": "kara.moe",
    "songorder": 1,
    "tags": {
      "authors": [
        "d4156daf-6c2d-4c25-a268-40bd38321e41"
      ],
      "collections": [
        "c7db86a0-ff64-4044-9be4-66dd1ef1d1c1"
      ],
      "creators": [
        "e9bbc92f-b99d-45d4-869c-39b36d70382e"
      ],
      "families": [
        "0377db02-3af6-43b8-9b08-c759df3d25c3"
      ],
      "groups": [
        "8c22c899-b3ed-42da-a548-ce00f950798b",
        "ae613721-1fbe-480d-ba6b-d6d0702b184d"
      ],
      "langs": [
        "4dcf9614-7914-42aa-99f4-dbce2e059133"
      ],
      "origins": [
        "938de218-5343-4865-94d3-fb33f2eaa152"
      ],
      "series": [
        "f62c05a7-ecbd-4eac-a4d4-52824aa4802f"
      ],
      "singers": [
        "40777238-a776-4235-9f5e-eec754c96827"
      ],
      "songtypes": [
        "f02ad9b3-0bd9-4aad-85b3-9976739ba0e4"
      ],
      "songwriters": [
        "30450ae7-a46f-41aa-a791-5d2c2697ee20",
        "796c4009-51ee-49a9-8947-d6cb242a9aad"
      ]
    },
    "title": "Error",
    "titles": {
      "eng": "Error"
    },
    "year": 2018,
    "titles_default_language": "eng"
  }
}