{
  "header": {
    "version": 4,
    "description": "Karaoke Mugen Karaoke Data File"
  },
  "medias": [
    {
      "version": "Default",
      "filename": "JPN - Yes! Precure 5 GoGo! - ED2 - Ganbalance de Dance ~Kibou no Relay~.mp4",
      "audiogain": 2.26,
      "loudnorm": "-21.77,-6.17,4.00,-31.81,-0.25",
      "filesize": 37476531,
      "duration": 91,
      "default": true,
      "lyrics": [
        {
          "filename": "JPN - Yes! Precure 5 GoGo! - ED2 - Ganbalance de Dance ~Kibou no Relay~.ass",
          "default": true,
          "version": "Default"
        }
      ]
    }
  ],
  "data": {
    "created_at": "2017-12-13T14:28:45.000Z",
    "ignoreHooks": false,
    "kid": "1c02976f-a858-426b-8183-c71f2b72ccfc",
    "modified_at": "2022-10-08T18:43:50.603Z",
    "repository": "kara.moe",
    "songorder": 2,
    "tags": {
      "authors": [
        "79e0aa7d-da9a-4e9a-aa2b-64056a83b49b"
      ],
      "collections": [
        "c7db86a0-ff64-4044-9be4-66dd1ef1d1c1"
      ],
      "creators": [
        "f694bf43-b427-4244-9744-9d3f84fd8a31"
      ],
      "families": [
        "0377db02-3af6-43b8-9b08-c759df3d25c3"
      ],
      "genres": [
        "b84e28f9-db1e-447f-b339-7954c3592523"
      ],
      "groups": [
        "3c14c864-533c-49e6-a3cc-6969f1233775"
      ],
      "langs": [
        "4dcf9614-7914-42aa-99f4-dbce2e059133"
      ],
      "origins": [
        "938de218-5343-4865-94d3-fb33f2eaa152"
      ],
      "series": [
        "a8190d96-3710-4cb1-8650-5de334fd89c8"
      ],
      "singers": [
        "290782fb-21e7-4bd3-9a72-0c78b4695ed8",
        "aee3363f-16df-40c6-9403-8e655f3d0b28",
        "ce860bc1-c033-419a-a526-363a9ac00e86",
        "d9889aa0-884b-4ab1-97f6-9514efa13427",
        "ee4db1c8-e4de-4693-be34-feea0adf0a30"
      ],
      "songtypes": [
        "38c77c56-2b95-4040-b676-0994a8cb0597"
      ],
      "songwriters": [
        "285df0bd-134b-4b8a-95b1-7dbc278df8fa"
      ],
      "franchises": [
        "0067bd2a-ad9f-49eb-9e57-4a3ee0c9622a"
      ]
    },
    "titles": {
      "jpn": "ガンバランスdeダンス ~Kibou no Relay~",
      "qro": "Ganbalance de Dance ~Kibô no Relay~"
    },
    "titles_default_language": "qro",
    "titles_aliases": [
      "Kibou",
      "~Kibou"
    ],
    "title": "Ganbalance de Dance ~Kibô no Relay~",
    "year": 2008
  }
}