{
  "header": {
    "version": 4,
    "description": "Karaoke Mugen Karaoke Data File"
  },
  "medias": [
    {
      "version": " Masayoshi Ooishi.",
      "filename": "JPN - Kemono Friends - AUDIO OP - Youkoso Japari Park e ~ Masayoshi Ooishi Vers. ~ Cover Full Vers.mp3",
      "audiogain": -9.58,
      "loudnorm": "-7.36,1.62,1.80,-17.43,-0.33",
      "filesize": 3612294,
      "duration": 203,
      "default": true,
      "lyrics": [
        {
          "filename": "JPN - Kemono Friends - AUDIO OP - Youkoso Japari Park e ~ Masayoshi Ooishi Vers. ~ Cover Full Vers.ass",
          "default": true,
          "version": "Default"
        }
      ]
    }
  ],
  "data": {
    "created_at": "2020-12-10T11:20:19.419Z",
    "ignoreHooks": false,
    "kid": "41086d75-8d31-4db7-8dc2-3ce263511a05",
    "modified_at": "2022-10-01T09:31:54.498Z",
    "parents": [
      "bc14e546-d5e0-4ae6-a776-82b9ff7059ba"
    ],
    "repository": "kara.moe",
    "tags": {
      "authors": [
        "9cdf3b70-3550-457c-bdb9-038f3253c6ad"
      ],
      "collections": [
        "c7db86a0-ff64-4044-9be4-66dd1ef1d1c1"
      ],
      "groups": [
        "ae613721-1fbe-480d-ba6b-d6d0702b184d"
      ],
      "langs": [
        "4dcf9614-7914-42aa-99f4-dbce2e059133"
      ],
      "origins": [
        "938de218-5343-4865-94d3-fb33f2eaa152"
      ],
      "series": [
        "501b5b23-d377-444d-9d73-8a937825eba1"
      ],
      "singers": [
        "b531ddea-8318-4347-a511-cda312bf5182"
      ],
      "songtypes": [
        "42a262ae-acba-4ab5-a446-c5789c96c821",
        "f02ad9b3-0bd9-4aad-85b3-9976739ba0e4"
      ],
      "songwriters": [
        "b531ddea-8318-4347-a511-cda312bf5182"
      ],
      "versions": [
        "03e1e1d2-8641-47b7-bbcb-39a3df9ff21c",
        "c2143a7f-6970-450e-8a79-0302db9220a9"
      ],
      "franchises": [
        "501b5b23-d377-444d-9d73-8a937825eba1"
      ]
    },
    "titles": {
      "jpn": "ようこそジャパリパークへ ~  Masayoshi Ooishi Vers.",
      "qro": "Yôkoso Japari Park e ~  Masayoshi Ooishi Vers."
    },
    "titles_default_language": "qro",
    "title": "Yôkoso Japari Park e ~  Masayoshi Ooishi Vers.",
    "year": 2017,
    "titles_aliases": [
      "Youkoso"
    ]
  }
}