{
  "header": {
    "version": 4,
    "description": "Karaoke Mugen Karaoke Data File"
  },
  "medias": [
    {
      "version": "Default",
      "filename": "JPN - Hibike! Euphonium - MV - Dream Solister ~ Full Vers.mp4",
      "audiogain": -8.33,
      "loudnorm": "-8.80,0.97,3.00,-18.83,-0.92",
      "filesize": 111486157,
      "duration": 310,
      "default": true,
      "lyrics": [
        {
          "filename": "JPN - Hibike! Euphonium - MV - Dream Solister ~ Full Vers.ass",
          "default": true,
          "version": "Default"
        }
      ]
    }
  ],
  "data": {
    "comment": "Parce que Saneas n'a finalement plus voulu le timer :p",
    "created_at": "2021-07-03T13:26:56.534Z",
    "kid": "45c50e09-5e8e-4573-b4a9-eec596b7c6e3",
    "modified_at": "2022-06-04T00:16:08.276Z",
    "repository": "kara.moe",
    "songorder": null,
    "tags": {
      "authors": [
        "5bdaba57-27f8-4568-8806-76a807728766",
        "5e93f02a-bcd1-40a9-ba7a-91ada6683aea"
      ],
      "creators": [
        "d93786af-5098-49b2-9928-37edfb3d0322"
      ],
      "families": [
        "5391f9fe-638c-415f-8dc9-958e3a2c5787"
      ],
      "groups": [
        "ae613721-1fbe-480d-ba6b-d6d0702b184d"
      ],
      "langs": [
        "4dcf9614-7914-42aa-99f4-dbce2e059133"
      ],
      "misc": [
        "86705d4b-24e4-4756-9687-2b9c98bcf366"
      ],
      "origins": [
        "938de218-5343-4865-94d3-fb33f2eaa152"
      ],
      "series": [
        "7e9d2ecf-5993-4bb0-99ab-051277eaf525"
      ],
      "singers": [
        "61c5e3d4-6a0e-46b6-b622-06f5bc6d3294"
      ],
      "songtypes": [
        "7be1b15c-cff8-4b37-a649-5c90f3d569a9"
      ],
      "songwriters": [
        "3dddfa51-de14-4da0-8baf-2b40c94f3eb2",
        "7e72484d-b638-4d9a-95f2-5947c59d721b"
      ],
      "versions": [
        "c2143a7f-6970-450e-8a79-0302db9220a9"
      ],
      "collections": [
        "dbcf2c22-524d-4708-99bb-601703633927"
      ],
      "franchises": [
        "7e9d2ecf-5993-4bb0-99ab-051277eaf525"
      ]
    },
    "titles": {
      "eng": "DREAM SOLISTER"
    },
    "titles_default_language": "eng",
    "title": "Dream Solister",
    "year": 2015
  }
}