{
  "header": {
    "version": 4,
    "description": "Karaoke Mugen Karaoke Data File"
  },
  "medias": [
    {
      "version": "Default",
      "filename": "JPN - Eyeshield 21 - OP3 - Dang Dang.mp4",
      "audiogain": -7.05,
      "loudnorm": "-10.14,0.09,1.60,-20.36,-0.15",
      "filesize": 30299122,
      "duration": 82,
      "default": true,
      "lyrics": [
        {
          "filename": "JPN - Eyeshield 21 - OP3 - Dang Dang.ass",
          "default": true,
          "version": "Default",
          "subchecksum": "90867df93d4ac2bf82509d6f4efac228"
        }
      ]
    }
  ],
  "data": {
    "created_at": "2017-10-11T17:01:46.000Z",
    "kid": "ba17cef5-5dcc-487e-8ccb-8ddeac72a19f",
    "modified_at": "2021-02-25T11:16:40.562Z",
    "repository": "kara.moe",
    "songorder": 3,
    "tags": {
      "authors": [
        "5bdaba57-27f8-4568-8806-76a807728766"
      ],
      "collections": [
        "c7db86a0-ff64-4044-9be4-66dd1ef1d1c1"
      ],
      "creators": [
        "3416bd66-667d-4c3f-91f3-6e692001ef25"
      ],
      "families": [
        "0377db02-3af6-43b8-9b08-c759df3d25c3"
      ],
      "genres": [
        "a0aeef4a-6428-45ff-a6e1-468b595930c2"
      ],
      "groups": [
        "3c14c864-533c-49e6-a3cc-6969f1233775"
      ],
      "langs": [
        "4dcf9614-7914-42aa-99f4-dbce2e059133"
      ],
      "origins": [
        "938de218-5343-4865-94d3-fb33f2eaa152"
      ],
      "series": [
        "1593e2bc-a870-418c-ab0d-cff080034487"
      ],
      "singers": [
        "385bd804-0dab-4f28-a39b-be001367ac60"
      ],
      "songtypes": [
        "f02ad9b3-0bd9-4aad-85b3-9976739ba0e4"
      ],
      "songwriters": [
        "385bd804-0dab-4f28-a39b-be001367ac60",
        "c3a80947-43a4-43fe-b177-5e131100b8c0"
      ]
    },
    "title": "Dang Dang",
    "titles": {
      "eng": "Dang Dang"
    },
    "year": 2005,
    "titles_default_language": "eng"
  }
}