{
  "header": {
    "version": 4,
    "description": "Karaoke Mugen Karaoke Data File"
  },
  "medias": [
    {
      "version": "Default",
      "filename": "JPN - Strawberry Panic - MV - Himitsu Dolls.avi",
      "audiogain": -7.78,
      "loudnorm": "-10.32,-0.63,3.30,-20.41,-0.32",
      "filesize": 17889724,
      "duration": 232,
      "default": true,
      "lyrics": [
        {
          "filename": "JPN - Strawberry Panic - MV - Himitsu Dolls.ass",
          "default": true,
          "version": "Default"
        }
      ]
    }
  ],
  "data": {
    "created_at": "2017-10-11T17:01:54.000Z",
    "kid": "27132c13-6ca8-405a-8ece-5049c398f56d",
    "modified_at": "2022-06-04T00:14:59.010Z",
    "parents": [
      "ee700bde-93a6-4fb3-b814-b9435491b4f1"
    ],
    "repository": "kara.moe",
    "songorder": null,
    "tags": {
      "authors": [
        "5bdaba57-27f8-4568-8806-76a807728766"
      ],
      "creators": [
        "b2805292-730e-473a-96f0-fd8e7ffd1fd7"
      ],
      "families": [
        "5391f9fe-638c-415f-8dc9-958e3a2c5787"
      ],
      "groups": [
        "3c14c864-533c-49e6-a3cc-6969f1233775"
      ],
      "langs": [
        "4dcf9614-7914-42aa-99f4-dbce2e059133"
      ],
      "series": [
        "8161c557-8aee-4c8a-ae51-e65d118926df"
      ],
      "singers": [
        "2cc70c32-b7fb-41c4-a942-df0b87399d90",
        "97870a7c-c04e-4fe5-83a4-542882d2c66d"
      ],
      "songtypes": [
        "7be1b15c-cff8-4b37-a649-5c90f3d569a9"
      ],
      "songwriters": [
        "e3aca029-c16e-4507-b0b8-04db599cc83c",
        "f41e7218-6c19-4e19-9b5f-4612dcd58243"
      ],
      "collections": [
        "dbcf2c22-524d-4708-99bb-601703633927"
      ]
    },
    "titles": {
      "qro": "Himitsu Dolls",
      "jpn": "秘密ドールズ"
    },
    "titles_default_language": "qro",
    "title": "Himitsu Dolls",
    "year": 2006
  }
}