{
  "header": {
    "version": 4,
    "description": "Karaoke Mugen Karaoke Data File"
  },
  "medias": [
    {
      "version": "Default",
      "filename": "JPN - D.Gray-man - ED7 - Regret.mp4",
      "audiogain": 4.33,
      "loudnorm": "-21.42,-6.22,6.20,-31.53,-1.29",
      "filesize": 6468975,
      "duration": 92,
      "default": true,
      "lyrics": [
        {
          "filename": "JPN - D.Gray-man - ED7 - Regret.ass",
          "default": true,
          "version": "Default",
          "subchecksum": "c332f4245e118b7cc9f03ebb0f18454e"
        }
      ]
    }
  ],
  "data": {
    "created_at": "2017-10-11T17:03:13.000Z",
    "kid": "065c4352-19c3-41de-9934-cf0f0e8b1fac",
    "modified_at": "2021-02-25T11:05:48.182Z",
    "repository": "kara.moe",
    "songorder": 7,
    "tags": {
      "authors": [
        "8c22c899-b3ed-42da-a548-ce00f950798b"
      ],
      "collections": [
        "c7db86a0-ff64-4044-9be4-66dd1ef1d1c1"
      ],
      "creators": [
        "53e900ec-a1ff-4c95-8b2d-a63995c2936f"
      ],
      "families": [
        "0377db02-3af6-43b8-9b08-c759df3d25c3"
      ],
      "genres": [
        "a0aeef4a-6428-45ff-a6e1-468b595930c2"
      ],
      "groups": [
        "3c14c864-533c-49e6-a3cc-6969f1233775",
        "8c22c899-b3ed-42da-a548-ce00f950798b"
      ],
      "langs": [
        "4dcf9614-7914-42aa-99f4-dbce2e059133"
      ],
      "origins": [
        "938de218-5343-4865-94d3-fb33f2eaa152"
      ],
      "series": [
        "8024310d-f718-4b8a-bae9-da27e3ddb950"
      ],
      "singers": [
        "81925910-d9ed-42f8-b6dc-679dc8afa736"
      ],
      "songtypes": [
        "38c77c56-2b95-4040-b676-0994a8cb0597"
      ],
      "songwriters": [
        "81925910-d9ed-42f8-b6dc-679dc8afa736"
      ],
      "franchises": [
        "8024310d-f718-4b8a-bae9-da27e3ddb950"
      ]
    },
    "title": "Regret",
    "titles": {
      "eng": "regret"
    },
    "year": 2006,
    "titles_default_language": "eng"
  }
}