{
  "header": {
    "version": 4,
    "description": "Karaoke Mugen Karaoke Data File"
  },
  "medias": [
    {
      "version": "Default",
      "filename": "JPN - Rurouni Kenshin (film) - MOVIE AMV - The Beginning.mp4",
      "audiogain": 2.14,
      "loudnorm": "-18.79,-6.18,4.70,-28.86,-0.65",
      "filesize": 86930166,
      "duration": 292,
      "default": true,
      "lyrics": [
        {
          "filename": "JPN - Rurouni Kenshin (film) - MOVIE AMV - The Beginning.ass",
          "default": true,
          "version": "Default",
          "subchecksum": "6321cca196e4a7c671d75610d24246db"
        }
      ]
    }
  ],
  "data": {
    "created_at": "2020-07-07T21:43:22.662Z",
    "kid": "bddcb4d6-13a9-4a14-84b6-d12ff0f57147",
    "modified_at": "2021-02-25T12:53:38.449Z",
    "repository": "kara.moe",
    "tags": {
      "authors": [
        "1d7745a8-73ea-40bb-ad99-826af98f6e41"
      ],
      "collections": [
        "c7db86a0-ff64-4044-9be4-66dd1ef1d1c1"
      ],
      "creators": [
        "4111a557-4c4a-4a2d-880a-2a850000dbbd",
        "ce01d9ea-dd98-4bd4-b333-7a37414646b5"
      ],
      "families": [
        "5391f9fe-638c-415f-8dc9-958e3a2c5787"
      ],
      "groups": [
        "ae613721-1fbe-480d-ba6b-d6d0702b184d"
      ],
      "langs": [
        "4dcf9614-7914-42aa-99f4-dbce2e059133",
        "de5eda1c-5fb3-46a6-9606-d4554fc5a1d6"
      ],
      "origins": [
        "c8ca9dea-d8b4-48fe-8427-d911653232e9"
      ],
      "series": [
        "cdc57566-fc4a-484b-8010-330c97be72da"
      ],
      "singers": [
        "57f7774c-51be-4b54-abce-d69eac0feb74"
      ],
      "songtypes": [
        "a6c79ce5-89ee-4d50-afe8-3abd7317f6c2"
      ],
      "songwriters": [
        "57f7774c-51be-4b54-abce-d69eac0feb74"
      ],
      "franchises": [
        "49303ca9-7e49-459b-b115-6f3e067d0c11"
      ]
    },
    "title": "The Beginning",
    "titles": {
      "eng": "The Beginning"
    },
    "year": 2012,
    "titles_default_language": "eng"
  }
}