{
  "header": {
    "version": 4,
    "description": "Karaoke Mugen Karaoke Data File"
  },
  "medias": [
    {
      "version": "Default",
      "filename": "JPN - Starmyu 3 - IN - Warera, Ayanagi Gakuen Kaoukai ~Next-Generation~.mp4",
      "audiogain": -1.29,
      "loudnorm": "-16.54,-4.97,7.90,-26.85,-0.70",
      "filesize": 29889038,
      "duration": 100,
      "default": true,
      "lyrics": [
        {
          "filename": "JPN - Starmyu 3 - IN - Warera, Ayanagi Gakuen Kaoukai ~Next-Generation~.ass",
          "default": true,
          "version": "Default"
        }
      ]
    }
  ],
  "data": {
    "created_at": "2022-08-16T19:46:06.816Z",
    "ignoreHooks": false,
    "kid": "7457af00-f7c6-4456-858e-faf1cce1af25",
    "modified_at": "2022-10-03T18:35:32.531Z",
    "parents": [
      "6d46ee42-58c6-449a-9574-4f4cc1533f97"
    ],
    "repository": "kara.moe",
    "tags": {
      "authors": [
        "da677ad5-b5dd-4ab9-a1fe-5461e36338a2"
      ],
      "collections": [
        "c7db86a0-ff64-4044-9be4-66dd1ef1d1c1"
      ],
      "creators": [
        "503c656c-6c92-42c5-b580-6fe448668cdb"
      ],
      "families": [
        "0377db02-3af6-43b8-9b08-c759df3d25c3"
      ],
      "genres": [
        "caa86df2-0d59-474b-885c-f240a9e891b0"
      ],
      "groups": [
        "8e209ae4-4381-438f-89dc-1b21752027d2"
      ],
      "langs": [
        "4dcf9614-7914-42aa-99f4-dbce2e059133"
      ],
      "origins": [
        "938de218-5343-4865-94d3-fb33f2eaa152"
      ],
      "series": [
        "13a90e22-7005-4481-9bc0-1eef25080947"
      ],
      "singers": [
        "52674021-aaa2-462e-bfc9-eccd262b0bea",
        "526ce133-ad31-4dbe-9728-b34da460aefa",
        "65441047-58cf-4275-9a2e-c1a67ebadd1f",
        "d72701c8-4aa0-4619-a4ea-aea77d37422c",
        "ecca47d9-4c65-48bb-bcbc-9876fe2ea450"
      ],
      "singergroups": [
        "b871083d-7b4a-48aa-8265-728a97f5d3ef"
      ],
      "songtypes": [
        "5e5250d9-351a-4a82-98eb-55db50ad8962"
      ],
      "songwriters": [
        "45157260-7298-4a03-855a-b59ee8b5cfe9"
      ],
      "franchises": [
        "f71b042c-1ba2-41f4-ba6f-5027a9c4ffe2"
      ]
    },
    "titles": {
      "jpn": "我ら, 綾薙学園華桜会~Next-Generation~",
      "qro": "Warera, Ayanagi Gakuen Kaôkai ~Next-Generation~"
    },
    "titles_default_language": "qro",
    "titles_aliases": [
      "Kaou-kai",
      "Kaoukai"
    ],
    "title": "Warera, Ayanagi Gakuen Kaôkai ~Next-Generation~",
    "year": 2022
  }
}