{
  "header": {
    "version": 4,
    "description": "Karaoke Mugen Karaoke Data File"
  },
  "medias": [
    {
      "version": "Default",
      "filename": "JPN - Wake Up Girls! - OP1 - TACHIAGARE.mp4",
      "audiogain": -1.99,
      "loudnorm": "-16.04,-5.74,2.60,-26.10,-0.37",
      "filesize": 22904077,
      "duration": 90,
      "default": true,
      "lyrics": [
        {
          "filename": "JPN - Wake Up Girls! - OP1 - TACHIAGARE.ass",
          "default": true,
          "version": "Default",
          "subchecksum": "71a81933bee035be3069a306429078d4"
        }
      ]
    }
  ],
  "data": {
    "created_at": "2017-10-11T17:01:16.000Z",
    "kid": "4369e093-543a-48bf-82b4-b26295ae52df",
    "modified_at": "2021-02-25T13:36:20.460Z",
    "repository": "kara.moe",
    "songorder": 1,
    "tags": {
      "authors": [
        "5bdaba57-27f8-4568-8806-76a807728766"
      ],
      "collections": [
        "c7db86a0-ff64-4044-9be4-66dd1ef1d1c1"
      ],
      "creators": [
        "5f071b2c-440f-42ce-9680-6b9067a22009",
        "cfdb2d1e-499d-47a1-b9f8-070153b5048e"
      ],
      "families": [
        "0377db02-3af6-43b8-9b08-c759df3d25c3"
      ],
      "genres": [
        "caa86df2-0d59-474b-885c-f240a9e891b0"
      ],
      "groups": [
        "ae613721-1fbe-480d-ba6b-d6d0702b184d"
      ],
      "langs": [
        "4dcf9614-7914-42aa-99f4-dbce2e059133"
      ],
      "origins": [
        "938de218-5343-4865-94d3-fb33f2eaa152"
      ],
      "series": [
        "dfae4ecd-cf57-4e25-be2a-3fb62b9cf15d"
      ],
      "singers": [
        "994d1d73-6652-4a27-ae41-bece9034dd13"
      ],
      "songtypes": [
        "f02ad9b3-0bd9-4aad-85b3-9976739ba0e4"
      ],
      "songwriters": [
        "04e90585-ade8-4499-895e-9456ab7bf19b",
        "d7658a75-7945-4f08-8233-02f38dc385ba"
      ]
    },
    "title": "TACHIAGARE",
    "titles": {
      "qro": "TACHIAGARE",
      "jpn": "タチアガレ!"
    },
    "year": 2014,
    "titles_default_language": "qro"
  }
}