{
  "header": {
    "version": 4,
    "description": "Karaoke Mugen Karaoke Data File"
  },
  "medias": [
    {
      "version": "Default",
      "filename": "JPN - Koukyoushihen Eureka Seven Hi-Evolution 1 - MV - Glory Days.mp4",
      "audiogain": -10.03,
      "loudnorm": "-6.51,2.32,4.70,-16.61,-0.20",
      "filesize": 69933612,
      "duration": 295,
      "default": true,
      "lyrics": [
        {
          "filename": "JPN - Koukyoushihen Eureka Seven Hi-Evolution 1 - MV - Glory Days.ass",
          "default": true,
          "version": "Default"
        }
      ]
    }
  ],
  "data": {
    "created_at": "2020-02-03T21:24:20.949Z",
    "kid": "2d428d80-8285-47bd-8474-463399b21fe9",
    "modified_at": "2022-06-04T00:21:58.063Z",
    "repository": "kara.moe",
    "songorder": null,
    "tags": {
      "authors": [
        "269d1464-84f9-44da-9064-1d074bafb602"
      ],
      "creators": [
        "6697d31b-7f60-4d11-b237-8eb72740fd8a"
      ],
      "families": [
        "5391f9fe-638c-415f-8dc9-958e3a2c5787"
      ],
      "groups": [
        "2b4e9972-5e17-481b-99f5-d0787c0ada56",
        "ae613721-1fbe-480d-ba6b-d6d0702b184d"
      ],
      "langs": [
        "4dcf9614-7914-42aa-99f4-dbce2e059133"
      ],
      "series": [
        "ba1b243a-a3c6-45d4-a2cf-b617bfaf3005"
      ],
      "singers": [
        "ae0b48ee-80d4-4fec-b0ea-e6847f2d6c09"
      ],
      "songtypes": [
        "7be1b15c-cff8-4b37-a649-5c90f3d569a9"
      ],
      "songwriters": [
        "ae0b48ee-80d4-4fec-b0ea-e6847f2d6c09"
      ],
      "collections": [
        "dbcf2c22-524d-4708-99bb-601703633927"
      ],
      "franchises": [
        "ff285d6c-0ae5-4cc6-8226-fbf5effb2277"
      ]
    },
    "titles": {
      "eng": "Glory Days"
    },
    "titles_default_language": "eng",
    "title": "Glory Days",
    "year": 2017
  }
}