{
  "header": {
    "version": 4,
    "description": "Karaoke Mugen Karaoke Data File"
  },
  "medias": [
    {
      "version": "Default",
      "filename": "JPN - Luna Kaguya - MV - Dance With Cinderella!.mp4",
      "audiogain": 0.61,
      "loudnorm": "-17.53,-8.64,3.50,-27.59,-0.62",
      "filesize": 95662111,
      "duration": 186,
      "default": true,
      "lyrics": [
        {
          "filename": "JPN - Luna Kaguya - MV - Dance With Cinderella!.ass",
          "default": true,
          "version": "Default",
          "subchecksum": "d6057bd260fea4f9cf447e96594bc995"
        }
      ]
    }
  ],
  "data": {
    "created_at": "2020-10-24T23:52:09.164Z",
    "kid": "e5b917d3-9cb6-4bdd-8f92-0242761fec28",
    "modified_at": "2021-02-25T12:15:24.575Z",
    "repository": "kara.moe",
    "tags": {
      "authors": [
        "1631228b-9125-497a-aafc-66f920a44a02"
      ],
      "collections": [
        "c7db86a0-ff64-4044-9be4-66dd1ef1d1c1"
      ],
      "creators": [
        "771735da-6b67-403d-8d5c-2761a0665168"
      ],
      "families": [
        "0377db02-3af6-43b8-9b08-c759df3d25c3"
      ],
      "groups": [
        "8c22c899-b3ed-42da-a548-ce00f950798b",
        "ae613721-1fbe-480d-ba6b-d6d0702b184d"
      ],
      "langs": [
        "4dcf9614-7914-42aa-99f4-dbce2e059133"
      ],
      "origins": [
        "5106d71b-a78e-4d19-a16d-f8fb6719538a"
      ],
      "singers": [
        "09ba0653-92fa-40fa-83fc-027402b3aeba"
      ],
      "songtypes": [
        "7be1b15c-cff8-4b37-a649-5c90f3d569a9"
      ],
      "songwriters": [
        "09ba0653-92fa-40fa-83fc-027402b3aeba",
        "6b0ccb2d-7660-4330-b02d-483317214f2c"
      ]
    },
    "title": "Dance With Cinderella!",
    "titles": {
      "eng": "Dance With Cinderella!"
    },
    "year": 2019,
    "titles_default_language": "eng"
  }
}