{
  "header": {
    "version": 4,
    "description": "Karaoke Mugen Karaoke Data File"
  },
  "medias": [
    {
      "version": "Default",
      "filename": "JPN - Kerakera - MV - Kerakera Janken.mp4",
      "audiogain": -9.37,
      "loudnorm": "-8.87,0.05,3.40,-19.00,-0.20",
      "filesize": 87855474,
      "duration": 178,
      "default": true,
      "lyrics": [
        {
          "filename": "JPN - Kerakera - MV - Kerakera Janken.ass",
          "default": true,
          "version": "Default"
        }
      ]
    }
  ],
  "data": {
    "created_at": "2019-09-05T20:36:39.000Z",
    "kid": "d81e7ba6-36c3-4374-84e2-7f34194d5019",
    "modified_at": "2022-06-04T00:15:29.180Z",
    "repository": "kara.moe",
    "songorder": null,
    "tags": {
      "authors": [
        "57e2d8c3-b3f3-4b82-88a4-2491946b24d9"
      ],
      "creators": [
        "1f1b05bf-c184-4940-a123-50786df72617"
      ],
      "families": [
        "5391f9fe-638c-415f-8dc9-958e3a2c5787"
      ],
      "groups": [
        "2b4e9972-5e17-481b-99f5-d0787c0ada56",
        "ae613721-1fbe-480d-ba6b-d6d0702b184d"
      ],
      "langs": [
        "4dcf9614-7914-42aa-99f4-dbce2e059133"
      ],
      "singers": [
        "ce89607c-1650-4090-854e-1ae743f2a42f"
      ],
      "songtypes": [
        "7be1b15c-cff8-4b37-a649-5c90f3d569a9"
      ],
      "songwriters": [
        "ce89607c-1650-4090-854e-1ae743f2a42f"
      ],
      "collections": [
        "dbcf2c22-524d-4708-99bb-601703633927"
      ]
    },
    "titles": {
      "qro": "Kerakera Janken",
      "jpn": "ケラケラじゃんけん"
    },
    "titles_default_language": "qro",
    "title": "Kerakera Janken",
    "year": 2014
  }
}