{
  "header": {
    "version": 4,
    "description": "Karaoke Mugen Karaoke Data File"
  },
  "medias": [
    {
      "version": "Default",
      "filename": "JPN - Benriya Saitou-san, Isekai ni Iku - ED - Hidamari no Saido.mp4",
      "audiogain": -0.14,
      "loudnorm": "-17.08,-3.08,6.20,-27.19,0.16",
      "filesize": 25822872,
      "duration": 90,
      "default": true,
      "lyrics": [
        {
          "filename": "JPN - Benriya Saitou-san, Isekai ni Iku - ED - Hidamari no Saido.ass",
          "default": true,
          "version": "Default"
        }
      ]
    }
  ],
  "data": {
    "created_at": "2023-04-14T22:46:55.038Z",
    "ignoreHooks": false,
    "kid": "487b23de-92da-48a2-9318-ab943066638c",
    "modified_at": "2023-04-14T22:47:13.474Z",
    "repository": "kara.moe",
    "tags": {
      "authors": [
        "1631228b-9125-497a-aafc-66f920a44a02"
      ],
      "collections": [
        "c7db86a0-ff64-4044-9be4-66dd1ef1d1c1"
      ],
      "creators": [
        "c5b27231-6ac3-4a71-9d0c-06aa0282f55f"
      ],
      "families": [
        "0377db02-3af6-43b8-9b08-c759df3d25c3"
      ],
      "groups": [
        "8c22c899-b3ed-42da-a548-ce00f950798b",
        "8e209ae4-4381-438f-89dc-1b21752027d2"
      ],
      "langs": [
        "4dcf9614-7914-42aa-99f4-dbce2e059133"
      ],
      "origins": [
        "938de218-5343-4865-94d3-fb33f2eaa152"
      ],
      "series": [
        "e51f8b80-9b59-4ab0-9701-3c37a289dfc8"
      ],
      "singers": [
        "dfaa8545-457d-4148-bbe5-9acee9749f4f"
      ],
      "songtypes": [
        "38c77c56-2b95-4040-b676-0994a8cb0597"
      ],
      "songwriters": [
        "a0f5685d-0d71-436a-a9e2-a48fb68717eb"
      ]
    },
    "titles": {
      "jpn": "ひだまりの彩度",
      "qro": "Hidamari no Saido"
    },
    "titles_default_language": "qro",
    "year": 2023
  }
}