{
  "header": {
    "version": 4,
    "description": "Karaoke Mugen Karaoke Data File"
  },
  "medias": [
    {
      "version": "Default",
      "filename": "JPN - Hololive Indonesia Generation 2 - MV - Ochame Kinou ~ Cover Vers.mp4",
      "audiogain": -2.88,
      "loudnorm": "-13.82,-2.88,1.60,-23.85,-0.17",
      "filesize": 127368483,
      "duration": 265,
      "default": true,
      "lyrics": [
        {
          "filename": "JPN - Hololive Indonesia Generation 2 - MV - Ochame Kinou ~ Cover Vers.ass",
          "default": true,
          "version": "Default"
        }
      ]
    }
  ],
  "data": {
    "created_at": "2021-08-17T19:38:21.953Z",
    "ignoreHooks": false,
    "kid": "bdc1bbcb-35dc-4fb8-bbd3-1e19f3cd853f",
    "modified_at": "2022-09-01T19:35:33.912Z",
    "parents": [
      "a652d03a-84b9-41a1-afb3-7360e07f94e3"
    ],
    "repository": "kara.moe",
    "tags": {
      "authors": [
        "4b50fcec-273e-4cc5-83f2-b156c2300f7f"
      ],
      "collections": [
        "c7db86a0-ff64-4044-9be4-66dd1ef1d1c1"
      ],
      "creators": [
        "0263d413-17bb-4cee-a311-6dd896eda1c9"
      ],
      "families": [
        "0377db02-3af6-43b8-9b08-c759df3d25c3"
      ],
      "groups": [
        "8e209ae4-4381-438f-89dc-1b21752027d2"
      ],
      "langs": [
        "4dcf9614-7914-42aa-99f4-dbce2e059133"
      ],
      "origins": [
        "5106d71b-a78e-4d19-a16d-f8fb6719538a"
      ],
      "singers": [
        "0c70150b-cccd-4f24-b684-041f1163bede",
        "3ea8c428-f5c9-44f2-89e9-ee813f154cb4",
        "6cc434e0-1838-4fe1-9b2b-02252afe3c19"
      ],
      "singergroups": [
        "368b11d0-f44b-41e0-acde-95017f817b95"
      ],
      "songtypes": [
        "7be1b15c-cff8-4b37-a649-5c90f3d569a9"
      ],
      "songwriters": [
        "8d8bb14c-a310-4bd4-bc88-1b3121993160",
        "f342fec5-f79e-4b4c-9c06-76220c3e943e"
      ],
      "versions": [
        "03e1e1d2-8641-47b7-bbcb-39a3df9ff21c"
      ]
    },
    "titles": {
      "qro": "Ochame Kinô ~ Hololive Indonesia Generation 2 Vers.",
      "jpn": "おちゃめ機能 ~ Hololive Indonesia Generation 2 Vers."
    },
    "titles_default_language": "qro",
    "titles_aliases": [
      "吹っ切れた",
      "Fukkireta",
      "kinou",
      "Kinou"
    ],
    "title": "Ochame Kinô",
    "year": 2021
  }
}