{
  "header": {
    "version": 4,
    "description": "Karaoke Mugen Karaoke Data File"
  },
  "medias": [
    {
      "version": "Default",
      "filename": "JPN - Tochiotome 25 - MV - Ichigo Hakase ~ Full Vers.mp4",
      "audiogain": -7.27,
      "loudnorm": "-9.93,-1.73,3.00,-19.97,-0.84",
      "filesize": 105765998,
      "duration": 247,
      "default": true,
      "lyrics": [
        {
          "filename": "JPN - Tochiotome 25 - MV - Ichigo Hakase ~ Full Vers.ass",
          "default": true,
          "version": "Default"
        }
      ]
    }
  ],
  "data": {
    "comment": "https://www.youtube.com/watch?v=mqzjO0b1Zhc",
    "created_at": "2023-05-12T11:20:28.233Z",
    "ignoreHooks": false,
    "kid": "568e451b-9297-455f-a2aa-d18beb23d005",
    "modified_at": "2023-05-12T11:26:19.603Z",
    "repository": "kara.moe",
    "tags": {
      "authors": [
        "f5fd83aa-5022-41ab-82ec-4b9dc38ea653"
      ],
      "collections": [
        "dbcf2c22-524d-4708-99bb-601703633927"
      ],
      "creators": [
        "0f416f19-67b2-4e00-b4fe-7dfcb0a01374"
      ],
      "families": [
        "5391f9fe-638c-415f-8dc9-958e3a2c5787"
      ],
      "genres": [
        "caa86df2-0d59-474b-885c-f240a9e891b0"
      ],
      "groups": [
        "ae613721-1fbe-480d-ba6b-d6d0702b184d"
      ],
      "langs": [
        "4dcf9614-7914-42aa-99f4-dbce2e059133"
      ],
      "singergroups": [
        "568428ec-3011-4ff8-ae76-307a49b09edf"
      ],
      "songtypes": [
        "7be1b15c-cff8-4b37-a649-5c90f3d569a9"
      ],
      "songwriters": [
        "b2e8b682-fb79-4418-a5c9-471dd3e433de"
      ],
      "versions": [
        "c2143a7f-6970-450e-8a79-0302db9220a9"
      ]
    },
    "titles": {
      "jpn": "いちごハカセ",
      "qro": "Ichigo Hakase"
    },
    "titles_default_language": "qro",
    "year": 2013
  }
}