{
  "header": {
    "version": 4,
    "description": "Karaoke Mugen Karaoke Data File"
  },
  "medias": [
    {
      "version": "Default",
      "filename": "JPN - MILGRAM - MV - MeMe.mp4",
      "audiogain": -6.15,
      "loudnorm": "-10.68,-0.58,4.30,-20.77,-0.09",
      "filesize": 66652112,
      "duration": 227,
      "default": true,
      "lyrics": [
        {
          "filename": "JPN - MILGRAM - MV - MeMe.ass",
          "default": true,
          "version": "Default"
        }
      ]
    }
  ],
  "data": {
    "created_at": "2021-12-08T21:46:39.654Z",
    "kid": "f11e6111-c7c4-44d2-9037-cc627ceccffe",
    "modified_at": "2021-12-08T21:52:27.677Z",
    "repository": "kara.moe",
    "tags": {
      "authors": [
        "fb28c6d3-a81e-40c0-9a4c-e3268c60a64b"
      ],
      "collections": [
        "c7db86a0-ff64-4044-9be4-66dd1ef1d1c1"
      ],
      "creators": [
        "f963181a-1214-47f8-b6f9-1705cbc33779"
      ],
      "families": [
        "0377db02-3af6-43b8-9b08-c759df3d25c3"
      ],
      "groups": [
        "8e209ae4-4381-438f-89dc-1b21752027d2"
      ],
      "langs": [
        "4dcf9614-7914-42aa-99f4-dbce2e059133"
      ],
      "series": [
        "c0e3120a-d593-4051-87dd-0bc28a803a5f"
      ],
      "singers": [
        "f2917fb2-23ae-4fbd-bedc-bc9b77f11603"
      ],
      "songtypes": [
        "7be1b15c-cff8-4b37-a649-5c90f3d569a9"
      ],
      "songwriters": [
        "48c8a778-756b-4ca8-80bc-397fb06ffc7d",
        "6d9eaa90-048f-41d5-a264-8d73df69cc22"
      ]
    },
    "titles": {
      "eng": "MeMe"
    },
    "title": "MeMe",
    "year": 2021,
    "titles_default_language": "eng"
  }
}