{
  "header": {
    "version": 4,
    "description": "Karaoke Mugen Karaoke Data File"
  },
  "medias": [
    {
      "version": "Default",
      "filename": "JPN - angela - MV - merry-go-round.mp4",
      "audiogain": -1.47,
      "loudnorm": "-17.19,-0.23,5.40,-27.27,-0.47",
      "filesize": 127741925,
      "duration": 241,
      "default": true,
      "lyrics": [
        {
          "filename": "JPN - angela - MV - merry-go-round.ass",
          "default": true,
          "version": "Default"
        }
      ]
    }
  ],
  "data": {
    "created_at": "2019-10-27T22:39:53.000Z",
    "kid": "4c00c16b-e407-4c7d-83f9-4ebf95fc0d83",
    "modified_at": "2022-06-04T00:16:37.096Z",
    "repository": "kara.moe",
    "songorder": null,
    "tags": {
      "authors": [
        "1db1738f-acdc-42fc-aec3-60f4bddf660d"
      ],
      "creators": [
        "d2a29c19-019f-4a3d-86ad-2dae9e41a4b1"
      ],
      "families": [
        "5391f9fe-638c-415f-8dc9-958e3a2c5787"
      ],
      "groups": [
        "3c14c864-533c-49e6-a3cc-6969f1233775"
      ],
      "langs": [
        "4dcf9614-7914-42aa-99f4-dbce2e059133"
      ],
      "singers": [
        "78d91182-ac66-49fb-9561-1d330667d6c4"
      ],
      "songtypes": [
        "7be1b15c-cff8-4b37-a649-5c90f3d569a9"
      ],
      "songwriters": [
        "0b54e69d-4691-4415-be0e-0dd6fd5d4e1a",
        "84a20b00-fd06-43fd-b78e-9c1a2b7b7795"
      ],
      "collections": [
        "dbcf2c22-524d-4708-99bb-601703633927"
      ]
    },
    "titles": {
      "eng": "merry-go-round"
    },
    "titles_default_language": "eng",
    "title": "merry-go-round",
    "year": 2003
  }
}