{
  "header": {
    "version": 4,
    "description": "Karaoke Mugen Karaoke Data File"
  },
  "medias": [
    {
      "version": "Default",
      "filename": "JPN - Shikabane Hime Aka - ED - My story.mp4",
      "audiogain": -5.56,
      "loudnorm": "-11.55,-0.45,4.60,-21.71,-1.40",
      "filesize": 17734419,
      "duration": 90,
      "default": true,
      "lyrics": [
        {
          "filename": "JPN - Shikabane Hime Aka - ED - My story.ass",
          "default": true,
          "version": "Default"
        }
      ]
    }
  ],
  "data": {
    "created_at": "2017-10-11T17:01:59.000Z",
    "ignoreHooks": false,
    "kid": "ec73086b-ca7a-4b0a-b8b2-b2ba23e8f5d7",
    "modified_at": "2022-11-18T12:09:13.862Z",
    "repository": "kara.moe",
    "tags": {
      "authors": [
        "5bdaba57-27f8-4568-8806-76a807728766"
      ],
      "collections": [
        "c7db86a0-ff64-4044-9be4-66dd1ef1d1c1"
      ],
      "creators": [
        "5c15c11c-e09d-4a4f-ab3d-143d69439fc2",
        "dd729cab-2a78-4282-a402-b242e927a0a5"
      ],
      "families": [
        "0377db02-3af6-43b8-9b08-c759df3d25c3"
      ],
      "groups": [
        "3c14c864-533c-49e6-a3cc-6969f1233775"
      ],
      "langs": [
        "4dcf9614-7914-42aa-99f4-dbce2e059133"
      ],
      "origins": [
        "938de218-5343-4865-94d3-fb33f2eaa152"
      ],
      "series": [
        "769c1e22-3320-4b8e-b380-07a19b824811"
      ],
      "singers": [
        "78d91182-ac66-49fb-9561-1d330667d6c4"
      ],
      "songtypes": [
        "38c77c56-2b95-4040-b676-0994a8cb0597"
      ],
      "songwriters": [
        "0b54e69d-4691-4415-be0e-0dd6fd5d4e1a",
        "84a20b00-fd06-43fd-b78e-9c1a2b7b7795"
      ],
      "franchises": [
        "147b6f5c-9c94-4972-8631-ad7eaa19436b"
      ]
    },
    "titles": {
      "eng": "My story"
    },
    "titles_default_language": "eng",
    "year": 2008
  }
}