{
  "header": {
    "version": 4,
    "description": "Karaoke Mugen Karaoke Data File"
  },
  "medias": [
    {
      "version": "Default",
      "filename": "JPN - Love Live! School Idol Project - LIVE - Aki no Anata no Sora Tooku ~ Full Vers.mp4",
      "audiogain": -7.87,
      "loudnorm": "-8.65,1.67,2.40,-18.73,-0.40",
      "filesize": 162354555,
      "duration": 218,
      "default": true,
      "lyrics": [
        {
          "filename": "JPN - Love Live! School Idol Project - LIVE - Aki no Anata no Sora Tooku ~ Full Vers.ass",
          "default": true,
          "version": "Default"
        }
      ]
    }
  ],
  "data": {
    "created_at": "2018-06-18T19:40:28.000Z",
    "ignoreHooks": false,
    "kid": "2fab03c2-97a2-44ba-b5e5-495f61e9a41e",
    "modified_at": "2022-12-22T16:08:51.252Z",
    "repository": "kara.moe",
    "tags": {
      "authors": [
        "b2b79a0a-b70d-4b6c-8fb9-7ce0968db062"
      ],
      "collections": [
        "dbcf2c22-524d-4708-99bb-601703633927"
      ],
      "creators": [
        "b2805292-730e-473a-96f0-fd8e7ffd1fd7"
      ],
      "families": [
        "5391f9fe-638c-415f-8dc9-958e3a2c5787"
      ],
      "genres": [
        "caa86df2-0d59-474b-885c-f240a9e891b0"
      ],
      "groups": [
        "8c22c899-b3ed-42da-a548-ce00f950798b",
        "ae613721-1fbe-480d-ba6b-d6d0702b184d"
      ],
      "langs": [
        "4dcf9614-7914-42aa-99f4-dbce2e059133"
      ],
      "series": [
        "dd93f278-a55d-4040-aaab-d0c50b58b087"
      ],
      "singers": [
        "4fc68333-b1f6-44ce-b2be-ac4866b78932",
        "5c779d94-5ed1-4326-9dee-41b3d9f7331c",
        "b051c80e-61d1-4d04-956b-c6e8f84cd828"
      ],
      "singergroups": [
        "2e6e9d07-4386-4453-bccf-fbc1ede543ab"
      ],
      "songtypes": [
        "a0167949-580c-4de3-bf13-497e462e02f3"
      ],
      "songwriters": [
        "f41e7218-6c19-4e19-9b5f-4612dcd58243",
        "fdba8790-620c-468d-a6b5-ce18235bb43d"
      ],
      "versions": [
        "c2143a7f-6970-450e-8a79-0302db9220a9"
      ],
      "franchises": [
        "fd5d066e-e85a-4eea-8688-2979a887450a"
      ]
    },
    "titles": {
      "jpn": "秋のあなたの空遠く",
      "qro": "Aki no Anata no Sora Tooku"
    },
    "titles_default_language": "qro",
    "year": 2014
  }
}