{
  "header": {
    "version": 4,
    "description": "Karaoke Mugen Karaoke Data File"
  },
  "medias": [
    {
      "version": "Default",
      "filename": "JPN - Outbreak Company - ED - Watashi no Housekibako.mp4",
      "audiogain": 2.52,
      "loudnorm": "-20.24,-6.94,5.30,-30.36,-1.34",
      "filesize": 41990871,
      "duration": 91,
      "default": true,
      "lyrics": [
        {
          "filename": "JPN - Outbreak Company - ED - Watashi no Housekibako.ass",
          "default": true,
          "version": "Default",
          "subchecksum": "a9792c6620b478ef8ec9a4716373f23e"
        }
      ]
    }
  ],
  "data": {
    "created_at": "2017-10-11T17:00:57.000Z",
    "kid": "07e5a943-876e-4e4e-b201-f2e606078ae1",
    "modified_at": "2021-02-25T12:43:15.793Z",
    "repository": "kara.moe",
    "tags": {
      "authors": [
        "5bdaba57-27f8-4568-8806-76a807728766"
      ],
      "collections": [
        "c7db86a0-ff64-4044-9be4-66dd1ef1d1c1"
      ],
      "creators": [
        "5c15c11c-e09d-4a4f-ab3d-143d69439fc2"
      ],
      "families": [
        "0377db02-3af6-43b8-9b08-c759df3d25c3"
      ],
      "genres": [
        "4b80eca6-f44f-4262-a8d0-b6879d6b70cb"
      ],
      "groups": [
        "ae613721-1fbe-480d-ba6b-d6d0702b184d"
      ],
      "langs": [
        "4dcf9614-7914-42aa-99f4-dbce2e059133"
      ],
      "origins": [
        "938de218-5343-4865-94d3-fb33f2eaa152"
      ],
      "series": [
        "f8d74186-fa94-47ce-b142-aef28f56d481"
      ],
      "singers": [
        "11781b1f-f4b3-4a03-bf97-fe757125e4dd"
      ],
      "songtypes": [
        "38c77c56-2b95-4040-b676-0994a8cb0597"
      ],
      "songwriters": [
        "05559b85-9031-49a0-8a89-d31c2dbca6bc"
      ]
    },
    "title": "Watashi no Housekibako",
    "titles": {
      "qro": "Watashi no Housekibako",
      "jpn": "私の宝石箱"
    },
    "year": 2013,
    "titles_default_language": "qro"
  }
}