{
  "header": {
    "version": 4,
    "description": "Karaoke Mugen Karaoke Data File"
  },
  "medias": [
    {
      "version": "Default",
      "filename": "JPN - Kannagi - OP - Motto Hade ni ne!.mp4",
      "audiogain": -0.94,
      "loudnorm": "-18.06,-8.97,3.90,-28.13,-0.59",
      "filesize": 50157403,
      "duration": 91,
      "default": true,
      "lyrics": [
        {
          "filename": "JPN - Kannagi - OP - Motto Hade ni ne!.ass",
          "default": true,
          "version": "Default"
        }
      ]
    }
  ],
  "data": {
    "created_at": "2017-10-11T17:03:12.000Z",
    "ignoreHooks": false,
    "kid": "d918ab34-8322-431c-971f-add1aee34039",
    "modified_at": "2022-03-24T08:52:04.050Z",
    "repository": "kara.moe",
    "tags": {
      "authors": [
        "fa399f2f-ea1d-4902-8796-ea6d8218aff0"
      ],
      "collections": [
        "c7db86a0-ff64-4044-9be4-66dd1ef1d1c1"
      ],
      "creators": [
        "b96e3686-bbe0-4b9e-815a-a278d5ff31be"
      ],
      "families": [
        "0377db02-3af6-43b8-9b08-c759df3d25c3"
      ],
      "groups": [
        "3c14c864-533c-49e6-a3cc-6969f1233775",
        "9a8e0fbc-dcae-4989-be82-7cad3436f1f5"
      ],
      "langs": [
        "4dcf9614-7914-42aa-99f4-dbce2e059133"
      ],
      "misc": [
        "fe819ff1-9db8-4a0f-85dc-0e322c9126c4"
      ],
      "origins": [
        "938de218-5343-4865-94d3-fb33f2eaa152"
      ],
      "series": [
        "fafe2c78-a270-46b6-a468-639804df49b2"
      ],
      "singers": [
        "001a6966-3d4d-4897-975d-4e9e2e052732"
      ],
      "songtypes": [
        "f02ad9b3-0bd9-4aad-85b3-9976739ba0e4"
      ],
      "songwriters": [
        "85d65b57-5505-44a9-90bc-2fafd680e2dc",
        "d7658a75-7945-4f08-8233-02f38dc385ba"
      ],
      "franchises": [
        "fafe2c78-a270-46b6-a468-639804df49b2"
      ]
    },
    "titles": {
      "qro": "Motto☆Hade ni ne!",
      "jpn": "motto☆派手にね!"
    },
    "titles_default_language": "qro",
    "title": "Motto☆Hade ni ne!",
    "year": 2008
  }
}