{
  "header": {
    "version": 4,
    "description": "Karaoke Mugen Karaoke Data File"
  },
  "medias": [
    {
      "version": "Default",
      "filename": "JPN - Magia Record Mahou Shoujo Madoka Magica Gaiden 2nd Season - Kakusei Zen'ya - OP - Careless.mp4",
      "audiogain": 2.21,
      "loudnorm": "-21.16,-10.93,7.10,-31.35,-0.67",
      "filesize": 59757453,
      "duration": 90,
      "default": true,
      "lyrics": [
        {
          "filename": "JPN - Magia Record Mahou Shoujo Madoka Magica Gaiden 2nd Season - Kakusei Zen'ya - OP - Careless.ass",
          "default": true,
          "version": "Default"
        }
      ]
    }
  ],
  "data": {
    "created_at": "2021-08-10T14:08:59.606Z",
    "kid": "2cd14482-2a02-4791-a1e2-aabd9c2de595",
    "modified_at": "2021-08-10T14:17:46.816Z",
    "repository": "kara.moe",
    "tags": {
      "authors": [
        "1df04771-a378-4f14-a5e1-1455187d681a"
      ],
      "collections": [
        "c7db86a0-ff64-4044-9be4-66dd1ef1d1c1"
      ],
      "creators": [
        "c3bd80ef-d1fe-427f-913f-a2ba2fe66114"
      ],
      "families": [
        "0377db02-3af6-43b8-9b08-c759df3d25c3"
      ],
      "genres": [
        "b84e28f9-db1e-447f-b339-7954c3592523"
      ],
      "groups": [
        "8e209ae4-4381-438f-89dc-1b21752027d2"
      ],
      "langs": [
        "4dcf9614-7914-42aa-99f4-dbce2e059133"
      ],
      "origins": [
        "938de218-5343-4865-94d3-fb33f2eaa152"
      ],
      "series": [
        "494a9afd-c2ee-4b80-98ba-a6f4589c56f7"
      ],
      "singers": [
        "ff590105-5f65-4b1f-adf9-2cfb5b789428"
      ],
      "songtypes": [
        "f02ad9b3-0bd9-4aad-85b3-9976739ba0e4"
      ],
      "songwriters": [
        "b4279339-b1d8-4da7-8bf9-1f6d5b69be11",
        "ced18c1f-7cc7-4c94-8eab-2af2c0f2a078"
      ],
      "franchises": [
        "c31a2b6a-96f5-4244-bce3-e04cd8b5c2ae"
      ]
    },
    "title": "Careless",
    "titles": {
      "eng": "Careless",
      "jpn": "ケアレス"
    },
    "year": 2021,
    "titles_default_language": "eng"
  }
}