{
  "header": {
    "version": 4,
    "description": "Karaoke Mugen Karaoke Data File"
  },
  "medias": [
    {
      "version": "Animetal.",
      "filename": "JPN - Dragon Ball - AMV - Makafushigi Adventure ~ Animetal Vers. ~ Cover Metal Vers.mp4",
      "audiogain": -6.57,
      "loudnorm": "-10.62,0.23,3.00,-20.64,-0.43",
      "filesize": 26224045,
      "duration": 103,
      "default": true,
      "lyrics": [
        {
          "filename": "JPN - Dragon Ball - AMV - Makafushigi Adventure ~ Animetal Vers. ~ Cover Metal Vers.ass",
          "default": true,
          "version": "Default"
        }
      ]
    }
  ],
  "data": {
    "created_at": "2021-10-24T14:31:06.458Z",
    "kid": "8edbdb8a-ef26-47c2-9e28-dc769f54f1af",
    "modified_at": "2021-10-24T14:34:18.638Z",
    "parents": [
      "d276a4c2-9dff-48bd-8fcc-c7decc597984"
    ],
    "repository": "kara.moe",
    "tags": {
      "authors": [
        "18ff2361-7b48-4a95-97ae-8e13ff51b7e1"
      ],
      "collections": [
        "c7db86a0-ff64-4044-9be4-66dd1ef1d1c1"
      ],
      "creators": [
        "f694bf43-b427-4244-9744-9d3f84fd8a31"
      ],
      "families": [
        "0377db02-3af6-43b8-9b08-c759df3d25c3"
      ],
      "genres": [
        "a0aeef4a-6428-45ff-a6e1-468b595930c2"
      ],
      "groups": [
        "24db50aa-a126-4d34-a48a-e45db79c4245",
        "7792cc27-9ff9-4d47-9287-2338b7db1575"
      ],
      "langs": [
        "4dcf9614-7914-42aa-99f4-dbce2e059133"
      ],
      "origins": [
        "938de218-5343-4865-94d3-fb33f2eaa152"
      ],
      "series": [
        "c46f5c45-e15a-41b3-a3e6-a1ac023116e1"
      ],
      "singers": [
        "45104927-faca-4568-9996-6b24671be711"
      ],
      "songtypes": [
        "a6c79ce5-89ee-4d50-afe8-3abd7317f6c2"
      ],
      "songwriters": [
        "12bf3975-e982-4cf7-900b-1784cbbae224",
        "4c786551-95e2-4aaa-9aca-792796abd9ec"
      ],
      "versions": [
        "03e1e1d2-8641-47b7-bbcb-39a3df9ff21c",
        "188a5c46-63ff-4e9f-89e4-763468b6ea4a"
      ],
      "franchises": [
        "c46f5c45-e15a-41b3-a3e6-a1ac023116e1"
      ]
    },
    "titles": {
      "qro": "Makafushigi Adventure! ~ Animetal Vers.",
      "jpn": "魔訶不思議アドベンチャー! ~ Animetal Vers."
    },
    "title": "Makafushigi Adventure ~ Animetal Vers.",
    "year": 1997,
    "titles_default_language": "qro"
  }
}