{
  "header": {
    "version": 4,
    "description": "Karaoke Mugen Karaoke Data File"
  },
  "medias": [
    {
      "version": "Default",
      "filename": "JPN - BanG Dream! - GAME MV - That Is How I Roll!.mp4",
      "audiogain": -10.49,
      "loudnorm": "-6.51,1.05,1.50,-16.57,-0.37",
      "filesize": 55732481,
      "duration": 102,
      "default": true,
      "lyrics": [
        {
          "filename": "JPN - BanG Dream! - GAME MV - That Is How I Roll!.ass",
          "default": true,
          "version": "Default",
          "subchecksum": "522cee7afc6fcfaf9ec5a68771f2689f"
        }
      ]
    }
  ],
  "data": {
    "created_at": "2018-05-02T15:43:25.000Z",
    "kid": "ed857fa4-2e3d-44b5-8c60-f85a3629860d",
    "modified_at": "2021-02-25T10:50:38.262Z",
    "repository": "kara.moe",
    "tags": {
      "authors": [
        "79e0aa7d-da9a-4e9a-aa2b-64056a83b49b"
      ],
      "collections": [
        "c7db86a0-ff64-4044-9be4-66dd1ef1d1c1"
      ],
      "creators": [
        "bd4564a8-44e5-454a-9c57-bd2a3c8a537e"
      ],
      "groups": [
        "ae613721-1fbe-480d-ba6b-d6d0702b184d"
      ],
      "langs": [
        "4dcf9614-7914-42aa-99f4-dbce2e059133"
      ],
      "platforms": [
        "213a1a15-e73a-4a08-b3f6-b6e2745a82e5"
      ],
      "series": [
        "a65e956d-39ab-4995-9ede-889c30a5cbf0"
      ],
      "singers": [
        "16c170fe-1ada-4916-a0be-42b19eca6ae3",
        "3d6abb88-f9bc-438f-8cd4-2aa844691839",
        "97f84f38-619d-4a50-9de3-dcee49de9ae2",
        "b0adee55-f63f-4b1a-b15e-edc78d184469",
        "bfa33c23-5ec9-4586-8563-816130a9a1c7",
        "f2e9d52b-1b80-4fb5-8754-628462e094e5"
      ],
      "songtypes": [
        "7be1b15c-cff8-4b37-a649-5c90f3d569a9"
      ],
      "songwriters": [
        "24926282-3ed9-47bd-867c-404398fbecf9",
        "60c782e0-d553-46c4-a470-bf13b3c88689"
      ],
      "franchises": [
        "a65e956d-39ab-4995-9ede-889c30a5cbf0"
      ],
      "origins": [
        "dbedd6b3-d125-4cd8-aa32-c4175e4ca3a3"
      ]
    },
    "title": "That Is How I Roll!",
    "titles": {
      "eng": "That Is How I Roll!"
    },
    "year": 2017,
    "titles_default_language": "eng"
  }
}