{
  "header": {
    "version": 4,
    "description": "Karaoke Mugen Karaoke Data File"
  },
  "medias": [
    {
      "version": "Default",
      "filename": "JPN - Project SEKAI COLORFUL STAGE! - GAME MV - Otome Dissection ~ Cover Full Vers.mp4",
      "audiogain": -9.66,
      "loudnorm": "-8.31,1.18,3.90,-18.34,-0.43",
      "filesize": 45633906,
      "duration": 225,
      "default": true,
      "lyrics": [
        {
          "filename": "JPN - Project SEKAI COLORFUL STAGE! - GAME MV - Otome Dissection ~ Cover Full Vers.ass",
          "default": true,
          "version": "Default"
        }
      ]
    }
  ],
  "data": {
    "created_at": "2022-01-20T00:03:16.942Z",
    "ignoreHooks": false,
    "kid": "cd301191-eb73-4d61-943b-8ef8a038cd83",
    "modified_at": "2022-12-26T21:27:41.466Z",
    "parents": [
      "902a3ff0-2330-445f-b56b-32565dc553f1"
    ],
    "repository": "kara.moe",
    "tags": {
      "authors": [
        "5a629611-96b4-422c-b309-ba7a58e263a2",
        "84157b43-8a7a-482c-95d3-516757353835"
      ],
      "collections": [
        "c7db86a0-ff64-4044-9be4-66dd1ef1d1c1"
      ],
      "creators": [
        "1e5648fb-22fc-474d-b865-254eb31fa000",
        "92ae28c3-4c46-45e1-986e-4e5514c9b277",
        "5fe0677f-7c4d-43de-9386-c52e5727504c",
        "7d9176a6-4cba-4866-bd66-59198da4fb41",
        "e8c9e17c-ef3b-4ccb-95e8-91c1c78bc860",
        "3e8d6252-67a5-4d63-beb6-11f76da65e5a"
      ],
      "families": [
        "0377db02-3af6-43b8-9b08-c759df3d25c3"
      ],
      "genres": [
        "45623cae-6d68-4304-a49b-896d1d6f4580"
      ],
      "groups": [
        "8e209ae4-4381-438f-89dc-1b21752027d2"
      ],
      "langs": [
        "4dcf9614-7914-42aa-99f4-dbce2e059133"
      ],
      "misc": [
        "1d6ceadf-a885-47e5-b23b-c07bf668a424"
      ],
      "platforms": [
        "213a1a15-e73a-4a08-b3f6-b6e2745a82e5"
      ],
      "series": [
        "192b33fb-638a-4680-bdb2-a5adb9889849"
      ],
      "singers": [
        "4407ba0e-5de7-4add-870f-7ac95a4804c9",
        "b0672b63-1519-4a34-99f6-039fdade750e",
        "bbf38c20-4ff8-46ca-8e23-55a71286f0ef"
      ],
      "singergroups": [
        "210b7f5a-db03-4cb6-ab5d-68052851cbb2"
      ],
      "songtypes": [
        "7be1b15c-cff8-4b37-a649-5c90f3d569a9"
      ],
      "songwriters": [
        "6d9eaa90-048f-41d5-a264-8d73df69cc22"
      ],
      "versions": [
        "03e1e1d2-8641-47b7-bbcb-39a3df9ff21c",
        "c2143a7f-6970-450e-8a79-0302db9220a9"
      ],
      "origins": [
        "dbedd6b3-d125-4cd8-aa32-c4175e4ca3a3"
      ]
    },
    "titles": {
      "eng": "Otome Dissection",
      "jpn": "乙女解剖",
      "qro": "Otome Kaibô"
    },
    "titles_default_language": "eng",
    "titles_aliases": [
      "Kaibou"
    ],
    "year": 2022
  }
}