{
  "header": {
    "version": 4,
    "description": "Karaoke Mugen Karaoke Data File"
  },
  "medias": [
    {
      "version": "Himematsu Kôkô.",
      "filename": "JPN - Saki Zenkoku Hen - ED4 - Kono Te ga Kiseki wo Eranderu ~ Himematsu Koukou Vers.mp4",
      "audiogain": -2.42,
      "loudnorm": "-16.14,-6.26,6.00,-26.28,-0.95",
      "filesize": 15100817,
      "duration": 92,
      "default": true,
      "lyrics": [
        {
          "filename": "JPN - Saki Zenkoku Hen - ED4 - Kono Te ga Kiseki wo Eranderu ~ Himematsu Koukou Vers.ass",
          "default": true,
          "version": "Default",
          "subchecksum": "ad20bfb1a82ab8d49547b66b336a0ea1"
        }
      ]
    }
  ],
  "data": {
    "created_at": "2017-10-11T17:01:08.000Z",
    "kid": "a43e2cf4-5f83-4d91-a752-855736b6d3b8",
    "modified_at": "2021-02-25T12:55:21.648Z",
    "repository": "kara.moe",
    "songorder": 4,
    "tags": {
      "authors": [
        "6bebcb04-2694-453c-9e0c-eb1a2e2718d9"
      ],
      "collections": [
        "c7db86a0-ff64-4044-9be4-66dd1ef1d1c1"
      ],
      "creators": [
        "7226816c-fb45-4f3a-bd39-7f4f616553bf"
      ],
      "families": [
        "0377db02-3af6-43b8-9b08-c759df3d25c3"
      ],
      "groups": [
        "ae613721-1fbe-480d-ba6b-d6d0702b184d"
      ],
      "langs": [
        "4dcf9614-7914-42aa-99f4-dbce2e059133"
      ],
      "origins": [
        "938de218-5343-4865-94d3-fb33f2eaa152"
      ],
      "series": [
        "233a593d-2fec-44d4-88cd-cb8d37a36dbf"
      ],
      "singers": [
        "a193b82b-0c3c-44df-ade9-f21077bef97f",
        "b088834c-56f3-471f-a578-964c8e3137d1",
        "ca85ba0d-fe12-4366-b072-cbef647acac0",
        "cc905dc7-7c66-40ca-ab4d-a27eaa088c43",
        "e7457d87-928a-4c39-a8a5-6b3f1b44ceee"
      ],
      "songtypes": [
        "38c77c56-2b95-4040-b676-0994a8cb0597"
      ],
      "songwriters": [
        "3acbe973-912e-47ca-b5b2-6563181e0c51"
      ],
      "versions": [
        "9f63c359-d1bf-425a-bcf5-b245c2c9211d"
      ],
      "franchises": [
        "73bf267c-3013-4a00-bc02-87b99f25ae64"
      ]
    },
    "title": "Kono Te ga Kiseki wo Eranderu ~ Himematsu Kôkô Vers.",
    "titles": {
      "qro": "Kono Te ga Kiseki wo Eranderu ~ Himematsu Kôkô Vers.",
      "jpn": "この手が奇跡を選んでる 姫松高校 ver."
    },
    "year": 2014,
    "titles_default_language": "qro"
  }
}