{
  "header": {
    "version": 4,
    "description": "Karaoke Mugen Karaoke Data File"
  },
  "medias": [
    {
      "version": "Default",
      "filename": "JPN - Tsukipro The Animation 2 - ED6 - Kami Toke ni Ataru Toki.mp4",
      "audiogain": -1.22,
      "loudnorm": "-17.08,-5.84,5.80,-27.14,-1.83",
      "filesize": 30999700,
      "duration": 89,
      "default": true,
      "lyrics": [
        {
          "filename": "JPN - Tsukipro The Animation 2 - ED6 - Kami Toke ni Ataru Toki.ass",
          "default": true,
          "version": "Default"
        }
      ]
    }
  ],
  "data": {
    "created_at": "2022-11-03T12:54:07.196Z",
    "ignoreHooks": false,
    "kid": "0d7a8112-0ac5-4cdb-a61a-ebe2210db48c",
    "modified_at": "2022-11-03T12:54:07.367Z",
    "repository": "kara.moe",
    "songorder": 6,
    "tags": {
      "authors": [
        "ee8628c8-9b7f-415b-bc0d-9b712d5daf8c"
      ],
      "collections": [
        "c7db86a0-ff64-4044-9be4-66dd1ef1d1c1"
      ],
      "creators": [
        "422a4f90-c9f2-49c3-b1d1-ee7de65ba052"
      ],
      "families": [
        "0377db02-3af6-43b8-9b08-c759df3d25c3"
      ],
      "genres": [
        "caa86df2-0d59-474b-885c-f240a9e891b0"
      ],
      "groups": [
        "8e209ae4-4381-438f-89dc-1b21752027d2"
      ],
      "langs": [
        "4dcf9614-7914-42aa-99f4-dbce2e059133"
      ],
      "series": [
        "052fd93d-feb8-4d26-b908-40d9722f521f"
      ],
      "singers": [
        "f2917fb2-23ae-4fbd-bedc-bc9b77f11603",
        "9bdf3363-b8b1-4ae3-82d9-41a7a1527eee",
        "dee63cde-99e1-4736-97ad-500e19255ee1",
        "62d5bb3a-941a-4df6-9cfb-43504d844d52",
        "04ce2372-4c57-4c48-ac66-86f86e26d0e3",
        "faccd344-8de0-46c3-b499-cce1c8456153",
        "5eb0c9ec-bb8e-4e9a-9b0b-2732ba2029f0"
      ],
      "songtypes": [
        "38c77c56-2b95-4040-b676-0994a8cb0597"
      ],
      "songwriters": [
        "6fbbc58f-436e-4f51-832c-cfc66e202a79"
      ],
      "franchises": [
        "ac8c6bdb-a96f-4893-b434-78d9fbdf673e"
      ]
    },
    "titles": {
      "jpn": "神解けに当たる時",
      "qro": "Kami Toke ni Ataru Toki"
    },
    "titles_default_language": "qro",
    "title": "Kami Toke ni Ataru Toki",
    "year": 2021
  }
}