{
  "header": {
    "version": 4,
    "description": "Karaoke Mugen Karaoke Data File"
  },
  "medias": [
    {
      "version": "Default",
      "filename": "JPN - Touhou - REMIX MV - Usatei 20XX.mp4",
      "audiogain": 0.23,
      "loudnorm": "-17.08,-9.21,3.20,-27.14,0.01",
      "filesize": 149578866,
      "duration": 188,
      "default": true,
      "lyrics": [
        {
          "filename": "JPN - Touhou - REMIX MV - Usatei 20XX.ass",
          "default": true,
          "version": "Default"
        }
      ]
    }
  ],
  "data": {
    "created_at": "2022-07-16T18:37:36.805Z",
    "ignoreHooks": false,
    "kid": "12311f4f-a17a-4f4e-b5cc-ae223d9ef6dd",
    "modified_at": "2022-07-16T20:35:17.498Z",
    "repository": "kara.moe",
    "tags": {
      "authors": [
        "a5dbab74-510b-48c5-9cea-5a537a81c974"
      ],
      "collections": [
        "c7db86a0-ff64-4044-9be4-66dd1ef1d1c1"
      ],
      "creators": [
        "25fc251a-0514-4bf5-a818-dd0547723f4a"
      ],
      "families": [
        "0377db02-3af6-43b8-9b08-c759df3d25c3"
      ],
      "groups": [
        "8c22c899-b3ed-42da-a548-ce00f950798b",
        "8e209ae4-4381-438f-89dc-1b21752027d2"
      ],
      "langs": [
        "4dcf9614-7914-42aa-99f4-dbce2e059133"
      ],
      "misc": [
        "ec4360fa-3e3c-4f6f-b0e1-fb8b12b6dd18"
      ],
      "origins": [
        "ac5085db-52d8-44b4-8fbb-1697b24d2046"
      ],
      "series": [
        "1bdaa5a1-dfa6-4365-b746-7a0b194dafd6"
      ],
      "singers": [
        "2b873ad5-a3ce-4abf-9f11-6f600e6e6ba0",
        "8863c512-04a6-4bba-be93-14c824fba970",
        "5e9a5d91-ea80-4515-acdf-43f023a54467"
      ],
      "songtypes": [
        "7be1b15c-cff8-4b37-a649-5c90f3d569a9"
      ],
      "songwriters": [
        "2b873ad5-a3ce-4abf-9f11-6f600e6e6ba0"
      ],
      "franchises": [
        "1bdaa5a1-dfa6-4365-b746-7a0b194dafd6"
      ]
    },
    "titles": {
      "jpn": "ウサテイ20XX",
      "qro": "Usatei 20XX"
    },
    "titles_default_language": "qro",
    "title": "Usatei 20XX",
    "year": 2021
  }
}