{
  "header": {
    "version": 4,
    "description": "Karaoke Mugen Karaoke Data File"
  },
  "medias": [
    {
      "version": "Default",
      "filename": "KOR - BTOB - MV - Insane.mp4",
      "audiogain": -7.76,
      "loudnorm": "-8.81,1.73,11.50,-19.59,-0.75",
      "filesize": 66250365,
      "duration": 232,
      "default": true,
      "lyrics": [
        {
          "filename": "KOR - BTOB - MV - Insane.ass",
          "default": true,
          "version": "Default"
        }
      ]
    }
  ],
  "data": {
    "created_at": "2019-10-06T16:18:44.000Z",
    "kid": "b26302c7-b537-4c75-8ebb-144f9201ae65",
    "modified_at": "2022-05-26T16:31:39.230Z",
    "repository": "kara.moe",
    "songorder": null,
    "tags": {
      "authors": [
        "622e2a6d-e4e8-4ff5-b218-890e8d7a3abf"
      ],
      "creators": [
        "6b8ffb9d-bc6a-4de7-b8a7-b4c6b4c2f475"
      ],
      "families": [
        "5391f9fe-638c-415f-8dc9-958e3a2c5787"
      ],
      "groups": [
        "2b4e9972-5e17-481b-99f5-d0787c0ada56",
        "ae613721-1fbe-480d-ba6b-d6d0702b184d"
      ],
      "langs": [
        "3b9e2749-27d0-4a78-873d-ea91a9ee9a25"
      ],
      "singers": [
        "e29ca23d-958f-47c3-892c-605e38dd0b41"
      ],
      "songtypes": [
        "7be1b15c-cff8-4b37-a649-5c90f3d569a9"
      ],
      "songwriters": [
        "72c08da0-ecc5-4db1-84c7-047304b375cb",
        "9b3a1a85-f379-495d-8840-f8582d935e7d"
      ],
      "collections": [
        "dbcf2c22-524d-4708-99bb-601703633927"
      ]
    },
    "titles": {
      "eng": "Insane"
    },
    "titles_default_language": "eng",
    "title": "Insane",
    "year": 2015
  }
}