{
  "header": {
    "version": 4,
    "description": "Karaoke Mugen Karaoke Data File"
  },
  "medias": [
    {
      "version": "Default",
      "filename": "KOR - 4minute, Apink, BEAST - MV - Christmas Song.mp4",
      "audiogain": -9.74,
      "loudnorm": "-8.51,0.24,8.40,-18.78,-1.56",
      "filesize": 63667911,
      "duration": 254,
      "default": true,
      "lyrics": [
        {
          "filename": "KOR - 4minute, Apink, BEAST - MV - Christmas Song.ass",
          "default": true,
          "version": "Default"
        }
      ]
    }
  ],
  "data": {
    "created_at": "2019-10-11T20:19:26.000Z",
    "kid": "ecff4833-a30b-46b4-85fe-db011a578292",
    "modified_at": "2022-05-26T16:30:32.813Z",
    "repository": "kara.moe",
    "songorder": null,
    "tags": {
      "authors": [
        "622e2a6d-e4e8-4ff5-b218-890e8d7a3abf"
      ],
      "creators": [
        "6b8ffb9d-bc6a-4de7-b8a7-b4c6b4c2f475"
      ],
      "families": [
        "5391f9fe-638c-415f-8dc9-958e3a2c5787"
      ],
      "groups": [
        "2b4e9972-5e17-481b-99f5-d0787c0ada56",
        "ae613721-1fbe-480d-ba6b-d6d0702b184d"
      ],
      "langs": [
        "3b9e2749-27d0-4a78-873d-ea91a9ee9a25"
      ],
      "singers": [
        "3cc561b6-3c28-46ca-8bbf-6fce728d6709",
        "41c65ca8-fdf9-457c-8dc3-c7166218e16c",
        "780f9a73-bceb-4924-af1d-b327188d4e50",
        "8a46e575-01b6-4d42-bd4b-9b069185145a",
        "da95af42-75ec-45dc-b5a2-4b58fb30b61f",
        "e29ca23d-958f-47c3-892c-605e38dd0b41",
        "e347f2d7-3609-4f49-a0f1-d2ba18ba6bfc",
        "e89fecfd-cde2-443a-9dd7-74232f7bef6e",
        "fa0d6432-cc4e-471b-8c2b-a6d6b356197b"
      ],
      "songtypes": [
        "7be1b15c-cff8-4b37-a649-5c90f3d569a9"
      ],
      "collections": [
        "dbcf2c22-524d-4708-99bb-601703633927"
      ]
    },
    "titles": {
      "eng": "Christmas Song"
    },
    "titles_default_language": "eng",
    "title": "Christmas Song",
    "year": 2013
  }
}