{
  "header": {
    "version": 4,
    "description": "Karaoke Mugen Karaoke Data File"
  },
  "medias": [
    {
      "version": "Default",
      "filename": "KOR - HyunA, Jung Il Hoon - MV - Roll Deep.mp4",
      "audiogain": -10.3,
      "loudnorm": "-6.64,4.59,2.00,-16.70,-0.55",
      "filesize": 125445239,
      "duration": 208,
      "default": true,
      "lyrics": [
        {
          "filename": "KOR - HyunA, Jung Il Hoon - MV - Roll Deep.ass",
          "default": true,
          "version": "Default"
        }
      ]
    }
  ],
  "data": {
    "created_at": "2019-10-06T12:37:30.000Z",
    "kid": "79baaad1-ac79-480e-8409-a5395285eb59",
    "modified_at": "2022-05-26T16:30:39.657Z",
    "repository": "kara.moe",
    "songorder": null,
    "tags": {
      "authors": [
        "622e2a6d-e4e8-4ff5-b218-890e8d7a3abf"
      ],
      "creators": [
        "6b8ffb9d-bc6a-4de7-b8a7-b4c6b4c2f475"
      ],
      "families": [
        "5391f9fe-638c-415f-8dc9-958e3a2c5787"
      ],
      "groups": [
        "2b4e9972-5e17-481b-99f5-d0787c0ada56",
        "ae613721-1fbe-480d-ba6b-d6d0702b184d"
      ],
      "langs": [
        "3b9e2749-27d0-4a78-873d-ea91a9ee9a25"
      ],
      "singers": [
        "350c41e1-b239-4aa7-bee8-a9ec23295a01",
        "eab8b9ae-cf0b-4c8d-ad9e-bf9ecb5c29b6"
      ],
      "songtypes": [
        "7be1b15c-cff8-4b37-a649-5c90f3d569a9"
      ],
      "songwriters": [
        "350c41e1-b239-4aa7-bee8-a9ec23295a01",
        "51ebf97e-2f0c-4292-8cdd-aa232f649238",
        "9b3a1a85-f379-495d-8840-f8582d935e7d",
        "e8500460-e9e1-4d1f-afed-e78b78f35fda"
      ],
      "collections": [
        "dbcf2c22-524d-4708-99bb-601703633927"
      ]
    },
    "titles": {
      "eng": "Roll Deep"
    },
    "titles_default_language": "eng",
    "title": "Roll Deep",
    "year": 2015
  }
}