{
  "header": {
    "version": 4,
    "description": "Karaoke Mugen Karaoke Data File"
  },
  "medias": [
    {
      "version": "Default",
      "filename": "KOR - BEAST - PV - The Fact.mp4",
      "audiogain": -8.14,
      "loudnorm": "-10.12,2.58,9.20,-20.28,-0.73",
      "filesize": 31710922,
      "duration": 159,
      "default": true,
      "lyrics": [
        {
          "filename": "KOR - BEAST - PV - The Fact.ass",
          "default": true,
          "version": "Default"
        }
      ]
    }
  ],
  "data": {
    "created_at": "2019-09-14T13:37:58.000Z",
    "kid": "b00acf86-1cce-43e1-bfa9-3e5b6e778086",
    "modified_at": "2022-05-26T16:31:11.297Z",
    "repository": "kara.moe",
    "songorder": null,
    "tags": {
      "authors": [
        "622e2a6d-e4e8-4ff5-b218-890e8d7a3abf"
      ],
      "creators": [
        "6b8ffb9d-bc6a-4de7-b8a7-b4c6b4c2f475"
      ],
      "families": [
        "5391f9fe-638c-415f-8dc9-958e3a2c5787"
      ],
      "groups": [
        "2b4e9972-5e17-481b-99f5-d0787c0ada56",
        "ae613721-1fbe-480d-ba6b-d6d0702b184d"
      ],
      "langs": [
        "3b9e2749-27d0-4a78-873d-ea91a9ee9a25"
      ],
      "singers": [
        "e89fecfd-cde2-443a-9dd7-74232f7bef6e"
      ],
      "songtypes": [
        "66e195b9-64ea-432d-a917-2e2c88d26052"
      ],
      "songwriters": [
        "8dfe5b2d-bc27-40b2-852e-a801e1dc0250",
        "d11faafc-f6c0-4c07-9d48-2c088b23e439"
      ],
      "collections": [
        "dbcf2c22-524d-4708-99bb-601703633927"
      ]
    },
    "titles": {
      "eng": "The Fact"
    },
    "titles_default_language": "eng",
    "title": "The Fact",
    "year": 2011
  }
}