{
  "header": {
    "version": 4,
    "description": "Karaoke Mugen Karaoke Data File"
  },
  "medias": [
    {
      "version": "Default",
      "filename": "KOR - BTS - AMV - House of Cards.mp4",
      "audiogain": -9.39,
      "loudnorm": "-7.96,0.91,8.00,-18.41,-1.13",
      "filesize": 40366695,
      "duration": 224,
      "default": true,
      "lyrics": [
        {
          "filename": "KOR - BTS - AMV - House of Cards.ass",
          "default": true,
          "version": "Default"
        }
      ]
    }
  ],
  "data": {
    "created_at": "2022-07-06T20:35:24.532Z",
    "ignoreHooks": false,
    "kid": "f8276c78-0f74-48a2-ae37-d6f86a70f8c1",
    "modified_at": "2023-02-04T18:32:51.153Z",
    "repository": "kara.moe",
    "tags": {
      "authors": [
        "1d7745a8-73ea-40bb-ad99-826af98f6e41"
      ],
      "collections": [
        "dbcf2c22-524d-4708-99bb-601703633927"
      ],
      "creators": [
        "c62489b5-2ae8-4e09-af56-18bbd85093bb"
      ],
      "families": [
        "5391f9fe-638c-415f-8dc9-958e3a2c5787"
      ],
      "genres": [
        "caa86df2-0d59-474b-885c-f240a9e891b0"
      ],
      "groups": [
        "ae613721-1fbe-480d-ba6b-d6d0702b184d"
      ],
      "langs": [
        "3b9e2749-27d0-4a78-873d-ea91a9ee9a25"
      ],
      "misc": [
        "1d6ceadf-a885-47e5-b23b-c07bf668a424"
      ],
      "singergroups": [
        "b00876f7-3ffb-438c-8229-35a47fa9e667"
      ],
      "songtypes": [
        "a6c79ce5-89ee-4d50-afe8-3abd7317f6c2"
      ],
      "songwriters": [
        "49c28382-effe-4c7b-a241-31e309f88a54",
        "ccc19b20-626b-45b7-8edf-f8438e74361f",
        "ac335f8d-9096-4202-9fee-eed07d089110"
      ]
    },
    "titles": {
      "eng": "House of Cards"
    },
    "titles_default_language": "eng",
    "year": 2016
  }
}