{
  "header": {
    "version": 4,
    "description": "Karaoke Mugen Karaoke Data File"
  },
  "medias": [
    {
      "version": "Default",
      "filename": "KOR - BTS - LIVE - Airplane Pt.2.mp4",
      "audiogain": -6.39,
      "loudnorm": "-9.81,0.72,10.20,-20.15,-1.06",
      "filesize": 64600297,
      "duration": 218,
      "default": true,
      "lyrics": [
        {
          "filename": "KOR - BTS - LIVE - Airplane Pt.2.ass",
          "default": true,
          "version": "Default"
        }
      ]
    }
  ],
  "data": {
    "created_at": "2022-01-23T19:52:03.030Z",
    "ignoreHooks": false,
    "kid": "041b2256-096d-483a-8896-0b1c9db62d9a",
    "modified_at": "2023-02-04T18:32:26.282Z",
    "repository": "kara.moe",
    "tags": {
      "authors": [
        "1d7745a8-73ea-40bb-ad99-826af98f6e41"
      ],
      "collections": [
        "dbcf2c22-524d-4708-99bb-601703633927"
      ],
      "creators": [
        "c62489b5-2ae8-4e09-af56-18bbd85093bb"
      ],
      "families": [
        "5391f9fe-638c-415f-8dc9-958e3a2c5787"
      ],
      "genres": [
        "caa86df2-0d59-474b-885c-f240a9e891b0"
      ],
      "groups": [
        "ae613721-1fbe-480d-ba6b-d6d0702b184d"
      ],
      "langs": [
        "3b9e2749-27d0-4a78-873d-ea91a9ee9a25"
      ],
      "misc": [
        "1d6ceadf-a885-47e5-b23b-c07bf668a424"
      ],
      "singers": [
        "0717f873-2ea2-4c72-ab1c-56cd8b1c389b",
        "30ca1233-c4d4-4e25-a975-6b1e66c30ef4",
        "473bcd5a-bbd9-4296-aceb-014d261e93d8",
        "817671df-895f-46fe-9d5a-e16267c379b4",
        "c91ba8a3-3de9-4479-b633-07b5ff7b4553",
        "e9efcafa-9697-4b56-9f10-c220c95be784",
        "f38f2fe5-9f54-4a8e-b3cf-d4f6c8f3ca98"
      ],
      "singergroups": [
        "b00876f7-3ffb-438c-8229-35a47fa9e667"
      ],
      "songtypes": [
        "a0167949-580c-4de3-bf13-497e462e02f3"
      ],
      "songwriters": [
        "0717f873-2ea2-4c72-ab1c-56cd8b1c389b",
        "3b77604d-5e08-4247-b8d6-8a3836d0e58a",
        "473bcd5a-bbd9-4296-aceb-014d261e93d8",
        "a0eae8f9-6efc-495d-b2d6-b0e8b5376424",
        "caf001aa-91c2-4863-ba03-25aeea1162b3",
        "e9efcafa-9697-4b56-9f10-c220c95be784",
        "f8b5f602-7d48-4dcd-9a1c-2cc6ab765f55",
        "ac335f8d-9096-4202-9fee-eed07d089110"
      ]
    },
    "titles": {
      "eng": "Airplane Pt.2"
    },
    "titles_default_language": "eng",
    "year": 2018
  }
}