{
  "header": {
    "version": 4,
    "description": "Karaoke Mugen Karaoke Data File"
  },
  "medias": [
    {
      "version": "Default",
      "filename": "KOR - K.Will - MV - Please don't.mp4",
      "audiogain": -9.34,
      "loudnorm": "-7.91,2.31,15.30,-18.70,-0.83",
      "filesize": 90908989,
      "duration": 227,
      "default": true,
      "lyrics": [
        {
          "filename": "KOR - K.Will - MV - Please don't.ass",
          "default": true,
          "version": "Default"
        }
      ]
    }
  ],
  "data": {
    "created_at": "2019-10-06T11:48:36.000Z",
    "kid": "0894a66b-91e5-4091-a30f-9464a10c317e",
    "modified_at": "2022-05-26T16:30:31.106Z",
    "repository": "kara.moe",
    "songorder": null,
    "tags": {
      "authors": [
        "52241b4a-b141-406d-9166-9f6a50d7734b"
      ],
      "creators": [
        "574dc4d3-9b79-4df5-83c5-f44ae60e2637"
      ],
      "families": [
        "5391f9fe-638c-415f-8dc9-958e3a2c5787"
      ],
      "groups": [
        "ae613721-1fbe-480d-ba6b-d6d0702b184d"
      ],
      "langs": [
        "3b9e2749-27d0-4a78-873d-ea91a9ee9a25"
      ],
      "singers": [
        "1b25d386-6b22-45a9-a2f1-66e25f17a657"
      ],
      "songtypes": [
        "7be1b15c-cff8-4b37-a649-5c90f3d569a9"
      ],
      "songwriters": [
        "1352907c-eef7-4314-b75a-da056e9a7c62",
        "75a2f705-d50e-47b3-b0ee-14cc000274d2"
      ],
      "collections": [
        "dbcf2c22-524d-4708-99bb-601703633927"
      ]
    },
    "titles": {
      "eng": "Please don't..."
    },
    "titles_default_language": "eng",
    "title": "Please don't...",
    "year": 2011
  }
}