{
  "header": {
    "version": 4,
    "description": "Karaoke Mugen Karaoke Data File"
  },
  "medias": [
    {
      "version": "Default",
      "filename": "KOR - TWICE - MV - TT.mp4",
      "audiogain": -9.06,
      "loudnorm": "-8.25,1.95,11.60,-18.85,-1.36",
      "filesize": 103240147,
      "duration": 253,
      "default": true,
      "lyrics": [
        {
          "filename": "KOR - TWICE - MV - TT.ass",
          "default": true,
          "version": "Default"
        }
      ]
    }
  ],
  "data": {
    "created_at": "2022-01-22T11:37:49.931Z",
    "ignoreHooks": false,
    "kid": "3b713b9a-70eb-4562-8376-d571567c3c1a",
    "modified_at": "2022-09-02T19:53:13.518Z",
    "repository": "kara.moe",
    "tags": {
      "authors": [
        "dd4f1279-de1b-4d06-b80d-29c4878bfd8e"
      ],
      "collections": [
        "dbcf2c22-524d-4708-99bb-601703633927"
      ],
      "creators": [
        "e1a9a889-9e39-49c9-8ff7-7d7d16331ee5"
      ],
      "families": [
        "5391f9fe-638c-415f-8dc9-958e3a2c5787"
      ],
      "groups": [
        "ae613721-1fbe-480d-ba6b-d6d0702b184d",
        "8c22c899-b3ed-42da-a548-ce00f950798b"
      ],
      "langs": [
        "3b9e2749-27d0-4a78-873d-ea91a9ee9a25"
      ],
      "singers": [
        "fe421082-61b7-4758-bcf2-71b03dd52a1d"
      ],
      "songtypes": [
        "7be1b15c-cff8-4b37-a649-5c90f3d569a9"
      ],
      "songwriters": [
        "6e177b9a-ba33-4373-ba4a-f44fd8e35b03",
        "9c0ac289-1862-4b50-bf6e-31fc563114ff"
      ]
    },
    "titles": {
      "eng": "TT"
    },
    "titles_default_language": "eng",
    "title": "TT",
    "year": 2016
  }
}