{
  "header": {
    "version": 4,
    "description": "Karaoke Mugen Karaoke Data File"
  },
  "medias": [
    {
      "version": "Default",
      "filename": "KOR - IU, Kim Chang Wan - MV - The Meaning Of You ~ Cover Vers.mp4",
      "audiogain": -7.37,
      "loudnorm": "-10.55,0.04,9.70,-20.96,-0.87",
      "filesize": 36355347,
      "duration": 198,
      "default": true,
      "lyrics": [
        {
          "filename": "KOR - IU, Kim Chang Wan - MV - The Meaning Of You ~ Cover Vers.ass",
          "default": true,
          "version": "Default"
        }
      ]
    }
  ],
  "data": {
    "created_at": "2019-09-28T20:29:41.000Z",
    "kid": "43f45530-b288-4e24-9afb-6f1ffdc18e45",
    "modified_at": "2022-05-26T16:30:19.058Z",
    "parents": [
      "97aba1ca-39bd-4dc5-9619-5da1cc6bafc3"
    ],
    "repository": "kara.moe",
    "songorder": null,
    "tags": {
      "authors": [
        "622e2a6d-e4e8-4ff5-b218-890e8d7a3abf"
      ],
      "creators": [
        "dee88375-b62f-4642-b6ef-6412adbea02e"
      ],
      "families": [
        "5391f9fe-638c-415f-8dc9-958e3a2c5787"
      ],
      "groups": [
        "2b4e9972-5e17-481b-99f5-d0787c0ada56",
        "ae613721-1fbe-480d-ba6b-d6d0702b184d"
      ],
      "langs": [
        "3b9e2749-27d0-4a78-873d-ea91a9ee9a25"
      ],
      "singers": [
        "9ca4883c-cb2c-40d4-a486-d56e2b45d8e5",
        "c44addd8-d391-48b7-880a-ad53a4f043c9"
      ],
      "songtypes": [
        "7be1b15c-cff8-4b37-a649-5c90f3d569a9"
      ],
      "songwriters": [
        "9ca4883c-cb2c-40d4-a486-d56e2b45d8e5",
        "e5c56da9-79ff-44d1-b5b3-5524842224da"
      ],
      "versions": [
        "03e1e1d2-8641-47b7-bbcb-39a3df9ff21c"
      ],
      "collections": [
        "dbcf2c22-524d-4708-99bb-601703633927"
      ]
    },
    "titles": {
      "eng": "The Meaning Of You"
    },
    "titles_default_language": "eng",
    "title": "The Meaning Of You",
    "year": 2014
  }
}