{
  "header": {
    "version": 4,
    "description": "Karaoke Mugen Karaoke Data File"
  },
  "medias": [
    {
      "version": "Default",
      "filename": "KOR - 4minute - MV - Hot Issue.mp4",
      "audiogain": -6.56,
      "loudnorm": "-10.76,-0.09,6.10,-20.98,-0.86",
      "filesize": 139797877,
      "duration": 214,
      "default": true,
      "lyrics": [
        {
          "filename": "KOR - 4minute - MV - Hot Issue.ass",
          "default": true,
          "version": "Default"
        }
      ]
    }
  ],
  "data": {
    "created_at": "2019-06-23T19:15:07.000Z",
    "kid": "23615222-309d-4d07-9328-5e4aa8c53e89",
    "modified_at": "2022-05-26T16:31:20.438Z",
    "repository": "kara.moe",
    "songorder": null,
    "tags": {
      "authors": [
        "622e2a6d-e4e8-4ff5-b218-890e8d7a3abf"
      ],
      "creators": [
        "6b8ffb9d-bc6a-4de7-b8a7-b4c6b4c2f475"
      ],
      "families": [
        "5391f9fe-638c-415f-8dc9-958e3a2c5787"
      ],
      "groups": [
        "2b4e9972-5e17-481b-99f5-d0787c0ada56",
        "3c14c864-533c-49e6-a3cc-6969f1233775"
      ],
      "langs": [
        "3b9e2749-27d0-4a78-873d-ea91a9ee9a25"
      ],
      "singers": [
        "780f9a73-bceb-4924-af1d-b327188d4e50"
      ],
      "songtypes": [
        "7be1b15c-cff8-4b37-a649-5c90f3d569a9"
      ],
      "collections": [
        "dbcf2c22-524d-4708-99bb-601703633927"
      ]
    },
    "titles": {
      "eng": "Hot Issue"
    },
    "titles_default_language": "eng",
    "title": "Hot Issue",
    "year": 2009
  }
}