{
  "header": {
    "version": 4,
    "description": "Karaoke Mugen Karaoke Data File"
  },
  "medias": [
    {
      "version": "Default",
      "filename": "KOR - PENTAGON - MV - Gorilla.mp4",
      "audiogain": -9.99,
      "loudnorm": "-7.23,4.20,7.50,-17.53,-1.23",
      "filesize": 63368116,
      "duration": 215,
      "default": true,
      "lyrics": [
        {
          "filename": "KOR - PENTAGON - MV - Gorilla.ass",
          "default": true,
          "version": "Default"
        }
      ]
    }
  ],
  "data": {
    "created_at": "2019-09-29T15:55:06.000Z",
    "kid": "e5f0c968-87c2-433f-ac93-a0a13db0cfd0",
    "modified_at": "2022-05-26T16:31:53.464Z",
    "repository": "kara.moe",
    "songorder": null,
    "tags": {
      "authors": [
        "622e2a6d-e4e8-4ff5-b218-890e8d7a3abf"
      ],
      "creators": [
        "6b8ffb9d-bc6a-4de7-b8a7-b4c6b4c2f475"
      ],
      "families": [
        "5391f9fe-638c-415f-8dc9-958e3a2c5787"
      ],
      "groups": [
        "2b4e9972-5e17-481b-99f5-d0787c0ada56",
        "ae613721-1fbe-480d-ba6b-d6d0702b184d"
      ],
      "langs": [
        "3b9e2749-27d0-4a78-873d-ea91a9ee9a25"
      ],
      "singers": [
        "a04de5b7-d6e3-4d6b-9b6c-e303bf4b1847"
      ],
      "songtypes": [
        "7be1b15c-cff8-4b37-a649-5c90f3d569a9"
      ],
      "songwriters": [
        "015b64fa-5608-4099-b74d-5b3cdb7114aa",
        "08cf7405-ceb2-4b4d-a5bc-b1e958cb248d",
        "beec692c-647b-4d16-b52e-b827601de7db",
        "c35f5d90-7677-4080-8737-b65d05c22ef9",
        "e0da3ac8-e41b-4191-a425-b88365f0d6ac"
      ],
      "collections": [
        "dbcf2c22-524d-4708-99bb-601703633927"
      ]
    },
    "titles": {
      "eng": "Gorilla"
    },
    "titles_default_language": "eng",
    "title": "Gorilla",
    "year": 2017
  }
}