{
  "header": {
    "version": 4,
    "description": "Karaoke Mugen Karaoke Data File"
  },
  "medias": [
    {
      "version": "Default",
      "filename": "KOR - EXO - MV - Growl ~ Alternative Vers.mp4",
      "audiogain": -10.14,
      "loudnorm": "-7.31,3.37,5.60,-17.41,-0.77",
      "filesize": 100211265,
      "duration": 207,
      "default": true,
      "lyrics": [
        {
          "filename": "KOR - EXO - MV - Growl ~ Alternative Vers.ass",
          "default": true,
          "version": "Default"
        }
      ]
    }
  ],
  "data": {
    "created_at": "2019-10-06T14:31:16.000Z",
    "kid": "20addfb8-781c-49f8-a28d-da0d6f168f21",
    "modified_at": "2022-05-26T16:30:48.879Z",
    "parents": [
      "d5aeae69-434b-41ae-99c9-55d9c9b8f947"
    ],
    "repository": "kara.moe",
    "songorder": null,
    "tags": {
      "authors": [
        "622e2a6d-e4e8-4ff5-b218-890e8d7a3abf"
      ],
      "creators": [
        "41112842-f1a3-4fef-9ebd-55b7fa600589"
      ],
      "families": [
        "5391f9fe-638c-415f-8dc9-958e3a2c5787"
      ],
      "groups": [
        "2b4e9972-5e17-481b-99f5-d0787c0ada56",
        "ae613721-1fbe-480d-ba6b-d6d0702b184d"
      ],
      "langs": [
        "3b9e2749-27d0-4a78-873d-ea91a9ee9a25"
      ],
      "singers": [
        "51730e93-967a-4b7e-9830-e8e127a7ae54"
      ],
      "songtypes": [
        "7be1b15c-cff8-4b37-a649-5c90f3d569a9"
      ],
      "songwriters": [
        "015b64fa-5608-4099-b74d-5b3cdb7114aa",
        "37782bb7-b01e-4f18-9f80-f4e010162754",
        "98392ff6-a730-46dd-a534-fb13de471c0d",
        "ef9cb13a-772d-41f0-8dfa-201c50cbc74c",
        "f44978b8-40a2-43b6-a5d5-56d8e7f42dfe",
        "f94a0bf7-3ee4-4675-89e5-e74c98dc541f"
      ],
      "versions": [
        "9f63c359-d1bf-425a-bcf5-b245c2c9211d"
      ],
      "collections": [
        "dbcf2c22-524d-4708-99bb-601703633927"
      ]
    },
    "titles": {
      "eng": "Growl"
    },
    "titles_default_language": "eng",
    "title": "Growl",
    "year": 2013
  }
}