{
  "header": {
    "version": 4,
    "description": "Karaoke Mugen Karaoke Data File"
  },
  "medias": [
    {
      "version": "Default",
      "filename": "SPA - Alejandro Sanz, Shakira - MV - La tortura.mp4",
      "audiogain": -3.43,
      "loudnorm": "-14.01,-0.46,6.10,-24.06,-0.75",
      "filesize": 106377635,
      "duration": 214,
      "default": true,
      "lyrics": [
        {
          "filename": "SPA - Alejandro Sanz, Shakira - MV - La tortura.ass",
          "default": true,
          "version": "Default"
        }
      ]
    }
  ],
  "data": {
    "created_at": "2022-12-11T13:01:15.169Z",
    "ignoreHooks": false,
    "kid": "32ea2bc1-6aa1-4435-ba87-8aa5773310c4",
    "modified_at": "2022-12-11T13:10:12.334Z",
    "repository": "kara.moe",
    "tags": {
      "authors": [
        "63ab3b66-4d55-4b47-8e33-b99531d94cae"
      ],
      "collections": [
        "efe171c0-e8a1-4d03-98c0-60ecf741ad52"
      ],
      "creators": [
        "1cd2f13e-05cb-49b5-b42f-96260f7a162b"
      ],
      "families": [
        "5391f9fe-638c-415f-8dc9-958e3a2c5787"
      ],
      "groups": [
        "3c14c864-533c-49e6-a3cc-6969f1233775"
      ],
      "langs": [
        "11e9665f-f813-4495-bced-7ef9422cc992"
      ],
      "singers": [
        "a6cf792d-9115-47dd-ae07-ae41735dd803",
        "ce318e63-2612-4364-a554-48cb1ec6b68a"
      ],
      "songtypes": [
        "7be1b15c-cff8-4b37-a649-5c90f3d569a9"
      ],
      "songwriters": [
        "22882a65-4f75-409b-a522-757163e93a90",
        "a6cf792d-9115-47dd-ae07-ae41735dd803",
        "ce318e63-2612-4364-a554-48cb1ec6b68a"
      ]
    },
    "titles": {
      "spa": "La tortura"
    },
    "titles_default_language": "spa",
    "year": 2005
  }
}