{
  "header": {
    "version": 4,
    "description": "Karaoke Mugen Karaoke Data File"
  },
  "medias": [
    {
      "version": "Default",
      "filename": "UND - Bessatsu Olympia Kyklos - OP - William Tell Jokyoku.mp4",
      "audiogain": 6.57,
      "loudnorm": "-24.67,-13.99,3.40,-34.89,-0.18",
      "filesize": 41960923,
      "duration": 30,
      "default": true,
      "lyrics": [
        {
          "filename": "UND - Bessatsu Olympia Kyklos - OP - William Tell Jokyoku.ass",
          "default": true,
          "version": "Default",
          "subchecksum": "be6500f04212e90a545d7925285518b7"
        }
      ]
    }
  ],
  "data": {
    "created_at": "2020-05-03T15:40:09.325Z",
    "kid": "5ef85d52-7857-43c3-870f-436fe320838e",
    "modified_at": "2021-02-25T13:49:53.582Z",
    "repository": "kara.moe",
    "tags": {
      "authors": [
        "1df04771-a378-4f14-a5e1-1455187d681a"
      ],
      "collections": [
        "c7db86a0-ff64-4044-9be4-66dd1ef1d1c1"
      ],
      "families": [
        "0377db02-3af6-43b8-9b08-c759df3d25c3"
      ],
      "groups": [
        "8e209ae4-4381-438f-89dc-1b21752027d2"
      ],
      "langs": [
        "12bce133-e896-4ea8-9c43-e06a4288ddfc"
      ],
      "origins": [
        "938de218-5343-4865-94d3-fb33f2eaa152"
      ],
      "series": [
        "13cf0b32-197b-42f9-ad32-0b7869807098"
      ],
      "singers": [
        "22f0cc55-48fa-403c-97d3-f810a5dd9617"
      ],
      "songtypes": [
        "f02ad9b3-0bd9-4aad-85b3-9976739ba0e4"
      ],
      "songwriters": [
        "2713d0a3-f534-475c-857e-e17b3848219f"
      ]
    },
    "title": "William Tell Jokyoku",
    "titles": {
      "eng": "William Tell Jokyoku"
    },
    "year": 2020
  }
}