{
  "header": {
    "description": "Karaoke Mugen Tag File",
    "version": 1
  },
  "tag": {
    "i18n": {
      "eng": "10-FEET"
    },
    "name": "10-FEET",
    "repository": "kara.moe",
    "tid": "b8fbce62-1537-4804-b546-10ed010b4adb",
    "types": [
      "singers",
      "2"
    ]
  }
}