{
  "header": {
    "description": "Karaoke Mugen Tag File",
    "version": 1
  },
  "tag": {
    "aliases": [
      "Age 12"
    ],
    "external_database_ids": {
      "anilist": 21609,
      "myanimelist": 32601,
      "kitsu": 11782
    },
    "i18n": {
      "eng": "Age 12: A Little Heart-Pounding",
      "fre": "12 ans",
      "jpn": "12歳. ~ちっちゃなムネのトキメキ~",
      "qro": "12-Sai. Chicchana Mune no Tokimekii"
    },
    "modified_at": "2020-03-31T19:04:30.863Z",
    "name": "12-Sai. Chicchana Mune no Tokimekii",
    "repository": "kara.moe",
    "tid": "511a2ed0-527f-4772-a943-45e6947b3459",
    "types": [
      "series",
      "1"
    ]
  }
}