{
  "header": {
    "description": "Karaoke Mugen Tag File",
    "version": 1
  },
  "tag": {
    "i18n": {
      "eng": "150P"
    },
    "name": "150P",
    "tid": "f4d1d064-c1d1-4473-9264-f12dd1babf9f",
    "types": [
      "songwriters",
      "8"
    ],
    "repository": "kara.moe",
    "modified_at": "2020-03-31T19:04:33.225Z"
  }
}