{
  "header": {
    "description": "Karaoke Mugen Tag File",
    "version": 1
  },
  "tag": {
    "i18n": {
      "eng": "20th Century"
    },
    "name": "20th Century",
    "tid": "923ddfa4-9985-4bbf-8d26-a74b43b1b00f",
    "types": [
      "singers",
      "2"
    ],
    "repository": "kara.moe",
    "modified_at": "2020-03-31T19:04:33.230Z"
  }
}