{
  "header": {
    "description": "Karaoke Mugen Tag File",
    "version": 1
  },
  "tag": {
    "i18n": {
      "eng": "27Corazones Beats"
    },
    "name": "27Corazones Beats",
    "repository": "kara.moe",
    "tid": "4d86ebf1-54d7-4df1-a5e3-b2adc61913f2",
    "types": [
      "songwriters",
      "8"
    ]
  }
}