{
  "header": {
    "description": "Karaoke Mugen Tag File",
    "version": 1
  },
  "tag": {
    "i18n": {
      "eng": "2BACKKA"
    },
    "modified_at": "2020-04-29T21:01:29.231Z",
    "name": "2BACKKA",
    "repository": "kara.moe",
    "tid": "50c2b203-7495-4e76-a996-a46fc96c9eda",
    "types": [
      "songwriters",
      "8",
      "singers",
      "2"
    ]
  }
}