{
  "header": {
    "description": "Karaoke Mugen Tag File",
    "version": 1
  },
  "tag": {
    "i18n": {
      "eng": "3 Guava Trio"
    },
    "name": "3 Guava Trio",
    "repository": "kara.moe",
    "tid": "1e9dbbf4-1013-4552-98c7-eb7c451a7413",
    "types": [
      "singergroups",
      "17"
    ]
  }
}