{
  "header": {
    "description": "Karaoke Mugen Tag File",
    "version": 1
  },
  "tag": {
    "i18n": {
      "eng": "345"
    },
    "name": "345",
    "tid": "ba8db274-371b-4ca9-b67c-cb62e6e8f860",
    "types": [
      "singers",
      "2"
    ],
    "repository": "kara.moe",
    "modified_at": "2020-03-31T19:04:33.234Z"
  }
}