{
  "header": {
    "description": "Karaoke Mugen Tag File",
    "version": 1
  },
  "tag": {
    "i18n": {
      "eng": "4 Non Blondes"
    },
    "name": "4 Non Blondes",
    "repository": "kara.moe",
    "tid": "5cab9a27-d83b-4c69-9920-819c4dda65a1",
    "types": [
      "singers",
      "2"
    ]
  }
}