{
  "header": {
    "description": "Karaoke Mugen Tag File",
    "version": 1
  },
  "tag": {
    "i18n": {
      "eng": "765PRO ALLSTARS"
    },
    "name": "765PRO ALLSTARS",
    "tid": "6b9e0c83-60db-4f0f-bf10-63c37a8198d6",
    "types": [
      "singers",
      "2"
    ],
    "repository": "kara.moe",
    "modified_at": "2020-03-31T19:04:33.247Z"
  }
}