{
  "header": {
    "description": "Karaoke Mugen Tag File",
    "version": 1
  },
  "tag": {
    "i18n": {
      "eng": "7th Sisters"
    },
    "name": "7th Sisters",
    "tid": "4a7e6f06-734f-46d4-a4d5-adfcc948784a",
    "types": [
      "singers",
      "2"
    ],
    "repository": "kara.moe",
    "modified_at": "2020-03-31T19:04:33.249Z"
  }
}