{
  "header": {
    "description": "Karaoke Mugen Tag File",
    "version": 1
  },
  "tag": {
    "i18n": {
      "eng": "7th Magnitude"
    },
    "modified_at": "2020-07-04T14:36:57.493Z",
    "name": "7th Magnitude",
    "repository": "kara.moe",
    "tid": "46babdf8-9641-4054-b729-9ae570f10d2c",
    "types": [
      "creators",
      "4"
    ]
  }
}