{
  "header": {
    "description": "Karaoke Mugen Tag File",
    "version": 1
  },
  "tag": {
    "aliases": [
      "Eightman",
      "エイトマン"
    ],
    "external_database_ids": {
      "anilist": 5052,
      "myanimelist": 5052,
      "kitsu": 3906
    },
    "i18n": {
      "eng": "8 Man",
      "fre": "Eightman",
      "jpn": "8マン",
      "qro": "8 Man"
    },
    "modified_at": "2020-06-21T23:45:31.966Z",
    "name": "8 Man",
    "repository": "kara.moe",
    "tid": "81f71789-c06d-4fd0-a2d9-fa1f4e5d506c",
    "types": [
      "series",
      "1"
    ]
  }
}