{
  "header": {
    "description": "Karaoke Mugen Tag File",
    "version": 1
  },
  "tag": {
    "i18n": {
      "eng": "83 (CHERRYBLOSSOM)"
    },
    "name": "83 (CHERRYBLOSSOM)",
    "tid": "37b17fe8-f8c2-41fc-b73f-f80230960559",
    "types": [
      "songwriters",
      "8"
    ],
    "repository": "kara.moe",
    "modified_at": "2020-03-31T19:04:33.249Z"
  }
}