{
  "header": {
    "description": "Karaoke Mugen Tag File",
    "version": 1
  },
  "tag": {
    "i18n": {
      "eng": "90s"
    },
    "name": "90s",
    "tid": "24db50aa-a126-4d34-a48a-e45db79c4245",
    "types": [
      "groups",
      "9"
    ],
    "repository": "kara.moe",
    "modified_at": "2020-03-31T19:04:33.253Z"
  }
}