{
  "header": {
    "description": "Karaoke Mugen Tag File",
    "version": 1
  },
  "tag": {
    "i18n": {
      "eng": "A.C.G.T"
    },
    "name": "A.C.G.T",
    "tid": "771bd6aa-2bbe-473e-bd45-f692e9c95543",
    "types": [
      "creators",
      "4"
    ],
    "repository": "kara.moe",
    "modified_at": "2020-03-31T19:04:33.263Z"
  }
}