{
  "header": {
    "description": "Karaoke Mugen Tag File",
    "version": 1
  },
  "tag": {
    "aliases": [
      "aico"
    ],
    "external_database_ids": {
      "anilist": 99725,
      "myanimelist": 36039,
      "kitsu": 13696
    },
    "i18n": {
      "eng": "A.I.C.O. Incarnation",
      "jpn": "A.I.C.O. -Incarnation-",
      "qro": "A.I.C.O. Incarnation"
    },
    "modified_at": "2020-03-31T19:04:30.875Z",
    "name": "A.I.C.O. Incarnation",
    "repository": "kara.moe",
    "tid": "6fc393e4-4ee0-4a6c-9e10-09c04b66c890",
    "types": [
      "series",
      "1"
    ]
  }
}