{
  "header": {
    "description": "Karaoke Mugen Tag File",
    "version": 1
  },
  "tag": {
    "i18n": {
      "eng": "a.k.a.dRESS"
    },
    "name": "a.k.a.dRESS",
    "tid": "55071c65-79ec-4892-869e-00c25df2ceaf",
    "types": [
      "songwriters",
      "8"
    ],
    "repository": "kara.moe",
    "modified_at": "2020-03-31T19:04:33.265Z"
  }
}