{
  "header": {
    "description": "Karaoke Mugen Tag File",
    "version": 1
  },
  "tag": {
    "aliases": [
      "AMG TV 2",
      "Ah! My Goddess Everyone's Wings",
      "Ah! My Goddess Flights of Fancy",
      "Ah! My Goddess: Everyone Has Wings",
      "Ah! My Goddess: Sorezore no Tsubasa",
      "Ah! Zeiţa Mea: Oricine are Aripi",
      "Ah!! My Goddess: Sorezore no Hane",
      "amg s2",
      "amg2",
      "amgtv2",
      "ams tv 2",
      "ams tv2",
      "ams2",
      "amstv2",
      "Ах! Богиньо моя! Всеки има крила",
      "Ах! Моя богиня: у каждого есть крылья",
      "Моя богиня! (сезон второй)",
      "ああっ女神さまっ 第二期",
      "我的女神: 缤纷之翼"
    ],
    "external_database_ids": {
      "anilist": 880,
      "myanimelist": 880,
      "kitsu": 7775
    },
    "i18n": {
      "eng": "Ah! My Goddess: Flights of Fancy",
      "fre": "Ah! My Goddess (saison 2)",
      "jpn": "ああっ女神さまっ それぞれの翼",
      "qro": "Aa! Megami-sama! Sorezore no Tsubasa"
    },
    "modified_at": "2020-03-31T19:04:30.878Z",
    "name": "Aa! Megami-sama! Sorezore no Tsubasa",
    "repository": "kara.moe",
    "tid": "e564f25c-2f27-41d8-a71b-a893383848bc",
    "types": [
      "series",
      "1"
    ]
  }
}