{
  "header": {
    "description": "Karaoke Mugen Tag File",
    "version": 1
  },
  "tag": {
    "i18n": {
      "eng": "Aaron Cupples"
    },
    "modified_at": "2020-08-19T10:26:41.607Z",
    "name": "Aaron Cupples",
    "repository": "kara.moe",
    "tid": "72b8aba4-b348-45c5-bfee-a657cc81329b",
    "types": [
      "songwriters",
      "8"
    ]
  }
}