{
  "header": {
    "description": "Karaoke Mugen Tag File",
    "version": 1
  },
  "tag": {
    "i18n": {
      "afr": "Abchazische",
      "amh": "Abkhaz",
      "ara": "الأبخازي",
      "aze": "Abxaziya",
      "bak": "Абхазская",
      "bel": "Абхазская",
      "bul": "Абхазская",
      "ben": "যুগ যুগ",
      "bos": "Abkhaz",
      "cat": "Abkhaz",
      "cze": "Abkhaz",
      "wel": "Abkhaz",
      "dan": "Abkhasiske",
      "ger": "Abchasischen",
      "gre": "Αμπχαζίας",
      "eng": "Abkhaz",
      "epo": "Abĥaza",
      "spa": "Abjasia",
      "est": "Abhaasia",
      "baq": "Abkhaz",
      "per": "آبخاز",
      "fin": "Abhasian",
      "fre": "Abkhaze",
      "gle": "Abkhaz",
      "gla": "Abkhaz",
      "glg": "Abxasia",
      "guj": "અંગ્રેજી",
      "heb": "Abkhaz",
      "hin": "Abkhaz",
      "hrv": "Абхазская",
      "hat": "Abkaz",
      "hun": "Abház",
      "arm": "Աբխազական",
      "ind": "Abkhazia",
      "ice": "Abkhaz",
      "ita": "Di abcasia",
      "jpn": "Abkhaz",
      "jav": "Abkhaz",
      "geo": "აფხაზი",
      "kaz": "Абхазская",
      "kan": "Abkhaz",
      "kor": "압하",
      "kir": "Абхазская",
      "lat": "Abkhaz",
      "lit": "Abchazijos",
      "lav": "Abhāzijas",
      "mlg": "Abkhaz",
      "mao": "Abkhaz",
      "mac": "Abkhaz",
      "mal": "Abkhaz",
      "mon": "Abkhaz",
      "mar": "अबखाझ",
      "may": "Abkhazia",
      "mlt": "Abkażi",
      "nep": "Abkhaz",
      "dut": "Abkhaz",
      "nor": "Abkhaz",
      "pan": "Abkhaz",
      "pol": "Абхазская",
      "por": "Abkhaz",
      "rum": "Abhaz",
      "rus": "Абхазская",
      "sin": "Abkhaz",
      "slo": "Abcházska",
      "slv": "Abkhaz",
      "alb": "Abkhaz",
      "srp": "Абхазская",
      "sun": "Abkhaz",
      "swe": "Syriens",
      "swa": "Abkhaz",
      "tam": "அங்கேரிய",
      "tel": "Abkhaz",
      "tgk": "Абхазская",
      "tha": "Abkhaz",
      "tgl": "Abkhaz",
      "tur": "Abhaz",
      "tat": "Абхазская",
      "ukr": "Абхазька",
      "urd": "Abkhaz",
      "uzb": "Abkhaz",
      "vie": "Ngoại",
      "xho": "Abkhaz",
      "yid": "אַבכאַז",
      "chi": "阿布哈兹"
    },
    "name": "abk",
    "tid": "a5b12439-47dd-42cc-b416-1c0af8fcdcd0",
    "types": [
      "langs",
      "5"
    ],
    "repository": "kara.moe",
    "modified_at": "2020-03-31T19:04:33.277Z"
  }
}