{
  "header": {
    "description": "Karaoke Mugen Tag File",
    "version": 1
  },
  "tag": {
    "i18n": {
      "eng": "Abreath Sound Team"
    },
    "name": "Abreath Sound Team",
    "tid": "af441278-cb81-45a2-87a7-8434c1c57aa0",
    "types": [
      "songwriters",
      "8"
    ],
    "repository": "kara.moe",
    "modified_at": "2020-03-31T19:04:33.277Z"
  }
}