{
  "header": {
    "description": "Karaoke Mugen Tag File",
    "version": 1
  },
  "tag": {
    "i18n": {
      "eng": "ABT"
    },
    "name": "ABT",
    "tid": "0067c86f-28ca-47b1-9bc2-88e3ede500e3",
    "types": [
      "creators",
      "4"
    ],
    "repository": "kara.moe",
    "modified_at": "2020-03-31T19:04:33.277Z"
  }
}