{
  "header": {
    "description": "Karaoke Mugen Tag File",
    "version": 1
  },
  "tag": {
    "i18n": {
      "eng": "Abyssmare"
    },
    "name": "Abyssmare",
    "repository": "kara.moe",
    "tid": "be129632-8f63-4142-a746-fd8782c5cb75",
    "types": [
      "singergroups",
      "17"
    ]
  }
}