{
  "header": {
    "description": "Karaoke Mugen Tag File",
    "version": 1
  },
  "tag": {
    "i18n": {
      "eng": "ACC Production"
    },
    "name": "ACC Production",
    "tid": "e5b423fe-e4e5-442a-a3ed-cdfe1e6d61b5",
    "types": [
      "creators",
      "4"
    ],
    "repository": "kara.moe",
    "modified_at": "2020-03-31T19:04:33.280Z"
  }
}