{
  "header": {
    "description": "Karaoke Mugen Tag File",
    "version": 1
  },
  "tag": {
    "i18n": {
      "eng": "access"
    },
    "name": "access",
    "tid": "d9474c97-14b1-4bd4-9f7b-d696059644f5",
    "types": [
      "singers",
      "2"
    ],
    "repository": "kara.moe",
    "modified_at": "2020-03-31T19:04:33.280Z"
  }
}