{
  "header": {
    "description": "Karaoke Mugen Tag File",
    "version": 1
  },
  "tag": {
    "aliases": [
      "福助。",
      "Fukusuke."
    ],
    "i18n": {
      "eng": "ADAPTER。",
      "jpn": "ADAPTER。",
      "qro": "Adapter."
    },
    "modified_at": "2020-08-18T22:43:48.587Z",
    "name": "Adapter.",
    "repository": "kara.moe",
    "tid": "68c2f4be-cbdc-4510-a62f-cd58f0a3f1a3",
    "types": [
      "songwriters",
      "8",
      "singers",
      "2"
    ]
  }
}