{
  "header": {
    "description": "Karaoke Mugen Tag File",
    "version": 1
  },
  "tag": {
    "external_database_ids": {
      "anilist": 101571,
      "myanimelist": 36904,
      "kitsu": 41204
    },
    "i18n": {
      "eng": "Aggretsuko",
      "jpn": "アグレッシブ烈子",
      "qro": "Aggressive Retsuko"
    },
    "name": "Aggressive Retsuko",
    "repository": "kara.moe",
    "short": "",
    "tid": "3de9be10-601a-49f5-abf2-611ede8cf2aa",
    "types": [
      "series",
      "1"
    ]
  }
}