{
  "header": {
    "description": "Karaoke Mugen Tag File",
    "version": 1
  },
  "tag": {
    "i18n": {
      "eng": "Ahmed Béton"
    },
    "name": "Ahmed Béton",
    "tid": "e78e9e40-f5b7-41e6-9a9c-65c3f4189d78",
    "types": [
      "songwriters",
      "8"
    ],
    "repository": "kara.moe",
    "modified_at": "2020-03-31T19:04:33.302Z"
  }
}