{
  "header": {
    "description": "Karaoke Mugen Tag File",
    "version": 1
  },
  "tag": {
    "i18n": {
      "eng": "Plus Nine Boys",
      "kor": "아홉수 소년"
    },
    "modified_at": "2020-03-31T19:04:30.893Z",
    "name": "Ahobsu Sonyeon",
    "repository": "kara.moe",
    "tid": "504cc7ea-e93e-4c35-bf5f-faa69d5fc79a",
    "types": [
      "series",
      "1"
    ]
  }
}