{
  "header": {
    "description": "Karaoke Mugen Tag File",
    "version": 1
  },
  "tag": {
    "i18n": {
      "eng": "Ai Fairouz"
    },
    "name": "Ai Fairouz",
    "tid": "d8b7cca5-72e9-4ab0-ae2c-0a4f2500dccd",
    "types": [
      "singers",
      "2"
    ],
    "repository": "kara.moe",
    "modified_at": "2020-03-31T19:04:33.303Z"
  }
}