{
  "header": {
    "description": "Karaoke Mugen Tag File",
    "version": 1
  },
  "tag": {
    "i18n": {
      "eng": "Ai Nagano"
    },
    "modified_at": "2021-02-27T20:18:16.215Z",
    "name": "Ai Nagano",
    "repository": "kara.moe",
    "tid": "06968850-917b-410c-b942-0283b44b1df1",
    "types": [
      "singers",
      "2"
    ]
  }
}