{
  "header": {
    "description": "Karaoke Mugen Tag File",
    "version": 1
  },
  "tag": {
    "aliases": [
      "Ai no Utagoe o Kikasete"
    ],
    "external_database_ids": {
      "anilist": 123899,
      "kitsu": 43537,
      "myanimelist": 42847
    },
    "i18n": {
      "eng": "Sing a Bit of Harmony",
      "qro": "Ai no Utagoe wo Kikasete",
      "jpn": "アイの歌声を聴かせて"
    },
    "name": "Ai no Utagoe wo Kikasete",
    "repository": "kara.moe",
    "tid": "c1d48f30-56c8-4515-9e06-89f075367ff3",
    "types": [
      "series",
      "1"
    ]
  }
}