{
  "header": {
    "description": "Karaoke Mugen Tag File",
    "version": 1
  },
  "tag": {
    "aliases": [
      "Oosera",
      "Ohsera"
    ],
    "i18n": {
      "eng": "Ai Ôsera",
      "jpn": "大瀬良あい",
      "qro": "Ai Ôsera"
    },
    "name": "Ai Ôsera",
    "repository": "kara.moe",
    "tid": "638c5c25-7957-49ce-95f5-d9aead0aba7b",
    "types": [
      "singers",
      "2"
    ]
  }
}