{
  "header": {
    "description": "Karaoke Mugen Tag File",
    "version": 1
  },
  "tag": {
    "i18n": {
      "eng": "Ai Uchikawa"
    },
    "name": "Ai Uchikawa",
    "tid": "140f1392-20ab-43bc-b7cb-c7b6bb097b81",
    "types": [
      "singers",
      "2"
    ],
    "repository": "kara.moe",
    "modified_at": "2020-03-31T19:04:33.311Z"
  }
}