{
  "header": {
    "description": "Karaoke Mugen Tag File",
    "version": 1
  },
  "tag": {
    "i18n": {
      "eng": "Aiko Okumura"
    },
    "name": "Aiko Okumura",
    "tid": "61b2ff65-a12f-4249-9e8a-463ce9517f8e",
    "types": [
      "songwriters",
      "8"
    ],
    "repository": "kara.moe",
    "modified_at": "2020-03-31T19:04:33.321Z"
  }
}