{
  "header": {
    "description": "Karaoke Mugen Tag File",
    "version": 1
  },
  "tag": {
    "i18n": {
      "eng": "airy[F]airy: Easter of Sant' Ariccia",
      "jpn": "airy[F]airy: Easter of Sant' Ariccia",
      "qro": "airy[F]airy: Easter of Sant' Ariccia"
    },
    "modified_at": "2020-03-31T19:04:30.903Z",
    "name": "airy[F]airy: Easter of Sant' Ariccia",
    "repository": "kara.moe",
    "tid": "a5b93057-f8ec-4732-9371-63df739846d6",
    "types": [
      "series",
      "1"
    ]
  }
}