{
  "header": {
    "description": "Karaoke Mugen Tag File",
    "version": 1
  },
  "tag": {
    "i18n": {
      "eng": "Aka Tsutsumi"
    },
    "name": "Aka Tsutsumi",
    "tid": "c4ff6825-de93-4e51-a826-124cfee19365",
    "types": [
      "songwriters",
      "8"
    ],
    "repository": "kara.moe",
    "modified_at": "2020-03-31T19:04:33.337Z"
  }
}