{
  "header": {
    "description": "Karaoke Mugen Tag File",
    "version": 1
  },
  "tag": {
    "external_database_ids": {
      "anilist": 14941,
      "myanimelist": 14941,
      "kitsu": 7184
    },
    "i18n": {
      "eng": "AKB0048: Next Stage",
      "jpn": "AKB0048 next stage",
      "qro": "AKB0048 Next Stage"
    },
    "modified_at": "2020-03-31T19:04:30.916Z",
    "name": "AKB0048 Next Stage",
    "repository": "kara.moe",
    "tid": "0a027462-033b-45f5-ab2a-1c90ed43f48c",
    "types": [
      "series",
      "1"
    ]
  }
}