{
  "header": {
    "description": "Karaoke Mugen Tag File",
    "version": 1
  },
  "tag": {
    "i18n": {
      "eng": "AKI·7"
    },
    "name": "AKI·7",
    "repository": "kara.moe",
    "tid": "0c57a0f1-5f1a-46a0-9236-dd5fa3531213",
    "types": [
      "creators",
      "4"
    ]
  }
}