{
  "header": {
    "description": "Karaoke Mugen Tag File",
    "version": 1
  },
  "tag": {
    "i18n": {
      "eng": "Akiba Koala"
    },
    "name": "Akiba Koala",
    "repository": "kara.moe",
    "tid": "a6c83f27-992a-4ef2-a617-8f632dcf2aab",
    "types": [
      "singers",
      "2"
    ],
    "modified_at": "2020-03-31T19:04:33.366Z"
  }
}