{
  "header": {
    "description": "Karaoke Mugen Tag File",
    "version": 1
  },
  "tag": {
    "aliases": [
      "秋葉原脫物語",
      "アキバズトリップ",
      "秋叶原之旅"
    ],
    "external_database_ids": {},
    "i18n": {
      "eng": "Akiba's Trip"
    },
    "name": "Akiba's Trip",
    "repository": "kara.moe",
    "tid": "9ea81ceb-bcf0-4710-b300-325a5c3cd412",
    "types": [
      "franchises",
      "18"
    ]
  }
}