{
  "header": {
    "description": "Karaoke Mugen Tag File",
    "version": 1
  },
  "tag": {
    "i18n": {
      "eng": "Akiha Aisora"
    },
    "name": "Akiha Aisora",
    "tid": "cb646fb4-c0e1-48ba-a961-9a302c875bcd",
    "types": [
      "singers",
      "2"
    ],
    "repository": "kara.moe",
    "modified_at": "2020-03-31T19:04:33.367Z"
  }
}