{
  "header": {
    "description": "Karaoke Mugen Tag File",
    "version": 1
  },
  "tag": {
    "i18n": {
      "eng": "Akihabara@DEEP",
      "jpn": "アキハバラ@DEEP",
      "qro": "Akihabara@DEEP"
    },
    "modified_at": "2020-03-31T19:04:30.922Z",
    "name": "Akihabara@DEEP",
    "repository": "kara.moe",
    "tid": "024bfb41-18e7-4d79-b0b3-ebca9c4e7ee7",
    "types": [
      "series",
      "1"
    ]
  }
}