{
  "header": {
    "description": "Karaoke Mugen Tag File",
    "version": 1
  },
  "tag": {
    "aliases": [
      "Akihisa Kondou"
    ],
    "i18n": {
      "eng": "Akihisa Kondô"
    },
    "modified_at": "2020-08-17T20:18:18.987Z",
    "name": "Akihisa Kondô",
    "repository": "kara.moe",
    "tid": "3ec2e0c6-d981-4c20-bf63-fc4439979abc",
    "types": [
      "songwriters",
      "8",
      "singers",
      "2"
    ]
  }
}