{
  "header": {
    "description": "Karaoke Mugen Tag File",
    "version": 1
  },
  "tag": {
    "i18n": {
      "eng": "Akira Okumura"
    },
    "name": "Akira Okumura",
    "repository": "kara.moe",
    "tid": "4601e147-a15d-45d4-baee-8abc4ef7e4d5",
    "types": [
      "songwriters",
      "8"
    ]
  }
}