{
  "header": {
    "description": "Karaoke Mugen Tag File",
    "version": 1
  },
  "tag": {
    "external_database_ids": {
      "anilist": 100645,
      "myanimelist": 36864,
      "kitsu": 14202
    },
    "i18n": {
      "eng": "My Sweet Tyrant",
      "fre": "Akkun to Kanojo",
      "jpn": "あっくんとカノジョ",
      "kor": "앗군과 그녀",
      "qro": "Akkun to Kanojo"
    },
    "modified_at": "2020-03-31T19:04:30.922Z",
    "name": "Akkun to Kanojo",
    "repository": "kara.moe",
    "tid": "c110747d-39b1-4be0-ba44-2991233974a9",
    "types": [
      "series",
      "1"
    ]
  }
}