{
  "header": {
    "description": "Karaoke Mugen Tag File",
    "version": 1
  },
  "tag": {
    "aliases": [
      "The Flowers of Evil",
      "Цветы зла",
      "گل شیطان"
    ],
    "external_database_ids": {
      "anilist": 16201,
      "myanimelist": 16201,
      "kitsu": 7387
    },
    "i18n": {
      "eng": "Flowers of Evil",
      "fre": "Aku no Hana",
      "ger": "Aku no Hana: Die Blumen des Bösen",
      "jpn": "惡の華",
      "qro": "Aku no Hana"
    },
    "modified_at": "2020-03-31T19:04:30.924Z",
    "name": "Aku no Hana",
    "repository": "kara.moe",
    "tid": "1624faac-6525-45f2-810c-bd0dc6b4c025",
    "types": [
      "series",
      "1"
    ]
  }
}