{
  "header": {
    "description": "Karaoke Mugen Tag File",
    "version": 1
  },
  "tag": {
    "aliases": [
      "Macron-1",
      "aku"
    ],
    "external_database_ids": {
      "anilist": 6452,
      "myanimelist": 6452,
      "kitsu": 4567
    },
    "i18n": {
      "eng": "Mission Outer Space Srungle",
      "jpn": "亜空大作戦スラングル",
      "qro": "Akū Daisakusen Srungle"
    },
    "modified_at": "2020-03-31T19:04:30.922Z",
    "name": "Akū Daisakusen Srungle",
    "repository": "kara.moe",
    "tid": "5da0d2b2-368f-4d3e-bf0f-68fc8b9e8002",
    "types": [
      "series",
      "1"
    ]
  }
}