{
  "header": {
    "description": "Karaoke Mugen Tag File",
    "version": 1
  },
  "tag": {
    "i18n": {
      "eng": "alan"
    },
    "name": "alan",
    "tid": "2006368c-3411-499d-80f4-52d5b504315b",
    "types": [
      "singers",
      "2"
    ],
    "repository": "kara.moe",
    "modified_at": "2020-03-31T19:04:33.421Z"
  }
}