{
  "header": {
    "description": "Karaoke Mugen Tag File",
    "version": 1
  },
  "tag": {
    "i18n": {
      "eng": "Alex Brightman"
    },
    "name": "Alex Brightman",
    "repository": "kara.moe",
    "tid": "206f6024-bb83-4377-806f-68b251e34d92",
    "types": [
      "singers",
      "2"
    ]
  }
}