{
  "header": {
    "description": "Karaoke Mugen Tag File",
    "version": 1
  },
  "tag": {
    "aliases": [
      "DrFeelgood"
    ],
    "i18n": {
      "eng": "Alexis Rodrigues"
    },
    "name": "Alexis Rodrigues",
    "tid": "3db364b4-9c7d-4e8a-a67e-02cf4d821ca2",
    "types": [
      "singers",
      "2"
    ],
    "repository": "kara.moe",
    "modified_at": "2020-03-31T19:04:33.434Z"
  }
}