{
  "header": {
    "description": "Karaoke Mugen Tag File",
    "version": 1
  },
  "tag": {
    "aliases": [
      "LuttiLutti"
    ],
    "i18n": {
      "eng": "Alexandre Delattre"
    },
    "name": "Alexandre Delattre",
    "tid": "573d170b-e674-4d90-90f7-0770084bd721",
    "types": [
      "singers",
      "2"
    ],
    "repository": "kara.moe",
    "modified_at": "2020-03-31T19:04:33.429Z"
  }
}