{
  "header": {
    "description": "Karaoke Mugen Tag File",
    "version": 1
  },
  "tag": {
    "i18n": {
      "eng": "Alex Makhlouf"
    },
    "name": "Alex Makhlouf",
    "repository": "kara.moe",
    "tid": "4800f33b-1aed-4ae3-ad7f-d05ae566d275",
    "types": [
      "songwriters",
      "8"
    ]
  }
}