{
  "header": {
    "description": "Karaoke Mugen Tag File",
    "version": 1
  },
  "tag": {
    "i18n": {
      "eng": "Alex Kapranos"
    },
    "name": "Alex Kapranos",
    "repository": "kara.moe",
    "tid": "8387b795-00a2-44c9-9afb-846458a34b6a",
    "types": [
      "songwriters",
      "8"
    ]
  }
}