{
  "header": {
    "description": "Karaoke Mugen Tag File",
    "version": 1
  },
  "tag": {
    "i18n": {
      "eng": "Ali Edwards"
    },
    "name": "Ali Edwards",
    "repository": "kara.moe",
    "tid": "55fdf60f-fdb9-4ad1-9a9d-24aa9a81b464",
    "types": [
      "singers",
      "2"
    ]
  }
}