{
  "header": {
    "description": "Karaoke Mugen Tag File",
    "version": 1
  },
  "tag": {
    "i18n": {
      "eng": "ALI"
    },
    "name": "ALI",
    "repository": "kara.moe",
    "tid": "d93776ae-70f0-4829-8f52-979a2cb2339f",
    "types": [
      "singers",
      "2",
      "songwriters",
      "8"
    ]
  }
}