{
  "header": {
    "description": "Karaoke Mugen Tag File",
    "version": 1
  },
  "tag": {
    "i18n": {
      "eng": "Alice Nine."
    },
    "name": "Alice Nine.",
    "tid": "1fdde398-98eb-48c8-846b-bc5a8e3466e0",
    "types": [
      "singers",
      "2",
      "songwriters",
      "8"
    ],
    "repository": "kara.moe",
    "modified_at": "2020-03-31T19:04:33.442Z"
  }
}