{
  "header": {
    "description": "Karaoke Mugen Tag File",
    "version": 1
  },
  "tag": {
    "i18n": {
      "eng": "Alisa Takigawa"
    },
    "name": "Alisa Takigawa",
    "tid": "e90d1b5e-f919-4b7b-9ba5-9a9d4e21e8a6",
    "types": [
      "singers",
      "2",
      "songwriters",
      "8"
    ],
    "repository": "kara.moe",
    "modified_at": "2020-03-31T19:04:33.446Z"
  }
}