{
  "header": {
    "description": "Karaoke Mugen Tag File",
    "version": 1
  },
  "tag": {
    "i18n": {
      "eng": "all at once"
    },
    "name": "all at once",
    "repository": "kara.moe",
    "tid": "daea85e9-9ebc-449f-9f15-7f3bb83c6076",
    "types": [
      "singers",
      "2"
    ]
  }
}