{
  "header": {
    "description": "Karaoke Mugen Tag File",
    "version": 1
  },
  "tag": {
    "i18n": {
      "eng": "Amanda Achen-Keenan"
    },
    "name": "Amanda Achen-Keenan",
    "repository": "kara.moe",
    "tid": "c36b3d8c-9e8a-4c93-b8e8-4c45896c0694",
    "types": [
      "singers",
      "2"
    ]
  }
}