{
  "header": {
    "description": "Karaoke Mugen Tag File",
    "version": 1
  },
  "tag": {
    "i18n": {
      "eng": "Ami Nanase"
    },
    "name": "Ami Nanase",
    "repository": "kara.moe",
    "tid": "45649961-b5bb-4052-ab0e-3925302e7aba",
    "types": [
      "singers",
      "2"
    ]
  }
}