{
  "header": {
    "description": "Karaoke Mugen Tag File",
    "version": 1
  },
  "tag": {
    "i18n": {
      "eng": "Amuse Inc."
    },
    "name": "Amuse Inc.",
    "tid": "6b7472ff-6bb9-4420-8a59-a322b9677779",
    "types": [
      "creators",
      "4"
    ],
    "repository": "kara.moe",
    "modified_at": "2020-03-31T19:04:33.470Z"
  }
}