{
  "header": {
    "description": "Karaoke Mugen Tag File",
    "version": 1
  },
  "tag": {
    "aliases": [
      "AMV Enfer",
      "AMV Céleste",
      "Un AMV Français"
    ],
    "i18n": {
      "eng": "AMV Hell 7"
    },
    "modified_at": "2021-06-05T21:58:11.723Z",
    "name": "AMV Hell 7",
    "repository": "kara.moe",
    "tid": "d4187d4b-e002-4bc3-adef-9d1bafd4722e",
    "types": [
      "series",
      "1"
    ]
  }
}