{
  "header": {
    "description": "Karaoke Mugen Tag File",
    "version": 1
  },
  "tag": {
    "i18n": {
      "eng": "AMV Hell"
    },
    "name": "AMV Hell",
    "repository": "kara.moe",
    "tid": "e9bac0e2-ae70-4aff-bc6a-5e2646b8e06b",
    "types": [
      "franchises",
      "18"
    ]
  }
}