{
  "header": {
    "description": "Karaoke Mugen Tag File",
    "version": 1
  },
  "tag": {
    "i18n": {
      "eng": "ANCHOR"
    },
    "name": "ANCHOR",
    "repository": "kara.moe",
    "tid": "1b83e870-55a4-41ff-a8dc-42898a462d63",
    "types": [
      "songwriters",
      "8"
    ]
  }
}