{
  "header": {
    "description": "Karaoke Mugen Tag File",
    "version": 1
  },
  "tag": {
    "i18n": {
      "eng": "Andrew Cedar"
    },
    "name": "Andrew Cedar",
    "repository": "kara.moe",
    "tid": "bcecdbbd-73a9-4add-883c-d102b5921695",
    "types": [
      "songwriters",
      "8"
    ]
  }
}