{
  "header": {
    "description": "Karaoke Mugen Tag File",
    "version": 1
  },
  "tag": {
    "i18n": {
      "eng": "Andreas Meurer"
    },
    "modified_at": "2021-03-19T19:53:15.978Z",
    "name": "Andreas Meurer",
    "repository": "kara.moe",
    "tid": "c0d26de2-5dea-4317-8963-581252fbd89c",
    "types": [
      "songwriters",
      "8"
    ]
  }
}