{
  "header": {
    "description": "Karaoke Mugen Tag File",
    "version": 1
  },
  "tag": {
    "i18n": {
      "eng": "Angelo"
    },
    "name": "Angelo",
    "tid": "5c863f1f-2772-4e5e-bc87-a413586ec7e9",
    "types": [
      "singers",
      "2"
    ],
    "repository": "kara.moe",
    "modified_at": "2020-03-31T19:04:33.488Z"
  }
}