{
  "header": {
    "description": "Karaoke Mugen Tag File",
    "version": 1
  },
  "tag": {
    "aliases": [
      "AB!",
      "Angel Beats",
      "Angelo širdies dūžiai",
      "Eņģeļa Pulss",
      "Ангельские ритмы!",
      "Пульс ангела!",
      "エンジェル ビーツ!",
      "天使的心跳",
      "엔젤비트! 엔젤비츠!"
    ],
    "external_database_ids": {
      "anilist": 6547,
      "myanimelist": 6547,
      "kitsu": 4604
    },
    "i18n": {
      "chi": "Angel Beats!",
      "eng": "Angel Beats!",
      "ger": "Angel Beats!",
      "jpn": "Angel Beats!",
      "tha": "แองเจิลบีทส์ แผนพิชิตนางฟ้า",
      "qro": "Angel Beats!"
    },
    "modified_at": "2020-03-31T19:04:30.950Z",
    "name": "Angel Beats!",
    "repository": "kara.moe",
    "tid": "968ce1fe-c2da-4db5-a451-d69b5a7eee62",
    "types": [
      "series",
      "1"
    ]
  }
}