{
  "header": {
    "description": "Karaoke Mugen Tag File",
    "version": 1
  },
  "tag": {
    "i18n": {
      "eng": "Angel"
    },
    "name": "Angel",
    "tid": "2112c97c-cbbd-47a2-b3c2-50c7599fe410",
    "types": [
      "creators",
      "4"
    ],
    "repository": "kara.moe",
    "modified_at": "2020-03-31T19:04:33.486Z"
  }
}