{
  "header": {
    "description": "Karaoke Mugen Tag File",
    "version": 1
  },
  "tag": {
    "i18n": {
      "eng": "Angus Young"
    },
    "modified_at": "2020-07-11T21:54:36.607Z",
    "name": "Angus Young",
    "repository": "kara.moe",
    "tid": "df4c7181-83af-4032-b398-0c8c82809a08",
    "types": [
      "songwriters",
      "8"
    ]
  }
}