{
  "header": {
    "description": "Karaoke Mugen Tag File",
    "version": 1
  },
  "tag": {
    "i18n": {
      "eng": "Aniplex"
    },
    "modified_at": "2021-07-04T11:31:35.063Z",
    "name": "Aniplex",
    "repository": "kara.moe",
    "tid": "f004c124-4512-45cd-a2b4-5338ed87ae3c",
    "types": [
      "creators",
      "4"
    ]
  }
}