{
  "header": {
    "description": "Karaoke Mugen Tag File",
    "version": 1
  },
  "tag": {
    "i18n": {
      "eng": "Anne Preven"
    },
    "modified_at": "2021-05-21T15:12:49.319Z",
    "name": "Anne Preven",
    "repository": "kara.moe",
    "tid": "6ae42a0a-5c3a-452b-95bb-3d2c5e6e3e23",
    "types": [
      "songwriters",
      "8"
    ]
  }
}