{
  "header": {
    "description": "Karaoke Mugen Tag File",
    "version": 1
  },
  "tag": {
    "aliases": [
      "AnE",
      "Ao no Futsumashi",
      "AoEx",
      "Синият Екзорсист",
      "اگزورسیست آبی",
      "جن گیر آبی",
      "青のエクソシスト",
      "青エク",
      "青之驱魔师"
    ],
    "external_database_ids": {
      "anilist": 9919,
      "myanimelist": 9919,
      "kitsu": 5940
    },
    "i18n": {
      "ara": "المعوذ الأزرق",
      "eng": "Blue Exorcist",
      "fre": "Blue Exorcist",
      "ger": "Blue Exorcist",
      "jpn": "青の祓魔師",
      "per": "جنگیر آبی",
      "rus": "Синий экзорцист",
      "qro": "Ao no Exorcist"
    },
    "modified_at": "2020-03-31T19:04:30.966Z",
    "name": "Ao no Exorcist",
    "repository": "kara.moe",
    "tid": "999a8251-15ba-4a1a-b934-cc6f15a44919",
    "types": [
      "series",
      "1",
      "franchises",
      "18"
    ]
  }
}