{
  "header": {
    "description": "Karaoke Mugen Tag File",
    "version": 1
  },
  "tag": {
    "i18n": {
      "eng": "Aoi"
    },
    "name": "Aoi",
    "repository": "kara.moe",
    "tid": "411e4788-86a0-41cc-9c17-5d35bef269d9",
    "types": [
      "songwriters",
      "8"
    ]
  }
}