{
  "header": {
    "description": "Karaoke Mugen Tag File",
    "version": 1
  },
  "tag": {
    "i18n": {
      "eng": "Aoife Ní Fhearraigh"
    },
    "name": "Aoife Ní Fhearraigh",
    "tid": "9b2372d0-687a-44ef-81af-a755e66e69f8",
    "types": [
      "singers",
      "2"
    ],
    "repository": "kara.moe",
    "modified_at": "2020-03-31T19:04:33.522Z"
  }
}