{
  "header": {
    "description": "Karaoke Mugen Tag File",
    "version": 1
  },
  "tag": {
    "aliases": [
      "Aoki Ryuusei SPT Layzner",
      "Blue Comet SPT Layzner",
      "Layzner Super Powered Tracer",
      "Голубой метеор СПТ Лейзнер",
      "ryuusei"
    ],
    "external_database_ids": {
      "anilist": 3079,
      "myanimelist": 3079,
      "kitsu": 7983
    },
    "i18n": {
      "eng": "Blue Comet SPT Layzner",
      "jpn": "蒼き流星SPTレイズナー",
      "qro": "Aoki Ryûsei SPT Layzner"
    },
    "modified_at": "2020-06-21T23:45:31.966Z",
    "name": "Aoki Ryûsei SPT Layzner",
    "repository": "kara.moe",
    "tid": "5a74a089-ed9d-4327-8305-2d6bcc15485a",
    "types": [
      "series",
      "1"
    ]
  }
}