{
  "header": {
    "description": "Karaoke Mugen Tag File",
    "version": 1
  },
  "tag": {
    "i18n": {
      "eng": "Aono.Y"
    },
    "modified_at": "2021-12-04T20:05:29.946Z",
    "name": "Aono.Y",
    "repository": "kara.moe",
    "tid": "c8bb502b-f3da-42b2-9400-a41100f420a5",
    "types": [
      "creators",
      "4"
    ]
  }
}