{
  "header": {
    "description": "Karaoke Mugen Tag File",
    "version": 1
  },
  "tag": {
    "i18n": {
      "eng": "APAZZI"
    },
    "name": "APAZZI",
    "tid": "370a02b3-b23f-4d24-a201-6ef5e660bad7",
    "types": [
      "songwriters",
      "8"
    ],
    "repository": "kara.moe",
    "modified_at": "2020-03-31T19:04:33.525Z"
  }
}