{
  "header": {
    "description": "Karaoke Mugen Tag File",
    "version": 1
  },
  "tag": {
    "i18n": {
      "eng": "APPP"
    },
    "name": "APPP",
    "repository": "kara.moe",
    "tid": "8d5c9eef-d85b-4b86-85a8-e47180b509cd",
    "types": [
      "creators",
      "4"
    ]
  }
}