{
  "header": {
    "description": "Karaoke Mugen Tag File",
    "version": 1
  },
  "tag": {
    "i18n": {
      "eng": "Aqua Timez"
    },
    "name": "Aqua Timez",
    "tid": "8586ede8-2799-42e4-a7e7-dd26c4709aed",
    "types": [
      "singers",
      "2",
      "songwriters",
      "8"
    ],
    "repository": "kara.moe",
    "modified_at": "2020-03-31T19:04:33.528Z"
  }
}