{
  "header": {
    "description": "Karaoke Mugen Tag File",
    "version": 1
  },
  "tag": {
    "i18n": {
      "eng": "ARAKI"
    },
    "name": "ARAKI",
    "repository": "kara.moe",
    "tid": "9661f44f-aa2d-4e36-a077-3bb7b3784173",
    "types": [
      "songwriters",
      "8"
    ]
  }
}