{
  "header": {
    "description": "Karaoke Mugen Tag File",
    "version": 1
  },
  "tag": {
    "i18n": {
      "eng": "Arc Jewel"
    },
    "modified_at": "1982-04-06",
    "name": "Arc Jewel",
    "repository": "kara.moe",
    "tid": "69962ada-8cfa-46e3-89ec-a1ee98462590",
    "types": [
      "creators",
      "4"
    ]
  }
}