{
  "header": {
    "description": "Karaoke Mugen Tag File",
    "version": 1
  },
  "tag": {
    "i18n": {
      "eng": "ARCANA PROJECT"
    },
    "modified_at": "2021-02-11T13:39:57.587Z",
    "name": "ARCANA PROJECT",
    "repository": "kara.moe",
    "tid": "5dbfee91-dbe9-4fcf-9dd6-f7ef71f77fa8",
    "types": [
      "singers",
      "2"
    ]
  }
}