{
  "header": {
    "description": "Karaoke Mugen Tag File",
    "version": 1
  },
  "tag": {
    "external_database_ids": {
      "anilist": 1488,
      "myanimelist": 1488,
      "kitsu": 1334
    },
    "i18n": {
      "eng": "Area 88 OVA",
      "gre": "Περιοχή 88",
      "jpn": "エリア88",
      "kor": "에어리어 88",
      "qro": "Area 88"
    },
    "modified_at": "2020-03-31T19:04:30.986Z",
    "name": "Area 88",
    "repository": "kara.moe",
    "tid": "248ee8c8-c96a-4aa5-953f-2e15c9b9b7d2",
    "types": [
      "series",
      "1"
    ]
  }
}