{
  "header": {
    "description": "Karaoke Mugen Tag File",
    "version": 1
  },
  "tag": {
    "i18n": {
      "eng": "ARIANNE"
    },
    "name": "ARIANNE",
    "tid": "a6f81033-15b5-4537-ad27-49f4f8cc9949",
    "types": [
      "singers",
      "2"
    ],
    "repository": "kara.moe",
    "modified_at": "2020-03-31T19:04:33.538Z"
  }
}