{
  "header": {
    "description": "Karaoke Mugen Tag File",
    "version": 1
  },
  "tag": {
    "i18n": {
      "eng": "Aries"
    },
    "name": "Aries",
    "tid": "2bc4cb38-0fdd-4009-8cd8-c8a2e3be5841",
    "types": [
      "creators",
      "4"
    ],
    "repository": "kara.moe",
    "modified_at": "2020-03-31T19:04:33.538Z"
  }
}