{
  "header": {
    "description": "Karaoke Mugen Tag File",
    "version": 1
  },
  "tag": {
    "i18n": {
      "eng": "Ariola Japan"
    },
    "name": "Ariola Japan",
    "repository": "kara.moe",
    "tid": "f49e3aff-8f9c-4b83-accb-b1d31f4a0289",
    "types": [
      "creators",
      "4"
    ],
    "modified_at": "2020-03-31T19:04:33.539Z"
  }
}