{
  "header": {
    "description": "Karaoke Mugen Tag File",
    "version": 1
  },
  "tag": {
    "i18n": {
      "eng": "Arise Satô"
    },
    "name": "Arise Satô",
    "tid": "cf0bde54-6b08-4878-a65c-8d3cf9204606",
    "types": [
      "singers",
      "2"
    ],
    "repository": "kara.moe",
    "modified_at": "2020-03-31T19:04:33.542Z"
  }
}