{
  "header": {
    "description": "Karaoke Mugen Tag File",
    "version": 1
  },
  "tag": {
    "i18n": {
      "eng": "Arms"
    },
    "name": "Arms",
    "tid": "7b7eb71f-dcd1-43a0-afe0-d8cd8ac0d96e",
    "types": [
      "creators",
      "4"
    ],
    "repository": "kara.moe",
    "modified_at": "2020-03-31T19:04:33.545Z"
  }
}