{
  "header": {
    "description": "Karaoke Mugen Tag File",
    "version": 1
  },
  "tag": {
    "i18n": {
      "eng": "Aru-Shima"
    },
    "modified_at": "2021-05-16T16:20:10.393Z",
    "name": "Aru-Shima",
    "repository": "kara.moe",
    "tid": "daf3e56e-1061-46be-8e43-08c48a3acaf4",
    "types": [
      "creators",
      "4"
    ]
  }
}