{
  "header": {
    "description": "Karaoke Mugen Tag File",
    "version": 1
  },
  "tag": {
    "external_database_ids": {
      "anilist": 99916,
      "myanimelist": 36214,
      "kitsu": 13780
    },
    "i18n": {
      "eng": "Kase-san and Morning Glories.",
      "fre": "Kase-san & les belles-de-jour",
      "jpn": "あさがおと加瀬さん。",
      "qro": "Asagao to Kase-san."
    },
    "modified_at": "2020-05-06T16:39:12.547Z",
    "name": "Asagao to Kase-san.",
    "repository": "kara.moe",
    "tid": "ecaf4a6d-5020-47a8-8bdc-9506e03edce4",
    "types": [
      "series",
      "1"
    ]
  }
}