{
  "header": {
    "description": "Karaoke Mugen Tag File",
    "version": 1
  },
  "tag": {
    "i18n": {
      "eng": "Ash Inoue"
    },
    "modified_at": "2021-11-20T01:22:23.340Z",
    "name": "Ash Inoue",
    "repository": "kara.moe",
    "tid": "4a31c7e2-6af7-400f-a215-6d7f7d0f42a2",
    "types": [
      "songwriters",
      "8"
    ]
  }
}