{
  "header": {
    "description": "Karaoke Mugen Tag File",
    "version": 1
  },
  "tag": {
    "i18n": {
      "eng": "Ashley Hall"
    },
    "name": "Ashley Hall",
    "tid": "37f12b74-8ae4-43ec-8e7a-8051a750c900",
    "types": [
      "singers",
      "2",
      "songwriters",
      "8"
    ],
    "repository": "kara.moe",
    "modified_at": "2020-03-31T19:04:33.569Z"
  }
}