{
  "header": {
    "description": "Karaoke Mugen Tag File",
    "version": 1
  },
  "tag": {
    "i18n": {
      "eng": "Assassin's Creed Revelations"
    },
    "modified_at": "2020-03-31T19:04:31.000Z",
    "name": "Assassin's Creed Revelations",
    "repository": "kara.moe",
    "tid": "ba04856a-44ec-4a11-bfe3-0a647388b4fb",
    "types": [
      "series",
      "1"
    ]
  }
}