{
  "header": {
    "description": "Karaoke Mugen Tag File",
    "version": 1
  },
  "tag": {
    "i18n": {
      "eng": "AstroNoteS"
    },
    "name": "AstroNoteS",
    "tid": "33072ac9-0014-42ee-bd38-ac24e1d0f941",
    "types": [
      "songwriters",
      "8"
    ],
    "repository": "kara.moe",
    "modified_at": "2020-03-31T19:04:33.573Z"
  }
}