{
  "header": {
    "description": "Karaoke Mugen Tag File",
    "version": 1
  },
  "tag": {
    "i18n": {
      "eng": "Asuka Hinoi"
    },
    "name": "Asuka Hinoi",
    "tid": "ab1938db-2da0-480c-85ab-e888ee8ac7e2",
    "types": [
      "singers",
      "2"
    ],
    "repository": "kara.moe",
    "modified_at": "2020-03-31T19:04:33.575Z"
  }
}