{
  "header": {
    "description": "Karaoke Mugen Tag File",
    "version": 1
  },
  "tag": {
    "i18n": {
      "eng": "Atmosphériques"
    },
    "modified_at": "2020-07-03T20:50:38.324Z",
    "name": "Atmosphériques",
    "repository": "kara.moe",
    "tid": "98ddf559-325a-44c3-b23b-c665e8f1d8d9",
    "types": [
      "creators",
      "4"
    ]
  }
}