{
  "header": {
    "description": "Karaoke Mugen Tag File",
    "version": 1
  },
  "tag": {
    "aliases": [
      "SUEMITSU & THE SUEMITH"
    ],
    "i18n": {
      "eng": "Atsushi Suemitsu",
      "jpn": "末光篤",
      "qro": "Atsushi Suemitsu"
    },
    "modified_at": "2020-12-13T12:38:27.675Z",
    "name": "Atsushi Suemitsu",
    "repository": "kara.moe",
    "tid": "fda40c1e-0499-4b46-b265-84371155905e",
    "types": [
      "singers",
      "2",
      "songwriters",
      "8"
    ]
  }
}