{
  "header": {
    "description": "Karaoke Mugen Tag File",
    "version": 1
  },
  "tag": {
    "i18n": {
      "eng": "Avataro Sentai Donbrothers",
      "jpn": "暴太郎戦隊ドンブラザーズ",
      "qro": "Abatarô Sentai Donburazâzu"
    },
    "name": "Avataro Sentai Donbrothers",
    "repository": "kara.moe",
    "tid": "38678ae4-88d1-4d22-9787-ce50a6ac74d8",
    "types": [
      "series",
      "1"
    ]
  }
}