{
  "header": {
    "description": "Karaoke Mugen Tag File",
    "version": 1
  },
  "tag": {
    "aliases": [
      "Răzbunător",
      "المنتقم"
    ],
    "external_database_ids": {
      "anilist": 56,
      "myanimelist": 56,
      "kitsu": 37
    },
    "i18n": {
      "chi": "复仇天使",
      "fre": "Avenger",
      "jpn": "アヴェンジャー",
      "rus": "Мститель",
      "qro": "Avenger"
    },
    "modified_at": "2020-03-31T19:04:31.013Z",
    "name": "Avenger",
    "repository": "kara.moe",
    "tid": "2ce2968a-442b-4d5e-ad3e-9f400f082551",
    "types": [
      "series",
      "1"
    ]
  }
}