{
  "header": {
    "description": "Karaoke Mugen Tag File",
    "version": 1
  },
  "tag": {
    "i18n": {
      "eng": "Avril Lavigne"
    },
    "modified_at": "2021-10-23T21:44:56.592Z",
    "name": "Avril Lavigne",
    "repository": "kara.moe",
    "tid": "abfd3a13-c24a-4679-8c8a-15f19f0bc8c4",
    "types": [
      "songwriters",
      "8",
      "singers",
      "2"
    ]
  }
}