{
  "header": {
    "description": "Karaoke Mugen Tag File",
    "version": 1
  },
  "tag": {
    "aliases": [
      "Аякаши"
    ],
    "external_database_ids": {
      "anilist": 3166,
      "kitsu": 2835,
      "myanimelist": 3166
    },
    "i18n": {
      "eng": "Ayakashi: Japanese Classic Horror",
      "fre": "Ayakashi, le théâtre de l'horreur",
      "jpn": "アヤカシ",
      "qro": "Ayakashi"
    },
    "name": "Ayakashi: Japanese Classic Horror",
    "repository": "kara.moe",
    "tid": "427c325b-e026-4761-b29b-195f7b705c43",
    "types": [
      "series",
      "1"
    ]
  }
}