{
  "header": {
    "description": "Karaoke Mugen Tag File",
    "version": 1
  },
  "tag": {
    "aliases": [
      "Ceres Celestial Legend",
      "Ceres'in Kutsal Efsanesi",
      "Mysterious Ceres",
      "Unearthly Ceres",
      "anc",
      "Подозрительная Церера",
      "梦幻妖子"
    ],
    "external_database_ids": {
      "anilist": 104,
      "myanimelist": 104,
      "kitsu": 83
    },
    "i18n": {
      "eng": "Ceres: Celestial Legend",
      "fre": "Ayashi no Ceres",
      "ita": "Ayashi no Ceres",
      "jpn": "妖しのセレス",
      "spa": "Ceres, La Leyenda Celestial",
      "qro": "Ayashi no Ceres"
    },
    "modified_at": "2020-06-21T23:45:31.966Z",
    "name": "Ayashi no Ceres",
    "repository": "kara.moe",
    "tid": "b7189146-2c97-4327-8758-e1659a67189c",
    "types": [
      "series",
      "1"
    ]
  }
}