{
  "header": {
    "description": "Karaoke Mugen Tag File",
    "version": 1
  },
  "tag": {
    "i18n": {
      "jpn": "藤原 彩豊",
      "qro": "Ayato Fujiwara"
    },
    "name": "Ayato Fujiwara",
    "repository": "kara.moe",
    "tid": "75fde65e-e14f-4287-9499-7e4988c8924d",
    "types": [
      "songwriters",
      "8"
    ]
  }
}