{
  "header": {
    "description": "Karaoke Mugen Tag File",
    "version": 1
  },
  "tag": {
    "i18n": {
      "eng": "AZU"
    },
    "name": "AZU",
    "tid": "7a285364-523b-49eb-9419-7ae4791a8fa8",
    "types": [
      "singers",
      "2",
      "songwriters",
      "8"
    ],
    "repository": "kara.moe",
    "modified_at": "2020-03-31T19:04:33.650Z"
  }
}