{
  "header": {
    "description": "Karaoke Mugen Tag File",
    "version": 1
  },
  "tag": {
    "i18n": {
      "eng": "AZUMA HITOMI"
    },
    "name": "AZUMA HITOMI",
    "tid": "8848e231-1dd4-4a60-8549-a02fffcc787e",
    "types": [
      "singers",
      "2",
      "songwriters",
      "8"
    ],
    "repository": "kara.moe",
    "modified_at": "2020-03-31T19:04:33.651Z"
  }
}