{
  "header": {
    "description": "Karaoke Mugen Tag File",
    "version": 1
  },
  "tag": {
    "i18n": {
      "eng": "Azumi Uehara"
    },
    "modified_at": "2020-08-19T12:44:58.096Z",
    "name": "Azumi Uehara",
    "repository": "kara.moe",
    "tid": "13e79bf4-26fd-4888-bd36-47e41c1e0274",
    "types": [
      "songwriters",
      "8",
      "singers",
      "2"
    ]
  }
}