{
  "header": {
    "description": "Karaoke Mugen Tag File",
    "version": 1
  },
  "tag": {
    "aliases": [
      "Aya"
    ],
    "i18n": {
      "eng": "A~YA",
      "jpn": "A～YA",
      "qro": "A~YA"
    },
    "name": "A~YA",
    "repository": "kara.moe",
    "tid": "1d477765-883d-487d-ae44-79a2ca0579a0",
    "types": [
      "singers",
      "2"
    ]
  }
}