{
  "header": {
    "description": "Karaoke Mugen Tag File",
    "version": 1
  },
  "tag": {
    "i18n": {
      "eng": "B.o.B"
    },
    "modified_at": "2021-11-19T11:49:32.963Z",
    "name": "B.o.B",
    "repository": "kara.moe",
    "tid": "2b3c9de3-f471-49ee-94f4-294af2cd17c8",
    "types": [
      "singers",
      "2"
    ]
  }
}