{
  "header": {
    "description": "Karaoke Mugen Tag File",
    "version": 1
  },
  "tag": {
    "i18n": {
      "eng": "BABACORN"
    },
    "name": "BABACORN",
    "repository": "kara.moe",
    "tid": "618a1fcc-999d-4bc7-b042-552da4ce6151",
    "types": [
      "singergroups",
      "17"
    ]
  }
}