{
  "header": {
    "description": "Karaoke Mugen Tag File",
    "version": 1
  },
  "tag": {
    "i18n": {
      "eng": "Baby.M"
    },
    "name": "Baby.M",
    "tid": "5742bae9-1613-41dd-8387-f84f3239eaf9",
    "types": [
      "singers",
      "2"
    ],
    "repository": "kara.moe",
    "modified_at": "2020-03-31T19:04:33.663Z"
  }
}