{
  "header": {
    "description": "Karaoke Mugen Tag File",
    "version": 1
  },
  "tag": {
    "i18n": {
      "eng": "Badass Temple"
    },
    "name": "Badass Temple",
    "tid": "e3223255-4fea-4159-a18b-c8020079b4d2",
    "types": [
      "singers",
      "2"
    ],
    "repository": "kara.moe",
    "modified_at": "2020-03-31T19:04:33.667Z"
  }
}