{
  "header": {
    "description": "Karaoke Mugen Tag File",
    "version": 1
  },
  "tag": {
    "aliases": [
      "Мотоклуб",
      "爆音少女!!"
    ],
    "external_database_ids": {
      "anilist": 21197,
      "myanimelist": 30795,
      "kitsu": 10939
    },
    "i18n": {
      "eng": "Bakuon!!",
      "jpn": "ばくおん!!",
      "qro": "Bakuon!!"
    },
    "modified_at": "2020-03-31T19:04:31.034Z",
    "name": "Bakuon!!",
    "repository": "kara.moe",
    "tid": "2b07a7d7-4ff5-4fb1-9fc2-f9e708722bdd",
    "types": [
      "series",
      "1"
    ]
  }
}