{
  "header": {
    "description": "Karaoke Mugen Tag File",
    "version": 1
  },
  "tag": {
    "aliases": [
      "Bakuryuu Sentai Abaranger",
      "bakuryuu"
    ],
    "i18n": {
      "eng": "Bakuryû Sentai Abaranger",
      "jpn": "爆竜戦隊アバレンジャー",
      "qro": "Bakuryû Sentai Abaranger"
    },
    "modified_at": "2020-03-31T19:04:31.036Z",
    "name": "Bakuryû Sentai Abaranger",
    "repository": "kara.moe",
    "tid": "fbf633f0-904d-4b1a-a34e-d13407935281",
    "types": [
      "series",
      "1"
    ]
  }
}