{
  "header": {
    "description": "Karaoke Mugen Tag File",
    "version": 1
  },
  "tag": {
    "external_database_ids": {},
    "i18n": {
      "eng": "Baldr",
      "jpn": "バルド"
    },
    "name": "Baldr",
    "repository": "kara.moe",
    "tid": "9f1d64fe-77fd-4740-a0e5-0240ed851d37",
    "types": [
      "franchises",
      "18"
    ]
  }
}