{
  "header": {
    "description": "Karaoke Mugen Tag File",
    "version": 1
  },
  "tag": {
    "aliases": [
      "Kiếm tre",
      "Бамбуковий клинок",
      "Бамбуковое лезвие",
      "Меч от бамбук",
      "להב מבמבוק",
      "竹剑少女"
    ],
    "external_database_ids": {
      "anilist": 2986,
      "myanimelist": 2986,
      "kitsu": 2700
    },
    "i18n": {
      "eng": "Bamboo Blade",
      "jpn": "バンブーブレード",
      "slo": "Bambusová čepeľ",
      "qro": "Bamboo Blade"
    },
    "modified_at": "2020-03-31T19:04:31.039Z",
    "name": "Bamboo Blade",
    "repository": "kara.moe",
    "tid": "cdafaca7-189d-4c6d-bce8-765f8aedbfb0",
    "types": [
      "series",
      "1"
    ]
  }
}