{
  "header": {
    "description": "Karaoke Mugen Tag File",
    "version": 1
  },
  "tag": {
    "i18n": {
      "jpn": "藤本 ばんび",
      "qro": "Bambi Fujimoto"
    },
    "name": "Bambi Fujimoto",
    "repository": "kara.moe",
    "tid": "6111cb8b-39b4-42f3-b8f1-afbcf8465f38",
    "types": [
      "singers",
      "2"
    ]
  }
}