{
  "header": {
    "description": "Karaoke Mugen Tag File",
    "version": 1
  },
  "tag": {
    "i18n": {
      "eng": "BANDAI NAMCO Games"
    },
    "name": "BANDAI NAMCO Games",
    "tid": "c8177d98-c864-4c0d-900b-95fe4e1b8eb4",
    "types": [
      "creators",
      "4"
    ],
    "repository": "kara.moe",
    "modified_at": "2020-03-31T19:04:33.683Z"
  }
}