{
  "header": {
    "description": "Karaoke Mugen Tag File",
    "version": 1
  },
  "tag": {
    "i18n": {
      "eng": "Bang Chan"
    },
    "modified_at": "2020-06-01T16:52:28.993Z",
    "name": "Bang Chan",
    "repository": "kara.moe",
    "tid": "e17cda3d-2734-4062-a1fa-0bbbeb1b4935",
    "types": [
      "songwriters",
      "8"
    ]
  }
}