{
  "header": {
    "description": "Karaoke Mugen Tag File",
    "version": 1
  },
  "tag": {
    "aliases": [
      "Barbie: Moda e Magia"
    ],
    "i18n": {
      "eng": "Barbie: A Fashion Fairytale",
      "fre": "Barbie et la Magie de la mode",
      "ger": "Barbie – Modezauber in Paris",
      "hun": "Barbie: Tündérmese a divatról",
      "ita": "Barbie - La magia della moda",
      "kor": "바비의 패션 이야기",
      "pol": "Barbie w świecie mody",
      "por": "Barbie: A Magia da Moda",
      "spa": "Barbie: moda mágica en París",
      "tha": "บาร์บี้ เทพธิดาแฟชั่น"
    },
    "modified_at": "2020-03-31T19:04:31.048Z",
    "name": "Barbie: A Fashion Fairytale",
    "repository": "kara.moe",
    "tid": "89b21670-85bf-4454-93d2-e2c5e6cd124e",
    "types": [
      "series",
      "1"
    ]
  }
}