{
  "header": {
    "description": "Karaoke Mugen Tag File",
    "version": 1
  },
  "tag": {
    "aliases": [
      "Jonas Erik Altberg"
    ],
    "i18n": {
      "eng": "Basshunter"
    },
    "name": "Basshunter",
    "repository": "kara.moe",
    "tid": "b8611bed-b78c-41f7-9730-f477ca24c51d",
    "types": [
      "singers",
      "2"
    ]
  }
}