{
  "header": {
    "description": "Karaoke Mugen Tag File",
    "version": 1
  },
  "tag": {
    "i18n": {
      "eng": "Bear In The Big Blue House",
      "fre": "Tibère et la Maison bleue"
    },
    "modified_at": "2020-03-31T19:04:31.056Z",
    "name": "Bear In The Big Blue House",
    "repository": "kara.moe",
    "tid": "20cea194-637c-45fb-ab33-3d6489c77708",
    "types": [
      "series",
      "1"
    ]
  }
}