{
  "header": {
    "description": "Karaoke Mugen Tag File",
    "version": 1
  },
  "tag": {
    "i18n": {
      "eng": "Bear McCleary"
    },
    "name": "Bear McCleary",
    "repository": "kara.moe",
    "tid": "434882e0-2964-4266-858e-dfac5b4ff1ed",
    "types": [
      "songwriters",
      "8"
    ],
    "modified_at": "2020-03-31T19:04:33.695Z"
  }
}