{
  "header": {
    "description": "Karaoke Mugen Tag File",
    "version": 1
  },
  "tag": {
    "i18n": {
      "afr": "Wit",
      "alb": "Bjellorusisht",
      "amh": "ቤላራሻኛ",
      "ara": "البيلاروسية",
      "arm": "Բելառուսական",
      "aze": "Belarus",
      "bak": "Белоруссия",
      "baq": "Bielorrusiera",
      "bel": "Беларуская",
      "ben": "বেলারুশিয়",
      "bos": "Ukrajinski",
      "bul": "Беларус",
      "cat": "El bielorús",
      "chi": "白俄罗斯",
      "cze": "Běloruské",
      "dan": "Hviderussiske",
      "dut": "Wit-russisch",
      "eng": "Belarusian",
      "epo": "Belorusaj",
      "est": "Valgevene",
      "fin": "Valko-venäjän",
      "fre": "Biélorusse",
      "geo": "ბელორუსის",
      "ger": "Belarussischen",
      "gla": "Belarusian",
      "gle": "Bealarúisis",
      "glg": "Bielorrusia",
      "gre": "Της λευκορωσίας",
      "guj": "બેલારુશિયન",
      "hat": "Belarisyen",
      "heb": "בלארוסית",
      "hin": "बेलारूसी",
      "hrv": "Bjeloruski",
      "hun": "Fehérorosz",
      "ice": "Hvít",
      "ind": "Belarusia",
      "ita": "Bielorusso",
      "jav": "Belarus",
      "jpn": "ベラルーシ語",
      "kan": "ಬೆಲರೂಸಿಯನ್",
      "kaz": "Беларусь",
      "kir": "Белорусская",
      "kor": "벨라루스",
      "lat": "Belarusian",
      "lav": "Baltkrievijas",
      "lit": "Baltarusijos",
      "mac": "Украински",
      "mal": "ബെലാറസിയൻ",
      "mao": "Belarusian",
      "mar": "बेलारूसी",
      "may": "Belarus",
      "mlg": "Belarosiana",
      "mlt": "- Belarus",
      "mon": "Беларусийн",
      "nep": "बेलारूसी",
      "nor": "Hviterussiske",
      "pan": "ਬੈਲਾਰੂਸੀ",
      "per": "بلاروس",
      "pol": "Białoruska",
      "por": "De Belarusian",
      "rum": "Belarus",
      "rus": "Белорусская",
      "sin": "බෙලරුසියානු",
      "slo": "Bieloruský",
      "slv": "Beloruski",
      "spa": "Bielorruso",
      "srp": "Белоруски",
      "sun": "Belarusian",
      "swa": "Kibelarusi",
      "swe": "Vitryska",
      "tam": "பைலோருஷ்ன்",
      "tat": "Белоруссия",
      "tel": "బెలరుశియన్",
      "tgk": "Белорусская",
      "tgl": "Belarusian",
      "tha": "ภาษาเบลารุสเซีย name",
      "tur": "Belarus",
      "ukr": "Білоруська",
      "urd": "بیلاروسی",
      "uzb": "Belarus",
      "vie": "Moldova",
      "wel": "Belarwseg",
      "xho": "Iimpahla zolwimi",
      "yid": "בעלאָרוסיש"
    },
    "name": "bel",
    "repository": "kara.moe",
    "tid": "efbdd1c4-8580-44ba-9796-7bbd2d1ee702",
    "types": [
      "langs",
      "5"
    ]
  }
}