{
  "header": {
    "description": "Karaoke Mugen Tag File",
    "version": 1
  },
  "tag": {
    "i18n": {
      "eng": "Benten-Maru"
    },
    "name": "Benten-Maru",
    "tid": "7f41de1b-343f-47e1-b919-5c79b001c7b8",
    "types": [
      "songwriters",
      "8"
    ],
    "repository": "kara.moe",
    "modified_at": "2020-03-31T19:04:33.716Z"
  }
}