{
  "header": {
    "description": "Karaoke Mugen Tag File",
    "version": 1
  },
  "tag": {
    "i18n": {
      "eng": "Bernard Mazauric"
    },
    "name": "Bernard Mazauric",
    "repository": "kara.moe",
    "tid": "fe891026-a2da-44e7-9f6e-b923843abeb2",
    "types": [
      "songwriters",
      "8"
    ]
  }
}