{
  "header": {
    "description": "Karaoke Mugen Tag File",
    "version": 1
  },
  "tag": {
    "i18n": {
      "eng": "Bernard Campan"
    },
    "name": "Bernard Campan",
    "tid": "c0c2f61f-d58f-4dda-857a-d8ab1f8c9002",
    "types": [
      "singers",
      "2",
      "songwriters",
      "8"
    ],
    "repository": "kara.moe",
    "modified_at": "2020-03-31T19:04:33.719Z"
  }
}