{
  "header": {
    "description": "Karaoke Mugen Tag File",
    "version": 1
  },
  "tag": {
    "i18n": {
      "eng": "Bernie Bonvoisin"
    },
    "modified_at": "2020-07-12T12:49:48.825Z",
    "name": "Bernie Bonvoisin",
    "repository": "kara.moe",
    "tid": "7f41c3fd-f9ed-4b84-816b-e62b7dd2fc25",
    "types": [
      "songwriters",
      "8"
    ]
  }
}