{
  "header": {
    "description": "Karaoke Mugen Tag File",
    "version": 1
  },
  "tag": {
    "i18n": {
      "eng": "Bethesda Softworks"
    },
    "name": "Bethesda Softworks",
    "tid": "7dcc6ea6-53dc-400c-99dc-da3f21dbfd2a",
    "types": [
      "creators",
      "4"
    ],
    "repository": "kara.moe",
    "modified_at": "2020-03-31T19:04:33.723Z"
  }
}