{
  "header": {
    "description": "Karaoke Mugen Tag File",
    "version": 1
  },
  "tag": {
    "i18n": {
      "eng": "Beynicoh"
    },
    "name": "Beynicoh",
    "repository": "kara.moe",
    "tid": "88b05714-4dda-4854-a4f4-48d0770b0593",
    "types": [
      "creators",
      "4"
    ]
  }
}