{
  "header": {
    "description": "Karaoke Mugen Tag File",
    "version": 1
  },
  "tag": {
    "i18n": {
      "eng": "bice"
    },
    "name": "bice",
    "tid": "2c38dbb6-f471-41f6-8ef5-94ab6e2d39e3",
    "types": [
      "songwriters",
      "8"
    ],
    "repository": "kara.moe",
    "modified_at": "2020-03-31T19:04:33.727Z"
  }
}