{
  "header": {
    "description": "Karaoke Mugen Tag File",
    "version": 1
  },
  "tag": {
    "i18n": {
      "eng": "Big Byung"
    },
    "name": "Big Byung",
    "tid": "3df266a0-f9a3-4f00-b684-ad255e819fb4",
    "types": [
      "singers",
      "2"
    ],
    "repository": "kara.moe",
    "modified_at": "2020-03-31T19:04:33.729Z"
  }
}