{
  "header": {
    "description": "Karaoke Mugen Tag File",
    "version": 1
  },
  "tag": {
    "i18n": {
      "eng": "BillyBCreations"
    },
    "modified_at": "2021-01-03T23:47:33.932Z",
    "name": "BillyBCreations",
    "repository": "kara.moe",
    "tid": "76177083-ed11-417f-b6df-9af61767acbd",
    "types": [
      "creators",
      "4"
    ]
  }
}