{
  "header": {
    "description": "Karaoke Mugen Tag File",
    "version": 1
  },
  "tag": {
    "aliases": [
      "Binbougami ga!",
      "Ах ти ж злидня!",
      "Нищебог же!",
      "binbougami"
    ],
    "external_database_ids": {
      "anilist": 13535,
      "myanimelist": 13535,
      "kitsu": 6988
    },
    "i18n": {
      "chi": "贫乏神来了!",
      "eng": "Good Luck Girl!",
      "fre": "Binbôgami ga!",
      "jpn": "貧乏神が!",
      "qro": "Binbôgami ga!"
    },
    "modified_at": "2020-03-31T19:04:31.071Z",
    "name": "Binbôgami ga!",
    "repository": "kara.moe",
    "tid": "69eb70d2-b6c2-4d55-b33b-dd2eea5052a7",
    "types": [
      "series",
      "1"
    ]
  }
}