{
  "header": {
    "description": "Karaoke Mugen Tag File",
    "version": 1
  },
  "tag": {
    "i18n": {
      "eng": "Bird Bear Hare and Fish"
    },
    "name": "Bird Bear Hare and Fish",
    "tid": "4c44a36f-b478-4893-9dd5-080975f34ce4",
    "types": [
      "singers",
      "2"
    ],
    "repository": "kara.moe",
    "modified_at": "2020-03-31T19:04:33.737Z"
  }
}