{
  "header": {
    "description": "Karaoke Mugen Tag File",
    "version": 1
  },
  "tag": {
    "i18n": {
      "afr": "Bislama",
      "amh": "Bislama",
      "ara": "البيسلامية",
      "aze": "Бислама",
      "bak": "Бислама теле",
      "bel": "Бислама",
      "bul": "Бислама",
      "ben": "Bislama",
      "bos": "Kalenjin",
      "cat": "Bislama",
      "cze": "Bislama",
      "wel": "Bislama",
      "dan": "Bislama",
      "ger": "Bislama",
      "gre": "Μπισλάμα",
      "eng": "Bislama",
      "epo": "Bislamaj",
      "spa": "Bislama",
      "est": "Bislama",
      "baq": "Bislama",
      "per": "Bislama",
      "fin": "Bislama",
      "fre": "Bislama",
      "gle": "Bislama",
      "gla": "Bislama",
      "glg": "En pensilvania",
      "guj": "Bislama",
      "heb": "ביסלמהname",
      "hin": "Bislama",
      "hrv": "Бислама",
      "hat": "Bislama",
      "hun": "Bislama",
      "arm": "Bislama",
      "ind": "Bahasa Bislama",
      "ice": "Bislama",
      "ita": "Bislama",
      "jpn": "Bislama",
      "jav": "Bislama",
      "geo": "Bislama",
      "kaz": "Бислама",
      "kan": "Bislama",
      "kor": "Bislama",
      "kir": "Бислама",
      "lat": "Bislama",
      "lit": "Bislama",
      "lav": "Bislama",
      "mlg": "Kalenjin",
      "mao": "Bislama",
      "mac": "Bislama",
      "mal": "Bislama",
      "mon": "Bislama",
      "mar": "Bislama",
      "may": "Bislama",
      "mlt": "Bislama",
      "nep": "Bislama",
      "dut": "Bislama",
      "nor": "Bislama",
      "pan": "ਬਿਸਲਾਮਾ",
      "pol": "Бислама",
      "por": "Bislama",
      "rum": "Bislama",
      "rus": "Бислама",
      "sin": "Bislama",
      "slo": "Bislama",
      "slv": "Bislama",
      "alb": "Bislama",
      "srp": "Бислама",
      "sun": "Bislama",
      "swe": "Bislama",
      "swa": "Bislama",
      "tam": "Bislama",
      "tel": "Bislama",
      "tgk": "Бислама",
      "tha": "ภาษาบิสลามา name",
      "tgl": "Bislama",
      "tur": "Bislama",
      "tat": "Бислама теле",
      "ukr": "Бислама",
      "urd": "Bislama",
      "uzb": "Bislama",
      "vie": "[Sửa",
      "xho": "Bislama",
      "yid": "Bislama",
      "chi": "比斯拉马语"
    },
    "name": "bis",
    "tid": "d6e471d1-718e-4b76-a7d1-4576960e3dd5",
    "types": [
      "langs",
      "5"
    ],
    "repository": "kara.moe",
    "modified_at": "2020-03-31T19:04:33.739Z"
  }
}