{
  "header": {
    "description": "Karaoke Mugen Tag File",
    "version": 1
  },
  "tag": {
    "i18n": {
      "eng": "Bizashi"
    },
    "name": "Bizashi",
    "tid": "bbfca662-33f5-46cb-8a81-128529294b50",
    "types": [
      "songwriters",
      "8"
    ],
    "repository": "kara.moe",
    "modified_at": "2020-03-31T19:04:33.741Z"
  }
}