{
  "header": {
    "description": "Karaoke Mugen Tag File",
    "version": 1
  },
  "tag": {
    "aliases": [
      "Gabriel C. Brown"
    ],
    "i18n": {
      "eng": "BlackGryph0n"
    },
    "name": "BlackGryph0n",
    "repository": "kara.moe",
    "tid": "6a3b3f5d-7ef3-4bb6-9c18-42333a0aaf6f",
    "types": [
      "singers",
      "2"
    ]
  }
}