{
  "header": {
    "description": "Karaoke Mugen Tag File",
    "version": 1
  },
  "tag": {
    "aliases": [
      "BlazBlue AM"
    ],
    "external_database_ids": {
      "anilist": 18767,
      "myanimelist": 18767,
      "kitsu": 7722
    },
    "i18n": {
      "eng": "BlazBlue: Alter Memory",
      "jpn": "ブレイブルーアルターメモリ",
      "qro": "BlazBlue: Alter Memory"
    },
    "modified_at": "2020-03-31T19:04:31.094Z",
    "name": "BlazBlue: Alter Memory",
    "repository": "kara.moe",
    "tid": "0f71cc50-fc67-49d8-a8e5-22a85799c6ad",
    "types": [
      "series",
      "1"
    ]
  }
}