{
  "header": {
    "description": "Karaoke Mugen Tag File",
    "version": 1
  },
  "tag": {
    "aliases": [
      "BlazBlue CS 2"
    ],
    "i18n": {
      "eng": "BlazBlue: Continuum Shift 2",
      "jpn": "ブレイブルー コンティニュアム シフト ツウ",
      "qro": "BlazBlue: Continuum Shift 2"
    },
    "modified_at": "2020-03-31T19:04:31.095Z",
    "name": "BlazBlue: Continuum Shift 2",
    "repository": "kara.moe",
    "tid": "587ab705-8604-4262-af95-3a8726a4689f",
    "types": [
      "series",
      "1"
    ]
  }
}