{
  "header": {
    "description": "Karaoke Mugen Tag File",
    "version": 1
  },
  "tag": {
    "external_database_ids": {
      "anilist": 128705,
      "myanimelist": 46352,
      "kitsu": 43888
    },
    "i18n": {
      "eng": "Blue Period",
      "jpn": "ブルーピリオド"
    },
    "modified_at": "2021-10-20T13:45:31.342Z",
    "name": "Blue Period",
    "repository": "kara.moe",
    "tid": "f546ce6c-40be-4d1d-99d9-092cfb6dab28",
    "types": [
      "series",
      "1"
    ]
  }
}