{
  "header": {
    "description": "Karaoke Mugen Tag File",
    "version": 1
  },
  "tag": {
    "i18n": {
      "eng": "Bobby Prod"
    },
    "name": "Bobby Prod",
    "tid": "bb1979f9-d229-4a13-8d80-552b29c52d1e",
    "types": [
      "creators",
      "4"
    ],
    "repository": "kara.moe",
    "modified_at": "2020-03-31T19:04:33.759Z"
  }
}