{
  "header": {
    "description": "Karaoke Mugen Tag File",
    "version": 1
  },
  "tag": {
    "aliases": [
      "Bobobo-bo Bo-bobo",
      "bobo",
      "Бобобо́бо Бо́бобо",
      "boboboubo",
      "boubobo"
    ],
    "external_database_ids": {
      "anilist": 1050,
      "myanimelist": 1050,
      "kitsu": 940
    },
    "i18n": {
      "dut": "Bobobo-bo Bo-bobo",
      "eng": "Bobobo-bo Bo-bobo",
      "fre": "Bobobo-bo Bo-bobo",
      "ger": "Bobobo-bo Bo-bobo",
      "heb": "בו בו בו",
      "jpn": "ボボボーボ・ボーボボ",
      "pol": "Bobobo-bo Bo-bobo",
      "por": "Bobobo",
      "qro": "Bobobôbo Bôbobo"
    },
    "modified_at": "2020-03-31T19:04:31.104Z",
    "name": "Bobobôbo Bôbobo",
    "repository": "kara.moe",
    "tid": "8f1772ba-29a9-430f-9d6a-2412b8cf4700",
    "types": [
      "series",
      "1"
    ]
  }
}