{
  "header": {
    "description": "Karaoke Mugen Tag File",
    "version": 1
  },
  "tag": {
    "i18n": {
      "eng": "Boku no Lyric no Bôyomi"
    },
    "name": "Boku no Lyric no Bôyomi",
    "tid": "5cfb95d2-93db-49c4-8f9d-fa240c1e2a12",
    "types": [
      "singers",
      "2",
      "songwriters",
      "8"
    ],
    "repository": "kara.moe",
    "modified_at": "2020-03-31T19:04:33.761Z"
  }
}