{
  "header": {
    "description": "Karaoke Mugen Tag File",
    "version": 1
  },
  "tag": {
    "external_database_ids": {
      "anilist": 18191,
      "myanimelist": 18191,
      "kitsu": 8899
    },
    "i18n": {
      "eng": "Boku wa ousama"
    },
    "modified_at": "2021-04-19T16:07:49.588Z",
    "name": "Boku wa ousama",
    "repository": "kara.moe",
    "tid": "6bab8c09-af60-4a2c-88a9-ba5265580242",
    "types": [
      "series",
      "1"
    ]
  }
}