{
  "header": {
    "description": "Karaoke Mugen Tag File",
    "version": 1
  },
  "tag": {
    "aliases": [
      "Haganai 2",
      "Haganai NEXT",
      "Haganai Next",
      "나는 친구가 적다 2기 NEXT"
    ],
    "external_database_ids": {
      "anilist": 14967,
      "myanimelist": 14967,
      "kitsu": 7190
    },
    "i18n": {
      "chi": "我的朋友很少NEXT",
      "eng": "Haganai: I Don’t Have Many Friends NEXT",
      "fre": "Boku wa Tomodachi ga Sukunai NEXT",
      "jpn": "僕は友達が少ないNEXT",
      "qro": "Boku wa Tomodachi ga Sukunai NEXT"
    },
    "modified_at": "2020-03-31T19:04:31.111Z",
    "name": "Boku wa Tomodachi ga Sukunai NEXT",
    "repository": "kara.moe",
    "tid": "90b0f736-f7bc-4227-90ce-e54e4566c0b5",
    "types": [
      "series",
      "1"
    ]
  }
}