{
  "header": {
    "description": "Karaoke Mugen Tag File",
    "version": 1
  },
  "tag": {
    "aliases": [
      "ぼたん"
    ],
    "i18n": {
      "jpn": "牡丹",
      "qro": "Botan"
    },
    "name": "Botan",
    "repository": "kara.moe",
    "tid": "facade93-d9e3-440d-971c-0cf608b930fa",
    "types": [
      "songwriters",
      "8"
    ]
  }
}