{
  "header": {
    "description": "Karaoke Mugen Tag File",
    "version": 1
  },
  "tag": {
    "aliases": [
      "Adventure King Beet",
      "Beet TV",
      "Bouken-ou Beet",
      "BtVB",
      "bob",
      "Приключения короля Бита"
    ],
    "external_database_ids": {
      "anilist": 8,
      "myanimelist": 8,
      "kitsu": 5
    },
    "i18n": {
      "eng": "Beet the Vandel Buster",
      "fre": "Beet the Vandel Buster",
      "jpn": "冒険王ビィト",
      "spa": "Beet, cazador de Vandels",
      "tha": "บี๊ท นักล่าอสูร",
      "qro": "Bouken Ou Beet"
    },
    "modified_at": "2020-03-31T19:04:31.122Z",
    "name": "Bouken Ou Beet",
    "repository": "kara.moe",
    "tid": "7d852d74-d393-450c-b84e-7adb473d04bb",
    "types": [
      "series",
      "1"
    ]
  }
}