{
  "header": {
    "description": "Karaoke Mugen Tag File",
    "version": 1
  },
  "tag": {
    "i18n": {
      "eng": "Bratisla Boys"
    },
    "modified_at": "2020-06-21T20:59:02.977Z",
    "name": "Bratisla Boys",
    "repository": "kara.moe",
    "tid": "7296ebf3-8035-4e89-a021-93b30471a309",
    "types": [
      "singers",
      "2"
    ]
  }
}