{
  "header": {
    "description": "Karaoke Mugen Tag File",
    "version": 1
  },
  "tag": {
    "i18n": {
      "eng": "Bravely Default",
      "jpn": "ブレイブリーデフォルト",
      "qro": "Bravely Default"
    },
    "modified_at": "2020-03-31T19:04:31.127Z",
    "name": "Bravely Default",
    "repository": "kara.moe",
    "tid": "9eb88605-6b3f-48fa-b3f6-6dbdcb1b0046",
    "types": [
      "series",
      "1",
      "franchises",
      "18"
    ]
  }
}