{
  "header": {
    "description": "Karaoke Mugen Tag File",
    "version": 1
  },
  "tag": {
    "i18n": {
      "eng": "BREAKERZ"
    },
    "name": "BREAKERZ",
    "tid": "4871d8b6-2229-441d-8978-7a07cf726ba6",
    "types": [
      "singers",
      "2"
    ],
    "repository": "kara.moe",
    "modified_at": "2020-03-31T19:04:33.784Z"
  }
}