{
  "header": {
    "description": "Karaoke Mugen Tag File",
    "version": 1
  },
  "tag": {
    "i18n": {
      "eng": "Breyon Prescott"
    },
    "name": "Breyon Prescott",
    "repository": "kara.moe",
    "tid": "06a279ed-296a-46d8-af88-3c1b0773a282",
    "types": [
      "songwriters",
      "8"
    ]
  }
}