{
  "header": {
    "description": "Karaoke Mugen Tag File",
    "version": 1
  },
  "tag": {
    "i18n": {
      "eng": "Brian T. Littrell"
    },
    "name": "Brian T. Littrell",
    "tid": "20d42aa8-7487-4d16-b002-3a1b74a60633",
    "types": [
      "songwriters",
      "8"
    ],
    "repository": "kara.moe",
    "modified_at": "2020-03-31T19:04:33.789Z"
  }
}