{
  "header": {
    "description": "Karaoke Mugen Tag File",
    "version": 1
  },
  "tag": {
    "i18n": {
      "eng": "Brian May"
    },
    "modified_at": "2020-07-09T22:01:36.341Z",
    "name": "Brian May",
    "repository": "kara.moe",
    "tid": "7289dbf3-d6d5-461e-8474-8763fa66b693",
    "types": [
      "songwriters",
      "8"
    ]
  }
}