{
  "header": {
    "description": "Karaoke Mugen Tag File",
    "version": 1
  },
  "tag": {
    "i18n": {
      "eng": "BulletNG"
    },
    "name": "BulletNG",
    "tid": "90035263-20f2-4beb-bfe7-97cbafd93455",
    "types": [
      "creators",
      "4"
    ],
    "repository": "kara.moe",
    "modified_at": "2020-03-31T19:04:33.811Z"
  }
}