{
  "header": {
    "description": "Karaoke Mugen Tag File",
    "version": 1
  },
  "tag": {
    "i18n": {
      "eng": "Bum"
    },
    "name": "Bum",
    "tid": "ed2985df-3293-4037-bb5a-347c500d3bde",
    "types": [
      "songwriters",
      "8"
    ],
    "repository": "kara.moe",
    "modified_at": "2020-03-31T19:04:33.811Z"
  }
}