{
  "header": {
    "description": "Karaoke Mugen Tag File",
    "version": 1
  },
  "tag": {
    "i18n": {
      "eng": "Buono!"
    },
    "name": "Buono!",
    "tid": "3049d3c9-78e8-4ec6-81c8-b4bf029ebb1b",
    "types": [
      "singers",
      "2"
    ],
    "repository": "kara.moe",
    "modified_at": "2020-03-31T19:04:33.816Z"
  }
}