{
  "header": {
    "description": "Karaoke Mugen Tag File",
    "version": 1
  },
  "tag": {
    "aliases": [
      "Burn Up! X",
      "bux"
    ],
    "external_database_ids": {
      "anilist": 370,
      "myanimelist": 370,
      "kitsu": 337
    },
    "i18n": {
      "eng": "Burn Up Excess",
      "jpn": "バーンナップEXCESS",
      "por": "Burn Up! Excess",
      "rus": "Крайне вспыльчивые",
      "spa": "Burn Up! Excess",
      "qro": "Burn-Up Excess"
    },
    "modified_at": "2020-03-31T19:04:31.140Z",
    "name": "Burn-Up Excess",
    "repository": "kara.moe",
    "tid": "e5985a58-071c-4dda-95b8-a27799683774",
    "types": [
      "series",
      "1"
    ]
  }
}