{
  "header": {
    "description": "Karaoke Mugen Tag File",
    "version": 1
  },
  "tag": {
    "i18n": {
      "eng": "Buster Bros!!!"
    },
    "name": "Buster Bros!!!",
    "repository": "kara.moe",
    "tid": "3e33190c-5796-4b46-ba8f-53162959bb1c",
    "types": [
      "singers",
      "2",
      "singergroups",
      "17"
    ]
  }
}