{
  "header": {
    "description": "Karaoke Mugen Tag File",
    "version": 1
  },
  "tag": {
    "i18n": {
      "eng": "Buzy"
    },
    "name": "Buzy",
    "tid": "1e21f3fc-ceb7-430c-8eb7-c540fba3ce72",
    "types": [
      "singers",
      "2"
    ],
    "repository": "kara.moe",
    "modified_at": "2020-03-31T19:04:33.822Z"
  }
}