{
  "header": {
    "description": "Karaoke Mugen Tag File",
    "version": 1
  },
  "tag": {
    "i18n": {
      "eng": "buzzG"
    },
    "name": "buzzG",
    "tid": "2a78e385-0870-4a2e-93f7-394c743f27f9",
    "types": [
      "songwriters",
      "8"
    ],
    "repository": "kara.moe",
    "modified_at": "2020-03-31T19:04:33.823Z"
  }
}