{
  "header": {
    "description": "Karaoke Mugen Tag File",
    "version": 1
  },
  "tag": {
    "i18n": {
      "eng": "Byulhae"
    },
    "name": "Byulhae",
    "repository": "kara.moe",
    "tid": "71624c0b-2c5b-4838-b079-11595d01d012",
    "types": [
      "songwriters",
      "8"
    ]
  }
}