{
  "header": {
    "description": "Karaoke Mugen Tag File",
    "version": 1
  },
  "tag": {
    "i18n": {
      "eng": "C&F"
    },
    "modified_at": "2020-08-18T22:58:23.832Z",
    "name": "C&F",
    "repository": "kara.moe",
    "tid": "a286c319-1c8e-4b9b-a0f4-c12d40d908aa",
    "types": [
      "songwriters",
      "8"
    ]
  }
}