{
  "header": {
    "description": "Karaoke Mugen Tag File",
    "version": 1
  },
  "tag": {
    "i18n": {
      "eng": "Camp Camp"
    },
    "modified_at": "2021-11-21T19:49:15.642Z",
    "name": "Camp Camp",
    "repository": "kara.moe",
    "tid": "6eb23884-15cb-4e93-89ca-41599a78fa61",
    "types": [
      "series",
      "1"
    ]
  }
}