{
  "header": {
    "description": "Karaoke Mugen Tag File",
    "version": 1
  },
  "tag": {
    "i18n": {
      "eng": "Cap to Bin"
    },
    "name": "Cap to Bin",
    "repository": "kara.moe",
    "tid": "835c7e89-bd16-49ab-b956-d6257a741bd3",
    "types": [
      "singergroups",
      "17"
    ]
  }
}