{
  "header": {
    "description": "Karaoke Mugen Tag File",
    "version": 1
  },
  "tag": {
    "i18n": {
      "eng": "Carl Orff"
    },
    "name": "Carl Orff",
    "tid": "e3d5a79d-07bf-4f48-a080-e7b0b93df28f",
    "types": [
      "songwriters",
      "8"
    ],
    "repository": "kara.moe",
    "modified_at": "2020-03-31T19:04:33.843Z"
  }
}