{
  "header": {
    "description": "Karaoke Mugen Tag File",
    "version": 1
  },
  "tag": {
    "i18n": {
      "eng": "Carlos Diaz Carrasco"
    },
    "name": "Carlos Diaz Carrasco",
    "tid": "5b7dee69-043d-4e9d-a89d-aea135a91b8d",
    "types": [
      "creators",
      "4"
    ],
    "repository": "kara.moe",
    "modified_at": "2020-03-31T19:04:33.844Z"
  }
}