{
  "header": {
    "description": "Karaoke Mugen Tag File",
    "version": 1
  },
  "tag": {
    "i18n": {
      "eng": "Carolina Gaitán"
    },
    "name": "Carolina Gaitán",
    "repository": "kara.moe",
    "tid": "c83d9ad2-0cb4-4079-b82b-34d1806bc8a5",
    "types": [
      "singers",
      "2"
    ]
  }
}