{
  "header": {
    "description": "Karaoke Mugen Tag File",
    "version": 1
  },
  "tag": {
    "i18n": {
      "eng": "Casa Milà"
    },
    "name": "Casa Milà",
    "repository": "kara.moe",
    "tid": "a219c4be-23bd-428e-b9bf-b257a25c4c9b",
    "types": [
      "songwriters",
      "8"
    ]
  }
}