{
  "header": {
    "description": "Karaoke Mugen Tag File",
    "version": 1
  },
  "tag": {
    "i18n": {
      "eng": "Cash Callaway"
    },
    "name": "Cash Callaway",
    "repository": "kara.moe",
    "tid": "a2428227-9162-48d3-b9aa-f94b22e12e25",
    "types": [
      "singers",
      "2"
    ]
  }
}