{
  "header": {
    "description": "Karaoke Mugen Tag File",
    "version": 1
  },
  "tag": {
    "i18n": {
      "eng": "Cassie Wei"
    },
    "modified_at": "2021-01-28T15:11:00.792Z",
    "name": "Cassie Wei",
    "repository": "kara.moe",
    "tid": "d1026da5-b413-42c7-912a-3d2c068cad34",
    "types": [
      "songwriters",
      "8"
    ]
  }
}