{
  "header": {
    "description": "Karaoke Mugen Tag File",
    "version": 1
  },
  "tag": {
    "i18n": {
      "eng": "Catherine Warwick"
    },
    "name": "Catherine Warwick",
    "tid": "7236361c-f16f-49f7-a351-d7b524f8e153",
    "types": [
      "singers",
      "2"
    ],
    "repository": "kara.moe",
    "modified_at": "2020-03-31T19:04:33.856Z"
  }
}