{
  "header": {
    "description": "Karaoke Mugen Tag File",
    "version": 1
  },
  "tag": {
    "i18n": {
      "eng": "Catherine",
      "jpn": "キャサリン",
      "qro": "Catherine"
    },
    "modified_at": "2020-03-31T19:04:31.164Z",
    "name": "Catherine",
    "repository": "kara.moe",
    "tid": "18a3766b-8ce2-4338-a250-10dba11cfc6c",
    "types": [
      "series",
      "1"
    ]
  }
}