{
  "header": {
    "description": "Karaoke Mugen Tag File",
    "version": 1
  },
  "tag": {
    "i18n": {
      "eng": "cavia"
    },
    "name": "cavia",
    "tid": "fceaae25-a083-4d7a-b47d-3297a6b1e314",
    "types": [
      "creators",
      "4"
    ],
    "repository": "kara.moe",
    "modified_at": "2020-03-31T19:04:33.857Z"
  }
}