{
  "header": {
    "description": "Karaoke Mugen Tag File",
    "version": 1
  },
  "tag": {
    "i18n": {
      "eng": "Caziro"
    },
    "name": "Caziro",
    "tid": "69ac8ed4-fbcc-41bd-90af-9e43eb70c460",
    "types": [
      "authors",
      "6"
    ],
    "repository": "kara.moe",
    "modified_at": "2020-03-31T19:04:33.860Z"
  }
}