{
  "header": {
    "description": "Karaoke Mugen Tag File",
    "version": 1
  },
  "tag": {
    "i18n": {
      "eng": "CELSIOR COUPE"
    },
    "name": "CELSIOR COUPE",
    "tid": "e5c2b2c1-b0ba-4948-9eab-aed3a561a957",
    "types": [
      "songwriters",
      "8"
    ],
    "repository": "kara.moe",
    "modified_at": "2020-03-31T19:04:33.863Z"
  }
}