{
  "header": {
    "description": "Karaoke Mugen Tag File",
    "version": 1
  },
  "tag": {
    "i18n": {
      "eng": "Celvin Rotane"
    },
    "modified_at": "2021-01-15T23:22:01.361Z",
    "name": "Celvin Rotane",
    "repository": "kara.moe",
    "tid": "56932f5e-40bc-4434-b22f-004e66a9a82b",
    "types": [
      "songwriters",
      "8"
    ]
  }
}