{
  "header": {
    "description": "Karaoke Mugen Tag File",
    "version": 1
  },
  "tag": {
    "i18n": {
      "eng": "Chandrabose"
    },
    "name": "Chandrabose",
    "repository": "kara.moe",
    "tid": "ac11e6d9-8040-47a3-8cc9-a857623c3f2e",
    "types": [
      "songwriters",
      "8"
    ]
  }
}