{
  "header": {
    "description": "Karaoke Mugen Tag File",
    "version": 1
  },
  "tag": {
    "i18n": {
      "eng": "Chata",
      "jpn": "茶太",
      "qro": "Chata"
    },
    "name": "Chata",
    "repository": "kara.moe",
    "tid": "f94a3ed1-87a9-4124-b9d3-c0d1d6ffacd9",
    "types": [
      "singers",
      "2",
      "songwriters",
      "8"
    ]
  }
}