{
  "header": {
    "description": "Karaoke Mugen Tag File",
    "version": 1
  },
  "tag": {
    "external_database_ids": {
      "anilist": 21713,
      "myanimelist": 32483,
      "kitsu": 11770
    },
    "i18n": {
      "eng": "Cheer Boys!!",
      "jpn": "チア男子!!",
      "qro": "Cheer Danshi!!"
    },
    "modified_at": "2020-03-31T19:04:31.174Z",
    "name": "Cheer Danshi!!",
    "repository": "kara.moe",
    "tid": "9b162946-1fa5-4d9d-8d3b-f7069f9d3302",
    "types": [
      "series",
      "1"
    ]
  }
}