{
  "header": {
    "description": "Karaoke Mugen Tag File",
    "version": 1
  },
  "tag": {
    "i18n": {
      "eng": "Chen Tian"
    },
    "name": "Chen Tian",
    "repository": "kara.moe",
    "tid": "8f4ee25c-2e7b-4471-bd0c-a9a52807df29",
    "types": [
      "songwriters",
      "8"
    ]
  }
}