{
  "header": {
    "description": "Karaoke Mugen Tag File",
    "version": 1
  },
  "tag": {
    "i18n": {
      "eng": "Chepaki"
    },
    "modified_at": "2021-06-01T17:28:02.819Z",
    "name": "Chepaki",
    "repository": "kara.moe",
    "tid": "96619f78-8383-4f4a-8217-e879c74f7738",
    "types": [
      "creators",
      "4"
    ]
  }
}