{
  "header": {
    "description": "Karaoke Mugen Tag File",
    "version": 1
  },
  "tag": {
    "i18n": {
      "eng": "Chiaki Omigawa"
    },
    "name": "Chiaki Omigawa",
    "tid": "b9fe655f-da62-4fb6-8ed1-896c2a5e8e06",
    "types": [
      "singers",
      "2"
    ],
    "repository": "kara.moe",
    "modified_at": "2020-03-31T19:04:33.894Z"
  }
}