{
  "header": {
    "description": "Karaoke Mugen Tag File",
    "version": 1
  },
  "tag": {
    "i18n": {
      "eng": "Chiaki Kuriyama"
    },
    "name": "Chiaki Kuriyama",
    "tid": "3c5ef3a0-a650-4cfd-9d48-2782414c1b4a",
    "types": [
      "singers",
      "2"
    ],
    "repository": "kara.moe",
    "modified_at": "2020-03-31T19:04:33.893Z"
  }
}