{
  "header": {
    "description": "Karaoke Mugen Tag File",
    "version": 1
  },
  "tag": {
    "i18n": {
      "eng": "Chicago Poodle"
    },
    "modified_at": "2020-08-19T17:27:10.189Z",
    "name": "Chicago Poodle",
    "repository": "kara.moe",
    "tid": "6820c8a3-0051-450a-bd0f-0070a51faba2",
    "types": [
      "singers",
      "2"
    ]
  }
}