{
  "header": {
    "description": "Karaoke Mugen Tag File",
    "version": 1
  },
  "tag": {
    "i18n": {
      "eng": "Chieko Baishô"
    },
    "modified_at": "2020-04-23T21:53:05.541Z",
    "name": "Chieko Baishô",
    "repository": "kara.moe",
    "tid": "f5f2602e-ffc4-4290-8cd1-a7216412afa0",
    "types": [
      "singers",
      "2"
    ]
  }
}