{
  "header": {
    "description": "Karaoke Mugen Tag File",
    "version": 1
  },
  "tag": {
    "i18n": {
      "eng": "Chiemi Chiba"
    },
    "name": "Chiemi Chiba",
    "tid": "ca72f57f-20ef-4aab-a677-650df8a2d3e2",
    "types": [
      "singers",
      "2"
    ],
    "repository": "kara.moe",
    "modified_at": "2020-03-31T19:04:33.905Z"
  }
}