{
  "header": {
    "description": "Karaoke Mugen Tag File",
    "version": 1
  },
  "tag": {
    "i18n": {
      "eng": "Chieko Suyama"
    },
    "name": "Chieko Suyama",
    "tid": "1386192f-2f1e-4f9c-9142-204393350a93",
    "types": [
      "songwriters",
      "8"
    ],
    "repository": "kara.moe",
    "modified_at": "2020-03-31T19:04:33.904Z"
  }
}