{
  "header": {
    "description": "Karaoke Mugen Tag File",
    "version": 1
  },
  "tag": {
    "i18n": {
      "eng": "chokix"
    },
    "name": "chokix",
    "tid": "ea8747ac-8ae4-4331-8963-073b3fb54d2b",
    "types": [
      "songwriters",
      "8"
    ],
    "repository": "kara.moe",
    "modified_at": "2020-03-31T19:04:33.943Z"
  }
}