{
  "header": {
    "description": "Karaoke Mugen Tag File",
    "version": 1
  },
  "tag": {
    "i18n": {
      "chi": "重返20岁",
      "eng": "20 Once Again"
    },
    "modified_at": "2020-03-31T19:04:31.189Z",
    "name": "Chóng fǎn 20 suì",
    "repository": "kara.moe",
    "tid": "99fee873-bb38-48c4-93b5-0b0b9ec3ec56",
    "types": [
      "series",
      "1"
    ]
  }
}