{
  "header": {
    "description": "Karaoke Mugen Tag File",
    "version": 1
  },
  "tag": {
    "aliases": [
      "Chou Jikuu Yousai Macross FlashBack 2012",
      "Macross Flashback 2012",
      "chou",
      "jikuu",
      "yousai"
    ],
    "external_database_ids": {
      "anilist": 1504,
      "myanimelist": 1504,
      "kitsu": 1350
    },
    "i18n": {
      "eng": "Super Dimension Fortress Macross: Flash Back 2012",
      "jpn": "超時空要塞マクロス FLASH BACK 2012",
      "qro": "Chô Jikû Yôsai Macross: FlashBack 2012"
    },
    "modified_at": "2020-03-31T19:04:31.196Z",
    "name": "Chô Jikû Yôsai Macross: FlashBack 2012",
    "repository": "kara.moe",
    "tid": "971608cf-05c6-4cd9-9014-1b9905d54cca",
    "types": [
      "series",
      "1"
    ]
  }
}