{
  "header": {
    "description": "Karaoke Mugen Tag File",
    "version": 1
  },
  "tag": {
    "aliases": [
      "Choujuu Sentai Liveman",
      "choujuu"
    ],
    "i18n": {
      "eng": "Liveman",
      "jpn": "超獣戦隊ライブマン",
      "qro": "Chôjû Sentai Liveman"
    },
    "modified_at": "2020-03-31T19:04:31.209Z",
    "name": "Chôjû Sentai Liveman",
    "repository": "kara.moe",
    "tid": "a4dadc2f-b89f-4e94-add2-2fbe5279a728",
    "types": [
      "series",
      "1"
    ]
  }
}