{
  "header": {
    "description": "Karaoke Mugen Tag File",
    "version": 1
  },
  "tag": {
    "aliases": [
      "Chou Jikuu Seiki Orguss",
      "Orguss TV",
      "chou",
      "jikuu"
    ],
    "external_database_ids": {
      "anilist": 2089,
      "myanimelist": 2089,
      "kitsu": 1888
    },
    "i18n": {
      "eng": "Super Dimension Century Orguss",
      "jpn": "超時空世紀オーガス",
      "qro": "Chô Jikû Seiki Orguss"
    },
    "modified_at": "2020-06-21T23:45:31.966Z",
    "name": "Chô Jikû Seiki Orguss",
    "repository": "kara.moe",
    "tid": "949e5295-c840-43ee-994a-f9402c6e97ff",
    "types": [
      "series",
      "1"
    ]
  }
}