{
  "header": {
    "description": "Karaoke Mugen Tag File",
    "version": 1
  },
  "tag": {
    "aliases": [
      "Choudenshi Bioman",
      "choudenshi"
    ],
    "i18n": {
      "chi": "超電子生化人",
      "eng": "Bioman",
      "fre": "Bioman",
      "jpn": "超電子バイオマン",
      "kor": "초전자 바이오맨",
      "qro": "Chôdenshi Bioman"
    },
    "modified_at": "2020-03-31T19:04:31.200Z",
    "name": "Chôdenshi Bioman",
    "repository": "kara.moe",
    "tid": "f35fbddf-dfb1-482b-91d2-8fe6cf08ffa3",
    "types": [
      "series",
      "1"
    ]
  }
}