{
  "header": {
    "description": "Karaoke Mugen Tag File",
    "version": 1
  },
  "tag": {
    "i18n": {
      "eng": "Chris Thurman"
    },
    "name": "Chris Thurman",
    "repository": "kara.moe",
    "tid": "db42bd1c-1582-4576-8949-62a1be9e6f55",
    "types": [
      "songwriters",
      "8"
    ]
  }
}