{
  "header": {
    "description": "Karaoke Mugen Tag File",
    "version": 1
  },
  "tag": {
    "i18n": {
      "eng": "Chris Prolls"
    },
    "name": "Chris Prolls",
    "repository": "kara.moe",
    "tid": "f0ac6440-7534-4df4-8f1b-865e0f980252",
    "types": [
      "singers",
      "2"
    ]
  }
}