{
  "header": {
    "description": "Karaoke Mugen Tag File",
    "version": 1
  },
  "tag": {
    "i18n": {
      "eng": "Chris Broad"
    },
    "name": "Chris Broad",
    "repository": "kara.moe",
    "tid": "0a20b207-457e-4072-b454-f5f021201623",
    "types": [
      "singers",
      "2",
      "songwriters",
      "8",
      "creators",
      "4"
    ]
  }
}