{
  "header": {
    "description": "Karaoke Mugen Tag File",
    "version": 1
  },
  "tag": {
    "i18n": {
      "eng": "Christian Saint-Roch"
    },
    "name": "Christian Saint-Roch",
    "repository": "kara.moe",
    "tid": "2a9c8232-cda9-447c-9b41-0e838a5617b3",
    "types": [
      "songwriters",
      "8"
    ]
  }
}