{
  "header": {
    "description": "Karaoke Mugen Tag File",
    "version": 1
  },
  "tag": {
    "i18n": {
      "eng": "Chrome Entertainment"
    },
    "name": "Chrome Entertainment",
    "tid": "849965b2-ffd6-48e2-abd1-671268f85f70",
    "types": [
      "creators",
      "4"
    ],
    "repository": "kara.moe",
    "modified_at": "2020-03-31T19:04:33.960Z"
  }
}