{
  "header": {
    "description": "Karaoke Mugen Tag File",
    "version": 1
  },
  "tag": {
    "aliases": [
      "Chu-2 Byo Lite",
      "Chu-2 Byou demo Koi ga Shitai! Lite",
      "Chu2Koi Lite",
      "Chuu2Koi Lite",
      "Chuunibyou Demo KOI ga Shitai! Lite",
      "chuu2koi Lite"
    ],
    "external_database_ids": {
      "anilist": 15687,
      "kitsu": 7293,
      "myanimelist": 15687
    },
    "i18n": {
      "eng": "Love, Chunibyo & Other Delusions!: Chuni-Shorts",
      "jpn": "中二病でも恋がしたい！Lite",
      "qro": "Chûnibyô Demo KOI ga Shitai! Lite"
    },
    "name": "Chûnibyô Demo KOI ga Shitai! Lite",
    "repository": "kara.moe",
    "tid": "a98df733-833a-4c99-9e40-8acdd826b1ad",
    "types": [
      "series",
      "1"
    ]
  }
}