{
  "header": {
    "description": "Karaoke Mugen Tag File",
    "version": 1
  },
  "tag": {
    "i18n": {
      "afr": "Chuvash",
      "amh": "Chuvash",
      "ara": "التشفاش",
      "aze": "Чувашская",
      "bak": "Сыуаш",
      "bel": "Чувашская",
      "bul": "Chuvashskaya",
      "ben": "চুবাস",
      "bos": "Ukrajinski",
      "cat": "Chuvash",
      "cze": "Chuvash",
      "wel": "Chayahuita",
      "dan": "At finde multicast dnstjenester",
      "ger": "Tschuwaschien",
      "gre": "Χουβάς",
      "eng": "Chuvash",
      "epo": "Ĉuvaŝa",
      "spa": "Chuvash",
      "est": "Chuvash",
      "baq": "Chuvash",
      "per": "Chuvash",
      "fin": "Tšuvassi",
      "fre": "Les tchouvaches",
      "gle": "Suvaisisname",
      "gla": "Chuvash",
      "glg": "Chuvash",
      "guj": "ચૂવાશ",
      "heb": "צ ' ובשית",
      "hin": "चूवाश",
      "hrv": "Чувашская",
      "hat": "Chuvash",
      "hun": "Csuvas",
      "arm": "Chuvash",
      "ind": "Chuvash",
      "ice": "Íslenska",
      "ita": "Chuvash",
      "jpn": "Chuvash",
      "jav": "Chuvash",
      "geo": "Chuvash",
      "kaz": "Чуваш",
      "kan": "ಚುವಾಶ್",
      "kor": "Chuvash",
      "kir": "Чувашская",
      "lat": "Chuvash",
      "lit": "Chuvash",
      "lav": "Čuvašijas",
      "mlg": "Mycenaean greek",
      "mao": "Chuvash",
      "mac": "Chuvash",
      "mal": "ഇംഗ്ലീഷ്",
      "mon": "Чуваш",
      "mar": "चवाश",
      "may": "Chuvash",
      "mlt": "}",
      "nep": "चुभासname",
      "dut": "Tsjoevasjisch (Chuvash)",
      "nor": "Chuvash",
      "pan": "ਚੁਵਾਸ਼",
      "pol": "Чувашская",
      "por": "Tchuvache",
      "rum": "Ciuvașă",
      "rus": "Чувашская",
      "sin": "Chuvash",
      "slo": "Waleština",
      "slv": "Tradicionalno kitajščino",
      "alb": "Chuvash",
      "srp": "Чувашская",
      "sun": "Chuvash",
      "swe": "Tjuvasjiska",
      "swa": "Chuvash",
      "tam": "சுவாஷ்",
      "tel": "చువాష్",
      "tgk": "Чувашская",
      "tha": "ภาษาชูวาช name",
      "tgl": "Chuvash",
      "tur": "Görevlerde bulunmuştur",
      "tat": "Чуаш",
      "ukr": "Чуваська",
      "urd": "Chuvash",
      "uzb": "Chuvash",
      "vie": "Tiếng",
      "xho": "Chuvashname",
      "yid": "Chuvash",
      "chi": "楚瓦什"
    },
    "name": "chv",
    "tid": "ef3772c1-3fa4-4d97-8205-4d58e1357ff6",
    "types": [
      "langs",
      "5"
    ],
    "repository": "kara.moe",
    "modified_at": "2020-03-31T19:04:33.964Z"
  }
}