{
  "header": {
    "description": "Karaoke Mugen Tag File",
    "version": 1
  },
  "tag": {
    "i18n": {
      "eng": "CircusP"
    },
    "name": "CircusP",
    "tid": "28879964-f5f2-4f44-b3c4-46fb108748c1",
    "types": [
      "creators",
      "4",
      "songwriters",
      "8"
    ],
    "repository": "kara.moe",
    "modified_at": "2020-03-31T19:04:33.969Z"
  }
}