{
  "header": {
    "description": "Karaoke Mugen Tag File",
    "version": 1
  },
  "tag": {
    "i18n": {
      "eng": "Civilization IV"
    },
    "name": "Civilization IV",
    "repository": "kara.moe",
    "tid": "a44f889c-c5cd-47ff-bf10-7db6acac8fea",
    "types": [
      "series",
      "1"
    ]
  }
}