{
  "header": {
    "description": "Karaoke Mugen Tag File",
    "version": 1
  },
  "tag": {
    "i18n": {
      "eng": "CJ E&M"
    },
    "name": "CJ E&M",
    "tid": "cd3bd0cd-a1f8-4d6c-84e5-d540fadc28fe",
    "types": [
      "creators",
      "4"
    ],
    "repository": "kara.moe",
    "modified_at": "2020-03-31T19:04:33.970Z"
  }
}