{
  "header": {
    "description": "Karaoke Mugen Tag File",
    "version": 1
  },
  "tag": {
    "aliases": [
      "Clamp Harikalar Diyarında 2",
      "КЛАМП в Страната на чудесата 1995-2006"
    ],
    "external_database_ids": {
      "anilist": 2768,
      "myanimelist": 2768,
      "kitsu": 2526
    },
    "i18n": {
      "eng": "Clamp in Wonderland 2 1995-2006",
      "fre": "Clamp in Wonderland (suite)",
      "jpn": "CLAMP IN WONDERLAND 2 1995-2006",
      "qro": "Clamp in Wonderland 2 1995-2006"
    },
    "modified_at": "2020-03-31T19:04:31.228Z",
    "name": "Clamp in Wonderland 2 1995-2006",
    "repository": "kara.moe",
    "tid": "1b90bb58-9ba9-4242-98dc-3a6878512407",
    "types": [
      "series",
      "1"
    ]
  }
}