{
  "header": {
    "description": "Karaoke Mugen Tag File",
    "version": 1
  },
  "tag": {
    "i18n": {
      "eng": "Clare Duan"
    },
    "name": "Clare Duan",
    "repository": "kara.moe",
    "tid": "14337331-8f54-4a66-b5c0-04f6665c32ab",
    "types": [
      "songwriters",
      "8"
    ]
  }
}