{
  "header": {
    "description": "Karaoke Mugen Tag File",
    "version": 1
  },
  "tag": {
    "i18n": {
      "eng": "Claudia Vazquez"
    },
    "name": "Claudia Vazquez",
    "tid": "2fc04c0a-4a9f-4e85-a5fe-8f6d129b770a",
    "types": [
      "singers",
      "2"
    ],
    "repository": "kara.moe",
    "modified_at": "2020-03-31T19:04:33.978Z"
  }
}