{
  "header": {
    "description": "Karaoke Mugen Tag File",
    "version": 1
  },
  "tag": {
    "i18n": {
      "eng": "Claude Jardin"
    },
    "name": "Claude Jardin",
    "repository": "kara.moe",
    "tid": "cdd40fd3-d087-4ac8-99f4-8e1e8d1d9478",
    "types": [
      "singers",
      "2",
      "songwriters",
      "8"
    ]
  }
}