{
  "header": {
    "description": "Karaoke Mugen Tag File",
    "version": 1
  },
  "tag": {
    "i18n": {
      "eng": "CLEARSTONE RECORDS"
    },
    "name": "CLEARSTONE RECORDS",
    "tid": "80bab618-d6da-495c-9b2a-d6a42aea53cb",
    "types": [
      "creators",
      "4"
    ],
    "repository": "kara.moe",
    "modified_at": "2020-03-31T19:04:33.980Z"
  }
}