{
  "header": {
    "description": "Karaoke Mugen Tag File",
    "version": 1
  },
  "tag": {
    "i18n": {
      "eng": "COACH☆"
    },
    "name": "COACH☆",
    "tid": "71c03ae0-162d-440c-8e67-54b12ae3d5db",
    "types": [
      "singers",
      "2"
    ],
    "repository": "kara.moe",
    "modified_at": "2020-03-31T19:04:33.988Z"
  }
}