{
  "header": {
    "description": "Karaoke Mugen Tag File",
    "version": 1
  },
  "tag": {
    "i18n": {
      "eng": "Coala Mode."
    },
    "name": "Coala Mode.",
    "tid": "39a947db-6379-489a-99cb-35a9239c15f5",
    "types": [
      "singers",
      "2"
    ],
    "repository": "kara.moe",
    "modified_at": "2020-03-31T19:04:33.989Z"
  }
}