{
  "header": {
    "description": "Karaoke Mugen Tag File",
    "version": 1
  },
  "tag": {
    "i18n": {
      "eng": "CoCo"
    },
    "name": "CoCo",
    "tid": "b7cb8005-9263-41c0-b70f-d176e59b1b5a",
    "types": [
      "singers",
      "2"
    ],
    "repository": "kara.moe",
    "modified_at": "2020-03-31T19:04:33.991Z"
  }
}