{
  "header": {
    "description": "Karaoke Mugen Tag File",
    "version": 1
  },
  "tag": {
    "i18n": {
      "eng": "Columbia Records"
    },
    "modified_at": "2020-07-09T19:21:52.906Z",
    "name": "Columbia Records",
    "repository": "kara.moe",
    "tid": "28a02f79-daaf-4037-8897-3458e80a5b41",
    "types": [
      "creators",
      "4"
    ]
  }
}