{
  "header": {
    "description": "Karaoke Mugen Tag File",
    "version": 1
  },
  "tag": {
    "aliases": [
      "CONCEPTION 俺の子供を産んでくれ!",
      "Conception: Ore no Kodomo wo Unde Kure!",
      "コンセプション",
      "コンセプション 俺の子供を産んでくれ!"
    ],
    "external_database_ids": {
      "anilist": 101609,
      "myanimelist": 37823,
      "kitsu": 41269
    },
    "i18n": {
      "chi": "我而生",
      "eng": "Conception",
      "jpn": "CONCEPTION",
      "qro": "Conception"
    },
    "modified_at": "2020-03-31T19:04:31.244Z",
    "name": "Conception",
    "repository": "kara.moe",
    "tid": "e196c311-0c32-4eaf-90df-407fbc6d37d6",
    "types": [
      "series",
      "1",
      "franchises",
      "18"
    ]
  }
}