{
  "header": {
    "description": "Karaoke Mugen Tag File",
    "version": 1
  },
  "tag": {
    "aliases": [
      "Concrete Revolutio: Choujin Gensou The Last Song",
      "choujin",
      "gensou"
    ],
    "external_database_ids": {
      "anilist": 21540,
      "myanimelist": 32313,
      "kitsu": 11620
    },
    "i18n": {
      "eng": "Concrete Revolutio: Superhuman Phantasmagoria ‒ The Last Song",
      "fre": "Concrete Revolutio: The Last Song",
      "jpn": "コンクリート・レボルティオ 超人幻想 THE LAST SONG",
      "qro": "Concrete Revolutio: Chôjin Gensô The Last Song"
    },
    "modified_at": "2020-03-31T19:04:31.244Z",
    "name": "Concrete Revolutio: Chôjin Gensô The Last Song",
    "repository": "kara.moe",
    "tid": "4823b49b-14dc-4613-95e2-fa2f082c89b6",
    "types": [
      "series",
      "1"
    ]
  }
}