{
  "header": {
    "description": "Karaoke Mugen Tag File",
    "version": 1
  },
  "tag": {
    "i18n": {
      "eng": "COOL JOKE"
    },
    "name": "COOL JOKE",
    "tid": "fb30c782-51af-46a2-84ad-09d6fb2b6fe4",
    "types": [
      "singers",
      "2"
    ],
    "repository": "kara.moe",
    "modified_at": "2020-03-31T19:04:34.005Z"
  }
}