{
  "header": {
    "description": "Karaoke Mugen Tag File",
    "version": 1
  },
  "tag": {
    "i18n": {
      "eng": "CooRie"
    },
    "name": "CooRie",
    "tid": "9d9f2677-23b0-4594-ae04-eec633623e3f",
    "types": [
      "singers",
      "2",
      "songwriters",
      "8"
    ],
    "repository": "kara.moe",
    "modified_at": "2020-03-31T19:04:34.007Z"
  }
}