{
  "header": {
    "description": "Karaoke Mugen Tag File",
    "version": 1
  },
  "tag": {
    "aliases": [
      "Courtesy of Zettai Karen Children: The Unlimited - Hyoubu Kyousuke"
    ],
    "description": {
      "eng": ""
    },
    "external_database_ids": {
      "anilist": 16005,
      "myanimelist": 16005,
      "kitsu": 7356
    },
    "i18n": {
      "chi": "THE UNLIMITED 兵部京介",
      "eng": "Unlimited Psychic Squad",
      "jpn": "Courtesy of ZETTAI KAREN CHILDREN THE UNLIMITED 兵部京介",
      "qro": "Courtesy of Zettai Karen Children: The Unlimited - Hyôbu Kyôsuke",
      "fre": "Courtesy of Zettai Karen Children: The Unlimited - Hyôbu Kyôsuke"
    },
    "name": "Courtesy of Zettai Karen Children: The Unlimited - Hyôbu Kyôsuke",
    "repository": "kara.moe",
    "tid": "7cff1cd0-0993-4f1c-942f-03c78e26fcff",
    "types": [
      "series",
      "1"
    ]
  }
}