{
  "header": {
    "description": "Karaoke Mugen Tag File",
    "version": 1
  },
  "tag": {
    "i18n": {
      "eng": "COVER Corp."
    },
    "modified_at": "2021-11-18T12:09:05.389Z",
    "name": "COVER Corp.",
    "repository": "kara.moe",
    "tid": "1aebc053-740f-485f-ad49-fed7a331eb6f",
    "types": [
      "creators",
      "4"
    ]
  }
}