{
  "header": {
    "description": "Karaoke Mugen Tag File",
    "version": 1
  },
  "tag": {
    "aliases": [
      "Cậu bé bút chì"
    ],
    "external_database_ids": {
      "anilist": 966,
      "myanimelist": 966,
      "kitsu": 856
    },
    "i18n": {
      "chi": "蠟筆小新",
      "dan": "Shin-Chan",
      "dut": "Shin-Chan",
      "eng": "Shinchan",
      "fre": "Crayon Shin-chan",
      "ger": "Shin Chan",
      "glg": "Shin Chan",
      "heb": "שין צ'אן",
      "jpn": "クレヨンしんちゃん",
      "pol": "Shin-chan",
      "por": "Shinchan",
      "spa": "Shin Chan",
      "qro": "Crayon Shin-chan"
    },
    "modified_at": "2020-03-31T19:04:31.258Z",
    "name": "Crayon Shin-chan",
    "repository": "kara.moe",
    "tid": "160a2b1d-d555-4d30-b336-d938ae276733",
    "types": [
      "series",
      "1",
      "franchises",
      "18"
    ]
  }
}