{
  "header": {
    "description": "Karaoke Mugen Tag File",
    "version": 1
  },
  "tag": {
    "aliases": [
      "Cristina Valenzuela"
    ],
    "i18n": {
      "eng": "Cristina Vee"
    },
    "name": "Cristina Vee",
    "repository": "kara.moe",
    "tid": "b6210c7b-3f6d-4c6b-b5fd-1a2538651f1f",
    "types": [
      "singers",
      "2"
    ]
  }
}