{
  "header": {
    "description": "Karaoke Mugen Tag File",
    "version": 1
  },
  "tag": {
    "i18n": {
      "eng": "Crystal Castles"
    },
    "name": "Crystal Castles",
    "tid": "25602f4a-b42f-4d70-9792-5ce6698b6015",
    "types": [
      "singers",
      "2"
    ],
    "repository": "kara.moe",
    "modified_at": "2020-03-31T19:04:34.029Z"
  }
}