{
  "header": {
    "description": "Karaoke Mugen Tag File",
    "version": 1
  },
  "tag": {
    "i18n": {
      "eng": "Cyberpunk 2077",
      "jpn": "サイバーパンク2077"
    },
    "name": "Cyberpunk 2077",
    "repository": "kara.moe",
    "tid": "80884681-b7fc-4709-84d1-e1070dbc6fe3",
    "types": [
      "series",
      "1"
    ]
  }
}