{
  "header": {
    "description": "Karaoke Mugen Tag File",
    "version": 1
  },
  "tag": {
    "i18n": {
      "eng": "Cydney Sheffield"
    },
    "modified_at": "2020-08-29T18:21:19.487Z",
    "name": "Cydney Sheffield",
    "repository": "kara.moe",
    "tid": "52e87a1d-b8e3-4547-b451-5937d2b80c7c",
    "types": [
      "songwriters",
      "8"
    ]
  }
}