{
  "header": {
    "description": "Karaoke Mugen Tag File",
    "version": 1
  },
  "tag": {
    "i18n": {
      "eng": "CygamesPictures"
    },
    "modified_at": "2020-08-07T21:39:37.829Z",
    "name": "CygamesPictures",
    "repository": "kara.moe",
    "tid": "61e12252-9c98-4e41-83db-6031c354b920",
    "types": [
      "creators",
      "4"
    ]
  }
}