{
  "header": {
    "description": "Karaoke Mugen Tag File",
    "version": 1
  },
  "tag": {
    "i18n": {
      "eng": "Cyntia"
    },
    "name": "Cyntia",
    "tid": "6f4501f6-59c6-4bcc-add5-ab0648f14f0a",
    "types": [
      "singers",
      "2"
    ],
    "repository": "kara.moe",
    "modified_at": "2020-03-31T19:04:34.038Z"
  }
}