{
  "header": {
    "description": "Karaoke Mugen Tag File",
    "version": 1
  },
  "tag": {
    "i18n": {
      "eng": "Cypress Ueno"
    },
    "name": "Cypress Ueno",
    "repository": "kara.moe",
    "tid": "6b3c5b45-46b3-4cf4-8152-617dc2c9424b",
    "types": [
      "songwriters",
      "8"
    ]
  }
}