{
  "header": {
    "description": "Karaoke Mugen Tag File",
    "version": 1
  },
  "tag": {
    "i18n": {
      "eng": "Cyprien Oliva"
    },
    "name": "Cyprien Oliva",
    "tid": "72e83f17-4202-434e-8e37-ac154cdda1e8",
    "types": [
      "singers",
      "2"
    ],
    "repository": "kara.moe",
    "modified_at": "2020-03-31T19:04:34.038Z"
  }
}