{
  "header": {
    "description": "Karaoke Mugen Tag File",
    "version": 1
  },
  "tag": {
    "i18n": {
      "eng": "Cyril de Turckheim"
    },
    "name": "Cyril de Turckheim",
    "tid": "cc55e9b6-685d-4c3d-976d-0b956996796a",
    "types": [
      "songwriters",
      "8"
    ],
    "repository": "kara.moe",
    "modified_at": "2020-03-31T19:04:34.039Z"
  }
}