{
  "header": {
    "description": "Karaoke Mugen Tag File",
    "version": 1
  },
  "tag": {
    "aliases": [
      "ddd"
    ],
    "external_database_ids": {
      "anilist": 233,
      "myanimelist": 233,
      "kitsu": 208
    },
    "i18n": {
      "eng": "UFO Baby",
      "heb": "!דה! דה! דה",
      "jpn": "だぁ! だぁ! だぁ!",
      "kor": "다!다!다!",
      "qro": "Daa! Daa! Daa!"
    },
    "modified_at": "2020-03-31T19:04:31.272Z",
    "name": "Daa! Daa! Daa!",
    "repository": "kara.moe",
    "tid": "a0154330-64e6-44c9-87c4-b795773c00cf",
    "types": [
      "series",
      "1"
    ]
  }
}