{
  "header": {
    "description": "Karaoke Mugen Tag File",
    "version": 1
  },
  "tag": {
    "aliases": [
      "Dai 501 Tougou Sentou Koukuu Dan Strike Witches: Road to Berlin",
      "Strike Witches 3rd Season",
      "SW 3",
      "tougou",
      "sentou",
      "koukuu"
    ],
    "external_database_ids": {
      "anilist": 103119,
      "myanimelist": 38005,
      "kitsu": 41934
    },
    "i18n": {
      "eng": "Strike Witches: Road to Berlin",
      "jpn": "第501統合戦闘航空団 ストライクウィッチーズ ROAD to BERLIN",
      "qro": "Dai 501 Tôgô Sentô Kôkû Dan Strike Witches: Road to Berlin"
    },
    "modified_at": "2020-11-22T13:02:55.634Z",
    "name": "Dai 501 Tôgô Sentô Kôkû Dan Strike Witches: Road to Berlin",
    "repository": "kara.moe",
    "tid": "5327d8a6-20d0-4308-8416-559700ca1c94",
    "types": [
      "series",
      "1"
    ]
  }
}