{
  "header": {
    "description": "Karaoke Mugen Tag File",
    "version": 1
  },
  "tag": {
    "aliases": [
      "Dairankou!! Semen Sisters ~ Mawari Mawatte Wa Sarete",
      "The Great Orgy!! Semen Sisters -Spun round and round-",
      "dairankou"
    ],
    "i18n": {
      "eng": "Dairankô!! Semen Sisters ~ Mawari Mawatte Wa Sarete",
      "jpn": "大乱交!! ザーメンシスターズ ―まわりまわって輪されて―",
      "qro": "Dairankô!! Semen Sisters ~ Mawari Mawatte Wa Sarete"
    },
    "modified_at": "2020-03-31T19:04:31.279Z",
    "name": "Dairankô!! Semen Sisters ~ Mawari Mawatte Wa Sarete",
    "repository": "kara.moe",
    "tid": "49a928fa-80cb-4277-917d-4f1bc2c15b15",
    "types": [
      "series",
      "1"
    ]
  }
}