{
  "header": {
    "description": "Karaoke Mugen Tag File",
    "version": 1
  },
  "tag": {
    "i18n": {
      "eng": "Daisuke Inoue"
    },
    "name": "Daisuke Inoue",
    "tid": "aa809605-012b-4b29-8cef-930e63efb28f",
    "types": [
      "songwriters",
      "8",
      "singers",
      "2"
    ],
    "repository": "kara.moe",
    "modified_at": "2020-03-31T19:04:34.064Z"
  }
}