{
  "header": {
    "description": "Karaoke Mugen Tag File",
    "version": 1
  },
  "tag": {
    "i18n": {
      "eng": "Daisuke"
    },
    "name": "Daisuke",
    "tid": "d3c2e8ff-6dc9-4982-b543-aaf965a4ab1d",
    "types": [
      "singers",
      "2",
      "songwriters",
      "8"
    ],
    "repository": "kara.moe",
    "modified_at": "2020-03-31T19:04:34.073Z"
  }
}