{
  "header": {
    "description": "Karaoke Mugen Tag File",
    "version": 1
  },
  "tag": {
    "external_database_ids": {
      "anilist": 17827,
      "myanimelist": 17827,
      "kitsu": 8002
    },
    "i18n": {
      "eng": "A Good Librarian Like a Good Shepherd",
      "fre": "Daitoshokan no Hitsujikai",
      "jpn": "大図書館の羊飼い",
      "qro": "Daitoshokan no Hitsujikai"
    },
    "modified_at": "2020-03-31T19:04:31.279Z",
    "name": "Daitoshokan no Hitsujikai",
    "repository": "kara.moe",
    "tid": "1e2f5600-7587-4e47-8188-2f1dde232128",
    "types": [
      "series",
      "1"
    ]
  }
}