{
  "header": {
    "description": "Karaoke Mugen Tag File",
    "version": 1
  },
  "tag": {
    "external_database_ids": {
      "anilist": 98206,
      "myanimelist": 34830,
      "kitsu": 13464
    },
    "i18n": {
      "eng": "Dance with Devils: Fortuna",
      "jpn": "Dance with Devils -Fortuna- ",
      "qro": "Dance with Devils -Fortuna- "
    },
    "name": "Dance with Devils: Fortuna",
    "repository": "kara.moe",
    "tid": "92462bd6-6c2d-4bc2-8f4e-d4b0fbb4dbda",
    "types": [
      "series",
      "1"
    ]
  }
}