{
  "header": {
    "description": "Karaoke Mugen Tag File",
    "version": 1
  },
  "tag": {
    "i18n": {
      "eng": "Darkwing Duck",
      "fre": "Myster Mask"
    },
    "modified_at": "2020-03-31T19:04:31.295Z",
    "name": "Darkwing Duck",
    "repository": "kara.moe",
    "tid": "97f8a682-08d0-4655-850e-60d05f94080f",
    "types": [
      "series",
      "1"
    ]
  }
}