{
  "header": {
    "description": "Karaoke Mugen Tag File",
    "version": 1
  },
  "tag": {
    "i18n": {
      "eng": "Darren Criss"
    },
    "name": "Darren Criss",
    "repository": "kara.moe",
    "tid": "cb15f412-9a8e-4a3f-bc6d-bfae0c6441ab",
    "types": [
      "singers",
      "2"
    ]
  }
}