{
  "header": {
    "description": "Karaoke Mugen Tag File",
    "version": 1
  },
  "tag": {
    "i18n": {
      "eng": "David Le Roy"
    },
    "name": "David Le Roy",
    "repository": "kara.moe",
    "tid": "b5117b47-d0b0-4f17-8cc5-d2356bf790a7",
    "types": [
      "songwriters",
      "8"
    ]
  }
}