{
  "header": {
    "description": "Karaoke Mugen Tag File",
    "version": 1
  },
  "tag": {
    "i18n": {
      "eng": "David McCallum"
    },
    "name": "David McCallum",
    "tid": "eae1f05e-4540-47c1-8842-d3bcb7e99567",
    "types": [
      "songwriters",
      "8"
    ],
    "repository": "kara.moe",
    "modified_at": "2020-03-31T19:04:34.116Z"
  }
}