{
  "header": {
    "description": "Karaoke Mugen Tag File",
    "version": 1
  },
  "tag": {
    "i18n": {
      "eng": "David Vadant"
    },
    "name": "David Vadant",
    "tid": "ec22c547-2d7b-45dc-a639-074f50623de3",
    "types": [
      "songwriters",
      "8"
    ],
    "repository": "kara.moe",
    "modified_at": "2020-03-31T19:04:34.119Z"
  }
}