{
  "header": {
    "description": "Karaoke Mugen Tag File",
    "version": 1
  },
  "tag": {
    "i18n": {
      "eng": "David Zandén"
    },
    "name": "David Zandén",
    "repository": "kara.moe",
    "tid": "fe5de6c9-3ead-48b1-adce-9dac28d90892",
    "types": [
      "songwriters",
      "8"
    ]
  }
}