{
  "header": {
    "description": "Karaoke Mugen Tag File",
    "version": 1
  },
  "tag": {
    "i18n": {
      "eng": "David Rolfe"
    },
    "name": "David Rolfe",
    "tid": "ed0baf7c-d259-4c44-af35-0b7a404d3ce5",
    "types": [
      "songwriters",
      "8"
    ],
    "repository": "kara.moe",
    "modified_at": "2020-03-31T19:04:34.118Z"
  }
}