{
  "header": {
    "description": "Karaoke Mugen Tag File",
    "version": 1
  },
  "tag": {
    "i18n": {
      "eng": "David Hodges"
    },
    "modified_at": "2020-07-11T22:51:17.162Z",
    "name": "David Hodges",
    "repository": "kara.moe",
    "tid": "f9148a77-5eb9-4742-80b1-6f4e28508aee",
    "types": [
      "songwriters",
      "8"
    ]
  }
}