{
  "header": {
    "description": "Karaoke Mugen Tag File",
    "version": 1
  },
  "tag": {
    "i18n": {
      "eng": "David Newman"
    },
    "name": "David Newman",
    "repository": "kara.moe",
    "tid": "9d4b3324-71f7-4cbe-9e42-a63963f1fff6",
    "types": [
      "songwriters",
      "8"
    ]
  }
}