{
  "header": {
    "description": "Karaoke Mugen Tag File",
    "version": 1
  },
  "tag": {
    "aliases": [
      "Dawid Podsiadlo"
    ],
    "i18n": {
      "eng": "Dawid Podsiadło"
    },
    "name": "Dawid Podsiadło",
    "repository": "kara.moe",
    "tid": "332956fe-8207-41af-80b8-79c7296e8e44",
    "types": [
      "singers",
      "2",
      "songwriters",
      "8"
    ]
  }
}