{
  "header": {
    "description": "Karaoke Mugen Tag File",
    "version": 1
  },
  "tag": {
    "i18n": {
      "eng": "Death Records"
    },
    "name": "Death Records",
    "tid": "4483e307-33fc-4a75-a478-f9818e77e703",
    "types": [
      "creators",
      "4"
    ],
    "repository": "kara.moe",
    "modified_at": "2020-03-31T19:04:34.126Z"
  }
}