{
  "header": {
    "description": "Karaoke Mugen Tag File",
    "version": 1
  },
  "tag": {
    "i18n": {
      "eng": "Debbie Davis"
    },
    "name": "Debbie Davis",
    "tid": "f218aa6a-3a5a-48b1-b950-a4f4409d13b3",
    "types": [
      "singers",
      "2"
    ],
    "repository": "kara.moe",
    "modified_at": "2020-03-31T19:04:34.127Z"
  }
}