{
  "header": {
    "description": "Karaoke Mugen Tag File",
    "version": 1
  },
  "tag": {
    "external_database_ids": {
      "anilist": 110353,
      "myanimelist": 40056,
      "kitsu": 42433
    },
    "i18n": {
      "eng": "Deca-Dence",
      "jpn": "デカダンス",
      "rus": "Дека-Данс",
      "qro": "Deca-Dence"
    },
    "modified_at": "2020-07-22T23:01:35.915Z",
    "name": "Deca-Dence",
    "repository": "kara.moe",
    "tid": "3f24a816-c713-40f4-a344-6c1e4fbf1041",
    "types": [
      "series",
      "1"
    ]
  }
}