{
  "header": {
    "description": "Karaoke Mugen Tag File",
    "version": 1
  },
  "tag": {
    "i18n": {
      "eng": "Dekadai"
    },
    "name": "Dekadai",
    "tid": "4b4d2b37-9a64-4d0c-9af1-2f2113ead62e",
    "types": [
      "songwriters",
      "8"
    ],
    "repository": "kara.moe",
    "modified_at": "2020-03-31T19:04:34.132Z"
  }
}