{
  "header": {
    "description": "Karaoke Mugen Tag File",
    "version": 1
  },
  "tag": {
    "aliases": [
      "I will start over again and again for you.",
      "TL su",
      "Time leap"
    ],
    "i18n": {
      "eng": "Dekinai Watashi ga, Kurikaesu.",
      "jpn": "できない私が、くり返す。",
      "qro": "Dekinai Watashi ga Kurikaesu"
    },
    "modified_at": "2020-03-31T19:04:31.306Z",
    "name": "Dekinai Watashi ga Kurikaesu",
    "repository": "kara.moe",
    "tid": "d0e20efe-b852-4312-8c1b-745431aeda94",
    "types": [
      "series",
      "1"
    ]
  }
}