{
  "header": {
    "description": "Karaoke Mugen Tag File",
    "version": 1
  },
  "tag": {
    "aliases": [
      "Denki-Gai no Honya-san"
    ],
    "external_database_ids": {
      "anilist": 20710,
      "myanimelist": 24031,
      "kitsu": 8629
    },
    "i18n": {
      "chi": "电器街的漫画店",
      "eng": "Denki-Gai",
      "fre": "Denki-gai no Honya-san",
      "jpn": "デンキ街の本屋さん",
      "qro": "Denki-gai no Hon'ya-san"
    },
    "modified_at": "2020-03-31T19:04:31.311Z",
    "name": "Denki-gai no Hon'ya-san",
    "repository": "kara.moe",
    "tid": "9d510606-c1de-42b7-8630-4e7d0b8a46ae",
    "types": [
      "series",
      "1"
    ]
  }
}