{
  "header": {
    "description": "Karaoke Mugen Tag File",
    "version": 1
  },
  "tag": {
    "i18n": {
      "eng": "Destroy Harukichi"
    },
    "name": "Destroy Harukichi",
    "repository": "kara.moe",
    "tid": "b86b13cc-3893-445e-a291-f518087ec56c",
    "types": [
      "songwriters",
      "8"
    ],
    "modified_at": "2020-03-31T19:04:34.141Z"
  }
}