{
  "header": {
    "description": "Karaoke Mugen Tag File",
    "version": 1
  },
  "tag": {
    "i18n": {
      "eng": "DevBat"
    },
    "name": "DevBat",
    "repository": "kara.moe",
    "tid": "d920da91-9708-48c7-a3eb-c52eaf098148",
    "types": [
      "authors",
      "6"
    ]
  }
}