{
  "header": {
    "description": "Karaoke Mugen Tag File",
    "version": 1
  },
  "tag": {
    "external_database_ids": {
      "anilist": 98460,
      "myanimelist": 35120,
      "kitsu": 13230
    },
    "i18n": {
      "eng": "Devilman Crybaby",
      "ita": "Devilman Crybaby",
      "jpn": "DEVILMAN crybaby",
      "qro": "Devilman Crybaby"
    },
    "modified_at": "2020-03-31T19:04:31.322Z",
    "name": "Devilman Crybaby",
    "repository": "kara.moe",
    "tid": "92c39cec-2ab0-4365-b7fe-428e2d2bb1c3",
    "types": [
      "series",
      "1"
    ]
  }
}