{
  "header": {
    "description": "Karaoke Mugen Tag File",
    "version": 1
  },
  "tag": {
    "i18n": {
      "eng": "Diabolik Lovers: MORE,BLOOD",
      "jpn": "ディアボリックラヴァーズ モア、ブラッド",
      "qro": "Diabolik Lovers: More Blood"
    },
    "modified_at": "2020-03-31T19:04:31.331Z",
    "name": "Diabolik Lovers: More Blood",
    "repository": "kara.moe",
    "tid": "2fe6cc9e-4427-46f1-a662-426e5d2d0ac6",
    "types": [
      "series",
      "1"
    ]
  }
}