{
  "header": {
    "description": "Karaoke Mugen Tag File",
    "version": 1
  },
  "tag": {
    "i18n": {
      "jpn": "Dies irae Also sprach Zarathustra -die Wiederkunft-",
      "qro": "Dies irae Also sprach Zarathustra -die Wiederkunft-"
    },
    "modified_at": "2020-03-31T19:04:31.334Z",
    "name": "Dies irae Also sprach Zarathustra -die Wiederkunft-",
    "repository": "kara.moe",
    "tid": "1dc68c2c-d3e3-4315-9395-95a0a3d96624",
    "types": [
      "series",
      "1"
    ]
  }
}