{
  "header": {
    "description": "Karaoke Mugen Tag File",
    "version": 1
  },
  "tag": {
    "i18n": {
      "eng": "≠ME"
    },
    "name": "≠ME",
    "repository": "kara.moe",
    "tid": "fda2bdb2-cd16-43b4-82b7-8bc23a0a6aa9",
    "types": [
      "singergroups",
      "17"
    ]
  }
}