{
  "header": {
    "description": "Karaoke Mugen Tag File",
    "version": 1
  },
  "tag": {
    "aliases": [
      "Appmon"
    ],
    "i18n": {
      "eng": "Digimon Universe App Monsters",
      "jpn": "デジモンユニバース アプリモンスターズ",
      "qro": "Digimon Universe: Appli Monsters"
    },
    "name": "Digimon Universe: Appli Monsters",
    "repository": "kara.moe",
    "tid": "e0152a1a-a5e8-4c4d-9224-06e1f8567b8c",
    "types": [
      "series",
      "1"
    ]
  }
}