{
  "header": {
    "description": "Karaoke Mugen Tag File",
    "version": 1
  },
  "tag": {
    "i18n": {
      "eng": "Dimitri Bodiansky"
    },
    "modified_at": "2020-04-30T23:21:31.918Z",
    "name": "Dimitri Bodiansky",
    "repository": "kara.moe",
    "tid": "93fa830a-84ac-4dcd-b791-1322aebbdf8e",
    "types": [
      "songwriters",
      "8"
    ]
  }
}