{
  "header": {
    "description": "Karaoke Mugen Tag File",
    "version": 1
  },
  "tag": {
    "external_database_ids": {
      "anilist": 1796,
      "myanimelist": 1796,
      "kitsu": 1616
    },
    "i18n": {
      "eng": "Dirty Pair: Project Eden"
    },
    "name": "Dirty Pair: Project Eden",
    "repository": "kara.moe",
    "tid": "8fd55087-0eaf-4ffd-b6b9-fab9226e61b7",
    "types": [
      "series",
      "1"
    ]
  }
}