{
  "header": {
    "description": "Karaoke Mugen Tag File",
    "version": 1
  },
  "tag": {
    "i18n": {
      "eng": "DJ KOO & MOTSU"
    },
    "modified_at": "2021-05-11T12:02:06.688Z",
    "name": "DJ KOO & MOTSU",
    "repository": "kara.moe",
    "tid": "998eeb51-2050-47b9-b8ed-3da480ba49a1",
    "types": [
      "singers",
      "2"
    ]
  }
}