{
  "header": {
    "description": "Karaoke Mugen Tag File",
    "version": 1
  },
  "tag": {
    "i18n": {
      "eng": "DJ Konami"
    },
    "name": "DJ Konami",
    "repository": "kara.moe",
    "tid": "cd5cdb94-d333-41fa-aeaf-1d72318dd7d8",
    "types": [
      "singers",
      "2"
    ]
  }
}