{
  "header": {
    "description": "Karaoke Mugen Tag File",
    "version": 1
  },
  "tag": {
    "i18n": {
      "eng": "DJ SHIMAMURA"
    },
    "name": "DJ SHIMAMURA",
    "tid": "35c5f994-9e78-4f59-a353-7b51f425caea",
    "types": [
      "songwriters",
      "8"
    ],
    "repository": "kara.moe",
    "modified_at": "2020-03-31T19:04:34.167Z"
  }
}