{
  "header": {
    "description": "Karaoke Mugen Tag File",
    "version": 1
  },
  "tag": {
    "aliases": [
      "DIY!!"
    ],
    "external_database_ids": {
      "anilist": 131516,
      "kitsu": 44237,
      "myanimelist": 48542
    },
    "i18n": {
      "eng": "Do It Yourself!!",
      "jpn": "Do It Yourself!! -どぅー・いっと・ゆあせるふ-",
      "qro": "Do It Yourself!!"
    },
    "name": "Do It Yourself!!",
    "repository": "kara.moe",
    "tid": "0bde0b39-d7b0-45e3-be9b-6c7a9a216a94",
    "types": [
      "series",
      "1",
      "franchises",
      "18"
    ]
  }
}