{
  "header": {
    "description": "Karaoke Mugen Tag File",
    "version": 1
  },
  "tag": {
    "i18n": {
      "eng": "DoCo"
    },
    "name": "DoCo",
    "tid": "6eeff97b-c644-4697-b3a9-4bf5e35b169c",
    "types": [
      "singers",
      "2",
      "songwriters",
      "8"
    ],
    "repository": "kara.moe",
    "modified_at": "2020-03-31T19:04:34.174Z"
  }
}