{
  "header": {
    "description": "Karaoke Mugen Tag File",
    "version": 1
  },
  "tag": {
    "aliases": [
      "Dog Days 3",
      "Dog Days S3",
      "dd3"
    ],
    "external_database_ids": {
      "anilist": 16385,
      "myanimelist": 16385,
      "kitsu": 7417
    },
    "i18n": {
      "eng": "Dog Days 3",
      "jpn": "ドッグデイズ''",
      "qro": "Dog Days''"
    },
    "modified_at": "2020-03-31T19:04:31.345Z",
    "name": "Dog Days''",
    "repository": "kara.moe",
    "tid": "83b1e76c-ecdd-4801-9799-b6fa1b5372cd",
    "types": [
      "series",
      "1"
    ]
  }
}