{
  "header": {
    "description": "Karaoke Mugen Tag File",
    "version": 1
  },
  "tag": {
    "i18n": {
      "eng": "Doja Cat"
    },
    "modified_at": "2021-01-01T15:38:23.561Z",
    "name": "Doja Cat",
    "repository": "kara.moe",
    "tid": "fe34fb17-ce4c-4353-8b17-e7544131a525",
    "types": [
      "songwriters",
      "8"
    ]
  }
}