{
  "header": {
    "description": "Karaoke Mugen Tag File",
    "version": 1
  },
  "tag": {
    "i18n": {
      "eng": "Dominique Gauriaud"
    },
    "modified_at": "2020-07-03T22:05:25.527Z",
    "name": "Dominique Gauriaud",
    "repository": "kara.moe",
    "tid": "c95d9efb-6f6b-45e9-8716-781ed2a42e9d",
    "types": [
      "songwriters",
      "8"
    ]
  }
}