{
  "header": {
    "description": "Karaoke Mugen Tag File",
    "version": 1
  },
  "tag": {
    "i18n": {
      "eng": "Donny Osmond"
    },
    "name": "Donny Osmond",
    "tid": "548da846-0fee-4f93-a3c3-47644ba32921",
    "types": [
      "singers",
      "2"
    ],
    "repository": "kara.moe",
    "modified_at": "2020-03-31T19:04:34.184Z"
  }
}