{
  "header": {
    "description": "Karaoke Mugen Tag File",
    "version": 1
  },
  "tag": {
    "aliases": [
      "Dororo (2019)"
    ],
    "external_database_ids": {
      "anilist": 101347,
      "kitsu": 41083,
      "myanimelist": 37520
    },
    "i18n": {
      "jpn": "どろろ",
      "qro": "Dororo (2019)"
    },
    "name": "Dororo (2019)",
    "repository": "kara.moe",
    "tid": "915958e7-8c49-4008-be21-e2c58f0fbec7",
    "types": [
      "series",
      "1",
      "franchises",
      "18"
    ]
  }
}