{
  "header": {
    "description": "Karaoke Mugen Tag File",
    "version": 1
  },
  "tag": {
    "i18n": {
      "eng": "DoubleDee73"
    },
    "name": "DoubleDee73",
    "repository": "kara.moe",
    "tid": "91863407-e7eb-445f-a14f-87f2a284aa20",
    "types": [
      "authors",
      "6"
    ]
  }
}