{
  "header": {
    "description": "Karaoke Mugen Tag File",
    "version": 1
  },
  "tag": {
    "i18n": {
      "eng": "doubleeleven UpperCut"
    },
    "name": "doubleeleven UpperCut",
    "tid": "c7af6cac-6116-447b-a693-be96d698e1ef",
    "types": [
      "singers",
      "2"
    ],
    "repository": "kara.moe",
    "modified_at": "2020-03-31T19:04:34.190Z"
  }
}