{
  "header": {
    "description": "Karaoke Mugen Tag File",
    "version": 1
  },
  "tag": {
    "aliases": [
      "Daburu Jei",
      "Yuruani"
    ],
    "external_database_ids": {
      "anilist": 10838,
      "myanimelist": 10838,
      "kitsu": 6377
    },
    "i18n": {
      "eng": "Double-J",
      "jpn": "だぶるじぇい",
      "qro": "Double-J"
    },
    "modified_at": "2020-03-31T19:04:31.357Z",
    "name": "Double-J",
    "repository": "kara.moe",
    "tid": "13bc63f5-7790-45ff-8aeb-cb78f9d10a3d",
    "types": [
      "series",
      "1"
    ]
  }
}