{
  "header": {
    "description": "Karaoke Mugen Tag File",
    "version": 1
  },
  "tag": {
    "i18n": {
      "eng": "Douglas Adams"
    },
    "name": "Douglas Adams",
    "tid": "3f8ba44a-6fc7-4244-8fc3-9de910d4c38f",
    "types": [
      "songwriters",
      "8"
    ],
    "repository": "kara.moe",
    "modified_at": "2020-03-31T19:04:34.191Z"
  }
}