{
  "header": {
    "description": "Karaoke Mugen Tag File",
    "version": 1
  },
  "tag": {
    "i18n": {
      "eng": "dr9229"
    },
    "name": "dr9229",
    "repository": "kara.moe",
    "tid": "e8774097-53bb-4e5d-a612-c91be81b57b8",
    "types": [
      "authors",
      "6"
    ]
  }
}