{
  "header": {
    "description": "Karaoke Mugen Tag File",
    "version": 1
  },
  "tag": {
    "aliases": [
      "DBZ Budokai 3"
    ],
    "i18n": {
      "eng": "Dragon Ball Z: Budokai 3",
      "jpn": "ドラゴンボールZ3",
      "qro": "Dragon Ball Z Budokai 3"
    },
    "modified_at": "2020-03-31T19:04:31.367Z",
    "name": "Dragon Ball Z Budokai 3",
    "repository": "kara.moe",
    "tid": "a410ff01-6265-4a14-8829-018ab7606e42",
    "types": [
      "series",
      "1"
    ]
  }
}