{
  "header": {
    "description": "Karaoke Mugen Tag File",
    "version": 1
  },
  "tag": {
    "aliases": [
      "DD"
    ],
    "external_database_ids": {
      "anilist": 296,
      "myanimelist": 296,
      "kitsu": 271
    },
    "i18n": {
      "eng": "Dragon Drive",
      "jpn": "ドラゴンドライブ",
      "qro": "Dragon Drive"
    },
    "modified_at": "2020-03-31T19:04:31.377Z",
    "name": "Dragon Drive",
    "repository": "kara.moe",
    "tid": "e6b61384-ab2c-4087-8275-0735f37c30f2",
    "types": [
      "series",
      "1"
    ]
  }
}