{
  "header": {
    "description": "Karaoke Mugen Tag File",
    "version": 1
  },
  "tag": {
    "aliases": [
      "DMMD",
      "dmmd",
      "ドラマティカルマーダー"
    ],
    "external_database_ids": {
      "anilist": 20677,
      "myanimelist": 23333,
      "kitsu": 8331
    },
    "i18n": {
      "eng": "DRAMAtical Murder",
      "fre": "DRAMAtical Murder",
      "jpn": "ドラマティカル マーダー",
      "qro": "DRAMAtical Murder"
    },
    "modified_at": "2020-03-31T19:04:31.380Z",
    "name": "DRAMAtical Murder",
    "repository": "kara.moe",
    "tid": "3eb108a9-2d53-4163-8a17-45b65f6ff1ad",
    "types": [
      "series",
      "1",
      "franchises",
      "18"
    ]
  }
}