{
  "header": {
    "description": "Karaoke Mugen Tag File",
    "version": 1
  },
  "tag": {
    "i18n": {
      "eng": "Dream 9 Toriko x One Piece x Dragon Ball Z Super Collaboration Special",
      "jpn": "ドリーム9 トリコ&ワンピース&ドラゴンボールZ  超コラボスペシャル!! "
    },
    "name": "Dream 9 Toriko x One Piece x Dragon Ball Z Super Collaboration Special",
    "repository": "kara.moe",
    "tid": "7fb6d77b-3854-4ec4-bea7-8164d2b7391f",
    "types": [
      "series",
      "1"
    ]
  }
}