{
  "header": {
    "description": "Karaoke Mugen Tag File",
    "version": 1
  },
  "tag": {
    "i18n": {
      "eng": "Drew Seeley"
    },
    "modified_at": "2020-07-05T20:42:48.637Z",
    "name": "Drew Seeley",
    "repository": "kara.moe",
    "tid": "7f32d821-78ee-4373-a229-0b9a3e16af15",
    "types": [
      "singers",
      "2"
    ]
  }
}