{
  "header": {
    "description": "Karaoke Mugen Tag File",
    "version": 1
  },
  "tag": {
    "i18n": {
      "eng": "Dschinghis Khan"
    },
    "name": "Dschinghis Khan",
    "tid": "f360c570-9f87-4c40-bfd8-97dbdc337b37",
    "types": [
      "singers",
      "2"
    ],
    "repository": "kara.moe",
    "modified_at": "2020-03-31T19:04:34.204Z"
  }
}