{
  "header": {
    "description": "Karaoke Mugen Tag File",
    "version": 1
  },
  "tag": {
    "i18n": {
      "eng": "Duckwrth"
    },
    "name": "Duckwrth",
    "repository": "kara.moe",
    "tid": "91da2830-24e8-466c-829c-0fe482b337a1",
    "types": [
      "singers",
      "2",
      "songwriters",
      "8"
    ]
  }
}