{
  "header": {
    "description": "Karaoke Mugen Tag File",
    "version": 1
  },
  "tag": {
    "aliases": [
      "Dungeon ni Deai o Motomeru no wa Machigatte Iru Darouka",
      "darouka"
    ],
    "external_database_ids": {
      "anilist": 112124,
      "myanimelist": 40454,
      "kitsu": 42583
    },
    "i18n": {
      "eng": "Is It Wrong to Try to Pick Up Girls in a Dungeon? III",
      "fre": "DanMachi : Familia Myth III",
      "jpn": "ダンジョンに出会いを求めるのは間違っているだろうか FAMILIA MYTH III",
      "qro": "Dungeon ni Deai o Motomeru no wa Machigatte Iru Darôka: Familia Myth III"
    },
    "modified_at": "2020-10-24T22:51:39.102Z",
    "name": "Dungeon ni Deai o Motomeru no wa Machigatte Iru Darôka: Familia Myth III",
    "repository": "kara.moe",
    "tid": "08ed12f3-80c6-44fa-a00d-c430f62e48a9",
    "types": [
      "series",
      "1"
    ]
  }
}