{
  "header": {
    "description": "Karaoke Mugen Tag File",
    "version": 1
  },
  "tag": {
    "i18n": {
      "eng": "Efe Tozan"
    },
    "name": "Efe Tozan",
    "tid": "8e8d7d55-9938-40ef-b674-aa87b50493ab",
    "types": [
      "songwriters",
      "8"
    ],
    "repository": "kara.moe",
    "modified_at": "2020-03-31T19:04:34.231Z"
  }
}