{
  "header": {
    "description": "Karaoke Mugen Tag File",
    "version": 1
  },
  "tag": {
    "i18n": {
      "eng": "EIGHT OF TRIANGLE"
    },
    "name": "EIGHT OF TRIANGLE",
    "tid": "d6c2a75e-0c71-44af-97a9-ad5426e217dd",
    "types": [
      "singers",
      "2"
    ],
    "repository": "kara.moe",
    "modified_at": "2020-03-31T19:04:34.236Z"
  }
}