{
  "header": {
    "description": "Karaoke Mugen Tag File",
    "version": 1
  },
  "tag": {
    "i18n": {
      "eng": "Eiko Yamane"
    },
    "name": "Eiko Yamane",
    "tid": "55fc351f-7cad-4fd1-b360-67205fabe625",
    "types": [
      "singers",
      "2"
    ],
    "repository": "kara.moe",
    "modified_at": "2020-03-31T19:04:34.246Z"
  }
}