{
  "header": {
    "description": "Karaoke Mugen Tag File",
    "version": 1
  },
  "tag": {
    "i18n": {
      "eng": "Eiko Masuyama"
    },
    "name": "Eiko Masuyama",
    "tid": "3a4ca657-6568-4f53-9499-ebb4e947890f",
    "types": [
      "singers",
      "2"
    ],
    "repository": "kara.moe",
    "modified_at": "2020-03-31T19:04:34.245Z"
  }
}