{
  "header": {
    "description": "Karaoke Mugen Tag File",
    "version": 1
  },
  "tag": {
    "aliases": [
      "El Hazard"
    ],
    "external_database_ids": {},
    "i18n": {
      "eng": "El-Hazard",
      "jpn": "エルハザード"
    },
    "name": "El-Hazard",
    "repository": "kara.moe",
    "tid": "21387ae5-0599-4895-a055-eca4e1e9b097",
    "types": [
      "franchises",
      "18"
    ]
  }
}