{
  "header": {
    "description": "Karaoke Mugen Tag File",
    "version": 1
  },
  "tag": {
    "i18n": {
      "eng": "Elidel"
    },
    "name": "Elidel",
    "repository": "kara.moe",
    "tid": "0fe969f8-eacc-455e-b2af-1569cffe9b96",
    "types": [
      "authors",
      "6"
    ]
  }
}