{
  "header": {
    "description": "Karaoke Mugen Tag File",
    "version": 1
  },
  "tag": {
    "i18n": {
      "eng": "Elwingil"
    },
    "modified_at": "2021-05-16T16:20:10.538Z",
    "name": "Elwingil",
    "repository": "kara.moe",
    "tid": "04851ae4-8fa7-42b9-9007-9717258daf65",
    "types": [
      "creators",
      "4"
    ]
  }
}