{
  "header": {
    "description": "Karaoke Mugen Tag File",
    "version": 1
  },
  "tag": {
    "i18n": {
      "eng": "Emi Makiho"
    },
    "name": "Emi Makiho",
    "tid": "0baebd75-1f9e-4807-a3f3-1c34eefd746e",
    "types": [
      "songwriters",
      "8"
    ],
    "repository": "kara.moe",
    "modified_at": "2020-03-31T19:04:34.265Z"
  }
}