{
  "header": {
    "description": "Karaoke Mugen Tag File",
    "version": 1
  },
  "tag": {
    "i18n": {
      "eng": "EMI Records Japan"
    },
    "name": "EMI Records Japan",
    "tid": "76505349-8ced-40ad-936d-c5bd3e92b1f7",
    "types": [
      "creators",
      "4"
    ],
    "repository": "kara.moe",
    "modified_at": "2020-03-31T19:04:34.268Z"
  }
}