{
  "header": {
    "description": "Karaoke Mugen Tag File",
    "version": 1
  },
  "tag": {
    "i18n": {
      "eng": "Emika"
    },
    "name": "Emika",
    "tid": "ece7e7fc-5e9b-4f96-af1e-bd7129e8e08d",
    "types": [
      "singers",
      "2"
    ],
    "repository": "kara.moe",
    "modified_at": "2020-03-31T19:04:34.269Z"
  }
}