{
  "header": {
    "description": "Karaoke Mugen Tag File",
    "version": 1
  },
  "tag": {
    "aliases": [
      "Emiya-san Chi no Kyou no Gohan",
      "Today's Menu for Emiya Family",
      "kyou"
    ],
    "external_database_ids": {
      "anilist": 100855,
      "myanimelist": 37033,
      "kitsu": 14154
    },
    "i18n": {
      "eng": "Today's Menu for the Emiya Family",
      "jpn": "衛宮さんちの今日のごはん",
      "qro": "Emiya-san Chi no Kyô no Gohan"
    },
    "modified_at": "2020-03-31T19:04:31.404Z",
    "name": "Emiya-san Chi no Kyô no Gohan",
    "repository": "kara.moe",
    "tid": "2b7bbfc4-c158-4201-b03f-5794b702474f",
    "types": [
      "series",
      "1"
    ]
  }
}