{
  "header": {
    "description": "Karaoke Mugen Tag File",
    "version": 1
  },
  "tag": {
    "i18n": {
      "eng": "Emyli"
    },
    "name": "Emyli",
    "tid": "3780f7f6-e37e-4afd-8098-7515beb146cf",
    "types": [
      "songwriters",
      "8"
    ],
    "repository": "kara.moe",
    "modified_at": "2020-03-31T19:04:34.280Z"
  }
}