{
  "header": {
    "description": "Karaoke Mugen Tag File",
    "version": 1
  },
  "tag": {
    "i18n": {
      "afr": "Engels",
      "amh": "አማርኛ",
      "ara": "اللغة الإنجليزية",
      "aze": "İngilis dili",
      "bak": "Урыҫ теле",
      "bel": "Англійская",
      "bul": "Английски",
      "ben": "বাংলা",
      "bos": "Engleski",
      "cat": "Anglès",
      "cze": "Anglický",
      "wel": "Saesneg",
      "dan": "Engelsk",
      "ger": "Englisch",
      "gre": "Αγγλικά",
      "eng": "English",
      "epo": "La angla",
      "spa": "Inglés",
      "est": "Inglise",
      "baq": "Euskara",
      "per": "انگلیسی",
      "fin": "Englanti",
      "fre": "Anglais",
      "gle": "Béarla",
      "gla": "Gaelic",
      "glg": "Inglés",
      "guj": "ગુજરાતી",
      "heb": "אנגלית",
      "hin": "अंग्रेजी",
      "hrv": "Engleski",
      "hat": "Angle",
      "hun": "Angol",
      "arm": "Անգլերեն",
      "ind": "Bahasa inggris",
      "ice": "Enska",
      "ita": "Inglese",
      "jpn": "英語",
      "jav": "Inggris",
      "geo": "ინგლისური",
      "kaz": "Ағылшын",
      "kan": "ಕನ್ನಡ",
      "kor": "영어",
      "kir": "Английский",
      "lat": "Anglorum",
      "lit": "Lietuvių",
      "lav": "Angļu",
      "mlg": "Malagasy",
      "mao": "Maori",
      "mac": "Англиски",
      "mal": "മലയാളം",
      "mon": "Англи хэл",
      "mar": "इंग्रजी",
      "may": "Bahasa inggeris",
      "mlt": "Malti",
      "nep": "नेपाली",
      "dut": "Engels",
      "nor": "Engelsk",
      "pan": "ਅੰਗਰੇਜ਼ੀ",
      "pol": "Angielski",
      "por": "Inglês",
      "rum": "Engleză",
      "rus": "Английский",
      "sin": "ඉංග්රීසි",
      "slo": "Angličtina",
      "slv": "Angleščina",
      "alb": "Anglisht",
      "srp": "Енглески",
      "sun": "Basa inggris",
      "swe": "Engelska",
      "swa": "Kiingereza",
      "tam": "Tamil",
      "tel": "తెలుగు",
      "tgk": "English",
      "tha": "ภาษาอังกฤษ",
      "tgl": "Ingles",
      "tur": "İngilizce",
      "tat": "Инглиз теле",
      "ukr": "Англійська",
      "urd": "انگریزی",
      "uzb": "Uzbek",
      "vie": "Tiếng anh",
      "xho": "Isixhosa",
      "yid": "ענגליש",
      "chi": "英语"
    },
    "name": "eng",
    "tid": "de5eda1c-5fb3-46a6-9606-d4554fc5a1d6",
    "types": [
      "langs",
      "5"
    ],
    "repository": "kara.moe",
    "modified_at": "2020-03-31T19:04:34.285Z"
  }
}