{
  "header": {
    "description": "Karaoke Mugen Tag File",
    "version": 1
  },
  "tag": {
    "aliases": [
      "Enstars"
    ],
    "i18n": {
      "jpn": "あんさんぶるスターズ！",
      "qro": "Ensemble Stars!"
    },
    "name": "Ensemble Stars!",
    "repository": "kara.moe",
    "tid": "d1184e31-716b-4ed1-8c81-9cd0d42afdc2",
    "types": [
      "series",
      "1"
    ]
  }
}