{
  "header": {
    "description": "Karaoke Mugen Tag File",
    "version": 1
  },
  "tag": {
    "i18n": {
      "eng": "Eri Sendai"
    },
    "name": "Eri Sendai",
    "tid": "7e538176-3483-4c47-86b0-1e12b4282c0d",
    "types": [
      "singers",
      "2"
    ],
    "repository": "kara.moe",
    "modified_at": "2020-03-31T19:04:34.305Z"
  }
}