{
  "header": {
    "description": "Karaoke Mugen Tag File",
    "version": 1
  },
  "tag": {
    "i18n": {
      "eng": "Eri Sasaki"
    },
    "name": "Eri Sasaki",
    "tid": "3b865ceb-6e11-4c4f-be16-9fd446ce3e01",
    "types": [
      "singers",
      "2",
      "songwriters",
      "8"
    ],
    "repository": "kara.moe",
    "modified_at": "2020-03-31T19:04:34.304Z"
  }
}