{
  "header": {
    "description": "Karaoke Mugen Tag File",
    "version": 1
  },
  "tag": {
    "i18n": {
      "eng": "Escape Plan"
    },
    "name": "Escape Plan",
    "repository": "kara.moe",
    "tid": "d1e4476b-463c-48d2-bce0-e3478b7152e2",
    "types": [
      "singers",
      "2"
    ]
  }
}