{
  "header": {
    "description": "Karaoke Mugen Tag File",
    "version": 1
  },
  "tag": {
    "i18n": {
      "eng": "Escha Chron"
    },
    "name": "Escha Chron",
    "repository": "kara.moe",
    "tid": "765a5c5f-ee3f-4211-b8ef-67d81f9b0b09",
    "types": [
      "singergroups",
      "17"
    ]
  }
}