{
  "header": {
    "description": "Karaoke Mugen Tag File",
    "version": 1
  },
  "tag": {
    "i18n": {
      "eng": "Eternal Truth"
    },
    "modified_at": "2021-06-14T15:19:53.937Z",
    "name": "Eternal Truth",
    "repository": "kara.moe",
    "tid": "b543e49e-140a-4ca8-b54b-44fd49aeea13",
    "types": [
      "songwriters",
      "8"
    ]
  }
}