{
  "header": {
    "description": "Karaoke Mugen Tag File",
    "version": 1
  },
  "tag": {
    "i18n": {
      "eng": "Ethyria"
    },
    "name": "Ethyria",
    "repository": "kara.moe",
    "tid": "cc89128a-0101-4554-b193-fcee667efbc4",
    "types": [
      "singers",
      "2",
      "series",
      "1"
    ]
  }
}