{
  "header": {
    "description": "Karaoke Mugen Tag File",
    "version": 1
  },
  "tag": {
    "aliases": [
      "Odyssey"
    ],
    "i18n": {
      "eng": "Eurobeat Brony"
    },
    "name": "Eurobeat Brony",
    "repository": "kara.moe",
    "tid": "488f64cf-20ca-4cd4-8cde-f61840406a67",
    "types": [
      "songwriters",
      "8",
      "singers",
      "2"
    ]
  }
}