{
  "header": {
    "description": "Karaoke Mugen Tag File",
    "version": 1
  },
  "tag": {
    "i18n": {
      "eng": "Eyn"
    },
    "modified_at": "2021-11-20T20:29:56.464Z",
    "name": "Eyn",
    "repository": "kara.moe",
    "tid": "317bb320-9643-4263-b521-9dc1c9afd451",
    "types": [
      "songwriters",
      "8"
    ]
  }
}