{
  "header": {
    "description": "Karaoke Mugen Tag File",
    "version": 1
  },
  "tag": {
    "i18n": {
      "eng": "F&C・FC01"
    },
    "name": "F&C・FC01",
    "tid": "cff78eb8-1ec3-4aad-96f8-b31acc10754d",
    "types": [
      "creators",
      "4"
    ],
    "repository": "kara.moe",
    "modified_at": "2020-03-31T19:04:34.346Z"
  }
}