{
  "header": {
    "description": "Karaoke Mugen Tag File",
    "version": 1
  },
  "tag": {
    "i18n": {
      "eng": "FAKE?"
    },
    "name": "FAKE?",
    "tid": "658745b6-8153-4e47-92d9-d95886171fe1",
    "types": [
      "singers",
      "2",
      "songwriters",
      "8"
    ],
    "repository": "kara.moe",
    "modified_at": "2020-03-31T19:04:34.352Z"
  }
}