{
  "header": {
    "description": "Karaoke Mugen Tag File",
    "version": 1
  },
  "tag": {
    "i18n": {
      "eng": "Famishin"
    },
    "name": "Famishin",
    "tid": "8c5ab845-60f5-421d-b464-4e0c4286c3a3",
    "types": [
      "songwriters",
      "8"
    ],
    "repository": "kara.moe",
    "modified_at": "2020-03-31T19:04:34.355Z"
  }
}