{
  "header": {
    "description": "Karaoke Mugen Tag File",
    "version": 1
  },
  "tag": {
    "i18n": {
      "eng": "Fantasia Animation"
    },
    "name": "Fantasia Animation",
    "tid": "f2b0aaf4-6b91-4ca9-95d0-45693ffa046e",
    "types": [
      "creators",
      "4"
    ],
    "repository": "kara.moe",
    "modified_at": "2020-03-31T19:04:34.357Z"
  }
}