{
  "header": {
    "description": "Karaoke Mugen Tag File",
    "version": 1
  },
  "tag": {
    "i18n": {
      "eng": "Fatal"
    },
    "name": "Fatal",
    "repository": "kara.moe",
    "tid": "de34e73a-7714-4f65-b29f-f0d8ad15f782",
    "types": [
      "series",
      "1"
    ]
  }
}