{
  "header": {
    "description": "Karaoke Mugen Tag File",
    "version": 1
  },
  "tag": {
    "aliases": [
      "F/SN",
      "FSN",
      "Fate Stay Night",
      "Fate/SN",
      "fsn",
      "fsn tv",
      "Судьба: Ночь Схватки",
      "Съдба/Нощна битка",
      "Съдба/Под булото на нощта",
      "قسمت / رہو نائٹ",
      "フェイト/ステイナイト",
      "fate stay"
    ],
    "external_database_ids": {
      "anilist": 356,
      "myanimelist": 356,
      "kitsu": 323
    },
    "i18n": {
      "chi": "命運守護夜",
      "eng": "Fate/stay night",
      "fre": "Fate/stay night",
      "jpn": "Fate/stay night",
      "kor": "페이트 스테이 나이트",
      "por": "Fate/stay night",
      "spa": "Fate/stay night",
      "tha": "มหาสงครามจอกศักดิ์สิทธิ์",
      "qro": "Fate/stay night"
    },
    "modified_at": "2020-03-31T19:04:31.434Z",
    "name": "Fate/stay night",
    "repository": "kara.moe",
    "tid": "bed77af7-560d-4cae-9b23-6a0e61c5bdf5",
    "types": [
      "series",
      "1"
    ]
  }
}