{
  "header": {
    "description": "Karaoke Mugen Tag File",
    "version": 1
  },
  "tag": {
    "aliases": [
      "F/SN 2014",
      "FSN 2014",
      "FSN UBW 2014",
      "Fate Stay Night - Unlimited Blade Works",
      "Fate Stay Night 2014",
      "Fate/stay night 『Unlimited Blade Works』 (2014)",
      "UBWTV",
      "[UBW] 2014",
      "ubw",
      "フェイト/ステイナイト (2014)",
      "fate stay"
    ],
    "external_database_ids": {
      "anilist": 19603,
      "myanimelist": 22297,
      "kitsu": 7882
    },
    "i18n": {
      "eng": "Fate/stay sight: Unlimited Blade Works",
      "fre": "Fate/stay sight: Unlimited Blade Works",
      "jpn": "Fate/stay night [Unlimited Blade Works]",
      "qro": "Fate/stay night: Unlimited Blade Works"
    },
    "name": "Fate/stay night: Unlimited Blade Works",
    "repository": "kara.moe",
    "tid": "c94bba57-31e0-445d-bc35-c422aeab8d9e",
    "types": [
      "series",
      "1"
    ]
  }
}