{
  "header": {
    "description": "Karaoke Mugen Tag File",
    "version": 1
  },
  "tag": {
    "i18n": {
      "eng": "Fetish Fever"
    },
    "name": "Fetish Fever",
    "repository": "kara.moe",
    "tid": "98ed2612-86ac-4b85-bb5e-65da85ce6c8e",
    "types": [
      "series",
      "1"
    ]
  }
}