{
  "header": {
    "description": "Karaoke Mugen Tag File",
    "version": 1
  },
  "tag": {
    "i18n": {
      "eng": "FictionJunction"
    },
    "name": "FictionJunction",
    "tid": "05c1d835-770f-471c-a565-e48c558909c1",
    "types": [
      "singers",
      "2"
    ],
    "repository": "kara.moe",
    "modified_at": "2020-03-31T19:04:34.374Z"
  }
}