{
  "header": {
    "description": "Karaoke Mugen Tag File",
    "version": 1
  },
  "tag": {
    "i18n": {
      "afr": "Finse",
      "amh": "ፊኒሽ",
      "ara": "الفنلندية",
      "aze": "Fin",
      "bak": "Фин теле",
      "bel": "Фінскі",
      "bul": "Финландски",
      "ben": "ফিনিশ",
      "bos": "Finski",
      "cat": "Finès",
      "cze": "Finská",
      "wel": "Ffindir",
      "dan": "Finsk",
      "ger": "Finnisch",
      "gre": "Φινλανδικά",
      "eng": "Finnish",
      "epo": "Finna",
      "spa": "Finlandés",
      "est": "Soome",
      "baq": "Finlandiako",
      "per": "فنلاندی",
      "fin": "Suomen",
      "fre": "Finnois",
      "gle": "Fionlainnis",
      "gla": "Fionnlannais",
      "glg": "Finlandesa",
      "guj": "ફિનિશ",
      "heb": "פיני",
      "hin": "फिनिश",
      "hrv": "Finski",
      "hat": "Finnish",
      "hun": "Finn",
      "arm": "Ֆիններեն",
      "ind": "Finlandia",
      "ice": "Finnska",
      "ita": "Finlandese",
      "jpn": "フィンランド",
      "jav": "Finnish",
      "geo": "ფინური",
      "kaz": "Фин",
      "kan": "ಫಿನ್ನಿಶ್",
      "kor": "핀란드",
      "kir": "Финский",
      "lat": "Finnish",
      "lit": "Suomių",
      "lav": "Somu",
      "mlg": "Finoa",
      "mao": "Whinihi",
      "mac": "Фински",
      "mal": "ഫിന്നിഷ്",
      "mon": "Финлянд",
      "mar": "Finnish",
      "may": "Finland",
      "mlt": "Il-finlandiż",
      "nep": "फिनिस",
      "dut": "Fins",
      "nor": "Finsk",
      "pan": "ਫ਼ਿਨਲੈਂਡੀ",
      "pol": "Fiński",
      "por": "Finlandês",
      "rum": "Finlandeză",
      "rus": "Финский",
      "sin": "ෆින්ලන්ත",
      "slo": "Fínska",
      "slv": "Finski",
      "alb": "Finlandeze",
      "srp": "Фински",
      "sun": "Finlandia",
      "swe": "Finska",
      "swa": "Kifini",
      "tam": "பின்னிஷ்",
      "tel": "ఫిన్నిష్",
      "tgk": "Финский",
      "tha": "ภาษาฟินแลนด์ name",
      "tgl": "Finnish",
      "tur": "Fince",
      "tat": "Фин теле",
      "ukr": "Фінський",
      "urd": "فننش",
      "uzb": "Turkcha",
      "vie": "Phần lan",
      "xho": "Isifinnish",
      "yid": "פֿיניש",
      "chi": "芬兰"
    },
    "name": "fin",
    "tid": "34c9117e-b8d8-4714-a663-10b073f0a8fd",
    "types": [
      "langs",
      "5"
    ],
    "repository": "kara.moe",
    "modified_at": "2020-03-31T19:04:34.376Z"
  }
}