{
  "header": {
    "description": "Karaoke Mugen Tag File",
    "version": 1
  },
  "tag": {
    "i18n": {
      "eng": "FLAGSHIP LINE"
    },
    "name": "FLAGSHIP LINE",
    "repository": "kara.moe",
    "tid": "bb2376f3-8ffd-49c3-ab92-6a3c99b185c5",
    "types": [
      "creators",
      "4"
    ]
  }
}