{
  "header": {
    "description": "Karaoke Mugen Tag File",
    "version": 1
  },
  "tag": {
    "i18n": {
      "eng": "fleia"
    },
    "name": "fleia",
    "repository": "kara.moe",
    "tid": "a416b3aa-0967-4d1a-9ae7-288e0a810c5c",
    "types": [
      "singers",
      "2"
    ]
  }
}