{
  "header": {
    "description": "Karaoke Mugen Tag File",
    "version": 1
  },
  "tag": {
    "aliases": [
      "FloFlo"
    ],
    "i18n": {
      "eng": "floral flowlove",
      "jpn": "floral flowlove",
      "qro": "floral flowlove"
    },
    "modified_at": "2020-03-31T19:04:31.452Z",
    "name": "floral flowlove",
    "repository": "kara.moe",
    "tid": "d8d4da91-c629-4aab-8ea0-49c60fcd17ad",
    "types": [
      "series",
      "1"
    ]
  }
}