{
  "header": {
    "description": "Karaoke Mugen Tag File",
    "version": 1
  },
  "tag": {
    "i18n": {
      "eng": "Folimage"
    },
    "name": "Folimage",
    "tid": "bb3ecccf-4810-4851-a2ed-e24639b0fada",
    "types": [
      "creators",
      "4"
    ],
    "repository": "kara.moe",
    "modified_at": "2020-03-31T19:04:34.391Z"
  }
}