{
  "header": {
    "description": "Karaoke Mugen Tag File",
    "version": 1
  },
  "tag": {
    "i18n": {
      "eng": "FOREST Hunting One"
    },
    "name": "FOREST Hunting One",
    "tid": "04acb26a-08a8-490d-9440-df4752a60914",
    "types": [
      "creators",
      "4"
    ],
    "repository": "kara.moe",
    "modified_at": "2020-03-31T19:04:34.393Z"
  }
}