{
  "header": {
    "description": "Karaoke Mugen Tag File",
    "version": 1
  },
  "tag": {
    "i18n": {
      "eng": "Fortiche Prod"
    },
    "name": "Fortiche Prod",
    "tid": "ab4a1c5e-2578-4fb9-8913-03d530ea2d45",
    "types": [
      "creators",
      "4"
    ],
    "repository": "kara.moe",
    "modified_at": "2020-03-31T19:04:34.394Z"
  }
}