{
  "header": {
    "description": "Karaoke Mugen Tag File",
    "version": 1
  },
  "tag": {
    "aliases": [
      "Фрактал",
      "Фрактейл",
      "프랙탈"
    ],
    "external_database_ids": {
      "anilist": 9314,
      "myanimelist": 9314,
      "kitsu": 5668
    },
    "i18n": {
      "eng": "Fractale",
      "jpn": "フラクタル",
      "qro": "Fractale"
    },
    "modified_at": "2020-03-31T19:04:31.457Z",
    "name": "Fractale",
    "repository": "kara.moe",
    "tid": "df08bdd3-6968-4f06-93d2-5843eb6303dd",
    "types": [
      "series",
      "1"
    ]
  }
}