{
  "header": {
    "description": "Karaoke Mugen Tag File",
    "version": 1
  },
  "tag": {
    "i18n": {
      "eng": "Frank Enea"
    },
    "name": "Frank Enea",
    "repository": "kara.moe",
    "tid": "83c0bf80-2113-4700-a570-72a9826dd060",
    "types": [
      "songwriters",
      "8"
    ]
  }
}