{
  "header": {
    "description": "Karaoke Mugen Tag File",
    "version": 1
  },
  "tag": {
    "i18n": {
      "eng": "Francesco Sansalone"
    },
    "modified_at": "2020-07-21T17:31:10.519Z",
    "name": "Francesco Sansalone",
    "repository": "kara.moe",
    "tid": "420226df-155a-4315-a88a-1651d9d6e082",
    "types": [
      "songwriters",
      "8",
      "singers",
      "2"
    ]
  }
}