{
  "header": {
    "description": "Karaoke Mugen Tag File",
    "version": 1
  },
  "tag": {
    "i18n": {
      "eng": "Franco Migliacci"
    },
    "name": "Franco Migliacci",
    "tid": "54f713bb-f4d0-410b-9abd-5f37a758f915",
    "types": [
      "songwriters",
      "8"
    ],
    "repository": "kara.moe",
    "modified_at": "2020-03-31T19:04:34.403Z"
  }
}