{
  "header": {
    "description": "Karaoke Mugen Tag File",
    "version": 1
  },
  "tag": {
    "i18n": {
      "eng": "France 3"
    },
    "name": "France 3",
    "tid": "e220337b-4b36-48e4-96bb-3450f875e76e",
    "types": [
      "creators",
      "4"
    ],
    "repository": "kara.moe",
    "modified_at": "2020-03-31T19:04:34.397Z"
  }
}