{
  "header": {
    "description": "Karaoke Mugen Tag File",
    "version": 1
  },
  "tag": {
    "i18n": {
      "eng": "Frank Sinatra"
    },
    "modified_at": "2020-11-12T14:58:03.840Z",
    "name": "Frank Sinatra",
    "repository": "kara.moe",
    "tid": "dcc8c892-7697-49df-a742-68ae640b9ec9",
    "types": [
      "singers",
      "2"
    ]
  }
}