{
  "header": {
    "description": "Karaoke Mugen Tag File",
    "version": 1
  },
  "tag": {
    "i18n": {
      "eng": "Fred Fairbrass"
    },
    "name": "Fred Fairbrass",
    "repository": "kara.moe",
    "tid": "370dd598-7997-456a-900c-406b6c26c398",
    "types": [
      "songwriters",
      "8"
    ]
  }
}