{
  "header": {
    "description": "Karaoke Mugen Tag File",
    "version": 1
  },
  "tag": {
    "i18n": {
      "eng": "Freddie Mercury"
    },
    "name": "Freddie Mercury",
    "repository": "kara.moe",
    "tid": "20cd819d-d273-430c-9894-22eed6d14fb0",
    "types": [
      "songwriters",
      "8",
      "singers",
      "2"
    ]
  }
}