{
  "header": {
    "description": "Karaoke Mugen Tag File",
    "version": 1
  },
  "tag": {
    "i18n": {
      "eng": "Friends"
    },
    "modified_at": "2020-06-21T22:11:51.953Z",
    "name": "Friends",
    "repository": "kara.moe",
    "tid": "f7ce3367-5531-4b8d-a99e-ca072f3301e7",
    "types": [
      "series",
      "1"
    ]
  }
}