{
  "header": {
    "description": "Karaoke Mugen Tag File",
    "version": 1
  },
  "tag": {
    "i18n": {
      "eng": "Front Wing"
    },
    "name": "Front Wing",
    "tid": "eeaffaf0-035f-417b-a999-889395386f21",
    "types": [
      "creators",
      "4"
    ],
    "repository": "kara.moe",
    "modified_at": "2020-03-31T19:04:34.415Z"
  }
}