{
  "header": {
    "description": "Karaoke Mugen Tag File",
    "version": 1
  },
  "tag": {
    "i18n": {
      "eng": "FRONTLINE"
    },
    "name": "FRONTLINE",
    "tid": "03ac82ac-2e5f-4252-95cf-03d5ad90a170",
    "types": [
      "creators",
      "4"
    ],
    "repository": "kara.moe",
    "modified_at": "2020-03-31T19:04:34.417Z"
  }
}