{
  "header": {
    "description": "Karaoke Mugen Tag File",
    "version": 1
  },
  "tag": {
    "i18n": {
      "eng": "Frontier Aja"
    },
    "name": "Frontier Aja",
    "tid": "13280f3c-1ee2-4796-bbd3-1e797db90e18",
    "types": [
      "creators",
      "4"
    ],
    "repository": "kara.moe",
    "modified_at": "2020-03-31T19:04:34.416Z"
  }
}