{
  "header": {
    "description": "Karaoke Mugen Tag File",
    "version": 1
  },
  "tag": {
    "i18n": {
      "eng": "Fujimiya Yuki"
    },
    "name": "Fujimiya Yuki",
    "repository": "kara.moe",
    "tid": "4298600e-9028-4ce0-8c5f-6b7ffc99ff0f",
    "types": [
      "singers",
      "2"
    ]
  }
}