{
  "header": {
    "description": "Karaoke Mugen Tag File",
    "version": 1
  },
  "tag": {
    "i18n": {
      "eng": "Fumiko Orikasa"
    },
    "name": "Fumiko Orikasa",
    "tid": "c426e0ce-e922-4e82-82c0-6dfce654d2ee",
    "types": [
      "singers",
      "2"
    ],
    "repository": "kara.moe",
    "modified_at": "2020-03-31T19:04:34.438Z"
  }
}