{
  "header": {
    "description": "Karaoke Mugen Tag File",
    "version": 1
  },
  "tag": {
    "i18n": {
      "eng": "Fumito Iwai"
    },
    "name": "Fumito Iwai",
    "tid": "6583c213-2fac-4637-8606-037987cca952",
    "types": [
      "songwriters",
      "8"
    ],
    "repository": "kara.moe",
    "modified_at": "2020-03-31T19:04:34.440Z"
  }
}