{
  "header": {
    "description": "Karaoke Mugen Tag File",
    "version": 1
  },
  "tag": {
    "i18n": {
      "eng": "FURIL"
    },
    "modified_at": "2020-08-20T20:37:55.740Z",
    "name": "FURIL",
    "repository": "kara.moe",
    "tid": "fda61341-4691-4bad-81b8-3f5082ef342a",
    "types": [
      "singers",
      "2"
    ]
  }
}