{
  "header": {
    "description": "Karaoke Mugen Tag File",
    "version": 1
  },
  "tag": {
    "aliases": [
      "Fuuma no Kojirou: Fuma Hanran Ren",
      "fuuma",
      "kojirou"
    ],
    "external_database_ids": {
      "anilist": 4856,
      "myanimelist": 4856,
      "kitsu": 3828
    },
    "i18n": {
      "eng": "Kojiro of the Fuma: Fuma Rebellion Chapter",
      "fre": "Kojirô !",
      "ita": "Kojiro: la ribellione dei Fuma",
      "jpn": "風魔の小次郎 最終章 風魔反乱篇",
      "qro": "Fûma no Kojirô: Fuma Hanran Ren"
    },
    "modified_at": "2020-03-31T19:04:31.487Z",
    "name": "Fûma no Kojirô: Fuma Hanran Ren",
    "repository": "kara.moe",
    "tid": "10b91a5c-4fe9-4b40-ae3e-0d877c77628b",
    "types": [
      "series",
      "1"
    ]
  }
}