{
  "header": {
    "description": "Karaoke Mugen Tag File",
    "version": 1
  },
  "tag": {
    "i18n": {
      "jpn": "G子",
      "qro": "G'co"
    },
    "name": "G'co",
    "repository": "kara.moe",
    "tid": "9afbaa2f-169d-4cf0-b8f5-07749156e736",
    "types": [
      "creators",
      "4"
    ]
  }
}