{
  "header": {
    "description": "Karaoke Mugen Tag File",
    "version": 1
  },
  "tag": {
    "i18n": {
      "eng": "G. Pasquini"
    },
    "name": "G. Pasquini",
    "tid": "6909ff7c-277d-4823-a218-8e934088b458",
    "types": [
      "songwriters",
      "8"
    ],
    "repository": "kara.moe",
    "modified_at": "2020-03-31T19:04:34.454Z"
  }
}