{
  "header": {
    "description": "Karaoke Mugen Tag File",
    "version": 1
  },
  "tag": {
    "i18n": {
      "eng": "Gacchan"
    },
    "modified_at": "2020-12-10T11:12:02.827Z",
    "name": "Gacchan",
    "repository": "kara.moe",
    "tid": "e88bcace-9b4a-42da-ba55-2fca24462ad5",
    "types": [
      "songwriters",
      "8"
    ]
  }
}