{
  "header": {
    "description": "Karaoke Mugen Tag File",
    "version": 1
  },
  "tag": {
    "aliases": [
      "Gackt.C"
    ],
    "i18n": {
      "eng": "GACKT"
    },
    "modified_at": "2021-06-13T10:54:34.880Z",
    "name": "GACKT",
    "repository": "kara.moe",
    "tid": "a8a167e5-cf32-472a-96c3-d14629e16bfa",
    "types": [
      "singers",
      "2",
      "songwriters",
      "8"
    ]
  }
}