{
  "header": {
    "description": "Karaoke Mugen Tag File",
    "version": 1
  },
  "tag": {
    "aliases": [
      "Academy Battle City Asterisk"
    ],
    "external_database_ids": {
      "anilist": 21131,
      "myanimelist": 30544,
      "kitsu": 10857
    },
    "i18n": {
      "eng": "The Asterisk War",
      "fre": "The Asterisk War",
      "jpn": "学戦都市アスタリスク",
      "qro": "Gakusen Toshi Asterisk"
    },
    "modified_at": "2020-03-31T19:04:31.501Z",
    "name": "Gakusen Toshi Asterisk",
    "repository": "kara.moe",
    "tid": "54c012e8-77f3-4825-a994-5dffd84e462a",
    "types": [
      "series",
      "1",
      "franchises",
      "18"
    ]
  }
}