{
  "header": {
    "description": "Karaoke Mugen Tag File",
    "version": 1
  },
  "tag": {
    "i18n": {
      "eng": "School Babysitters",
      "jpn": "学園ベビーシッターズ",
      "qro": "Gakuen Babysitters"
    },
    "name": "Gakuen Babysitters",
    "repository": "kara.moe",
    "tid": "ea1f2c20-3692-4188-a471-19865166d97c",
    "types": [
      "series",
      "1"
    ]
  }
}