{
  "header": {
    "description": "Karaoke Mugen Tag File",
    "version": 1
  },
  "tag": {
    "external_database_ids": {
      "anilist": 101470,
      "myanimelist": 37657,
      "kitsu": 41263
    },
    "i18n": {
      "chi": "学园BASARA",
      "eng": "Gakuen Basara: Samurai High School",
      "jpn": "学園BASARA",
      "kor": "학원 바사라",
      "qro": "Gakuen Basara: Samurai High School"
    },
    "modified_at": "2020-03-31T19:04:31.497Z",
    "name": "Gakuen Basara: Samurai High School",
    "repository": "kara.moe",
    "tid": "8870e408-6581-46ee-803d-6073d0233745",
    "types": [
      "series",
      "1"
    ]
  }
}