{
  "header": {
    "description": "Karaoke Mugen Tag File",
    "version": 1
  },
  "tag": {
    "i18n": {
      "eng": "Galapagos"
    },
    "name": "Galapagos",
    "tid": "59a42675-c42a-406f-afdf-57f314cf9032",
    "types": [
      "creators",
      "4"
    ],
    "repository": "kara.moe",
    "modified_at": "2020-03-31T19:04:34.466Z"
  }
}