{
  "header": {
    "description": "Karaoke Mugen Tag File",
    "version": 1
  },
  "tag": {
    "external_database_ids": {
      "anilist": 2769,
      "myanimelist": 2769,
      "kitsu": 2527
    },
    "i18n": {
      "eng": "Lensman: Power of the Lens",
      "jpn": "GALACTIC PATROL レンズマン",
      "pol": "Lensman: Sekret Soczewki",
      "qro": "Galactic Patrol Lensman"
    },
    "modified_at": "2020-03-31T19:04:31.503Z",
    "name": "Galactic Patrol Lensman",
    "repository": "kara.moe",
    "tid": "fd10f9c5-f95a-4174-93a3-aa4d893cc5da",
    "types": [
      "series",
      "1"
    ]
  }
}