{
  "header": {
    "description": "Karaoke Mugen Tag File",
    "version": 1
  },
  "tag": {
    "aliases": [
      "David Chabant"
    ],
    "i18n": {
      "eng": "Ganesh2"
    },
    "modified_at": "2020-12-14T13:22:45.770Z",
    "name": "Ganesh2",
    "repository": "kara.moe",
    "tid": "fab53939-d926-4eb1-a1cb-02a92ee82255",
    "types": [
      "creators",
      "4",
      "singers",
      "2",
      "songwriters",
      "8"
    ]
  }
}