{
  "header": {
    "description": "Karaoke Mugen Tag File",
    "version": 1
  },
  "tag": {
    "external_database_ids": {
      "anilist": 782,
      "myanimelist": 782,
      "kitsu": 699
    },
    "i18n": {
      "eng": "Gasaraki",
      "fre": "Gasaraki",
      "jpn": "ガサラキ",
      "spa": "Gasaraki",
      "qro": "Gasaraki"
    },
    "modified_at": "2020-03-31T19:04:31.514Z",
    "name": "Gasaraki",
    "repository": "kara.moe",
    "tid": "cefdf4db-8f0b-454e-afc1-9a12b700d851",
    "types": [
      "series",
      "1"
    ]
  }
}