{
  "header": {
    "description": "Karaoke Mugen Tag File",
    "version": 1
  },
  "tag": {
    "i18n": {
      "eng": "Gavin Jones"
    },
    "name": "Gavin Jones",
    "tid": "c35f5d90-7677-4080-8737-b65d05c22ef9",
    "types": [
      "songwriters",
      "8"
    ],
    "repository": "kara.moe",
    "modified_at": "2020-03-31T19:04:34.479Z"
  }
}