{
  "header": {
    "description": "Karaoke Mugen Tag File",
    "version": 1
  },
  "tag": {
    "i18n": {
      "eng": "gbk13"
    },
    "name": "gbk13",
    "repository": "kara.moe",
    "tid": "8a78eeb9-3be2-414b-bef7-163f8c917d9f",
    "types": [
      "authors",
      "6"
    ]
  }
}