{
  "header": {
    "description": "Karaoke Mugen Tag File",
    "version": 1
  },
  "tag": {
    "aliases": [
      "GeGeGe no Kitarou 2018",
      "Kitaro 2018",
      "kitarou"
    ],
    "external_database_ids": {
      "anilist": 100978,
      "myanimelist": 37140,
      "kitsu": 14246
    },
    "i18n": {
      "jpn": "ゲゲゲの鬼太郎 6期",
      "qro": "GeGeGe no Kitarô 6 (2018)"
    },
    "modified_at": "2020-03-31T19:04:31.521Z",
    "name": "GeGeGe no Kitarô 6 (2018)",
    "repository": "kara.moe",
    "tid": "863ea93b-cd61-4693-be9f-d97f48aa5292",
    "types": [
      "series",
      "1"
    ]
  }
}