{
  "header": {
    "description": "Karaoke Mugen Tag File",
    "version": 1
  },
  "tag": {
    "aliases": [
      "Yu-Gi-Oh! 10th Anniversary Movie ~Super Fusion! Bonds Beyond Time~",
      "Yu-Gi-Oh! The Movie - Fusion Ultra! Bond over time and space",
      "yugiohmovie2",
      "Ю-Ги-О: Връзки през време и пространство",
      "فيلم يو غي أوه :الانصهار الخارق ! تخطي حاجز الزمان والمكان",
      "gekijou-ban",
      "chou",
      "yuugo"
    ],
    "external_database_ids": {
      "anilist": 6951,
      "myanimelist": 6951,
      "kitsu": 4802
    },
    "i18n": {
      "eng": "Yu-Gi-Oh! 3D: Bonds Beyond Time",
      "fre": "Yu-Gi-Oh! Le Film : Réunis à travers le temps",
      "jpn": "劇場版 遊☆戯☆王 ~超融合! 時空を越えた絆~",
      "qro": "Gekijô-ban Yu-Gi-Oh! Chô Yûgo Toki wo Koeta Kizuna"
    },
    "modified_at": "2020-03-31T19:04:31.523Z",
    "name": "Gekijô-ban Yu-Gi-Oh! Chô Yûgo Toki wo Koeta Kizuna",
    "repository": "kara.moe",
    "tid": "c8222993-f092-4c43-843a-0abd27ae0906",
    "types": [
      "series",
      "1"
    ]
  }
}