{
  "header": {
    "description": "Karaoke Mugen Tag File",
    "version": 1
  },
  "tag": {
    "aliases": [
      "Kara no Kyoukai",
      "knk",
      "空の境界",
      "gekijouban",
      "kyoukai"
    ],
    "external_database_ids": {
      "anilist": 6624,
      "myanimelist": 6624,
      "kitsu": 4637
    },
    "i18n": {
      "eng": "The Garden of sinners Remix -Gate of seventh heaven-",
      "fre": "Kara no Kyôkai ‒ The Garden of Sinners Remix -Gate of seventh heaven-",
      "jpn": "劇場版 空の境界 the Garden of sinners Remix -Gate of seventh heaven-",
      "qro": "Gekijôban Kara no Kyôkai: The Garden of sinners Remix -Gate of seventh heaven-"
    },
    "modified_at": "2020-03-31T19:04:31.533Z",
    "name": "Gekijôban Kara no Kyôkai: The Garden of sinners Remix -Gate of seventh heaven-",
    "repository": "kara.moe",
    "tid": "22c8cbe0-6e77-42b0-84f7-e841d005bddc",
    "types": [
      "series",
      "1"
    ]
  }
}