{
  "header": {
    "description": "Karaoke Mugen Tag File",
    "version": 1
  },
  "tag": {
    "external_database_ids": {
      "anilist": 531,
      "myanimelist": 531,
      "kitsu": 490
    },
    "i18n": {
      "eng": "Sailor Moon R: The Movie",
      "fre": "Sailor Moon : Les Fleurs maléfiques",
      "jpn": "劇場版 美少女戦士セーラームーンＲ",
      "qro": "Gekijouban Bishoujo Senshi Sailor Moon R"
    },
    "modified_at": "2020-03-31T19:04:31.526Z",
    "name": "Gekijouban Bishoujo Senshi Sailor Moon R",
    "repository": "kara.moe",
    "tid": "51478bc8-9ffb-4b25-a4d0-c31b28db9bde",
    "types": [
      "series",
      "1"
    ]
  }
}