{
  "header": {
    "description": "Karaoke Mugen Tag File",
    "version": 1
  },
  "tag": {
    "i18n": {
      "eng": "George Cole"
    },
    "name": "George Cole",
    "tid": "5d48fe34-7c6b-49a0-a03b-c376c62a8a87",
    "types": [
      "songwriters",
      "8"
    ],
    "repository": "kara.moe",
    "modified_at": "2020-03-31T19:04:34.496Z"
  }
}