{
  "header": {
    "description": "Karaoke Mugen Tag File",
    "version": 1
  },
  "tag": {
    "i18n": {
      "eng": "George Bruns"
    },
    "name": "George Bruns",
    "repository": "kara.moe",
    "tid": "ec76e696-99d5-40fb-b61f-cc80e1dbd443",
    "types": [
      "songwriters",
      "8"
    ]
  }
}