{
  "header": {
    "description": "Karaoke Mugen Tag File",
    "version": 1
  },
  "tag": {
    "i18n": {
      "eng": "Geralt"
    },
    "modified_at": "2021-01-24T15:07:41.335Z",
    "name": "Geralt",
    "repository": "kara.moe",
    "tid": "b2bacb3f-542c-44d2-af9b-cd78c1dd4b70",
    "types": [
      "authors",
      "6",
      "creators",
      "4"
    ]
  }
}