{
  "header": {
    "description": "Karaoke Mugen Tag File",
    "version": 1
  },
  "tag": {
    "aliases": [
      "Bryger",
      "Cosmo Ranger J9",
      "Cosmo Runner",
      "Galactic Cyclone Bryger",
      "Galaxy Cyclone Braiger",
      "Galaxy Cyclone Bryger",
      "Ginga Senpuu Braiger",
      "senpuu"
    ],
    "external_database_ids": {
      "anilist": 4240,
      "myanimelist": 4240,
      "kitsu": 3534
    },
    "i18n": {
      "eng": "Galactic Whirlwind Bryger",
      "ita": "Bryger",
      "jpn": "銀河旋風ブライガー",
      "qro": "Ginga Senpû Braiger"
    },
    "modified_at": "2020-03-31T19:04:31.564Z",
    "name": "Ginga Senpû Braiger",
    "repository": "kara.moe",
    "tid": "7803c424-c910-4db6-9586-e2821494b6df",
    "types": [
      "series",
      "1"
    ]
  }
}