{
  "header": {
    "description": "Karaoke Mugen Tag File",
    "version": 1
  },
  "tag": {
    "aliases": [
      "Galactic Drifter Vifam",
      "Ginga Hyouryuu Vifam",
      "Round Vernian Vifam",
      "Space Castaways Vifam",
      "hyouryuu"
    ],
    "external_database_ids": {
      "anilist": 2987,
      "myanimelist": 2987,
      "kitsu": 2701
    },
    "i18n": {
      "eng": "Galactic Drifter Vifam",
      "jpn": "銀河漂流バイファム",
      "qro": "Ginga Hyôryû Vifam"
    },
    "modified_at": "2020-03-31T19:04:31.562Z",
    "name": "Ginga Hyôryû Vifam",
    "repository": "kara.moe",
    "tid": "57554b77-a9be-4a58-bf43-9b189e0e257a",
    "types": [
      "series",
      "1"
    ]
  }
}