{
  "header": {
    "description": "Karaoke Mugen Tag File",
    "version": 1
  },
  "tag": {
    "aliases": [
      "ぎんぎつね"
    ],
    "external_database_ids": {
      "anilist": 18411,
      "myanimelist": 18411,
      "kitsu": 7703
    },
    "i18n": {
      "eng": "Gingitsune: Messenger Fox of the Gods",
      "jpn": "Gingitsune",
      "qro": "Gingitsune"
    },
    "modified_at": "2020-03-31T19:04:31.569Z",
    "name": "Gingitsune",
    "repository": "kara.moe",
    "tid": "3f2f901f-f460-4c4a-90f3-ab2ab328b18a",
    "types": [
      "series",
      "1"
    ]
  }
}