{
  "header": {
    "description": "Karaoke Mugen Tag File",
    "version": 1
  },
  "tag": {
    "i18n": {
      "eng": "Ginnojô Hoshi"
    },
    "modified_at": "2021-07-11T12:37:37.941Z",
    "name": "Ginnojô Hoshi",
    "repository": "kara.moe",
    "tid": "dd69cea8-a0e4-4c91-9376-ddfbdde58058",
    "types": [
      "songwriters",
      "8"
    ]
  }
}