{
  "header": {
    "description": "Karaoke Mugen Tag File",
    "version": 1
  },
  "tag": {
    "i18n": {
      "eng": "Gioacchino Maurici"
    },
    "modified_at": "2020-06-01T18:14:30.705Z",
    "name": "Gioacchino Maurici",
    "repository": "kara.moe",
    "tid": "2af95e80-57c2-40f1-9845-03e1b018375e",
    "types": [
      "songwriters",
      "8"
    ]
  }
}