{
  "header": {
    "description": "Karaoke Mugen Tag File",
    "version": 1
  },
  "tag": {
    "aliases": [
      "GBS1",
      "bravo1",
      "Браво девушки! (первый сезон)"
    ],
    "external_database_ids": {
      "anilist": 241,
      "myanimelist": 241,
      "kitsu": 216
    },
    "i18n": {
      "eng": "Girls Bravo",
      "jpn": "GIRLSブラボー first season",
      "qro": "Girls Bravo: First Season"
    },
    "modified_at": "2020-03-31T19:04:31.575Z",
    "name": "Girls Bravo: First Season",
    "repository": "kara.moe",
    "tid": "0dafa425-e245-4448-99bc-28a32c604df7",
    "types": [
      "series",
      "1"
    ]
  }
}