{
  "header": {
    "description": "Karaoke Mugen Tag File",
    "version": 1
  },
  "tag": {
    "i18n": {
      "eng": "Gitaroo Man",
      "jpn": "ギタルマン",
      "qro": "Gitaroo Man"
    },
    "modified_at": "2020-04-17T23:09:39.868Z",
    "name": "Gitaroo Man",
    "repository": "kara.moe",
    "tid": "1fc2a893-65cd-4a8c-8fc1-f765b3da9180",
    "types": [
      "series",
      "1"
    ]
  }
}