{
  "header": {
    "description": "Karaoke Mugen Tag File",
    "version": 1
  },
  "tag": {
    "aliases": [
      "Armada of Glass",
      "Fleet of Glass",
      "Garakan",
      "Garasu no Kantai",
      "Glass's Armada",
      "Glass's Fleet",
      "Glass's Naval Fleet",
      "Naval Fleet of Glass",
      "The Legend of The Glass Fleet",
      "gnk",
      "玻璃舰队"
    ],
    "external_database_ids": {
      "anilist": 20562,
      "myanimelist": 973,
      "kitsu": 863
    },
    "i18n": {
      "ara": "أسطورة النسر",
      "eng": "Glass Fleet",
      "fre": "Glass no Kantai: La Légende du Vent de l'Univers",
      "jpn": "ガラスの艦隊",
      "qro": "Glass no Kantai"
    },
    "modified_at": "2020-03-31T19:04:31.580Z",
    "name": "Glass no Kantai",
    "repository": "kara.moe",
    "tid": "e73dfd8d-c7fa-46b2-894c-a0a2f9a80981",
    "types": [
      "series",
      "1"
    ]
  }
}