{
  "header": {
    "description": "Karaoke Mugen Tag File",
    "version": 1
  },
  "tag": {
    "i18n": {
      "eng": "GLIM SPANKY"
    },
    "modified_at": "2021-05-18T16:25:03.509Z",
    "name": "GLIM SPANKY",
    "repository": "kara.moe",
    "tid": "5a4cacb7-7205-4aba-8de8-fe5c108973de",
    "types": [
      "singers",
      "2"
    ]
  }
}