{
  "header": {
    "description": "Karaoke Mugen Tag File",
    "version": 1
  },
  "tag": {
    "i18n": {
      "eng": "Gloria Gaynor"
    },
    "name": "Gloria Gaynor",
    "repository": "kara.moe",
    "tid": "c8acb410-1692-476b-a00d-a27be4988dab",
    "types": [
      "singers",
      "2"
    ]
  }
}