{
  "header": {
    "description": "Karaoke Mugen Tag File",
    "version": 1
  },
  "tag": {
    "i18n": {
      "eng": "Golden Bomber"
    },
    "name": "Golden Bomber",
    "tid": "b99a8f10-2d56-4d22-a6db-140d2f5e161e",
    "types": [
      "singers",
      "2"
    ],
    "repository": "kara.moe",
    "modified_at": "2020-03-31T19:04:34.537Z"
  }
}