{
  "header": {
    "description": "Karaoke Mugen Tag File",
    "version": 1
  },
  "tag": {
    "aliases": [
      "Golden Kamuy Second Season"
    ],
    "external_database_ids": {
      "anilist": 102977,
      "myanimelist": 37989,
      "kitsu": 41442
    },
    "i18n": {
      "eng": "Golden Kamuy 2nd Season",
      "fre": "Golden Kamui (Saison 2)",
      "jpn": "ゴールデンカムイ 第二期",
      "qro": "Golden Kamuy 2nd Season"
    },
    "modified_at": "2020-03-31T19:04:31.595Z",
    "name": "Golden Kamuy 2nd Season",
    "repository": "kara.moe",
    "tid": "ece11756-32ef-442d-8a83-5417fa4d6545",
    "types": [
      "series",
      "1"
    ]
  }
}