{
  "header": {
    "description": "Karaoke Mugen Tag File",
    "version": 1
  },
  "tag": {
    "external_database_ids": {
      "anilist": 102755,
      "myanimelist": 36789,
      "kitsu": 14258
    },
    "i18n": {
      "chi": "青春纪行",
      "eng": "Golden Time",
      "fre": "Golden Time",
      "jpn": "ゴールデンタイム",
      "kor": "골든 타임",
      "rus": "Золотая пора",
      "qro": "Golden Time"
    },
    "modified_at": "2020-03-31T19:04:31.597Z",
    "name": "Golden Time",
    "repository": "kara.moe",
    "tid": "0685dcab-89ea-4549-9616-14dc74fc34e1",
    "types": [
      "series",
      "1"
    ]
  }
}