{
  "header": {
    "description": "Karaoke Mugen Tag File",
    "version": 1
  },
  "tag": {
    "i18n": {
      "eng": "Gô Misawa"
    },
    "name": "Gô Misawa",
    "tid": "9d554b2e-bdf4-49d4-915e-293769843d52",
    "types": [
      "songwriters",
      "8"
    ],
    "repository": "kara.moe",
    "modified_at": "2020-03-31T19:04:34.549Z"
  }
}