{
  "header": {
    "description": "Karaoke Mugen Tag File",
    "version": 1
  },
  "tag": {
    "i18n": {
      "eng": "Gouyal"
    },
    "name": "Gouyal",
    "tid": "433ffa2e-735e-4e06-9607-b9f0542b0a6b",
    "types": [
      "songwriters",
      "8"
    ],
    "repository": "kara.moe",
    "modified_at": "2020-03-31T19:04:34.553Z"
  }
}