{
  "header": {
    "description": "Karaoke Mugen Tag File",
    "version": 1
  },
  "tag": {
    "i18n": {
      "eng": "Grant Kirkhope"
    },
    "name": "Grant Kirkhope",
    "tid": "9a50895b-0aac-4660-8f6a-9ee42ee1bf52",
    "types": [
      "songwriters",
      "8"
    ],
    "repository": "kara.moe",
    "modified_at": "2020-03-31T19:04:34.557Z"
  }
}