{
  "header": {
    "description": "Karaoke Mugen Tag File",
    "version": 1
  },
  "tag": {
    "aliases": [
      "重力的眩暈:上層への帰還において彼女の内宇宙に生じた摂動"
    ],
    "i18n": {
      "eng": "Gravity Rush",
      "jpn": "Gravity Daze",
      "qro": "Gravity Daze"
    },
    "modified_at": "2020-03-31T19:04:31.604Z",
    "name": "Gravity Daze",
    "repository": "kara.moe",
    "tid": "573540c4-648b-4583-8dea-4ba98e4c3743",
    "types": [
      "series",
      "1"
    ]
  }
}