{
  "header": {
    "description": "Karaoke Mugen Tag File",
    "version": 1
  },
  "tag": {
    "i18n": {
      "eng": "Green Glow Films"
    },
    "name": "Green Glow Films",
    "tid": "91d8900d-1520-4e89-82e0-875b0d3ec604",
    "types": [
      "creators",
      "4"
    ],
    "repository": "kara.moe",
    "modified_at": "2020-03-31T19:04:34.563Z"
  }
}