{
  "header": {
    "description": "Karaoke Mugen Tag File",
    "version": 1
  },
  "tag": {
    "i18n": {
      "eng": "The Labyrinth of Grisaia",
      "fre": "Le Labyrinthe de la Grisaia",
      "jpn": "グリザイアの迷宮 -LE LABYRINTHE DE LA GRISAIA-",
      "qro": "Grisaia no Meikyû"
    },
    "modified_at": "2020-03-31T19:04:31.610Z",
    "name": "Grisaia no Meikyû",
    "repository": "kara.moe",
    "tid": "474ccaee-edcf-4052-a675-948dba16c052",
    "types": [
      "series",
      "1"
    ]
  }
}