{
  "header": {
    "description": "Karaoke Mugen Tag File",
    "version": 1
  },
  "tag": {
    "i18n": {
      "eng": "GRIZZLY"
    },
    "name": "GRIZZLY",
    "repository": "kara.moe",
    "tid": "06661a53-d6b1-4916-881e-394628800693",
    "types": [
      "creators",
      "4"
    ]
  }
}