{
  "header": {
    "description": "Karaoke Mugen Tag File",
    "version": 1
  },
  "tag": {
    "aliases": [
      "El Justiciero",
      "Gloizer X",
      "Gloyzer X",
      "Groyzer X",
      "Groyzer-X",
      "Maxinger X",
      "O Pirata do Espaço",
      "Pirata do Espaço",
      "無敵太空船"
    ],
    "external_database_ids": {
      "anilist": 5131,
      "myanimelist": 5131,
      "kitsu": 3941
    },
    "i18n": {
      "eng": "Groizer X",
      "jpn": "グロイザーX",
      "por": "O Pirata do Espaço",
      "qro": "Groizer X"
    },
    "modified_at": "2020-06-21T23:45:31.966Z",
    "name": "Groizer X",
    "repository": "kara.moe",
    "tid": "91ee8f18-0ff4-40d4-9463-e686f195311e",
    "types": [
      "series",
      "1"
    ]
  }
}