{
  "header": {
    "description": "Karaoke Mugen Tag File",
    "version": 1
  },
  "tag": {
    "i18n": {
      "eng": "GS"
    },
    "name": "GS",
    "repository": "kara.moe",
    "tid": "e4c11a7c-6b8d-4c9d-afb6-82bec410bf9c",
    "types": [
      "singers",
      "2",
      "songwriters",
      "8"
    ]
  }
}