{
  "header": {
    "description": "Karaoke Mugen Tag File",
    "version": 1
  },
  "tag": {
    "i18n": {
      "eng": "Guardians 4"
    },
    "name": "Guardians 4",
    "tid": "4bddc7f0-eecc-44cb-ad33-ee859dac99d8",
    "types": [
      "singers",
      "2"
    ],
    "repository": "kara.moe",
    "modified_at": "2020-03-31T19:04:34.571Z"
  }
}