{
  "header": {
    "description": "Karaoke Mugen Tag File",
    "version": 1
  },
  "tag": {
    "i18n": {
      "eng": "Guilty Gear Xrd Rev 2"
    },
    "name": "Guilty Gear Xrd Rev 2",
    "repository": "kara.moe",
    "tid": "2009cbe7-5e3c-467d-ad74-797f628ebafd",
    "types": [
      "series",
      "1"
    ]
  }
}