{
  "header": {
    "description": "Karaoke Mugen Tag File",
    "version": 1
  },
  "tag": {
    "aliases": [
      "Megpoid",
      "メグッポイド"
    ],
    "i18n": {
      "eng": "GUMI",
      "jpn": "グミ"
    },
    "name": "GUMI",
    "repository": "kara.moe",
    "tid": "dafdeefa-0a96-44df-9653-aeb88c400e33",
    "types": [
      "singers",
      "2"
    ]
  }
}