{
  "header": {
    "description": "Karaoke Mugen Tag File",
    "version": 1
  },
  "tag": {
    "i18n": {
      "eng": "Günther Behrle"
    },
    "name": "Günther Behrle",
    "repository": "kara.moe",
    "tid": "0e934d64-9f77-446d-86a3-d905a6a0820e",
    "types": [
      "songwriters",
      "8"
    ]
  }
}