{
  "header": {
    "description": "Karaoke Mugen Tag File",
    "version": 1
  },
  "tag": {
    "i18n": {
      "eng": "Guy Berryman"
    },
    "name": "Guy Berryman",
    "repository": "kara.moe",
    "tid": "45cc8008-fd0c-4314-a334-9d726a568b58",
    "types": [
      "songwriters",
      "8"
    ]
  }
}