{
  "header": {
    "description": "Karaoke Mugen Tag File",
    "version": 1
  },
  "tag": {
    "i18n": {
      "eng": "Gwon Yeongchan"
    },
    "modified_at": "2020-06-01T16:55:45.504Z",
    "name": "Gwon Yeongchan",
    "repository": "kara.moe",
    "tid": "1a570cb1-0a3c-42a6-a643-3c83316b8c11",
    "types": [
      "songwriters",
      "8"
    ]
  }
}