{
  "header": {
    "description": "Karaoke Mugen Tag File",
    "version": 1
  },
  "tag": {
    "aliases": [
      "haachama",
      "はあちゃま"
    ],
    "i18n": {
      "eng": "Haato Akai",
      "jpn": "赤井はあと",
      "qro": "Haato Akai"
    },
    "modified_at": "2021-09-02T20:07:50.345Z",
    "name": "Haato Akai",
    "repository": "kara.moe",
    "tid": "ecf11817-90e1-4220-8792-2ad8b9c73829",
    "types": [
      "singers",
      "2"
    ]
  }
}