{
  "header": {
    "description": "Karaoke Mugen Tag File",
    "version": 1
  },
  "tag": {
    "i18n": {
      "eng": "Hachiko Satô"
    },
    "name": "Hachiko Satô",
    "tid": "410d785e-7d41-438a-b22a-690532859e74",
    "types": [
      "songwriters",
      "8"
    ],
    "repository": "kara.moe",
    "modified_at": "2020-03-31T19:04:34.589Z"
  }
}