{
  "header": {
    "description": "Karaoke Mugen Tag File",
    "version": 1
  },
  "tag": {
    "i18n": {
      "eng": "Hagasaki"
    },
    "modified_at": "2021-04-04T09:52:46.526Z",
    "name": "Hagasaki",
    "repository": "kara.moe",
    "tid": "7ddd49f5-7c46-4b45-acea-7a4861d2aa75",
    "types": [
      "songwriters",
      "8"
    ]
  }
}