{
  "header": {
    "description": "Karaoke Mugen Tag File",
    "version": 1
  },
  "tag": {
    "i18n": {
      "eng": "HaiDL_Live"
    },
    "name": "HaiDL_Live",
    "repository": "kara.moe",
    "tid": "73f912f2-8519-4148-8f1f-b316dadf5546",
    "types": [
      "songwriters",
      "8"
    ]
  }
}