{
  "header": {
    "description": "Karaoke Mugen Tag File",
    "version": 1
  },
  "tag": {
    "i18n": {
      "eng": "HΛLNA"
    },
    "name": "HΛLNA",
    "tid": "6a70ed97-d930-4974-8fac-340b027b9417",
    "types": [
      "songwriters",
      "8"
    ],
    "repository": "kara.moe",
    "modified_at": "2020-03-31T19:04:34.605Z"
  }
}