{
  "header": {
    "description": "Karaoke Mugen Tag File",
    "version": 1
  },
  "tag": {
    "aliases": [
      "Halsey"
    ],
    "i18n": {
      "eng": "Ashley Nicolette Frangipane"
    },
    "name": "Halsey",
    "repository": "kara.moe",
    "tid": "8aa0ee1b-4281-4ddb-9dae-49a7b99c72e2",
    "types": [
      "songwriters",
      "8",
      "singers",
      "2"
    ]
  }
}