{
  "header": {
    "description": "Karaoke Mugen Tag File",
    "version": 1
  },
  "tag": {
    "i18n": {
      "eng": "Hanako Oku"
    },
    "name": "Hanako Oku",
    "tid": "d5735ada-f09d-47b2-9f50-39c66c926b9b",
    "types": [
      "singers",
      "2",
      "songwriters",
      "8"
    ],
    "repository": "kara.moe",
    "modified_at": "2020-03-31T19:04:34.615Z"
  }
}