{
  "header": {
    "description": "Karaoke Mugen Tag File",
    "version": 1
  },
  "tag": {
    "i18n": {
      "eng": "Hanazabu"
    },
    "name": "Hanazabu",
    "tid": "dadc09d5-47a9-402a-901c-32fff29cde98",
    "types": [
      "songwriters",
      "8"
    ],
    "repository": "kara.moe",
    "modified_at": "2020-03-31T19:04:34.618Z"
  }
}