{
  "header": {
    "description": "Karaoke Mugen Tag File",
    "version": 1
  },
  "tag": {
    "i18n": {
      "eng": "Hana Matsumoto"
    },
    "name": "Hana Matsumoto",
    "tid": "7b309532-fcb3-4b0d-b22b-569daaac84b3",
    "types": [
      "songwriters",
      "8"
    ],
    "repository": "kara.moe",
    "modified_at": "2020-03-31T19:04:34.612Z"
  }
}