{
  "header": {
    "description": "Karaoke Mugen Tag File",
    "version": 1
  },
  "tag": {
    "i18n": {
      "eng": "Hanao"
    },
    "name": "Hanao",
    "tid": "de6218bb-63b7-4e70-88a9-619730e5408f",
    "types": [
      "creators",
      "4"
    ],
    "repository": "kara.moe",
    "modified_at": "2020-03-31T19:04:34.616Z"
  }
}