{
  "header": {
    "description": "Karaoke Mugen Tag File",
    "version": 1
  },
  "tag": {
    "i18n": {
      "eng": "Handsome Hanji"
    },
    "modified_at": "2020-04-25T14:33:40.564Z",
    "name": "Handsome Hanji",
    "repository": "kara.moe",
    "tid": "b1bec9f5-f9ce-43e0-b26d-c45dafb34d0e",
    "types": [
      "songwriters",
      "8"
    ]
  }
}