{
  "header": {
    "description": "Karaoke Mugen Tag File",
    "version": 1
  },
  "tag": {
    "aliases": [
      "Hanebad!",
      "The Badminton Play of Ayano Hanesaki!"
    ],
    "external_database_ids": {
      "anilist": 101045,
      "myanimelist": 37259,
      "kitsu": 40576
    },
    "i18n": {
      "eng": "Hanebado!",
      "jpn": "はねバド!",
      "kor": "하네배드!",
      "qro": "Hanebado!"
    },
    "modified_at": "2020-03-31T19:04:31.654Z",
    "name": "Hanebado!",
    "repository": "kara.moe",
    "tid": "134b52ad-0ccc-432e-910c-06cb9a7b14fd",
    "types": [
      "series",
      "1"
    ]
  }
}