{
  "header": {
    "description": "Karaoke Mugen Tag File",
    "version": 1
  },
  "tag": {
    "i18n": {
      "eng": "Haneda Sajitsu"
    },
    "name": "Haneda Sajitsu",
    "repository": "kara.moe",
    "tid": "1a7601eb-01ff-4136-a9b6-2da5f798fa37",
    "types": [
      "songwriters",
      "8"
    ]
  }
}