{
  "header": {
    "description": "Karaoke Mugen Tag File",
    "version": 1
  },
  "tag": {
    "i18n": {
      "eng": "Harin Lee"
    },
    "name": "Harin Lee",
    "repository": "kara.moe",
    "tid": "68204cfe-a117-4a7d-b258-89ff7bd99f7a",
    "types": [
      "singers",
      "2"
    ]
  }
}