{
  "header": {
    "description": "Karaoke Mugen Tag File",
    "version": 1
  },
  "tag": {
    "i18n": {
      "eng": "Harry Geelen"
    },
    "name": "Harry Geelen",
    "tid": "344c465a-9db0-4e18-bbb5-2eb1821a1411",
    "types": [
      "songwriters",
      "8"
    ],
    "repository": "kara.moe",
    "modified_at": "2020-03-31T19:04:34.629Z"
  }
}