{
  "header": {
    "description": "Karaoke Mugen Tag File",
    "version": 1
  },
  "tag": {
    "aliases": [
      "Harihara Tsubasa"
    ],
    "i18n": {
      "eng": "HarryP",
      "jpn": "はりーP"
    },
    "name": "HarryP",
    "repository": "kara.moe",
    "tid": "6b3377a5-c166-4b00-8681-a83754fef06e",
    "types": [
      "songwriters",
      "8"
    ]
  }
}