{
  "header": {
    "description": "Karaoke Mugen Tag File",
    "version": 1
  },
  "tag": {
    "i18n": {
      "eng": "Harusaruhi"
    },
    "name": "Harusaruhi",
    "repository": "kara.moe",
    "tid": "a18579e7-8a01-4605-8291-f9a8b497c118",
    "types": [
      "singers",
      "2"
    ]
  }
}