{
  "header": {
    "description": "Karaoke Mugen Tag File",
    "version": 1
  },
  "tag": {
    "i18n": {
      "eng": "Haruka Shiraishi"
    },
    "name": "Haruka Shiraishi",
    "tid": "11ce2cdc-aa30-426d-b356-e6d4f5dfb380",
    "types": [
      "singers",
      "2"
    ],
    "repository": "kara.moe",
    "modified_at": "2020-03-31T19:04:34.640Z"
  }
}