{
  "header": {
    "description": "Karaoke Mugen Tag File",
    "version": 1
  },
  "tag": {
    "i18n": {
      "eng": "Haruna Ikezawa"
    },
    "name": "Haruna Ikezawa",
    "tid": "5553f8e8-9f25-4eb9-96d9-8a4bbe8edbd1",
    "types": [
      "singers",
      "2"
    ],
    "repository": "kara.moe",
    "modified_at": "2020-03-31T19:04:34.650Z"
  }
}