{
  "header": {
    "description": "Karaoke Mugen Tag File",
    "version": 1
  },
  "tag": {
    "i18n": {
      "eng": "Haruka to Miyuki"
    },
    "name": "Haruka to Miyuki",
    "tid": "fe0325f7-821a-4804-ad56-af237d8c85ca",
    "types": [
      "singers",
      "2",
      "songwriters",
      "8"
    ],
    "repository": "kara.moe",
    "modified_at": "2020-03-31T19:04:34.641Z"
  }
}