{
  "header": {
    "description": "Karaoke Mugen Tag File",
    "version": 1
  },
  "tag": {
    "i18n": {
      "eng": "Harumi Kusagaya"
    },
    "modified_at": "2020-05-18T22:19:29.007Z",
    "name": "Harumi Kusagaya",
    "repository": "kara.moe",
    "tid": "2a8df013-b3b7-414f-898a-9d10ce965cab",
    "types": [
      "singers",
      "2"
    ]
  }
}