{
  "header": {
    "description": "Karaoke Mugen Tag File",
    "version": 1
  },
  "tag": {
    "aliases": [
      "Bezsensowna gra",
      "Dazzle",
      "HateYuu",
      "Hatenkou Yuugi",
      "Unprecedented Game",
      "破天荒游戏",
      "hatenkou",
      "yuugi"
    ],
    "external_database_ids": {
      "anilist": 3298,
      "myanimelist": 3298,
      "kitsu": 2917
    },
    "i18n": {
      "eng": "Hatenkou Yugi",
      "jpn": "破天荒遊戯",
      "qro": "Hatenkô Yûgi"
    },
    "modified_at": "2020-03-31T19:04:31.664Z",
    "name": "Hatenkô Yûgi",
    "repository": "kara.moe",
    "tid": "e858e477-f1df-4d13-9d6d-979c54852086",
    "types": [
      "series",
      "1"
    ]
  }
}