{
  "header": {
    "description": "Karaoke Mugen Tag File",
    "version": 1
  },
  "tag": {
    "aliases": [
      "Hayate no Gotoku 2",
      "hayate2",
      "hng!!",
      "hng2",
      "旋风管家 第二季",
      "旋风管家2"
    ],
    "external_database_ids": {
      "anilist": 4192,
      "myanimelist": 4192,
      "kitsu": 3514
    },
    "i18n": {
      "eng": "Hayate the Combat Butler! 2nd Season",
      "jpn": "ハヤテのごとく!! 2nd season",
      "qro": "Hayate no Gotoku!! 2nd season"
    },
    "modified_at": "2020-03-31T19:04:31.672Z",
    "name": "Hayate no Gotoku!! 2nd season",
    "repository": "kara.moe",
    "tid": "07e9a6dd-7028-4df2-80ee-9f63d19fb9e8",
    "types": [
      "series",
      "1"
    ]
  }
}