{
  "header": {
    "description": "Karaoke Mugen Tag File",
    "version": 1
  },
  "tag": {
    "i18n": {
      "eng": "Heartsdales"
    },
    "name": "Heartsdales",
    "repository": "kara.moe",
    "tid": "0534a007-8aec-4bc9-9976-bc0d9d905ffd",
    "types": [
      "songwriters",
      "8",
      "singers",
      "2"
    ],
    "modified_at": "2020-03-31T19:04:34.671Z"
  }
}