{
  "header": {
    "description": "Karaoke Mugen Tag File",
    "version": 1
  },
  "tag": {
    "i18n": {
      "eng": "Hector Berlioz"
    },
    "modified_at": "2020-11-03T16:32:51.538Z",
    "name": "Hector Berlioz",
    "repository": "kara.moe",
    "tid": "ebec16d1-a94e-49ac-a41a-59dbff59a52b",
    "types": [
      "songwriters",
      "8"
    ]
  }
}