{
  "header": {
    "description": "Karaoke Mugen Tag File",
    "version": 1
  },
  "tag": {
    "i18n": {
      "eng": "Hedonist"
    },
    "name": "Hedonist",
    "repository": "kara.moe",
    "tid": "c2137edd-7e90-46b1-a48c-037df39d9f18",
    "types": [
      "songwriters",
      "8"
    ]
  }
}