{
  "header": {
    "description": "Karaoke Mugen Tag File",
    "version": 1
  },
  "tag": {
    "i18n": {
      "eng": "Helen Sassano"
    },
    "name": "Helen Sassano",
    "repository": "kara.moe",
    "tid": "40e2aa6a-4239-4b18-8545-7f60586e6ff4",
    "types": [
      "singers",
      "2"
    ]
  }
}