{
  "header": {
    "description": "Karaoke Mugen Tag File",
    "version": 1
  },
  "tag": {
    "i18n": {
      "eng": "Henri Djian"
    },
    "name": "Henri Djian",
    "repository": "kara.moe",
    "tid": "643cb7b7-4570-4581-b314-1fe50b721009",
    "types": [
      "songwriters",
      "8"
    ]
  }
}