{
  "header": {
    "description": "Karaoke Mugen Tag File",
    "version": 1
  },
  "tag": {
    "i18n": {
      "eng": "Hervé Lardic"
    },
    "modified_at": "2020-05-23T21:36:56.634Z",
    "name": "Hervé Lardic",
    "repository": "kara.moe",
    "tid": "0d506743-bf74-46c0-8611-0901e4602331",
    "types": [
      "songwriters",
      "8"
    ]
  }
}