{
  "header": {
    "description": "Karaoke Mugen Tag File",
    "version": 1
  },
  "tag": {
    "i18n": {
      "eng": "Hidari"
    },
    "name": "Hidari",
    "repository": "kara.moe",
    "tid": "a7a572b7-a801-43ea-8978-9076b254f8e6",
    "types": [
      "creators",
      "4"
    ]
  }
}