{
  "header": {
    "description": "Karaoke Mugen Tag File",
    "version": 1
  },
  "tag": {
    "i18n": {
      "eng": "Hidekazu Koyama"
    },
    "name": "Hidekazu Koyama",
    "tid": "6261b6fd-7e0a-4aa9-b3d8-0c3813747369",
    "types": [
      "songwriters",
      "8"
    ],
    "repository": "kara.moe",
    "modified_at": "2020-03-31T19:04:34.703Z"
  }
}