{
  "header": {
    "description": "Karaoke Mugen Tag File",
    "version": 1
  },
  "tag": {
    "i18n": {
      "eng": "Hideo Saitô"
    },
    "name": "Hideo Saitô",
    "tid": "ff0a373a-5d65-44df-a641-b11b18bc5118",
    "types": [
      "songwriters",
      "8"
    ],
    "repository": "kara.moe",
    "modified_at": "2020-03-31T19:04:34.719Z"
  }
}