{
  "header": {
    "description": "Karaoke Mugen Tag File",
    "version": 1
  },
  "tag": {
    "aliases": [
      "HDD",
      "Harem King",
      "Демоны старшей школы",
      "Старша школа DxD",
      "惡魔高校",
      "惡魔高校D×D",
      "高校龍中龍",
      "하이스쿨 DxD",
      "Highschool DxD"
    ],
    "external_database_ids": {
      "anilist": 11617,
      "myanimelist": 11617,
      "kitsu": 6550
    },
    "i18n": {
      "eng": "High School DxD",
      "ger": "High School DxD",
      "jpn": "ハイスクールDxD",
      "qro": "High School DxD"
    },
    "modified_at": "2020-08-28T11:42:17.800Z",
    "name": "High School DxD",
    "repository": "kara.moe",
    "tid": "dd250252-bcae-4cb5-a9fe-a282c3291326",
    "types": [
      "series",
      "1",
      "franchises",
      "18"
    ]
  }
}