{
  "header": {
    "description": "Karaoke Mugen Tag File",
    "version": 1
  },
  "tag": {
    "i18n": {
      "eng": "high_note"
    },
    "name": "high_note",
    "tid": "d07c9462-6e20-469d-a412-1028295288df",
    "types": [
      "singers",
      "2"
    ],
    "repository": "kara.moe",
    "modified_at": "2020-03-31T19:04:34.728Z"
  }
}