{
  "header": {
    "description": "Karaoke Mugen Tag File",
    "version": 1
  },
  "tag": {
    "aliases": [
      "Hi-Score Girl",
      "Hiscore Girl"
    ],
    "external_database_ids": {
      "anilist": 20574,
      "myanimelist": 21877,
      "kitsu": 8158
    },
    "i18n": {
      "eng": "High Score Girl",
      "jpn": "ハイスコアガール",
      "kor": "하이 스코어 걸",
      "qro": "High Score Girl"
    },
    "modified_at": "2020-03-31T19:04:31.701Z",
    "name": "High Score Girl",
    "repository": "kara.moe",
    "tid": "26876be0-144b-4112-8dff-43aed75742fb",
    "types": [
      "series",
      "1",
      "franchises",
      "18"
    ]
  }
}