{
  "header": {
    "description": "Karaoke Mugen Tag File",
    "version": 1
  },
  "tag": {
    "aliases": [
      "hinamizawa",
      "le sanglot des cigales",
      "Higurashi no Naku Koro ni Gift",
      "HNNKN",
      "WTC"
    ],
    "i18n": {
      "eng": "Higurashi: When They Cry ‒ Hou",
      "fre": "Higurashi no Naku Koro ni ‒ Hô",
      "jpn": "ひぐらしのなく頃に 奉",
      "qro": "Higurashi no Naku Koro ni Hou"
    },
    "modified_at": "2020-10-08T20:23:54.623Z",
    "name": "Higurashi no Naku Koro ni Hou",
    "repository": "kara.moe",
    "tid": "749d7b51-bf58-44e8-9bdd-7d9cff0345a2",
    "types": [
      "series",
      "1"
    ]
  }
}