{
  "header": {
    "description": "Karaoke Mugen Tag File",
    "version": 1
  },
  "tag": {
    "aliases": [
      "Scarlet Fragment",
      "Алые осколки",
      "ヒイロノカケラ"
    ],
    "external_database_ids": {
      "anilist": 12461,
      "myanimelist": 12461,
      "kitsu": 6739
    },
    "i18n": {
      "eng": "Hiiro no Kakera: The Tamayori Princess Saga",
      "jpn": "緋色の欠片 玉依姫奇譚",
      "qro": "Hiiro no Kakera: Tamayori Hime Kitan"
    },
    "modified_at": "2020-03-31T19:04:31.705Z",
    "name": "Hiiro no Kakera: Tamayori Hime Kitan",
    "repository": "kara.moe",
    "tid": "3615d1ba-960f-4f1e-89a3-a73c0849f3a5",
    "types": [
      "series",
      "1"
    ]
  }
}