{
  "header": {
    "description": "Karaoke Mugen Tag File",
    "version": 1
  },
  "tag": {
    "i18n": {
      "eng": "Hiiro no Kakera: Omoi Iro no Kioku",
      "jpn": "緋色の欠片 ～おもいいろの記憶～",
      "qro": "Hiiro no Kakera: Omoi Iro no Kioku"
    },
    "modified_at": "2020-03-31T19:04:31.705Z",
    "name": "Hiiro no Kakera: Omoi Iro no Kioku",
    "repository": "kara.moe",
    "tid": "bdda8765-dc99-4176-85ba-3a371a0970c0",
    "types": [
      "series",
      "1"
    ]
  }
}