{
  "header": {
    "description": "Karaoke Mugen Tag File",
    "version": 1
  },
  "tag": {
    "i18n": {
      "jpn": "柊 キライ",
      "qro": "Hiiragi Kirai"
    },
    "name": "Hiiragi Kirai",
    "repository": "kara.moe",
    "tid": "784d7784-b0bc-47e5-ad95-6a4be7cb25a6",
    "types": [
      "songwriters",
      "8"
    ]
  }
}