{
  "header": {
    "description": "Karaoke Mugen Tag File",
    "version": 1
  },
  "tag": {
    "i18n": {
      "eng": "Hikaru Kataoka"
    },
    "name": "Hikaru Kataoka",
    "tid": "8b7a4659-409d-43cb-8d51-214491b0712f",
    "types": [
      "songwriters",
      "8"
    ],
    "repository": "kara.moe",
    "modified_at": "2020-03-31T19:04:34.736Z"
  }
}