{
  "header": {
    "description": "Karaoke Mugen Tag File",
    "version": 1
  },
  "tag": {
    "i18n": {
      "eng": "Hilary Summers"
    },
    "name": "Hilary Summers",
    "tid": "b2d964df-4cd8-4512-b90a-ed5d82d9ec5f",
    "types": [
      "singers",
      "2"
    ],
    "repository": "kara.moe",
    "modified_at": "2020-03-31T19:04:34.743Z"
  }
}