{
  "header": {
    "description": "Karaoke Mugen Tag File",
    "version": 1
  },
  "tag": {
    "i18n": {
      "eng": "Hillary Dawn Scott"
    },
    "name": "Hillary Dawn Scott",
    "repository": "kara.moe",
    "tid": "c7191dbf-5748-4c33-b100-cfd0beef089d",
    "types": [
      "songwriters",
      "8"
    ]
  }
}