{
  "header": {
    "description": "Karaoke Mugen Tag File",
    "version": 1
  },
  "tag": {
    "i18n": {
      "eng": "Himika Akaneya"
    },
    "modified_at": "2020-11-22T14:23:23.454Z",
    "name": "Himika Akaneya",
    "repository": "kara.moe",
    "tid": "50ace48d-4f9f-47e6-894d-5d66c9fd2014",
    "types": [
      "singers",
      "2"
    ]
  }
}