{
  "header": {
    "description": "Karaoke Mugen Tag File",
    "version": 1
  },
  "tag": {
    "i18n": {
      "jpn": "藤島裕斗",
      "qro": "Hiroto Fujishima"
    },
    "name": "Hiroto Fujishima",
    "repository": "kara.moe",
    "tid": "81e09fe1-ef00-4dcc-a7fc-c9897145c9c9",
    "types": [
      "songwriters",
      "8"
    ]
  }
}