{
  "header": {
    "description": "Karaoke Mugen Tag File",
    "version": 1
  },
  "tag": {
    "i18n": {
      "eng": "Hiroo Oono"
    },
    "name": "Hiroo Oono",
    "tid": "196a51c4-a821-43bf-87ac-71a17ccc8d8f",
    "types": [
      "songwriters",
      "8"
    ],
    "repository": "kara.moe",
    "modified_at": "2020-03-31T19:04:34.801Z"
  }
}