{
  "header": {
    "description": "Karaoke Mugen Tag File",
    "version": 1
  },
  "tag": {
    "i18n": {
      "eng": "Hiroyuki Ooshima"
    },
    "name": "Hiroyuki Ooshima",
    "tid": "f4e51a8e-2218-4222-9618-384f004c8a30",
    "types": [
      "singers",
      "2",
      "songwriters",
      "8"
    ],
    "repository": "kara.moe",
    "modified_at": "2020-03-31T19:04:34.843Z"
  }
}