{
  "header": {
    "description": "Karaoke Mugen Tag File",
    "version": 1
  },
  "tag": {
    "i18n": {
      "jpn": "高橋広樹",
      "qro": "Hiroki Takahashi"
    },
    "name": "Hiroki Takahashi",
    "repository": "kara.moe",
    "tid": "e5a67f06-d08b-4f63-800b-31c7f90995be",
    "types": [
      "songwriters",
      "8",
      "singers",
      "2"
    ]
  }
}