{
  "header": {
    "description": "Karaoke Mugen Tag File",
    "version": 1
  },
  "tag": {
    "i18n": {
      "eng": "Hiroshi Imaizumi"
    },
    "name": "Hiroshi Imaizumi",
    "tid": "c5890df9-6406-4d95-909d-9ca8d3952872",
    "types": [
      "songwriters",
      "8"
    ],
    "repository": "kara.moe",
    "modified_at": "2020-03-31T19:04:34.806Z"
  }
}