{
  "header": {
    "description": "Karaoke Mugen Tag File",
    "version": 1
  },
  "tag": {
    "i18n": {
      "eng": "Hirose Hirose"
    },
    "modified_at": "2021-02-08T22:23:44.400Z",
    "name": "Hirose Hirose",
    "repository": "kara.moe",
    "tid": "febe3fc0-58f2-438b-8faf-3ab01a625e7b",
    "types": [
      "songwriters",
      "8"
    ]
  }
}