{
  "header": {
    "description": "Karaoke Mugen Tag File",
    "version": 1
  },
  "tag": {
    "i18n": {
      "eng": "Hiromasa Suzuki"
    },
    "name": "Hiromasa Suzuki",
    "tid": "68ad70cc-8363-4fc7-a2c3-0ffa4eb3fd53",
    "types": [
      "songwriters",
      "8"
    ],
    "repository": "kara.moe",
    "modified_at": "2020-03-31T19:04:34.788Z"
  }
}