{
  "header": {
    "description": "Karaoke Mugen Tag File",
    "version": 1
  },
  "tag": {
    "i18n": {
      "eng": "Hiroshi Uchiki"
    },
    "name": "Hiroshi Uchiki",
    "tid": "e92ba723-2f8a-4308-9a91-627e4784fe6c",
    "types": [
      "songwriters",
      "8"
    ],
    "repository": "kara.moe",
    "modified_at": "2020-03-31T19:04:34.818Z"
  }
}