{
  "header": {
    "description": "Karaoke Mugen Tag File",
    "version": 1
  },
  "tag": {
    "i18n": {
      "eng": "Hiromi Uchida"
    },
    "modified_at": "2021-03-09T20:52:06.148Z",
    "name": "Hiromi Uchida",
    "repository": "kara.moe",
    "tid": "f3ea74ab-eab3-474b-b926-201cbaaa7427",
    "types": [
      "songwriters",
      "8"
    ]
  }
}