{
  "header": {
    "description": "Karaoke Mugen Tag File",
    "version": 1
  },
  "tag": {
    "i18n": {
      "eng": "Hirokazu Ebata"
    },
    "name": "Hirokazu Ebata",
    "tid": "7677609a-fe0e-437b-93bf-f9f6ea95fd43",
    "types": [
      "songwriters",
      "8"
    ],
    "repository": "kara.moe",
    "modified_at": "2020-03-31T19:04:34.773Z"
  }
}