{
  "header": {
    "description": "Karaoke Mugen Tag File",
    "version": 1
  },
  "tag": {
    "i18n": {
      "eng": "Hisashi Imai"
    },
    "name": "Hisashi Imai",
    "tid": "f47e00ae-242e-4de3-932c-93f2bf7f5058",
    "types": [
      "songwriters",
      "8"
    ],
    "repository": "kara.moe",
    "modified_at": "2020-03-31T19:04:34.850Z"
  }
}