{
  "header": {
    "description": "Karaoke Mugen Tag File",
    "version": 1
  },
  "tag": {
    "i18n": {
      "eng": "Hito Tadano"
    },
    "modified_at": "2020-08-28T16:41:44.958Z",
    "name": "Hito Tadano",
    "repository": "kara.moe",
    "tid": "d8fa4922-d8a0-4d90-8aed-fe2df73ec885",
    "types": [
      "singers",
      "2"
    ]
  }
}