{
  "header": {
    "description": "Karaoke Mugen Tag File",
    "version": 1
  },
  "tag": {
    "i18n": {
      "eng": "hitomi"
    },
    "name": "hitomi",
    "tid": "ceff68fd-637c-4668-806a-3adb16383e10",
    "types": [
      "songwriters",
      "8"
    ],
    "repository": "kara.moe",
    "modified_at": "2020-03-31T19:04:34.864Z"
  }
}