{
  "header": {
    "description": "Karaoke Mugen Tag File",
    "version": 1
  },
  "tag": {
    "i18n": {
      "qro": "Hiyori Yoshikawa",
      "jpn": "吉川 ひより"
    },
    "name": "Hiyori Yoshikawa",
    "repository": "kara.moe",
    "tid": "8eea5048-7cdd-4c95-a9c3-1d26219c00ba",
    "types": [
      "singers",
      "2"
    ]
  }
}