{
  "header": {
    "description": "Karaoke Mugen Tag File",
    "version": 1
  },
  "tag": {
    "i18n": {
      "eng": "Hizashi"
    },
    "name": "Hizashi",
    "repository": "kara.moe",
    "tid": "193322f9-49fb-4c7b-9363-5e6f69b6f034",
    "types": [
      "songwriters",
      "8"
    ],
    "modified_at": "2020-03-31T19:04:34.870Z"
  }
}