{
  "header": {
    "description": "Karaoke Mugen Tag File",
    "version": 1
  },
  "tag": {
    "i18n": {
      "eng": "Holo Bass"
    },
    "modified_at": "2021-03-23T22:50:49.536Z",
    "name": "Holo Bass",
    "repository": "kara.moe",
    "tid": "55602251-8d61-4fb2-9166-576fa92b9031",
    "types": [
      "songwriters",
      "8",
      "creators",
      "4"
    ]
  }
}