{
  "header": {
    "description": "Karaoke Mugen Tag File",
    "version": 1
  },
  "tag": {
    "i18n": {
      "eng": "HOME MADE Kazoku"
    },
    "name": "HOME MADE Kazoku",
    "tid": "3dd93fd3-6e03-40ff-9349-122d5080fcf7",
    "types": [
      "singers",
      "2",
      "songwriters",
      "8"
    ],
    "repository": "kara.moe",
    "modified_at": "2020-03-31T19:04:34.874Z"
  }
}