{
  "header": {
    "description": "Karaoke Mugen Tag File",
    "version": 1
  },
  "tag": {
    "i18n": {
      "eng": "Hosem Studio"
    },
    "modified_at": "2021-02-14T16:36:28.299Z",
    "name": "Hosem Studio",
    "repository": "kara.moe",
    "tid": "0c6dd480-2727-4735-96f7-bd6df9a7af04",
    "types": [
      "creators",
      "4"
    ]
  }
}