{
  "header": {
    "description": "Karaoke Mugen Tag File",
    "version": 1
  },
  "tag": {
    "i18n": {
      "jpn": "星乃",
      "qro": "Hoshino"
    },
    "name": "Hoshino",
    "repository": "kara.moe",
    "tid": "7c070db6-0d5d-4039-b979-b60d985e8f94",
    "types": [
      "singers",
      "2"
    ]
  }
}