{
  "header": {
    "description": "Karaoke Mugen Tag File",
    "version": 1
  },
  "tag": {
    "aliases": [
      "Ore no Imouto ga Konna ni Kawaii Wake ga Nai",
      "Ore no Imôto ga Konna ni Kawaii Wake ga Nai",
      "OreImo"
    ],
    "i18n": {
      "eng": "Stardust Witch Meruru",
      "jpn": "星くず☆ういっちメルル",
      "qro": "Hoshikuzu Witch Meruru"
    },
    "modified_at": "2020-03-31T19:04:31.727Z",
    "name": "Hoshikuzu Witch Meruru",
    "repository": "kara.moe",
    "tid": "f33f8bea-9d5d-40cb-8992-23da3d8b4e53",
    "types": [
      "series",
      "1"
    ]
  }
}