{
  "header": {
    "description": "Karaoke Mugen Tag File",
    "version": 1
  },
  "tag": {
    "aliases": [
      "Stemmen van een Afgelegen Ster",
      "Stimmen eines fernen Sterns",
      "Tiếng gọi từ vì sao xa",
      "Tolimosios Žvaigždės Balsai",
      "Voces de una Estrella Lejana",
      "hnc",
      "voices",
      "Гласовете на далечните звезди",
      "Голос зірок",
      "קולו של כוכב",
      "أصوات نجم بعيد",
      "星の声"
    ],
    "external_database_ids": {
      "anilist": 256,
      "myanimelist": 256,
      "kitsu": 231
    },
    "i18n": {
      "cze": "Hlasy z hvězd",
      "eng": "Voices of a Distant Star",
      "est": "Kauge tähe hääl",
      "fre": "The Voices of a Distant Star",
      "ger": "The voices of a distant star",
      "ita": "La Voce delle Stelle",
      "jpn": "ほしのこえ",
      "kor": "별의 목소리",
      "pol": "Głosy z odległej gwiazdy",
      "rus": "Голос далёкой звезды",
      "tha": "เสียงเพรียกจากดวงดาว",
      "qro": "Hoshi no Koe"
    },
    "modified_at": "2020-06-21T23:45:31.966Z",
    "name": "Hoshi no Koe",
    "repository": "kara.moe",
    "tid": "ea4d4766-35dd-4c55-a2b0-e948823cfb6e",
    "types": [
      "series",
      "1"
    ]
  }
}