{
  "header": {
    "description": "Karaoke Mugen Tag File",
    "version": 1
  },
  "tag": {
    "aliases": [
      "Houseki no Kuni",
      "Страна самоцветов",
      "寶石之國",
      "보석의 나라",
      "houseki"
    ],
    "external_database_ids": {
      "anilist": 98707,
      "myanimelist": 35557,
      "kitsu": 13521
    },
    "i18n": {
      "eng": "Land of the Lustrous",
      "fre": "L'Ère des Cristaux",
      "jpn": "宝石の国",
      "qro": "Hôseki no Kuni (2017)"
    },
    "modified_at": "2020-03-31T19:04:31.730Z",
    "name": "Hôseki no Kuni (2017)",
    "repository": "kara.moe",
    "tid": "4b46e294-086a-48da-9a2b-9d4219f4c522",
    "types": [
      "series",
      "1"
    ]
  }
}