{
  "header": {
    "description": "Karaoke Mugen Tag File",
    "version": 1
  },
  "tag": {
    "i18n": {
      "chi": "馴龍高手",
      "eng": "How To Train Your Dragon",
      "fre": "Dragons",
      "ger": "Drachenzähmen leicht gemacht",
      "jpn": "ヒックとドラゴン",
      "kor": "드래곤 길들이기",
      "spa": "Cómo entrenar a tu dragón",
      "qro": "How To Train Your Dragon"
    },
    "modified_at": "2020-03-31T19:04:31.732Z",
    "name": "How To Train Your Dragon",
    "repository": "kara.moe",
    "tid": "69dcb758-1e97-4847-818a-87d8d46a7d5e",
    "types": [
      "series",
      "1"
    ]
  }
}