{
  "header": {
    "description": "Karaoke Mugen Tag File",
    "version": 1
  },
  "tag": {
    "i18n": {
      "eng": "Howl"
    },
    "name": "Howl",
    "tid": "d384bc18-a308-4711-8ce5-c866fc089a11",
    "types": [
      "singers",
      "2"
    ],
    "repository": "kara.moe",
    "modified_at": "2020-03-31T19:04:34.891Z"
  }
}