{
  "header": {
    "description": "Karaoke Mugen Tag File",
    "version": 1
  },
  "tag": {
    "aliases": [
      "Hyoka",
      "Hyou-ka: You Can't Escape",
      "Hyouka",
      "I scream",
      "Ice-cream",
      "The Niece of Time",
      "Хьёка",
      "هیوکا",
      "冰果",
      "hyouka"
    ],
    "external_database_ids": {
      "anilist": 12189,
      "myanimelist": 12189,
      "kitsu": 6686
    },
    "i18n": {
      "eng": "Hyoka",
      "fre": "Hyôka",
      "jpn": "氷菓",
      "kor": "빙과",
      "tha": "ปริศนาความทรงจำ",
      "qro": "Hyôka"
    },
    "modified_at": "2020-03-31T19:04:31.747Z",
    "name": "Hyôka",
    "repository": "kara.moe",
    "tid": "17146c23-ac64-4ced-8f85-a89770eebf0a",
    "types": [
      "series",
      "1"
    ]
  }
}