{
  "header": {
    "description": "Karaoke Mugen Tag File",
    "version": 1
  },
  "tag": {
    "i18n": {
      "eng": "Hyôe Yasuhara"
    },
    "name": "Hyôe Yasuhara",
    "tid": "383aa2d3-8366-40f2-b335-ece9336a2d19",
    "types": [
      "songwriters",
      "8"
    ],
    "repository": "kara.moe",
    "modified_at": "2020-03-31T19:04:34.903Z"
  }
}