{
  "header": {
    "description": "Karaoke Mugen Tag File",
    "version": 1
  },
  "tag": {
    "i18n": {
      "eng": "Ichirô Hirano"
    },
    "name": "Ichirô Hirano",
    "tid": "aa3a5e86-bf4c-4a7c-b322-19383268d56f",
    "types": [
      "songwriters",
      "8"
    ],
    "repository": "kara.moe",
    "modified_at": "2020-03-31T19:04:34.922Z"
  }
}