{
  "header": {
    "description": "Karaoke Mugen Tag File",
    "version": 1
  },
  "tag": {
    "i18n": {
      "eng": "Ichirô Tanaka"
    },
    "name": "Ichirô Tanaka",
    "tid": "199ee728-7c54-4fa9-b44c-2fe44efee38d",
    "types": [
      "songwriters",
      "8"
    ],
    "repository": "kara.moe",
    "modified_at": "2020-03-31T19:04:34.924Z"
  }
}