{
  "header": {
    "description": "Karaoke Mugen Tag File",
    "version": 1
  },
  "tag": {
    "i18n": {
      "eng": "IDDH"
    },
    "name": "IDDH",
    "tid": "814f7633-2be8-431a-a91a-a45f4d2c8b43",
    "types": [
      "creators",
      "4"
    ],
    "repository": "kara.moe",
    "modified_at": "2020-03-31T19:04:34.929Z"
  }
}