{
  "header": {
    "description": "Karaoke Mugen Tag File",
    "version": 1
  },
  "tag": {
    "external_database_ids": {
      "anilist": 98107,
      "myanimelist": 34787,
      "kitsu": 13293
    },
    "i18n": {
      "eng": "Idol Time PriPara"
    },
    "name": "Idol Time PriPara",
    "repository": "kara.moe",
    "tid": "4f1aa2ab-7fe7-445c-89ea-c1cfaeae2e8c",
    "types": [
      "series",
      "1"
    ]
  }
}