{
  "header": {
    "description": "Karaoke Mugen Tag File",
    "version": 1
  },
  "tag": {
    "i18n": {
      "eng": "Ihor Didenchuk"
    },
    "modified_at": "2021-06-14T16:43:52.438Z",
    "name": "Ihor Didenchuk",
    "repository": "kara.moe",
    "tid": "a276d042-41bc-4d8f-b4b2-30e337475c29",
    "types": [
      "songwriters",
      "8"
    ]
  }
}