{
  "header": {
    "description": "Karaoke Mugen Tag File",
    "version": 1
  },
  "tag": {
    "aliases": [
      "El Hazard TV 2",
      "elhaz tv2",
      "Альтернативный мир Эль-Хазард"
    ],
    "external_database_ids": {
      "anilist": 115,
      "myanimelist": 115,
      "kitsu": 94
    },
    "i18n": {
      "eng": "El Hazard: The Alternative World",
      "fre": "El Hazard : Les mondes alternatifs",
      "jpn": "異次元の世界エルハザード",
      "qro": "Ijigen no Sekai El-Hazard"
    },
    "modified_at": "2020-03-31T19:04:31.759Z",
    "name": "Ijigen no Sekai El-Hazard",
    "repository": "kara.moe",
    "tid": "867ba1de-bc10-42c7-a8ad-b351ce342c1c",
    "types": [
      "series",
      "1"
    ]
  }
}