{
  "header": {
    "description": "Karaoke Mugen Tag File",
    "version": 1
  },
  "tag": {
    "i18n": {
      "eng": "Ike! Greenman",
      "jpn": "行け! グリーンマン",
      "qro": "Ike! Greenman"
    },
    "modified_at": "2020-03-31T19:04:31.760Z",
    "name": "Ike! Greenman",
    "repository": "kara.moe",
    "tid": "cd24d2ec-5fbb-413f-8802-9cda1e1ac3b8",
    "types": [
      "series",
      "1"
    ]
  }
}