{
  "header": {
    "description": "Karaoke Mugen Tag File",
    "version": 1
  },
  "tag": {
    "i18n": {
      "eng": "Ikkyu Nakajima"
    },
    "name": "Ikkyu Nakajima",
    "repository": "kara.moe",
    "tid": "e94568d4-91dd-452c-90f2-d1b8d64970e0",
    "types": [
      "songwriters",
      "8"
    ]
  }
}