{
  "header": {
    "description": "Karaoke Mugen Tag File",
    "version": 1
  },
  "tag": {
    "i18n": {
      "ara": "كان يا ما كان العالم الجديد",
      "chi": "美國往事",
      "eng": "Once Upon a Time... The Americas",
      "fin": "Olipa kerran Amerikka",
      "fre": "Il était une fois... les Amériques",
      "ger": "Es war einmal … Amerika",
      "hun": "Egyszer volt… Amerika",
      "ita": "Alla scoperta delle Americhe",
      "nor": "Det var en gang – Amerika",
      "rum": "A fost odată… America",
      "spa": "Érase una vez... las américas",
      "tur": "Bir Varmış Bir Yokmuş... Amerika"
    },
    "modified_at": "2020-03-31T19:04:31.768Z",
    "name": "Il était une fois... les Amériques",
    "repository": "kara.moe",
    "tid": "8485b0a9-f45b-43d1-855b-704ac671871c",
    "types": [
      "series",
      "1"
    ]
  }
}