{
  "header": {
    "description": "Karaoke Mugen Tag File",
    "version": 1
  },
  "tag": {
    "i18n": {
      "eng": "Im Hyun-sik"
    },
    "name": "Im Hyun-sik",
    "tid": "ac75913f-5976-4968-996d-fd0a47bd84f0",
    "types": [
      "singers",
      "2"
    ],
    "repository": "kara.moe",
    "modified_at": "2020-03-31T19:04:34.954Z"
  }
}