{
  "header": {
    "description": "Karaoke Mugen Tag File",
    "version": 1
  },
  "tag": {
    "i18n": {
      "eng": "IMAGIN"
    },
    "name": "IMAGIN",
    "tid": "09527d8b-d9b0-4f2e-96d5-e988b62ac7d8",
    "types": [
      "creators",
      "4"
    ],
    "repository": "kara.moe",
    "modified_at": "2020-03-31T19:04:34.955Z"
  }
}