{
  "header": {
    "description": "Karaoke Mugen Tag File",
    "version": 1
  },
  "tag": {
    "i18n": {
      "eng": "iNiS"
    },
    "modified_at": "2020-04-17T23:06:14.634Z",
    "name": "iNiS",
    "repository": "kara.moe",
    "tid": "38d59e14-9776-4219-84e3-db86735fa541",
    "types": [
      "creators",
      "4"
    ]
  }
}