{
  "header": {
    "description": "Karaoke Mugen Tag File",
    "version": 1
  },
  "tag": {
    "i18n": {
      "eng": "Irina Popova"
    },
    "name": "Irina Popova",
    "repository": "kara.moe",
    "tid": "c291c52e-e2c7-4c3d-b447-9373eed6450f",
    "types": [
      "singers",
      "2"
    ]
  }
}