{
  "header": {
    "description": "Karaoke Mugen Tag File",
    "version": 1
  },
  "tag": {
    "i18n": {
      "eng": "Iron Man: Armored Adventures",
      "fre": "Iron Man: Armored Adventures"
    },
    "modified_at": "2020-03-31T19:04:31.788Z",
    "name": "Iron Man: Armored Adventures",
    "repository": "kara.moe",
    "tid": "0477fff9-45c9-4236-97b6-b1217859650a",
    "types": [
      "series",
      "1"
    ]
  }
}