{
  "header": {
    "description": "Karaoke Mugen Tag File",
    "version": 1
  },
  "tag": {
    "i18n": {
      "eng": "Image Song"
    },
    "karafile_tag": "IS",
    "modified_at": "2021-02-14T15:59:54.281Z",
    "name": "IS",
    "priority": 15,
    "repository": "kara.moe",
    "tid": "10a1ad3e-a05c-4f5c-84b6-f491e3e3a92e",
    "types": [
      "songtypes",
      "3"
    ]
  }
}