{
  "header": {
    "description": "Karaoke Mugen Tag File",
    "version": 1
  },
  "tag": {
    "external_database_ids": {
      "anilist": 132806,
      "myanimelist": 48804,
      "kitsu": 44434
    },
    "i18n": {
      "eng": "Restaurant to Another World 2",
      "jpn": "異世界食堂 2",
      "qro": "Isekai Shokudô 2",
      "kor": "이세계 식당 2"
    },
    "name": "Isekai Shokudô 2",
    "repository": "kara.moe",
    "tid": "8ce04e8b-a073-43fb-a952-db9e5f2ac82d",
    "types": [
      "series",
      "1"
    ]
  }
}