{
  "header": {
    "description": "Karaoke Mugen Tag File",
    "version": 1
  },
  "tag": {
    "external_database_ids": {
      "anilist": 110270,
      "myanimelist": 40010,
      "kitsu": 42744
    },
    "i18n": {
      "jpn": "異種族レビュアーズ",
      "qro": "Ishuzoku Reviewers"
    },
    "modified_at": "2020-03-31T19:04:31.794Z",
    "name": "Ishuzoku Reviewers",
    "repository": "kara.moe",
    "tid": "9317a724-3bcb-4270-a896-ff8f492c7e6a",
    "types": [
      "series",
      "1"
    ]
  }
}