{
  "header": {
    "description": "Karaoke Mugen Tag File",
    "version": 1
  },
  "tag": {
    "i18n": {
      "afr": "Italiaans",
      "amh": "ጣሊያንኛ",
      "ara": "الإيطالية",
      "aze": "İtalyan",
      "bak": "Итальян теле",
      "bel": "Італьянскі",
      "bul": "Италиански",
      "ben": "ইটালিয়ান",
      "bos": "Italijanski",
      "cat": "Italià",
      "cze": "Italština",
      "wel": "Eidaleg",
      "dan": "Italiensk",
      "ger": "Italienisch",
      "gre": "Ιταλικά",
      "eng": "Italian",
      "epo": "La itala",
      "spa": "Italiano",
      "est": "Itaalia",
      "baq": "Italian",
      "per": "ایتالیایی",
      "fin": "Italian",
      "fre": "Italien",
      "gle": "Iodáilis",
      "gla": "Eadailtis",
      "glg": "Italiano",
      "guj": "ઇટાલિયન",
      "heb": "איטלקי",
      "hin": "इतालवी",
      "hrv": "Talijanski",
      "hat": "Italyen",
      "hun": "Olasz",
      "arm": "Իտալերեն",
      "ind": "Italia",
      "ice": "Ítalska",
      "ita": "Italiano",
      "jpn": "イタリア",
      "jav": "Italia",
      "geo": "იტალიელი",
      "kaz": "Итальян",
      "kan": "ಇಟಾಲಿಯನ್",
      "kor": "이탈리아",
      "kir": "Итальянский",
      "lat": "Italian",
      "lit": "Italijos",
      "lav": "Itāļu",
      "mlg": "Italiana",
      "mao": "Italian",
      "mac": "Италијански",
      "mal": "ഇറ്റാലിയൻ",
      "mon": "Итали",
      "mar": "इटालियन",
      "may": "Itali",
      "mlt": "Taljan",
      "nep": "इटालियन",
      "dut": "Italiaans",
      "nor": "Italiensk",
      "pan": "ਇਤਾਲਵੀ",
      "pol": "Włoski",
      "por": "Italiano",
      "rum": "Italiană",
      "rus": "Итальянский",
      "sin": "ඉතාලි",
      "slo": "Taliansky",
      "slv": "Italijanski",
      "alb": "Italiane",
      "srp": "Италијански",
      "sun": "Italia",
      "swe": "Italienska",
      "swa": "Italia",
      "tam": "இத்தாலிய",
      "tel": "ఇటాలియన్",
      "tgk": "Итолиевӣ",
      "tha": "อิตาเลี่ยน",
      "tgl": "Italyano",
      "tur": "İtalyan",
      "tat": "Итальян теле",
      "ukr": "Італійська",
      "urd": "اطالوی",
      "uzb": "Italiya",
      "vie": "Ý",
      "xho": "Isi-Italian",
      "yid": "איטאַליעניש",
      "chi": "意大利语"
    },
    "name": "ita",
    "tid": "783496f0-1a2f-44c3-a906-02e8244148ae",
    "types": [
      "langs",
      "5"
    ],
    "repository": "kara.moe",
    "modified_at": "2020-03-31T19:04:34.998Z"
  }
}