{
  "header": {
    "description": "Karaoke Mugen Tag File",
    "version": 1
  },
  "tag": {
    "aliases": [
      "Itoshi no Muuco",
      "muuco"
    ],
    "external_database_ids": {
      "anilist": 21228,
      "myanimelist": 30651,
      "kitsu": 10978
    },
    "i18n": {
      "eng": "Lovely Muuuuuuuco!",
      "jpn": "いとしのムーコ",
      "qro": "Itoshi no Mûco"
    },
    "modified_at": "2020-03-31T19:04:31.798Z",
    "name": "Itoshi no Mûco",
    "repository": "kara.moe",
    "tid": "deb9e2ce-01a3-44b2-9a03-b6efedcbaa00",
    "types": [
      "series",
      "1"
    ]
  }
}