{
  "header": {
    "description": "Karaoke Mugen Tag File",
    "version": 1
  },
  "tag": {
    "aliases": [
      "Itou Junji: Collection",
      "itou"
    ],
    "external_database_ids": {
      "anilist": 99940,
      "myanimelist": 36124,
      "kitsu": 13717
    },
    "i18n": {
      "eng": "Junji Ito Collection",
      "jpn": "伊藤潤二「コレクション」",
      "kor": "이토 준지: 컬렉션",
      "qro": "Itô Junji: Collection"
    },
    "modified_at": "2020-03-31T19:04:31.799Z",
    "name": "Itô Junji: Collection",
    "repository": "kara.moe",
    "tid": "6b94f0de-2692-4c97-94cc-63a1136ca99c",
    "types": [
      "series",
      "1"
    ]
  }
}