{
  "header": {
    "description": "Karaoke Mugen Tag File",
    "version": 1
  },
  "tag": {
    "i18n": {
      "eng": "Itsuka"
    },
    "name": "Itsuka",
    "repository": "kara.moe",
    "tid": "da33a26b-3073-4de6-aeb0-064c86d7416f",
    "types": [
      "creators",
      "4"
    ]
  }
}