{
  "header": {
    "description": "Karaoke Mugen Tag File",
    "version": 1
  },
  "tag": {
    "i18n": {
      "eng": "ixtl"
    },
    "name": "ixtl",
    "tid": "e348c8e3-f999-4263-ac31-6e7780a7526e",
    "types": [
      "creators",
      "4"
    ],
    "repository": "kara.moe",
    "modified_at": "2020-03-31T19:04:35.004Z"
  }
}