{
  "header": {
    "description": "Karaoke Mugen Tag File",
    "version": 1
  },
  "tag": {
    "i18n": {
      "eng": "Izumi Kitta"
    },
    "name": "Izumi Kitta",
    "tid": "e24b02ac-3038-46c5-ad7e-c394fd690df0",
    "types": [
      "singers",
      "2"
    ],
    "repository": "kara.moe",
    "modified_at": "2020-03-31T19:04:35.006Z"
  }
}