{
  "header": {
    "description": "Karaoke Mugen Tag File",
    "version": 1
  },
  "tag": {
    "i18n": {
      "eng": "Izumi Masuda"
    },
    "name": "Izumi Masuda",
    "repository": "kara.moe",
    "tid": "047644a6-4d07-4054-a3ad-ac9d167bfc3b",
    "types": [
      "singers",
      "2"
    ]
  }
}