{
  "header": {
    "description": "Karaoke Mugen Tag File",
    "version": 1
  },
  "tag": {
    "i18n": {
      "eng": "Izumi Ryushin"
    },
    "name": "Izumi Ryushin",
    "tid": "1d2727e8-727e-41fa-b5a4-b8384513848a",
    "types": [
      "songwriters",
      "8"
    ],
    "repository": "kara.moe",
    "modified_at": "2020-03-31T19:04:35.007Z"
  }
}