{
  "header": {
    "description": "Karaoke Mugen Tag File",
    "version": 1
  },
  "tag": {
    "i18n": {
      "eng": "J-Min"
    },
    "modified_at": "2020-08-22T14:50:22.953Z",
    "name": "J-Min",
    "repository": "kara.moe",
    "tid": "56a3d46e-d07c-408f-8546-65525f682bf0",
    "types": [
      "singers",
      "2"
    ]
  }
}