{
  "header": {
    "description": "Karaoke Mugen Tag File",
    "version": 1
  },
  "tag": {
    "i18n": {
      "eng": "JackyBaldhead"
    },
    "name": "JackyBaldhead",
    "repository": "kara.moe",
    "tid": "0d6a6894-c57e-47aa-90b1-8a673e277813",
    "types": [
      "authors",
      "6"
    ]
  }
}