{
  "header": {
    "description": "Karaoke Mugen Tag File",
    "version": 1
  },
  "tag": {
    "i18n": {
      "eng": "Jacques Morel"
    },
    "name": "Jacques Morel",
    "tid": "754202f3-7da1-4abe-b5a1-c5630be80355",
    "types": [
      "singers",
      "2"
    ],
    "repository": "kara.moe",
    "modified_at": "2020-03-31T19:04:35.023Z"
  }
}