{
  "header": {
    "description": "Karaoke Mugen Tag File",
    "version": 1
  },
  "tag": {
    "i18n": {
      "eng": "Jamie Hewlett"
    },
    "modified_at": "2020-07-05T18:25:38.840Z",
    "name": "Jamie Hewlett",
    "repository": "kara.moe",
    "tid": "6f0cc87c-47a2-4c06-8b9a-8e7f114ea895",
    "types": [
      "songwriters",
      "8"
    ]
  }
}