{
  "header": {
    "description": "Karaoke Mugen Tag File",
    "version": 1
  },
  "tag": {
    "i18n": {
      "eng": "Jane Su"
    },
    "modified_at": "2020-08-17T15:46:35.094Z",
    "name": "Jane Su",
    "repository": "kara.moe",
    "tid": "fe1666e0-5985-4d64-be32-40891e212071",
    "types": [
      "songwriters",
      "8"
    ]
  }
}