{
  "header": {
    "description": "Karaoke Mugen Tag File",
    "version": 1
  },
  "tag": {
    "i18n": {
      "eng": "Jang Seok-hee"
    },
    "name": "Jang Seok-hee",
    "tid": "dbbeb68c-42ff-487e-b147-cb377fe30549",
    "types": [
      "singers",
      "2"
    ],
    "repository": "kara.moe",
    "modified_at": "2020-03-31T19:04:35.032Z"
  }
}