{
  "header": {
    "description": "Karaoke Mugen Tag File",
    "version": 1
  },
  "tag": {
    "i18n": {
      "eng": "Janne Da Arc"
    },
    "modified_at": "2021-01-21T17:21:28.833Z",
    "name": "Janne Da Arc",
    "repository": "kara.moe",
    "tid": "178b5979-e7af-4ccc-b5d4-fadc2d161e90",
    "types": [
      "singers",
      "2",
      "songwriters",
      "8"
    ]
  }
}