{
  "header": {
    "description": "Karaoke Mugen Tag File",
    "version": 1
  },
  "tag": {
    "i18n": {
      "afr": "Javaans",
      "amh": "Javanese",
      "ara": "الجاوية",
      "aze": "Яванский",
      "bak": "Яуа теле",
      "bel": "Яванская",
      "bul": "Явански",
      "ben": "জাভানি",
      "bos": "Jermenski",
      "cat": "Javanès",
      "cze": "Jávský",
      "wel": "Jafa",
      "dan": "Javanesisk",
      "ger": "Javanisch",
      "gre": "Ιαβανεζικά",
      "eng": "Javanese",
      "epo": "Java",
      "spa": "Javanés",
      "est": "Jaava",
      "baq": "Javera",
      "per": "جاوه ای",
      "fin": "Jaava",
      "fre": "Javanais",
      "gle": "Iávais",
      "gla": "Javanese",
      "glg": "Xavanés",
      "guj": "જાવાનીસ",
      "heb": "יאוני",
      "hin": "जावानीस",
      "hrv": "Javanski",
      "hat": "Javanèz",
      "hun": "Jávai",
      "arm": "Ճավաերեն",
      "ind": "Jawa",
      "ice": "Javanska",
      "ita": "Giavanese",
      "jpn": "ジャワ",
      "jav": "Jawa",
      "geo": "იავური",
      "kaz": "Яванский",
      "kan": "ಜಾವಾನೀಸ್",
      "kor": "자바",
      "kir": "Яванский",
      "lat": "Javanese",
      "lit": "Javos",
      "lav": "Javiešu",
      "mlg": "Javaney",
      "mao": "Javanese",
      "mac": "Javanese",
      "mal": "ജാവനീസ്",
      "mon": "Javanese",
      "mar": "जावाई",
      "may": "Jawa",
      "mlt": "}",
      "nep": "जाभी",
      "dut": "Javaans",
      "nor": "Javanesisk",
      "pan": "ਜਾਵਾਈ",
      "pol": "Jawajski",
      "por": "Javanês",
      "rum": "Java",
      "rus": "Яванский",
      "sin": "ජාවා",
      "slo": "Jávske",
      "slv": "Javanese",
      "alb": "Javanese",
      "srp": "Јавански",
      "sun": "Jawa",
      "swe": "Javanesiska",
      "swa": "Javanese",
      "tam": "ஜாவானீஸ்",
      "tel": "జావనీస్",
      "tgk": "Яванский",
      "tha": "ภาษาชวา name",
      "tgl": "Javanese",
      "tur": "Cava",
      "tat": "Ява теле",
      "ukr": "Яванська",
      "urd": "جاوی",
      "uzb": "Javanese",
      "vie": "Javanese",
      "xho": "Javanese",
      "yid": "יאַוואַנעזיש",
      "chi": "爪哇"
    },
    "name": "jav",
    "tid": "d2893133-d4f2-4a07-95ba-34379751e16c",
    "types": [
      "langs",
      "5"
    ],
    "repository": "kara.moe",
    "modified_at": "2020-03-31T19:04:35.040Z"
  }
}