{
  "header": {
    "description": "Karaoke Mugen Tag File",
    "version": 1
  },
  "tag": {
    "i18n": {
      "eng": "Je Suis Bien Content"
    },
    "modified_at": "2021-02-08T23:14:36.742Z",
    "name": "Je Suis Bien Content",
    "repository": "kara.moe",
    "tid": "375f3e02-a342-4f06-a68a-c4cd22d59ff8",
    "types": [
      "creators",
      "4"
    ]
  }
}