{
  "header": {
    "description": "Karaoke Mugen Tag File",
    "version": 1
  },
  "tag": {
    "i18n": {
      "eng": "Jean-Michel Guirao"
    },
    "name": "Jean-Michel Guirao",
    "tid": "a30c1f6b-efbc-40c0-8e0d-0506dcab0eda",
    "types": [
      "songwriters",
      "8"
    ],
    "repository": "kara.moe",
    "modified_at": "2020-03-31T19:04:35.056Z"
  }
}