{
  "header": {
    "description": "Karaoke Mugen Tag File",
    "version": 1
  },
  "tag": {
    "i18n": {
      "eng": "Jean-Michel Defaye"
    },
    "name": "Jean-Michel Defaye",
    "repository": "kara.moe",
    "tid": "1ee7a936-f673-449a-8170-b69dafb9b829",
    "types": [
      "songwriters",
      "8"
    ]
  }
}