{
  "header": {
    "description": "Karaoke Mugen Tag File",
    "version": 1
  },
  "tag": {
    "i18n": {
      "eng": "Jean-Philippe Brière"
    },
    "name": "Jean-Philippe Brière",
    "repository": "kara.moe",
    "tid": "558ee6ac-1256-4843-8813-8265718658bc",
    "types": [
      "songwriters",
      "8"
    ]
  }
}