{
  "header": {
    "description": "Karaoke Mugen Tag File",
    "version": 1
  },
  "tag": {
    "i18n": {
      "eng": "Jean-Louis Fonteneau"
    },
    "name": "Jean-Louis Fonteneau",
    "repository": "kara.moe",
    "tid": "cbfc312d-0796-4822-8a7f-61d490b7c12e",
    "types": [
      "songwriters",
      "8"
    ]
  }
}