{
  "header": {
    "description": "Karaoke Mugen Tag File",
    "version": 1
  },
  "tag": {
    "i18n": {
      "eng": "Jean-Claude Donda"
    },
    "name": "Jean-Claude Donda",
    "tid": "7ba630be-ea26-4fe5-8bc9-97214982466a",
    "types": [
      "singers",
      "2"
    ],
    "repository": "kara.moe",
    "modified_at": "2020-03-31T19:04:35.050Z"
  }
}