{
  "header": {
    "description": "Karaoke Mugen Tag File",
    "version": 1
  },
  "tag": {
    "i18n": {
      "eng": "Jean-Marie Bigard"
    },
    "modified_at": "2021-10-20T22:08:14.143Z",
    "name": "Jean-Marie Bigard",
    "repository": "kara.moe",
    "tid": "0d6400cb-9966-442a-aef7-d17dd5f9e251",
    "types": [
      "singers",
      "2"
    ]
  }
}