{
  "header": {
    "description": "Karaoke Mugen Tag File",
    "version": 1
  },
  "tag": {
    "i18n": {
      "eng": "Jean-Jacques Cramier"
    },
    "name": "Jean-Jacques Cramier",
    "tid": "7820c1b0-cfad-42e1-8191-9820dd55becc",
    "types": [
      "singers",
      "2"
    ],
    "repository": "kara.moe",
    "modified_at": "2020-03-31T19:04:35.053Z"
  }
}