{
  "header": {
    "description": "Karaoke Mugen Tag File",
    "version": 1
  },
  "tag": {
    "i18n": {
      "eng": "Jean-Pierre Jaubert"
    },
    "name": "Jean-Pierre Jaubert",
    "tid": "3d4419d4-fbf8-4ef6-80ce-99d4934d2e2d",
    "types": [
      "songwriters",
      "8"
    ],
    "repository": "kara.moe",
    "modified_at": "2020-03-31T19:04:35.061Z"
  }
}