{
  "header": {
    "description": "Karaoke Mugen Tag File",
    "version": 1
  },
  "tag": {
    "i18n": {
      "eng": "Jeff Lynne"
    },
    "name": "Jeff Lynne",
    "tid": "bd4dfa25-1cd7-43ca-8543-c676589df4c1",
    "types": [
      "songwriters",
      "8"
    ],
    "repository": "kara.moe",
    "modified_at": "2020-03-31T19:04:35.064Z"
  }
}