{
  "header": {
    "description": "Karaoke Mugen Tag File",
    "version": 1
  },
  "tag": {
    "i18n": {
      "eng": "Jennifer Ayache"
    },
    "modified_at": "2021-05-21T18:39:34.115Z",
    "name": "Jennifer Ayache",
    "repository": "kara.moe",
    "tid": "900de222-1b66-44fe-84d2-9b09886cd6af",
    "types": [
      "songwriters",
      "8"
    ]
  }
}