{
  "header": {
    "description": "Karaoke Mugen Tag File",
    "version": 1
  },
  "tag": {
    "i18n": {
      "eng": "Jérémy Chatelain"
    },
    "name": "Jérémy Chatelain",
    "repository": "kara.moe",
    "tid": "038b0ef4-23dd-47a8-986b-c0d3c171f3f1",
    "types": [
      "songwriters",
      "8"
    ]
  }
}