{
  "header": {
    "description": "Karaoke Mugen Tag File",
    "version": 1
  },
  "tag": {
    "i18n": {
      "eng": "Jigoku no Sata Allstars"
    },
    "name": "Jigoku no Sata Allstars",
    "tid": "e5f102fb-05c5-4aa7-8633-82e634ea1577",
    "types": [
      "singers",
      "2"
    ],
    "repository": "kara.moe",
    "modified_at": "2020-03-31T19:04:35.081Z"
  }
}