{
  "header": {
    "description": "Karaoke Mugen Tag File",
    "version": 1
  },
  "tag": {
    "aliases": [
      "Kuba Guzik"
    ],
    "external_database_ids": {
      "anilist": 6701,
      "myanimelist": 6701,
      "kitsu": 4675
    },
    "i18n": {
      "eng": "Jim Button",
      "ger": "Jim Knopf",
      "jpn": "ジムボタン",
      "qro": "Jim Button"
    },
    "modified_at": "2020-03-31T19:04:31.813Z",
    "name": "Jim Button",
    "repository": "kara.moe",
    "tid": "830604c5-9cd2-4759-a578-bf135a5a1ee1",
    "types": [
      "series",
      "1"
    ]
  }
}