{
  "header": {
    "description": "Karaoke Mugen Tag File",
    "version": 1
  },
  "tag": {
    "i18n": {
      "eng": "Jim Malone"
    },
    "name": "Jim Malone",
    "tid": "124f2fc5-b322-4a1a-8a24-c9df4b029ed3",
    "types": [
      "songwriters",
      "8"
    ],
    "repository": "kara.moe",
    "modified_at": "2020-03-31T19:04:35.083Z"
  }
}