{
  "header": {
    "description": "Karaoke Mugen Tag File",
    "version": 1
  },
  "tag": {
    "i18n": {
      "eng": "Jin Nakamura"
    },
    "name": "Jin Nakamura",
    "tid": "7ce099df-664d-4a12-97e8-f2a361a43f1e",
    "types": [
      "songwriters",
      "8"
    ],
    "repository": "kara.moe",
    "modified_at": "2020-03-31T19:04:35.088Z"
  }
}