{
  "header": {
    "description": "Karaoke Mugen Tag File",
    "version": 1
  },
  "tag": {
    "i18n": {
      "eng": "Jin Da Zhou"
    },
    "name": "Jin Da Zhou",
    "repository": "kara.moe",
    "tid": "4e4be3a6-afdb-44ba-bbe1-fbb677010af4",
    "types": [
      "songwriters",
      "8"
    ]
  }
}