{
  "header": {
    "description": "Karaoke Mugen Tag File",
    "version": 1
  },
  "tag": {
    "i18n": {
      "eng": "JIN (High Speed Boyz)"
    },
    "name": "JIN (High Speed Boyz)",
    "tid": "34b56a9d-7143-4302-baf6-e7be503616a3",
    "types": [
      "songwriters",
      "8"
    ],
    "repository": "kara.moe",
    "modified_at": "2020-03-31T19:04:35.087Z"
  }
}