{
  "header": {
    "description": "Karaoke Mugen Tag File",
    "version": 1
  },
  "tag": {
    "i18n": {
      "eng": "Jinta Hashi"
    },
    "name": "Jinta Hashi",
    "tid": "b2932781-f77f-4a5d-b7b0-8a3a7b7e4081",
    "types": [
      "songwriters",
      "8"
    ],
    "repository": "kara.moe",
    "modified_at": "2020-03-31T19:04:35.093Z"
  }
}