{
  "header": {
    "description": "Karaoke Mugen Tag File",
    "version": 1
  },
  "tag": {
    "i18n": {
      "eng": "Jinushiippa"
    },
    "name": "Jinushiippa",
    "tid": "68283b3b-89b5-477f-a92a-8ad32a88248d",
    "types": [
      "creators",
      "4"
    ],
    "repository": "kara.moe",
    "modified_at": "2020-03-31T19:04:35.093Z"
  }
}