{
  "header": {
    "description": "Karaoke Mugen Tag File",
    "version": 1
  },
  "tag": {
    "aliases": [
      "Kikaida",
      "Android Kikaider",
      "Jinzou Ningen Kikaider",
      "jinzou"
    ],
    "i18n": {
      "eng": "Kikaider, Android of Justice",
      "jpn": "人造人間キカイダー",
      "fre": "Jinzô Ningen Kikaider",
      "qro": "Jinzô Ningen Kikaider"
    },
    "modified_at": "2021-01-13T18:18:24.714Z",
    "name": "Jinzô Ningen Kikaider",
    "repository": "kara.moe",
    "tid": "033680bc-3991-4c4d-9099-ad78a79c594b",
    "types": [
      "series",
      "1"
    ]
  }
}