{
  "header": {
    "description": "Karaoke Mugen Tag File",
    "version": 1
  },
  "tag": {
    "i18n": {
      "eng": "Jiro Wang"
    },
    "name": "Jiro Wang",
    "tid": "f3126b61-8e4a-4d5e-a9c5-7582b2a7cf47",
    "types": [
      "singers",
      "2"
    ],
    "repository": "kara.moe",
    "modified_at": "2020-03-31T19:04:35.096Z"
  }
}