{
  "header": {
    "description": "Karaoke Mugen Tag File",
    "version": 1
  },
  "tag": {
    "i18n": {
      "eng": "Jo Seong Ho"
    },
    "name": "Jo Seong Ho",
    "tid": "48db1760-3258-46ce-81b3-002cff53d2ab",
    "types": [
      "songwriters",
      "8"
    ],
    "repository": "kara.moe",
    "modified_at": "2020-03-31T19:04:35.099Z"
  }
}