{
  "header": {
    "description": "Karaoke Mugen Tag File",
    "version": 1
  },
  "tag": {
    "i18n": {
      "eng": "Joakim Bjornberg"
    },
    "name": "Joakim Bjornberg",
    "tid": "925eed8a-dc52-4762-bdcd-e31578780e90",
    "types": [
      "songwriters",
      "8"
    ],
    "repository": "kara.moe",
    "modified_at": "2020-03-31T19:04:35.100Z"
  }
}