{
  "header": {
    "description": "Karaoke Mugen Tag File",
    "version": 1
  },
  "tag": {
    "i18n": {
      "eng": "Joe Hahn"
    },
    "name": "Joe Hahn",
    "repository": "kara.moe",
    "tid": "3c559f23-e578-4232-8329-8ce941d70cf3",
    "types": [
      "songwriters",
      "8"
    ]
  }
}