{
  "header": {
    "description": "Karaoke Mugen Tag File",
    "version": 1
  },
  "tag": {
    "i18n": {
      "eng": "John Maultsby"
    },
    "name": "John Maultsby",
    "repository": "kara.moe",
    "tid": "dfd4b0a3-970c-403a-8aa9-1c49de7c7e20",
    "types": [
      "songwriters",
      "8"
    ]
  }
}