{
  "header": {
    "description": "Karaoke Mugen Tag File",
    "version": 1
  },
  "tag": {
    "i18n": {
      "eng": "Jonathan Glazer"
    },
    "name": "Jonathan Glazer",
    "repository": "kara.moe",
    "tid": "48507498-1eca-4809-bede-95d713ddf4a4",
    "types": [
      "creators",
      "4"
    ]
  }
}