{
  "header": {
    "description": "Karaoke Mugen Tag File",
    "version": 1
  },
  "tag": {
    "i18n": {
      "eng": "Jorakuji Mio"
    },
    "name": "Jorakuji Mio",
    "repository": "kara.moe",
    "tid": "e59083d9-7a1d-4084-a20b-bc31cba3b244",
    "types": [
      "songwriters",
      "8"
    ]
  }
}