{
  "header": {
    "description": "Karaoke Mugen Tag File",
    "version": 1
  },
  "tag": {
    "i18n": {
      "eng": "JSAW"
    },
    "name": "JSAW",
    "tid": "f177ddb0-04ea-4100-b8df-04a1b8b923af",
    "types": [
      "singers",
      "2"
    ],
    "repository": "kara.moe",
    "modified_at": "2020-03-31T19:04:35.132Z"
  }
}