{
  "header": {
    "description": "Karaoke Mugen Tag File",
    "version": 1
  },
  "tag": {
    "i18n": {
      "jpn": "杏ジュリア",
      "qro": "Julia An"
    },
    "name": "Julia An",
    "repository": "kara.moe",
    "tid": "f54d4193-cf0c-4dc0-bada-ec29522265e8",
    "types": [
      "singers",
      "2"
    ]
  }
}