{
  "header": {
    "description": "Karaoke Mugen Tag File",
    "version": 1
  },
  "tag": {
    "i18n": {
      "eng": "Jun Hoshina"
    },
    "name": "Jun Hoshina",
    "tid": "5162a459-30dc-48e9-b45d-9946330c2ba3",
    "types": [
      "songwriters",
      "8"
    ],
    "repository": "kara.moe",
    "modified_at": "2020-03-31T19:04:35.153Z"
  }
}