{
  "header": {
    "description": "Karaoke Mugen Tag File",
    "version": 1
  },
  "tag": {
    "i18n": {
      "eng": "Jun Morioka"
    },
    "name": "Jun Morioka",
    "tid": "af61dafb-b0d7-4074-8805-43dd4abe654a",
    "types": [
      "songwriters",
      "8"
    ],
    "repository": "kara.moe",
    "modified_at": "2020-03-31T19:04:35.166Z"
  }
}