{
  "header": {
    "description": "Karaoke Mugen Tag File",
    "version": 1
  },
  "tag": {
    "i18n": {
      "eng": "Jun Uei"
    },
    "name": "Jun Uei",
    "tid": "44f52a19-25c6-4623-b58d-6a00fb1e665e",
    "types": [
      "songwriters",
      "8"
    ],
    "repository": "kara.moe",
    "modified_at": "2020-03-31T19:04:35.173Z"
  }
}