{
  "header": {
    "description": "Karaoke Mugen Tag File",
    "version": 1
  },
  "tag": {
    "aliases": [
      "Jungle Emperor",
      "Kimba de Witte Leeuw",
      "Kimba der weiße Löwe",
      "Le retour de Léo",
      "Le retour du roi Léo"
    ],
    "external_database_ids": {
      "anilist": 1572,
      "myanimelist": 1572,
      "kitsu": 1412
    },
    "i18n": {
      "eng": "Kimba the White Lion",
      "fre": "Le roi Léo",
      "ger": "Kimba, der weisse Löwe",
      "gre": "Λέο, ο Βασιλιάς της Ζούγκλας",
      "hun": "Kimba,a fehér oroszlán",
      "ita": "Kimba, il leone bianco",
      "jpn": "ジャングル大帝",
      "por": "Kimba, o Leão Branco",
      "spa": "Kimba, El León Blanco",
      "qro": "Jungle Taitei"
    },
    "modified_at": "2020-03-31T19:04:31.826Z",
    "name": "Jungle Taitei",
    "repository": "kara.moe",
    "tid": "816d66c2-0554-4dc6-b622-df9dd112b10b",
    "types": [
      "series",
      "1"
    ]
  }
}