{
  "header": {
    "description": "Karaoke Mugen Tag File",
    "version": 1
  },
  "tag": {
    "aliases": [
      "Guu Deluxe",
      "Guu OVA",
      "Jungle wa Itsumo Hale nochi Guu Deluxe",
      "Jungle wa Itsumo Hare nochi Guu OVA",
      "В джунглях всё было хорошо пока не пришла Гуу 2",
      "Всичко в джунглата беше наред преди да дойде Гуу 2",
      "guu"
    ],
    "external_database_ids": {
      "anilist": 254,
      "myanimelist": 254,
      "kitsu": 229
    },
    "i18n": {
      "eng": "Hare+Guu Deluxe",
      "fre": "Haré+Guu Deluxe",
      "jpn": "ジャングルはいつもハレのちグゥ デラックス",
      "kor": "정글은 언제나 맑은뒤 흐림 디럭스",
      "qro": "Jungle wa Itsumo Hare Nochi Gû Deluxe"
    },
    "modified_at": "2020-03-31T19:04:31.827Z",
    "name": "Jungle wa Itsumo Hare Nochi Gû Deluxe",
    "repository": "kara.moe",
    "tid": "13cda713-39c4-45c3-a00f-32b30ce26614",
    "types": [
      "series",
      "1"
    ]
  }
}