{
  "header": {
    "description": "Karaoke Mugen Tag File",
    "version": 1
  },
  "tag": {
    "i18n": {
      "eng": "Junji Nishimura"
    },
    "name": "Junji Nishimura",
    "tid": "b78d0013-8e3a-4bf8-a849-488822c9a9a0",
    "types": [
      "songwriters",
      "8"
    ],
    "repository": "kara.moe",
    "modified_at": "2020-03-31T19:04:35.187Z"
  }
}