{
  "header": {
    "description": "Karaoke Mugen Tag File",
    "version": 1
  },
  "tag": {
    "i18n": {
      "eng": "Junko Okada"
    },
    "name": "Junko Okada",
    "tid": "671f8be0-0788-4b6a-8d27-8e0e28a5cae3",
    "types": [
      "singers",
      "2",
      "songwriters",
      "8"
    ],
    "repository": "kara.moe",
    "modified_at": "2020-03-31T19:04:35.193Z"
  }
}