{
  "header": {
    "description": "Karaoke Mugen Tag File",
    "version": 1
  },
  "tag": {
    "i18n": {
      "eng": "Junko Wada"
    },
    "name": "Junko Wada",
    "tid": "688b9f97-821e-43f3-ae7e-e7c175db7bcc",
    "types": [
      "songwriters",
      "8"
    ],
    "repository": "kara.moe",
    "modified_at": "2020-03-31T19:04:35.196Z"
  }
}