{
  "header": {
    "description": "Karaoke Mugen Tag File",
    "version": 1
  },
  "tag": {
    "i18n": {
      "eng": "Junpei Shiina"
    },
    "name": "Junpei Shiina",
    "tid": "d279a391-36da-47ed-8806-c9e69c913f89",
    "types": [
      "singers",
      "2"
    ],
    "repository": "kara.moe",
    "modified_at": "2020-03-31T19:04:35.200Z"
  }
}