{
  "header": {
    "description": "Karaoke Mugen Tag File",
    "version": 1
  },
  "tag": {
    "i18n": {
      "eng": "Jupiter"
    },
    "name": "Jupiter",
    "tid": "82174abc-0456-4f9e-816f-5ba95c35f88e",
    "types": [
      "singers",
      "2"
    ],
    "repository": "kara.moe",
    "modified_at": "2020-03-31T19:04:35.204Z"
  }
}