{
  "header": {
    "description": "Karaoke Mugen Tag File",
    "version": 1
  },
  "tag": {
    "i18n": {
      "eng": "Juri Ueno"
    },
    "name": "Juri Ueno",
    "tid": "fdd4a453-3eba-4b3d-9034-dab607b73f19",
    "types": [
      "singers",
      "2"
    ],
    "repository": "kara.moe",
    "modified_at": "2020-03-31T19:04:35.207Z"
  }
}