{
  "header": {
    "description": "Karaoke Mugen Tag File",
    "version": 1
  },
  "tag": {
    "i18n": {
      "eng": "K&K Factory"
    },
    "modified_at": "2020-08-19T16:14:41.884Z",
    "name": "K&K Factory",
    "repository": "kara.moe",
    "tid": "128d5aab-7e32-48d7-be14-04afa9bbe4fb",
    "types": [
      "songwriters",
      "8"
    ]
  }
}