{
  "header": {
    "description": "Karaoke Mugen Tag File",
    "version": 1
  },
  "tag": {
    "i18n": {
      "eng": "Kacky"
    },
    "name": "Kacky",
    "tid": "b4f3ad9e-642a-41fa-9ab1-548c6a90f37d",
    "types": [
      "songwriters",
      "8"
    ],
    "repository": "kara.moe",
    "modified_at": "2020-03-31T19:04:35.222Z"
  }
}