{
  "header": {
    "description": "Karaoke Mugen Tag File",
    "version": 1
  },
  "tag": {
    "i18n": {
      "eng": "Kaela Kimura"
    },
    "name": "Kaela Kimura",
    "tid": "c4c95816-df66-4c94-84c0-545db54ca1fb",
    "types": [
      "singers",
      "2",
      "songwriters",
      "8"
    ],
    "repository": "kara.moe",
    "modified_at": "2020-03-31T19:04:35.226Z"
  }
}