{
  "header": {
    "description": "Karaoke Mugen Tag File",
    "version": 1
  },
  "tag": {
    "i18n": {
      "jpn": "花譜",
      "qro": "Kaf"
    },
    "name": "Kaf",
    "repository": "kara.moe",
    "tid": "34fd5f54-8fd9-4a0e-b8eb-5653e21b03ec",
    "types": [
      "singers",
      "2"
    ]
  }
}