{
  "header": {
    "description": "Karaoke Mugen Tag File",
    "version": 1
  },
  "tag": {
    "i18n": {
      "eng": "Kagaku Sentai Dynaman",
      "jpn": "科学戦隊ダイナマン",
      "qro": "Kagaku Sentai Dynaman"
    },
    "modified_at": "2020-03-31T19:04:31.843Z",
    "name": "Kagaku Sentai Dynaman",
    "repository": "kara.moe",
    "tid": "c0fb4013-ea26-4bd7-abc7-c804c538b53b",
    "types": [
      "series",
      "1"
    ]
  }
}