{
  "header": {
    "description": "Karaoke Mugen Tag File",
    "version": 1
  },
  "tag": {
    "i18n": {
      "eng": "Kai-ri-Sei Million Arthur",
      "jpn": "乖離性ミリオンアーサー",
      "qro": "Kai-ri-Sei Million Arthur"
    },
    "modified_at": "2020-03-31T19:04:31.846Z",
    "name": "Kai-ri-Sei Million Arthur",
    "repository": "kara.moe",
    "tid": "d3ec5e02-0047-4250-9b15-582b64b4e4d9",
    "types": [
      "series",
      "1"
    ]
  }
}