{
  "header": {
    "description": "Karaoke Mugen Tag File",
    "version": 1
  },
  "tag": {
    "aliases": [
      "Class President is a Maid!",
      "Kaichou wa Maid-sama",
      "KaichouMaid",
      "KwMs",
      "Maidsama",
      "Przewodnicząca jest Pokojówką!",
      "Şefa clasei e servitoare.",
      "Президент - горничная!",
      "Президент студенческого совета - горничная!",
      "Президент студради - покоївка",
      "Училищната президентка е прислужничка!",
      "نماینده مدرسه پیشخدمته!",
      "会长是女仆大人",
      "kaichou"
    ],
    "external_database_ids": {
      "anilist": 7054,
      "myanimelist": 7054,
      "kitsu": 4852
    },
    "i18n": {
      "eng": "Maid Sama!",
      "fre": "Maid Sama!",
      "ger": "Maid-sama",
      "jpn": "会長はメイド様!",
      "pol": "Służąca Przewodnicząca",
      "qro": "Kaichô wa Maid-sama!"
    },
    "modified_at": "2020-03-31T19:04:31.847Z",
    "name": "Kaichô wa Maid-sama!",
    "repository": "kara.moe",
    "tid": "de02435e-fc86-4141-a61e-79329d20140b",
    "types": [
      "series",
      "1"
    ]
  }
}