{
  "header": {
    "description": "Karaoke Mugen Tag File",
    "version": 1
  },
  "tag": {
    "i18n": {
      "eng": "Kakuda Nobuaki"
    },
    "modified_at": "2021-10-26T13:14:48.076Z",
    "name": "Kakuda Nobuaki",
    "repository": "kara.moe",
    "tid": "9da641a7-615c-4e2c-b67b-2f70ff9855f7",
    "types": [
      "singers",
      "2"
    ]
  }
}