{
  "header": {
    "description": "Karaoke Mugen Tag File",
    "version": 1
  },
  "tag": {
    "i18n": {
      "afr": "Kalaallisut, Greenlandic",
      "amh": "Kalaallisut, Greenlandic",
      "ara": "الكالاليست ، غرينلاند",
      "aze": "Гренландский, Гренландский",
      "bak": "Гренландский, Гренландский",
      "bel": "Kalaallisut, Kalaallisut",
      "bul": "Полярен, Полярен",
      "ben": "ক্যালাল্লিসুট, Greenlandic",
      "bos": "Kalalisutski, Grenlandski",
      "cat": "Kalaallisut, Greenlandic",
      "cze": "Grónština, Grónska",
      "wel": "Kalaallisut, Greenlandic",
      "dan": "Kalaallisut, Grønlandske",
      "ger": "Kalaallisut, Grönländisch",
      "gre": "Καλαάλισουτ, Της Γροιλανδίας",
      "eng": "Kalaallisut, Greenlandic",
      "epo": "Kalaallisut, Gronlanda",
      "spa": "Kalaallisut, El Groenlandés",
      "est": "Kalaallisut, Gröönimaa",
      "baq": "Kalaallisut, Greenlandic",
      "per": "Kalaallisut های Greenlandic",
      "fin": "Kalaallisut, Grönlanti",
      "fre": "Le Kalaallisut, Le Groenlandais",
      "gle": "Graonlainnisname, Graonlainnis",
      "gla": "Kalaallisut, Greenlandic",
      "glg": "Kalaallisut, Greenlandic",
      "guj": "કલાલ્લિસુત, Greenlandic",
      "heb": "קלאליסוטname, Greenlandic",
      "hin": "ग्रीनलैंडिक, ग्रीनलैंडिक",
      "hrv": "Гренландский, Гренландский",
      "hat": "Kalaallisut, Greenlandic",
      "hun": "Kalaallisut, Grönlandi",
      "arm": "Լատիներեն, Իտալերեն",
      "ind": "Bahasa Kalaallisut, Contohnya",
      "ice": "Grænlenska, Grænlensku",
      "ita": "Kalaallisut, Groenlandese",
      "jpn": "Kalaallisutは、Greenlandic",
      "jav": "Kalaallisut, Greenlandic",
      "geo": "Kalaallisut, Greenlandic",
      "kaz": "Гренландский, Гренландский",
      "kan": "ಕಲಾಲ್ಲಿಸುಟ್, Greenlandic",
      "kor": "그린란드어,그린란드",
      "kir": "Гренландский, Гренландский",
      "lat": "Kalaallisut, Greenlandic",
      "lit": "Kalaallisut, Grenlandijos",
      "lav": "Kalaallisut, Grenlandes",
      "mlg": "Eastern Canadian Inuktitut, Endriky Ny",
      "mao": "Kalaallisut, Greenlandic",
      "mac": "Kalaallisut, Greenlandic",
      "mal": "Kalaallisut, Greenlandic",
      "mon": "Kalaallisut, Greenlandic",
      "mar": "Kalaallisut, कॉर्निश",
      "may": "Kalaallisut, Greenlandic",
      "mlt": "Kalallisut, Tal-Groenlandja",
      "nep": "Kalaallisut, ग्रीनलैंडिक",
      "dut": "Kalaallisut, Het Groenlands",
      "nor": "Kalaallisut, Grønlandsk",
      "pan": "Kalaallisut, Greenlandic",
      "pol": "Grenlandzki, Grenlandzki",
      "por": "Kalaallisut, Groenlandês",
      "rum": "Kalaallisut, Greenlandic",
      "rus": "Гренландский, Гренландский",
      "sin": "Kalaallisut, Greenlandic",
      "slo": "Kalaallisut, Greenlandic",
      "slv": "Kalaallisut, Datoteke",
      "alb": "Kalaallisut, Greenlandic",
      "srp": "Гренландски, Гренландски",
      "sun": "Kalaallisut, Démonim",
      "swe": "Kalâtdlisut, Grönländska",
      "swa": "Kalaallisut, Greenlandic",
      "tam": "கலாலிசூட், Greenlandic",
      "tel": "Kalaallisut, Greenlandic",
      "tgk": "Гренландский, Гренландский",
      "tha": "ภาษาคาลัทลิซุท Name,Greenlandic",
      "tgl": "Kalaallisut, Greenlandic",
      "tur": "Grönland Dili, Grönland",
      "tat": "Гренландский, Гренландский",
      "ukr": "Гренландський, Гренландський",
      "urd": "Kalaallisut Greenlandic",
      "uzb": "Kalaallisut, Greenlandic",
      "vie": "Con Nuôi, Greenland",
      "xho": "Kalaallisut, Greenlandic",
      "yid": "Kalaallisut, Greenlandic",
      "chi": "格陵兰文，格陵兰"
    },
    "name": "kal",
    "tid": "4d8f6df2-03df-494f-9569-716b769e88dd",
    "types": [
      "langs",
      "5"
    ],
    "repository": "kara.moe",
    "modified_at": "2020-03-31T19:04:35.240Z"
  }
}