{
  "header": {
    "description": "Karaoke Mugen Tag File",
    "version": 1
  },
  "tag": {
    "i18n": {
      "eng": "Kamen Rider DEN-O",
      "jpn": "仮面ライダー電王",
      "qro": "Kamen Rider DEN-O"
    },
    "modified_at": "2020-03-31T19:04:31.868Z",
    "name": "Kamen Rider DEN-O",
    "repository": "kara.moe",
    "tid": "1c73c773-48fc-4e1f-99c7-11ea4e4e31a8",
    "types": [
      "series",
      "1"
    ]
  }
}