{
  "header": {
    "description": "Karaoke Mugen Tag File",
    "version": 1
  },
  "tag": {
    "i18n": {
      "eng": "Kamikaze Douga"
    },
    "name": "Kamikaze Douga",
    "tid": "3564a06f-167e-4708-be2e-c05bc5b2be5a",
    "types": [
      "creators",
      "4"
    ],
    "repository": "kara.moe",
    "modified_at": "2020-03-31T19:04:35.245Z"
  }
}