{
  "header": {
    "description": "Karaoke Mugen Tag File",
    "version": 1
  },
  "tag": {
    "i18n": {
      "eng": "Hyperdimension Neptunia: Producing Perfection",
      "jpn": "神次元アイドル ネプテューヌＰＰ",
      "qro": "Kami Jigen Idol Neptune PP"
    },
    "modified_at": "2020-03-31T19:04:31.883Z",
    "name": "Kami Jigen Idol Neptune PP",
    "repository": "kara.moe",
    "tid": "b21f239f-e386-4b19-b757-07933825df2d",
    "types": [
      "series",
      "1"
    ]
  }
}