{
  "header": {
    "description": "Karaoke Mugen Tag File",
    "version": 1
  },
  "tag": {
    "i18n": {
      "eng": "Kamikaze Boy"
    },
    "name": "Kamikaze Boy",
    "tid": "3dde98ed-a3a6-473d-8fd2-3dd81eb92b26",
    "types": [
      "songwriters",
      "8"
    ],
    "repository": "kara.moe",
    "modified_at": "2020-03-31T19:04:35.245Z"
  }
}