{
  "header": {
    "description": "Karaoke Mugen Tag File",
    "version": 1
  },
  "tag": {
    "aliases": [
      "Revenge of the Ninja Warrior",
      "The Blade of Kamui"
    ],
    "external_database_ids": {
      "anilist": 496,
      "myanimelist": 496,
      "kitsu": 456
    },
    "i18n": {
      "eng": "The Dagger of Kamui",
      "fre": "Dagger of Kamui",
      "ita": "La spada dei Kamui",
      "jpn": "カムイの剣",
      "por": "A espada de Kamui",
      "qro": "Kamui No Ken"
    },
    "modified_at": "2020-03-31T19:04:31.893Z",
    "name": "Kamui No Ken",
    "repository": "kara.moe",
    "tid": "d5a2b496-bf99-434f-a341-c74b7d0e75cf",
    "types": [
      "series",
      "1"
    ]
  }
}