{
  "header": {
    "description": "Karaoke Mugen Tag File",
    "version": 1
  },
  "tag": {
    "i18n": {
      "eng": "Kana Asumi"
    },
    "name": "Kana Asumi",
    "tid": "2f8a80bd-c798-41d7-bf28-8ff8002c9e76",
    "types": [
      "singers",
      "2"
    ],
    "repository": "kara.moe",
    "modified_at": "2020-03-31T19:04:35.250Z"
  }
}