{
  "header": {
    "description": "Karaoke Mugen Tag File",
    "version": 1
  },
  "tag": {
    "i18n": {
      "eng": "Kana Yabuki"
    },
    "name": "Kana Yabuki",
    "tid": "2dd81156-60ce-4888-ae00-c555054cdcaa",
    "types": [
      "songwriters",
      "8"
    ],
    "repository": "kara.moe",
    "modified_at": "2020-03-31T19:04:35.255Z"
  }
}