{
  "header": {
    "description": "Karaoke Mugen Tag File",
    "version": 1
  },
  "tag": {
    "i18n": {
      "eng": "Kana Yûki"
    },
    "name": "Kana Yûki",
    "tid": "c7314938-776d-4dac-8e0b-781aea749f66",
    "types": [
      "singers",
      "2"
    ],
    "repository": "kara.moe",
    "modified_at": "2020-03-31T19:04:35.256Z"
  }
}