{
  "header": {
    "description": "Karaoke Mugen Tag File",
    "version": 1
  },
  "tag": {
    "i18n": {
      "eng": "Kangaroo Suzuki"
    },
    "name": "Kangaroo Suzuki",
    "tid": "ca3e1929-bba7-4b8b-90a7-0003cc1d65d0",
    "types": [
      "songwriters",
      "8"
    ],
    "repository": "kara.moe",
    "modified_at": "2020-03-31T19:04:35.275Z"
  }
}