{
  "header": {
    "description": "Karaoke Mugen Tag File",
    "version": 1
  },
  "tag": {
    "aliases": [
      "non-non"
    ],
    "i18n": {
      "qro": "Kanon Matsuzawa",
      "jpn": "松澤 可苑"
    },
    "name": "Kanon Matsuzawa",
    "repository": "kara.moe",
    "tid": "39e6a067-b9e5-4448-a3b1-be683dc76ec1",
    "types": [
      "singers",
      "2"
    ]
  }
}