{
  "header": {
    "description": "Karaoke Mugen Tag File",
    "version": 1
  },
  "tag": {
    "aliases": [
      "KanoKari",
      "Девушка на час"
    ],
    "external_database_ids": {
      "anilist": 113813,
      "kitsu": 43028,
      "myanimelist": 40839
    },
    "i18n": {
      "ara": "استأجر حبيبة",
      "chi": "出租女友",
      "eng": "Rent-a-Girlfriend",
      "jpn": "彼女、お借りします",
      "qro": "Kanojo, Okarishimasu",
      "rus": "Девушка напрокат"
    },
    "name": "Kanojo, Okarishimasu",
    "repository": "kara.moe",
    "tid": "a811d4f3-e9d3-4684-96bc-85cfc500b7fb",
    "types": [
      "series",
      "1",
      "franchises",
      "18"
    ]
  }
}