{
  "header": {
    "description": "Karaoke Mugen Tag File",
    "version": 1
  },
  "tag": {
    "external_database_ids": {
      "anilist": 144,
      "myanimelist": 144,
      "kitsu": 7659
    },
    "i18n": {
      "eng": "Kanon (2002)",
      "jpn": "カノン (2002)",
      "qro": "Kanon (2002)"
    },
    "modified_at": "2020-03-31T19:04:31.901Z",
    "name": "Kanon (2002)",
    "repository": "kara.moe",
    "tid": "12e5d57d-b477-4bff-8bcb-5b30eeed2c12",
    "types": [
      "series",
      "1"
    ]
  }
}