{
  "header": {
    "description": "Karaoke Mugen Tag File",
    "version": 1
  },
  "tag": {
    "i18n": {
      "eng": "Kaori Maeda"
    },
    "name": "Kaori Maeda",
    "tid": "747cd011-3914-4212-9079-0da3dd845831",
    "types": [
      "singers",
      "2"
    ],
    "repository": "kara.moe",
    "modified_at": "2020-03-31T19:04:35.290Z"
  }
}