{
  "header": {
    "description": "Karaoke Mugen Tag File",
    "version": 1
  },
  "tag": {
    "i18n": {
      "eng": "Kaoru Sakuma"
    },
    "name": "Kaoru Sakuma",
    "repository": "kara.moe",
    "tid": "677b6379-d7cd-4f7a-9a7b-bdec6f0e8c3f",
    "types": [
      "songwriters",
      "8"
    ]
  }
}