{
  "header": {
    "description": "Karaoke Mugen Tag File",
    "version": 1
  },
  "tag": {
    "i18n": {
      "eng": "Karamomo Airi"
    },
    "name": "Karamomo Airi",
    "repository": "kara.moe",
    "tid": "b5388a27-b5b2-490b-98a4-2fbe0d59f0ee",
    "types": [
      "singers",
      "2"
    ]
  }
}