{
  "header": {
    "description": "Karaoke Mugen Tag File",
    "version": 1
  },
  "tag": {
    "aliases": [
      "Karakai Jouzu no Takagi-san 2",
      "Skilled Teaser Takagi-san",
      "jouzu"
    ],
    "external_database_ids": {
      "anilist": 107068,
      "myanimelist": 38993,
      "kitsu": 42110
    },
    "i18n": {
      "chi": "擅长捉弄的高木同学2",
      "eng": "Teasing Master Takagi-san (2nd season)",
      "jpn": "からかい上手の高木さん2",
      "spa": "Takagi-san: Experta en bromas pesadas 2",
      "fre": "Karakai Jôzu no Takagi-san (saison 2)",
      "qro": "Karakai Jôzu no Takagi-san 2"
    },
    "modified_at": "2020-07-27T21:26:41.038Z",
    "name": "Karakai Jôzu no Takagi-san 2",
    "repository": "kara.moe",
    "tid": "4b88b107-9df1-4465-bb8c-aec2a160039e",
    "types": [
      "series",
      "1"
    ]
  }
}