{
  "header": {
    "description": "Karaoke Mugen Tag File",
    "version": 1
  },
  "tag": {
    "i18n": {
      "eng": "Karim Debbache"
    },
    "name": "Karim Debbache",
    "tid": "0200ef19-f006-42aa-8c5c-46b4813e9513",
    "types": [
      "singers",
      "2",
      "songwriters",
      "8"
    ],
    "repository": "kara.moe",
    "modified_at": "2020-03-31T19:04:35.309Z"
  }
}