{
  "header": {
    "description": "Karaoke Mugen Tag File",
    "version": 1
  },
  "tag": {
    "i18n": {
      "eng": "Karuta"
    },
    "modified_at": "2020-05-02T22:06:00.146Z",
    "name": "Karuta",
    "repository": "kara.moe",
    "tid": "3e0fdf77-256a-4d7c-aa1c-ba86fe970418",
    "types": [
      "singers",
      "2"
    ]
  }
}