{
  "header": {
    "description": "Karaoke Mugen Tag File",
    "version": 1
  },
  "tag": {
    "i18n": {
      "eng": "Kasarinchu"
    },
    "name": "Kasarinchu",
    "tid": "109e371b-5f1a-41b4-a507-5f72c77d99be",
    "types": [
      "singers",
      "2"
    ],
    "repository": "kara.moe",
    "modified_at": "2020-03-31T19:04:35.313Z"
  }
}