{
  "header": {
    "description": "Karaoke Mugen Tag File",
    "version": 1
  },
  "tag": {
    "i18n": {
      "eng": "KASS"
    },
    "name": "KASS",
    "repository": "kara.moe",
    "tid": "ba279ea8-d6a6-44c6-a6cc-4c856549c7d9",
    "types": [
      "songwriters",
      "8"
    ]
  }
}