{
  "header": {
    "description": "Karaoke Mugen Tag File",
    "version": 1
  },
  "tag": {
    "aliases": [
      "Home Tutor Hitman Reborn!",
      "KHR",
      "Kateikyoushi Hitman Reborn!",
      "Katekyo Hitman Reborn!",
      "Reborn",
      "hitman reborn",
      "Репетитор-киллер Реборн!",
      "Учителят убиец Риборн!",
      "家庭教师",
      "katekyou"
    ],
    "external_database_ids": {
      "anilist": 1604,
      "myanimelist": 1604,
      "kitsu": 1444
    },
    "i18n": {
      "eng": "Reborn!",
      "fre": "Reborn ! Mon prof le tueur",
      "ita": "Tutor Hitman Reborn!",
      "jpn": "家庭教師[かてきょー]ヒットマンREBORN!",
      "tha": "ครูพิเศษจอมป่วน รีบอร์น!",
      "tur": "Tetikçi Eğitmen Reborn!",
      "qro": "Katekyô Hitman Reborn!"
    },
    "modified_at": "2020-06-21T23:45:31.966Z",
    "name": "Katekyô Hitman Reborn!",
    "repository": "kara.moe",
    "tid": "328cf309-0651-45a1-b12a-51ef350741be",
    "types": [
      "series",
      "1"
    ]
  }
}