{
  "header": {
    "description": "Karaoke Mugen Tag File",
    "version": 1
  },
  "tag": {
    "i18n": {
      "eng": "Kateryna Pavlenko"
    },
    "modified_at": "2021-06-14T16:43:52.277Z",
    "name": "Kateryna Pavlenko",
    "repository": "kara.moe",
    "tid": "e56b5491-ade1-4c60-b296-0189e4d47fbd",
    "types": [
      "songwriters",
      "8"
    ]
  }
}