{
  "header": {
    "description": "Karaoke Mugen Tag File",
    "version": 1
  },
  "tag": {
    "i18n": {
      "jpn": "黒須 克彦",
      "qro": "Katsuhiko Kurosu"
    },
    "name": "Katsuhiko Kurosu",
    "repository": "kara.moe",
    "tid": "28b975a1-0b59-49b7-aa1d-987c9b4fe7ae",
    "types": [
      "songwriters",
      "8"
    ]
  }
}