{
  "header": {
    "description": "Karaoke Mugen Tag File",
    "version": 1
  },
  "tag": {
    "i18n": {
      "eng": "Katsutoyo Yoshida"
    },
    "name": "Katsutoyo Yoshida",
    "tid": "6b4894ab-517e-4019-8ec7-c0a45e823c77",
    "types": [
      "songwriters",
      "8"
    ],
    "repository": "kara.moe",
    "modified_at": "2020-03-31T19:04:35.329Z"
  }
}