{
  "header": {
    "description": "Karaoke Mugen Tag File",
    "version": 1
  },
  "tag": {
    "i18n": {
      "eng": "Katteni Shiyagare"
    },
    "name": "Katteni Shiyagare",
    "tid": "7fbfbd00-48a1-4bcb-8b40-fe8c8f0a0176",
    "types": [
      "singers",
      "2",
      "songwriters",
      "8"
    ],
    "repository": "kara.moe",
    "modified_at": "2020-03-31T19:04:35.334Z"
  }
}