{
  "header": {
    "description": "Karaoke Mugen Tag File",
    "version": 1
  },
  "tag": {
    "i18n": {
      "eng": "Kawamura Atsushi"
    },
    "name": "Kawamura Atsushi",
    "repository": "kara.moe",
    "tid": "179aff2f-a103-44bd-8042-0a1e3898c730",
    "types": [
      "songwriters",
      "8"
    ]
  }
}