{
  "header": {
    "description": "Karaoke Mugen Tag File",
    "version": 1
  },
  "tag": {
    "aliases": [
      "aozukikawasemi"
    ],
    "i18n": {
      "eng": "KAWASEMI",
      "jpn": "革蝉"
    },
    "name": "KAWASEMI",
    "repository": "kara.moe",
    "tid": "9bef9127-e419-48be-8047-b9b583f5795e",
    "types": [
      "creators",
      "4"
    ]
  }
}