{
  "header": {
    "description": "Karaoke Mugen Tag File",
    "version": 1
  },
  "tag": {
    "aliases": [
      "式守同学不只可爱而已",
      "式守同學不只可愛而已"
    ],
    "external_database_ids": {
      "anilist": 127911,
      "myanimelist": 45613,
      "kitsu": 44159
    },
    "i18n": {
      "eng": "Shikimori's Not Just a Cutie",
      "jpn": "可愛いだけじゃない式守さん",
      "qro": "Kawaii Dake ja Nai Shikimori-san",
      "fre": "Shikimori n'est pas juste mignonne"
    },
    "name": "Kawaii Dake ja Nai Shikimori-san",
    "repository": "kara.moe",
    "tid": "b11f5843-f539-4248-9490-b82a212c9161",
    "types": [
      "series",
      "1"
    ]
  }
}