{
  "header": {
    "description": "Karaoke Mugen Tag File",
    "version": 1
  },
  "tag": {
    "i18n": {
      "eng": "Kaycee Stroh"
    },
    "modified_at": "2020-07-07T09:07:48.099Z",
    "name": "Kaycee Stroh",
    "repository": "kara.moe",
    "tid": "9d36cd45-7136-4b8f-a876-a9d3e64b6b2b",
    "types": [
      "singers",
      "2"
    ]
  }
}