{
  "header": {
    "description": "Karaoke Mugen Tag File",
    "version": 1
  },
  "tag": {
    "external_database_ids": {
      "anilist": 16662,
      "myanimelist": 16662,
      "kitsu": 7485
    },
    "i18n": {
      "eng": "The Wind Rises",
      "fre": "Le vent se lève",
      "ger": "Wie der Wind sich hebt",
      "ita": "Si alza il vento",
      "jpn": "風立ちぬ",
      "por": "As Asas do Vento",
      "spa": "El Viento se Levanta",
      "qro": "Kaze Tachinu"
    },
    "modified_at": "2020-03-31T19:04:31.916Z",
    "name": "Kaze Tachinu",
    "repository": "kara.moe",
    "tid": "01832285-67ee-48d7-a561-faa305ae771c",
    "types": [
      "series",
      "1"
    ]
  }
}