{
  "header": {
    "description": "Karaoke Mugen Tag File",
    "version": 1
  },
  "tag": {
    "i18n": {
      "eng": "KAZUOMI"
    },
    "name": "KAZUOMI",
    "tid": "dbd08849-2eca-4f1b-afe6-1e0c6887caa8",
    "types": [
      "songwriters",
      "8"
    ],
    "repository": "kara.moe",
    "modified_at": "2020-03-31T19:04:35.376Z"
  }
}