{
  "header": {
    "description": "Karaoke Mugen Tag File",
    "version": 1
  },
  "tag": {
    "i18n": {
      "eng": "Kazuo Fukazawa"
    },
    "name": "Kazuo Fukazawa",
    "tid": "1ae639df-d751-4213-8402-a50b9bb84cf6",
    "types": [
      "songwriters",
      "8"
    ],
    "repository": "kara.moe",
    "modified_at": "2020-03-31T19:04:35.373Z"
  }
}