{
  "header": {
    "description": "Karaoke Mugen Tag File",
    "version": 1
  },
  "tag": {
    "i18n": {
      "eng": "Kazusa Murai"
    },
    "name": "Kazusa Murai",
    "tid": "2d2e81f0-8f67-470c-b24e-d8f9e0abd4d5",
    "types": [
      "singers",
      "2"
    ],
    "repository": "kara.moe",
    "modified_at": "2020-03-31T19:04:35.377Z"
  }
}