{
  "header": {
    "description": "Karaoke Mugen Tag File",
    "version": 1
  },
  "tag": {
    "i18n": {
      "eng": "Kazuyuki Okitsu"
    },
    "name": "Kazuyuki Okitsu",
    "tid": "576c98b6-303c-450f-bbf9-b6acb5c0bf2c",
    "types": [
      "singers",
      "2"
    ],
    "repository": "kara.moe",
    "modified_at": "2020-03-31T19:04:35.390Z"
  }
}