{
  "header": {
    "description": "Karaoke Mugen Tag File",
    "version": 1
  },
  "tag": {
    "i18n": {
      "eng": "KAZZ"
    },
    "modified_at": "2020-07-19T15:06:53.221Z",
    "name": "KAZZ",
    "repository": "kara.moe",
    "tid": "9106a850-918f-4c40-a6ad-9f8000b8e0ee",
    "types": [
      "songwriters",
      "8"
    ]
  }
}