{
  "header": {
    "description": "Karaoke Mugen Tag File",
    "version": 1
  },
  "tag": {
    "i18n": {
      "eng": "Keiji Mizutani",
      "jpn": "水谷啓二",
      "qro": "Keiji Mizutani"
    },
    "name": "Keiji Mizutani",
    "repository": "kara.moe",
    "tid": "75b6be8d-b0d6-4195-af74-12d73fc94d8e",
    "types": [
      "songwriters",
      "8"
    ]
  }
}