{
  "header": {
    "description": "Karaoke Mugen Tag File",
    "version": 1
  },
  "tag": {
    "i18n": {
      "eng": "KEIKO"
    },
    "modified_at": "2020-08-20T14:18:00.711Z",
    "name": "KEIKO",
    "repository": "kara.moe",
    "tid": "14af46ce-1e34-4c7f-81fd-ee8ff0dd468e",
    "types": [
      "songwriters",
      "8"
    ]
  }
}