{
  "header": {
    "description": "Karaoke Mugen Tag File",
    "version": 1
  },
  "tag": {
    "i18n": {
      "eng": "Keiko Yoshinari"
    },
    "modified_at": "2021-03-09T16:56:08.254Z",
    "name": "Keiko Yoshinari",
    "repository": "kara.moe",
    "tid": "0cf591ee-2616-4f33-9d50-696773373a44",
    "types": [
      "singers",
      "2"
    ]
  }
}