{
  "header": {
    "description": "Karaoke Mugen Tag File",
    "version": 1
  },
  "tag": {
    "i18n": {
      "eng": "Keisuke Koyama"
    },
    "modified_at": "2020-10-21T17:07:09.368Z",
    "name": "Keisuke Koyama",
    "repository": "kara.moe",
    "tid": "52d1a2be-00d4-4e08-87f8-8524ec89a643",
    "types": [
      "songwriters",
      "8"
    ]
  }
}