{
  "header": {
    "description": "Karaoke Mugen Tag File",
    "version": 1
  },
  "tag": {
    "i18n": {
      "eng": "Keisuke Matsuzaki"
    },
    "name": "Keisuke Matsuzaki",
    "repository": "kara.moe",
    "tid": "30aa6763-d654-4297-9ff9-a4f0cf7739d0",
    "types": [
      "songwriters",
      "8"
    ]
  }
}