{
  "header": {
    "description": "Karaoke Mugen Tag File",
    "version": 1
  },
  "tag": {
    "i18n": {
      "eng": "Keita Tachibana"
    },
    "name": "Keita Tachibana",
    "tid": "29ddd23d-d360-4736-a513-4436656246bb",
    "types": [
      "singers",
      "2",
      "songwriters",
      "8"
    ],
    "repository": "kara.moe",
    "modified_at": "2020-03-31T19:04:35.428Z"
  }
}