{
  "header": {
    "description": "Karaoke Mugen Tag File",
    "version": 1
  },
  "tag": {
    "aliases": [
      "MONACA"
    ],
    "i18n": {
      "eng": "Keita Inoue"
    },
    "modified_at": "2021-08-27T16:54:48.307Z",
    "name": "Keita Inoue",
    "repository": "kara.moe",
    "tid": "30b21165-79d7-4023-b641-56318d694f01",
    "types": [
      "songwriters",
      "8"
    ]
  }
}