{
  "header": {
    "description": "Karaoke Mugen Tag File",
    "version": 1
  },
  "tag": {
    "i18n": {
      "eng": "Keiyu"
    },
    "name": "Keiyu",
    "tid": "90c617f6-24ee-4b14-8e51-bb6101cb21ca",
    "types": [
      "songwriters",
      "8"
    ],
    "repository": "kara.moe",
    "modified_at": "2020-03-31T19:04:35.432Z"
  }
}