{
  "header": {
    "description": "Karaoke Mugen Tag File",
    "version": 1
  },
  "tag": {
    "i18n": {
      "eng": "ken kudo"
    },
    "modified_at": "2020-09-23T21:21:38.785Z",
    "name": "ken kudo",
    "repository": "kara.moe",
    "tid": "827907f2-a0ed-4256-90a8-023dd725767e",
    "types": [
      "creators",
      "4"
    ]
  }
}