{
  "header": {
    "description": "Karaoke Mugen Tag File",
    "version": 1
  },
  "tag": {
    "i18n": {
      "eng": "Ken'ichi Kurosawa"
    },
    "name": "Ken'ichi Kurosawa",
    "tid": "f8db4164-dfee-4585-89a0-c7b4e563c42d",
    "types": [
      "songwriters",
      "8"
    ],
    "repository": "kara.moe",
    "modified_at": "2020-03-31T19:04:35.450Z"
  }
}