{
  "header": {
    "description": "Karaoke Mugen Tag File",
    "version": 1
  },
  "tag": {
    "i18n": {
      "eng": "Kenichi Nishikami"
    },
    "name": "Kenichi Nishikami",
    "tid": "1ef4310d-7192-436a-bfb0-9c39f2964d04",
    "types": [
      "songwriters",
      "8"
    ],
    "repository": "kara.moe",
    "modified_at": "2020-03-31T19:04:35.462Z"
  }
}