{
  "header": {
    "description": "Karaoke Mugen Tag File",
    "version": 1
  },
  "tag": {
    "i18n": {
      "eng": "Kenji Watanabe"
    },
    "name": "Kenji Watanabe",
    "tid": "e3c1313e-6777-446c-bce4-018493b8563d",
    "types": [
      "songwriters",
      "8"
    ],
    "repository": "kara.moe",
    "modified_at": "2020-03-31T19:04:35.477Z"
  }
}