{
  "header": {
    "description": "Karaoke Mugen Tag File",
    "version": 1
  },
  "tag": {
    "i18n": {
      "eng": "Kenji Tsujimoto"
    },
    "modified_at": "2020-08-19T17:27:10.308Z",
    "name": "Kenji Tsujimoto",
    "repository": "kara.moe",
    "tid": "dc52e29c-0ec3-41a1-a051-637b51d2c189",
    "types": [
      "songwriters",
      "8"
    ]
  }
}