{
  "header": {
    "description": "Karaoke Mugen Tag File",
    "version": 1
  },
  "tag": {
    "i18n": {
      "eng": "Kenji Nojima"
    },
    "modified_at": "2020-08-21T16:13:09.396Z",
    "name": "Kenji Nojima",
    "repository": "kara.moe",
    "tid": "e4c9e291-2a74-4f5c-96ea-5ac47b2eedfa",
    "types": [
      "singers",
      "2"
    ]
  }
}