{
  "header": {
    "description": "Karaoke Mugen Tag File",
    "version": 1
  },
  "tag": {
    "i18n": {
      "eng": "KenKen"
    },
    "modified_at": "2020-08-08T21:25:05.500Z",
    "name": "KenKen",
    "repository": "kara.moe",
    "tid": "775adf20-02fc-41b2-a27f-4d3f360aa3d5",
    "types": [
      "songwriters",
      "8",
      "singers",
      "2"
    ]
  }
}