{
  "header": {
    "description": "Karaoke Mugen Tag File",
    "version": 1
  },
  "tag": {
    "i18n": {
      "eng": "Kensaku Saitô"
    },
    "name": "Kensaku Saitô",
    "tid": "db5d7167-e7b9-452b-b095-7db98ad851a3",
    "types": [
      "songwriters",
      "8"
    ],
    "repository": "kara.moe",
    "modified_at": "2020-03-31T19:04:35.483Z"
  }
}