{
  "header": {
    "description": "Karaoke Mugen Tag File",
    "version": 1
  },
  "tag": {
    "i18n": {
      "eng": "Kentarô Kobuchi"
    },
    "name": "Kentarô Kobuchi",
    "tid": "1ef2998f-b689-4b1a-bc8f-4750e66fec18",
    "types": [
      "songwriters",
      "8"
    ],
    "repository": "kara.moe",
    "modified_at": "2020-03-31T19:04:35.496Z"
  }
}