{
  "header": {
    "description": "Karaoke Mugen Tag File",
    "version": 1
  },
  "tag": {
    "i18n": {
      "eng": "Kenta Harada"
    },
    "name": "Kenta Harada",
    "tid": "80b322c4-3994-4c12-b8e3-e7d59c2d2a8b",
    "types": [
      "songwriters",
      "8"
    ],
    "repository": "kara.moe",
    "modified_at": "2020-03-31T19:04:35.489Z"
  }
}