{
  "header": {
    "description": "Karaoke Mugen Tag File",
    "version": 1
  },
  "tag": {
    "aliases": [
      "Keroro Gunsou",
      "Sergeant Frog",
      "Sergeant Keroro",
      "Sergeant Ribbit",
      "kero",
      "keroro tv",
      "케로로",
      "gunsou"
    ],
    "external_database_ids": {
      "anilist": 516,
      "myanimelist": 516,
      "kitsu": 475
    },
    "i18n": {
      "ara": "كيرو",
      "chi": "keroro軍曹",
      "eng": "Sgt. Frog",
      "fre": "Keroro ‒ Mission Titar",
      "glg": "Sarxento Keroro",
      "heb": "קפטן קררו",
      "jpn": "ケロロ軍曹",
      "kor": "개구리 중사 케로로",
      "por": "Sargento Keroro",
      "spa": "Sargento Keroro",
      "tha": "เคโรโระ ขบวนการ อ๊บ อ๊บ ป่วนโลก",
      "qro": "Keroro Gunsô"
    },
    "modified_at": "2020-06-21T23:45:31.966Z",
    "name": "Keroro Gunsô",
    "repository": "kara.moe",
    "tid": "25b54711-c993-45f8-92b9-bef274341939",
    "types": [
      "series",
      "1",
      "franchises",
      "18"
    ]
  }
}