{
  "header": {
    "description": "Karaoke Mugen Tag File",
    "version": 1
  },
  "tag": {
    "aliases": [
      "Demetan Croaker The Boy Frog",
      "Demetan der Froschjunge",
      "Demetan the Frog",
      "Przygody zielonych żabek",
      "The Brave Frog's Greatest Adventure",
      "Zielone żabki: Przygody nad Tęczowym Stawem"
    ],
    "external_database_ids": {
      "anilist": 307,
      "myanimelist": 307,
      "kitsu": 9016
    },
    "i18n": {
      "ara": "الضفدع الشجاع",
      "dut": "Demetan: de Kikkerjongen",
      "eng": "Adventures on Rainbow Pond",
      "fin": "Rohkea sammakko",
      "fre": "Démétan la petite grenouille",
      "ger": "Abenteuer am Regenbogenteich",
      "gre": "Ο Γενναίος Βάτραχος",
      "ita": "La Banda Dei Ranocchi",
      "jpn": "けろっこデメタン",
      "kor": "개구리 소년",
      "pol": "Zielone żabki",
      "qro": "Kerokko Demetan"
    },
    "modified_at": "2020-03-31T19:04:31.930Z",
    "name": "Kerokko Demetan",
    "repository": "kara.moe",
    "tid": "697ef8d3-237c-4922-8e33-c5779a20f15d",
    "types": [
      "series",
      "1"
    ]
  }
}