{
  "header": {
    "description": "Karaoke Mugen Tag File",
    "version": 1
  },
  "tag": {
    "aliases": [
      "kg",
      "kgrade"
    ],
    "external_database_ids": {
      "anilist": 274,
      "myanimelist": 274,
      "kitsu": 249
    },
    "i18n": {
      "cze": "Dívčí četa",
      "eng": "Kiddy Grade",
      "fre": "Kiddy Grade",
      "ger": "Kiddy Grade",
      "hun": "Csajkommandó",
      "jpn": "キディ・グレイド",
      "por": "Kiddy Grade",
      "rum": "Kiddy Grade",
      "tha": "คิดดี้เกรด",
      "qro": "Kiddy Grade"
    },
    "modified_at": "2020-03-31T19:04:31.935Z",
    "name": "Kiddy Grade",
    "repository": "kara.moe",
    "tid": "84423ce9-9601-41a6-bbae-3f022af4abe0",
    "types": [
      "series",
      "1"
    ]
  }
}