{
  "header": {
    "description": "Karaoke Mugen Tag File",
    "version": 1
  },
  "tag": {
    "aliases": [
      "IBO"
    ],
    "external_database_ids": {
      "kitsu": 46138,
      "myanimelist": 51569
    },
    "i18n": {
      "eng": "Mobile Suit Gundam : Iron-Blooded Orphans - Special Edition",
      "jpn": "機動戦士ガンダム 鉄血のオルフェンズ 特別編",
      "qro": "Kidô Senshi Gundam - Tekketsu no Orphans - Tokubetsu-hen"
    },
    "name": "Kidô Senshi Gundam: Tekketsu no Orphans - Tokubetsu-hen",
    "repository": "kara.moe",
    "tid": "1128238d-577b-4a5c-bbd2-92be961ba471",
    "types": [
      "series",
      "1"
    ]
  }
}