{
  "header": {
    "description": "Karaoke Mugen Tag File",
    "version": 1
  },
  "tag": {
    "i18n": {
      "eng": "KIHOW"
    },
    "name": "KIHOW",
    "tid": "74795841-ab5d-4a6c-9182-c862b0df19b5",
    "types": [
      "singers",
      "2"
    ],
    "repository": "kara.moe",
    "modified_at": "2020-03-31T19:04:35.516Z"
  }
}