{
  "header": {
    "description": "Karaoke Mugen Tag File",
    "version": 1
  },
  "tag": {
    "i18n": {
      "eng": "Kim Ee-Na"
    },
    "name": "Kim Ee-Na",
    "repository": "kara.moe",
    "tid": "9f3ca791-5a83-4d46-bea0-04d2304c901b",
    "types": [
      "songwriters",
      "8"
    ]
  }
}