{
  "header": {
    "description": "Karaoke Mugen Tag File",
    "version": 1
  },
  "tag": {
    "i18n": {
      "eng": "Kim Min-ji"
    },
    "name": "Kim Min-ji",
    "repository": "kara.moe",
    "tid": "e7c26758-c0f3-45d0-a76a-d38659131ca2",
    "types": [
      "singers",
      "2"
    ]
  }
}