{
  "header": {
    "description": "Karaoke Mugen Tag File",
    "version": 1
  },
  "tag": {
    "i18n": {
      "eng": "KIM"
    },
    "name": "KIM",
    "tid": "d06b96b0-048d-4e3a-9faa-8e572d0fb931",
    "types": [
      "songwriters",
      "8"
    ],
    "repository": "kara.moe",
    "modified_at": "2020-03-31T19:04:35.528Z"
  }
}