{
  "header": {
    "description": "Karaoke Mugen Tag File",
    "version": 1
  },
  "tag": {
    "i18n": {
      "eng": "Kimeru"
    },
    "name": "Kimeru",
    "tid": "e94657db-7ac3-420d-be55-e74da1e55281",
    "types": [
      "singers",
      "2",
      "songwriters",
      "8"
    ],
    "repository": "kara.moe",
    "modified_at": "2020-03-31T19:04:35.529Z"
  }
}