{
  "header": {
    "description": "Karaoke Mugen Tag File",
    "version": 1
  },
  "tag": {
    "aliases": [
      "KH BBS"
    ],
    "i18n": {
      "eng": "Kingdom Hearts: Birth by Sleep",
      "jpn": "キングダム ハーツ バース バイ スリープ",
      "qro": "Kingdom Hearts: Birth by Sleep"
    },
    "modified_at": "2020-03-31T19:04:31.984Z",
    "name": "Kingdom Hearts: Birth by Sleep",
    "repository": "kara.moe",
    "tid": "b6f489de-c760-4509-bf4c-e8420637f095",
    "types": [
      "series",
      "1"
    ]
  }
}