{
  "header": {
    "description": "Karaoke Mugen Tag File",
    "version": 1
  },
  "tag": {
    "i18n": {
      "eng": "Kinji Yoshimoto"
    },
    "name": "Kinji Yoshimoto",
    "tid": "1751a623-4a67-49a9-8a65-a57fd85048ca",
    "types": [
      "songwriters",
      "8"
    ],
    "repository": "kara.moe",
    "modified_at": "2020-03-31T19:04:35.538Z"
  }
}