{
  "header": {
    "description": "Karaoke Mugen Tag File",
    "version": 1
  },
  "tag": {
    "i18n": {
      "eng": "Kirisame Undertaker"
    },
    "name": "Kirisame Undertaker",
    "tid": "2949896f-aaf8-4d77-a058-d60b0962873a",
    "types": [
      "singers",
      "2",
      "songwriters",
      "8"
    ],
    "repository": "kara.moe",
    "modified_at": "2020-03-31T19:04:35.547Z"
  }
}