{
  "header": {
    "description": "Karaoke Mugen Tag File",
    "version": 1
  },
  "tag": {
    "i18n": {
      "eng": "Kishida"
    },
    "name": "Kishida",
    "tid": "30efaa5a-83a8-46db-89cb-130bcf0e4cb9",
    "types": [
      "songwriters",
      "8"
    ],
    "repository": "kara.moe",
    "modified_at": "2020-03-31T19:04:35.551Z"
  }
}