{
  "header": {
    "description": "Karaoke Mugen Tag File",
    "version": 1
  },
  "tag": {
    "aliases": [
      "KKK",
      "Kitakubu Katsudou Kiroku",
      "katsudou"
    ],
    "external_database_ids": {
      "anilist": 18495,
      "myanimelist": 18495,
      "kitsu": 7676
    },
    "i18n": {
      "eng": "Chronicles of the Going Home Club",
      "fre": "Kitakubu Katsudô Kiroku",
      "jpn": "帰宅部活動記録",
      "spa": "Kitakubu Katsudou Kiroku",
      "qro": "Kitakubu Katsudô Kiroku"
    },
    "modified_at": "2020-06-21T23:45:31.966Z",
    "name": "Kitakubu Katsudô Kiroku",
    "repository": "kara.moe",
    "tid": "934edf9a-103e-4016-8aa6-44f17439cafc",
    "types": [
      "series",
      "1"
    ]
  }
}