{
  "header": {
    "description": "Karaoke Mugen Tag File",
    "version": 1
  },
  "tag": {
    "i18n": {
      "eng": "Kiyoshi Miyaura"
    },
    "modified_at": "2020-08-22T19:02:09.845Z",
    "name": "Kiyoshi Miyaura",
    "repository": "kara.moe",
    "tid": "905692aa-fe24-4e12-a835-d7ae3318fe3a",
    "types": [
      "songwriters",
      "8"
    ]
  }
}