{
  "header": {
    "description": "Karaoke Mugen Tag File",
    "version": 1
  },
  "tag": {
    "i18n": {
      "eng": "Kiyono"
    },
    "modified_at": "2020-05-09T22:32:19.187Z",
    "name": "Kiyono",
    "repository": "kara.moe",
    "tid": "26fcb5f6-06ef-40d1-aa62-0284cf7a2ca0",
    "types": [
      "singers",
      "2"
    ]
  }
}