{
  "header": {
    "description": "Karaoke Mugen Tag File",
    "version": 1
  },
  "tag": {
    "i18n": {
      "eng": "Kiyoshi"
    },
    "name": "Kiyoshi",
    "tid": "f8a60f1b-3b11-4f57-9ee1-13127b6ee278",
    "types": [
      "songwriters",
      "8"
    ],
    "repository": "kara.moe",
    "modified_at": "2020-03-31T19:04:35.568Z"
  }
}