{
  "header": {
    "description": "Karaoke Mugen Tag File",
    "version": 1
  },
  "tag": {
    "i18n": {
      "eng": "Klaus Badelt"
    },
    "name": "Klaus Badelt",
    "tid": "5d88472d-3d3e-479e-a5ae-2ad0ade91509",
    "types": [
      "songwriters",
      "8"
    ],
    "repository": "kara.moe",
    "modified_at": "2020-03-31T19:04:35.571Z"
  }
}