{
  "header": {
    "description": "Karaoke Mugen Tag File",
    "version": 1
  },
  "tag": {
    "i18n": {
      "eng": "Klaus Miedel"
    },
    "modified_at": "2021-12-04T22:16:25.849Z",
    "name": "Klaus Miedel",
    "repository": "kara.moe",
    "tid": "cf0fe9ce-7e71-4990-be27-2c0e50a9af76",
    "types": [
      "singers",
      "2"
    ]
  }
}