{
  "header": {
    "description": "Karaoke Mugen Tag File",
    "version": 1
  },
  "tag": {
    "i18n": {
      "eng": "KneuKlid Romance"
    },
    "name": "KneuKlid Romance",
    "repository": "kara.moe",
    "tid": "985bdd8d-6839-4d9f-81c1-1520af0fb308",
    "types": [
      "singergroups",
      "17",
      "songwriters",
      "8"
    ]
  }
}