{
  "header": {
    "description": "Karaoke Mugen Tag File",
    "version": 1
  },
  "tag": {
    "i18n": {
      "eng": "Ko-KI"
    },
    "modified_at": "2020-08-17T23:41:46.216Z",
    "name": "Ko-KI",
    "repository": "kara.moe",
    "tid": "ce2fe846-1745-43fb-80de-38abac7984b5",
    "types": [
      "songwriters",
      "8"
    ]
  }
}