{
  "header": {
    "description": "Karaoke Mugen Tag File",
    "version": 1
  },
  "tag": {
    "aliases": [
      "Child's Toy",
      "KnO",
      "Детская игрушка",
      "لعبة طفل",
      "小孩子的玩具"
    ],
    "external_database_ids": {
      "anilist": 1486,
      "myanimelist": 1486,
      "kitsu": 1332
    },
    "i18n": {
      "eng": "Kodocha",
      "fre": "Kodomo no Omocha",
      "ita": "Rossana",
      "jpn": "こどものおもちゃ (1996)",
      "qro": "Kodomo no Omocha (1996)"
    },
    "modified_at": "2020-03-31T19:04:32.008Z",
    "name": "Kodomo no Omocha (1996)",
    "repository": "kara.moe",
    "tid": "e2a6a4a9-8ffa-48d7-bbd2-96568e048ef6",
    "types": [
      "series",
      "1"
    ]
  }
}