{
  "header": {
    "description": "Karaoke Mugen Tag File",
    "version": 1
  },
  "tag": {
    "i18n": {
      "eng": "kohei"
    },
    "name": "kohei",
    "tid": "d6548148-e2b8-40e4-b651-b85f4966c45f",
    "types": [
      "songwriters",
      "8"
    ],
    "repository": "kara.moe",
    "modified_at": "2020-03-31T19:04:35.588Z"
  }
}