{
  "header": {
    "description": "Karaoke Mugen Tag File",
    "version": 1
  },
  "tag": {
    "i18n": {
      "jpn": "野中 ここな",
      "qro": "Kokona Nonaka"
    },
    "name": "Kokona Nonaka",
    "repository": "kara.moe",
    "tid": "4e39a0e7-c012-4be9-a2c9-f09cf8d3a31b",
    "types": [
      "singers",
      "2"
    ]
  }
}