{
  "header": {
    "description": "Karaoke Mugen Tag File",
    "version": 1
  },
  "tag": {
    "i18n": {
      "eng": "Koko Aoyama"
    },
    "name": "Koko Aoyama",
    "repository": "kara.moe",
    "tid": "0743459f-13e5-41e1-a467-8b7b0abcba0c",
    "types": [
      "singers",
      "2"
    ]
  }
}