{
  "header": {
    "description": "Karaoke Mugen Tag File",
    "version": 1
  },
  "tag": {
    "aliases": [
      "kokuchou"
    ],
    "i18n": {
      "eng": "Kokuchô",
      "jpn": "黒鳥",
      "qro": "Kokuchô"
    },
    "name": "Kokuchô",
    "repository": "kara.moe",
    "tid": "8963fdfb-365d-4293-9dbc-7f6884d532a0",
    "types": [
      "songwriters",
      "8"
    ]
  }
}