{
  "header": {
    "description": "Karaoke Mugen Tag File",
    "version": 1
  },
  "tag": {
    "i18n": {
      "eng": "komugiko2000"
    },
    "modified_at": "2021-03-05T22:41:33.684Z",
    "name": "komugiko2000",
    "repository": "kara.moe",
    "tid": "851d892f-0151-43af-b65d-663e5783c97e",
    "types": [
      "creators",
      "4"
    ]
  }
}