{
  "header": {
    "description": "Karaoke Mugen Tag File",
    "version": 1
  },
  "tag": {
    "i18n": {
      "eng": "Kon Live Distribution"
    },
    "modified_at": "2021-11-21T21:14:57.584Z",
    "name": "Kon Live Distribution",
    "repository": "kara.moe",
    "tid": "278c128b-5c0b-49bf-9a06-ab0794a1a9d2",
    "types": [
      "creators",
      "4"
    ]
  }
}