{
  "header": {
    "description": "Karaoke Mugen Tag File",
    "version": 1
  },
  "tag": {
    "i18n": {
      "eng": "Konomi Suzuki"
    },
    "name": "Konomi Suzuki",
    "tid": "c2fef8d8-1e8e-427a-9a5c-769d661c8fed",
    "types": [
      "singers",
      "2"
    ],
    "repository": "kara.moe",
    "modified_at": "2020-03-31T19:04:35.610Z"
  }
}