{
  "header": {
    "description": "Karaoke Mugen Tag File",
    "version": 1
  },
  "tag": {
    "aliases": [
      "yama_ko"
    ],
    "i18n": {
      "eng": "Kotaro Yamazaki"
    },
    "modified_at": "2021-10-02T11:38:03.807Z",
    "name": "Kotaro Yamazaki",
    "repository": "kara.moe",
    "tid": "34d87340-d8c8-4298-bcc7-d5d5f4af9831",
    "types": [
      "creators",
      "4"
    ]
  }
}