{
  "header": {
    "description": "Karaoke Mugen Tag File",
    "version": 1
  },
  "tag": {
    "i18n": {
      "qro": "Kotori Koiwai",
      "jpn": "小岩井 ことり"
    },
    "name": "Kotori Koiwai",
    "repository": "kara.moe",
    "tid": "a2a5d78e-30f1-44e6-8005-0cd001f93c49",
    "types": [
      "singers",
      "2"
    ]
  }
}