{
  "header": {
    "description": "Karaoke Mugen Tag File",
    "version": 1
  },
  "tag": {
    "aliases": [
      "Kou Shibasaki"
    ],
    "i18n": {
      "eng": "Kô Shibasaki"
    },
    "modified_at": "2020-09-03T21:40:41.577Z",
    "name": "Kô Shibasaki",
    "repository": "kara.moe",
    "tid": "b77387b4-10b3-4869-9dcc-5d9602983c02",
    "types": [
      "songwriters",
      "8",
      "singers",
      "2"
    ]
  }
}