{
  "header": {
    "description": "Karaoke Mugen Tag File",
    "version": 1
  },
  "tag": {
    "i18n": {
      "eng": "Kôichiro Hori"
    },
    "name": "Kôichiro Hori",
    "tid": "42d0ac18-8df1-474f-b3f7-9a7e40f5b554",
    "types": [
      "singers",
      "2"
    ],
    "repository": "kara.moe",
    "modified_at": "2020-03-31T19:04:35.647Z"
  }
}