{
  "header": {
    "description": "Karaoke Mugen Tag File",
    "version": 1
  },
  "tag": {
    "i18n": {
      "eng": "Kôji Kondô"
    },
    "name": "Kôji Kondô",
    "repository": "kara.moe",
    "tid": "4e03a756-3515-49b1-954f-7b82d325be6a",
    "types": [
      "songwriters",
      "8"
    ]
  }
}