{
  "header": {
    "description": "Karaoke Mugen Tag File",
    "version": 1
  },
  "tag": {
    "i18n": {
      "eng": "Kôji Matsuzaka"
    },
    "name": "Kôji Matsuzaka",
    "tid": "95e99d8c-8962-48cc-aa38-947027f6b139",
    "types": [
      "songwriters",
      "8"
    ],
    "repository": "kara.moe",
    "modified_at": "2020-03-31T19:04:35.655Z"
  }
}