{
  "header": {
    "description": "Karaoke Mugen Tag File",
    "version": 1
  },
  "tag": {
    "i18n": {
      "eng": "Kôji Iwasawa"
    },
    "name": "Kôji Iwasawa",
    "tid": "4adc83e6-a72f-4723-95ae-b68a35105f5d",
    "types": [
      "songwriters",
      "8"
    ],
    "repository": "kara.moe",
    "modified_at": "2020-03-31T19:04:35.652Z"
  }
}