{
  "header": {
    "description": "Karaoke Mugen Tag File",
    "version": 1
  },
  "tag": {
    "i18n": {
      "eng": "Kôji Andô"
    },
    "name": "Kôji Andô",
    "tid": "b57d477a-e123-4eed-9b9a-7f077c8a9c47",
    "types": [
      "songwriters",
      "8"
    ],
    "repository": "kara.moe",
    "modified_at": "2020-03-31T19:04:35.650Z"
  }
}