{
  "header": {
    "description": "Karaoke Mugen Tag File",
    "version": 1
  },
  "tag": {
    "i18n": {
      "eng": "Kôki Ikenaga"
    },
    "modified_at": "2020-05-17T12:14:23.239Z",
    "name": "Kôki Ikenaga",
    "repository": "kara.moe",
    "tid": "b15cd275-1544-4a15-af9d-8c06542a1d5e",
    "types": [
      "songwriters",
      "8"
    ]
  }
}