{
  "header": {
    "description": "Karaoke Mugen Tag File",
    "version": 1
  },
  "tag": {
    "i18n": {
      "eng": "Kôki Shiwasu"
    },
    "modified_at": "2020-10-18T02:02:58.981Z",
    "name": "Kôki Shiwasu",
    "repository": "kara.moe",
    "tid": "04991037-5e99-4088-9090-8d296eb7501f",
    "types": [
      "songwriters",
      "8"
    ]
  }
}