{
  "header": {
    "description": "Karaoke Mugen Tag File",
    "version": 1
  },
  "tag": {
    "i18n": {
      "eng": "Kôsuke Hayashi"
    },
    "name": "Kôsuke Hayashi",
    "tid": "9e8c2347-ca18-4da0-baba-71e96e2cd20e",
    "types": [
      "songwriters",
      "8"
    ],
    "repository": "kara.moe",
    "modified_at": "2020-03-31T19:04:35.675Z"
  }
}