{
  "header": {
    "description": "Karaoke Mugen Tag File",
    "version": 1
  },
  "tag": {
    "i18n": {
      "eng": "Kôtarô Odaga"
    },
    "name": "Kôtarô Odaga",
    "tid": "05fba52e-dd06-46eb-be58-3aea5796ba5b",
    "types": [
      "songwriters",
      "8"
    ],
    "repository": "kara.moe",
    "modified_at": "2020-03-31T19:04:35.688Z"
  }
}