{
  "header": {
    "description": "Karaoke Mugen Tag File",
    "version": 1
  },
  "tag": {
    "aliases": [
      "Koutetsu Jeeg",
      "Koutetsushin Jeeg",
      "Steel Jeeg",
      "koutetsu"
    ],
    "external_database_ids": {
      "anilist": 4198,
      "myanimelist": 4198,
      "kitsu": 3518
    },
    "i18n": {
      "eng": "Steel Jeeg (1975)",
      "fre": "Kôtetsu Jeeg (1975)",
      "ita": "Jeeg robot d'acciaio",
      "jpn": "鋼鉄ジーグ",
      "spa": "El Vengador",
      "qro": "Kôtetsu Jeeg"
    },
    "modified_at": "2020-06-21T23:45:31.966Z",
    "name": "Kôtetsu Jeeg",
    "repository": "kara.moe",
    "tid": "e928bb5e-dba6-4b48-9e47-972c35f8034b",
    "types": [
      "series",
      "1"
    ]
  }
}