{
  "header": {
    "description": "Karaoke Mugen Tag File",
    "version": 1
  },
  "tag": {
    "i18n": {
      "eng": "Kôta Nishidera"
    },
    "name": "Kôta Nishidera",
    "tid": "940f8288-1cde-451a-b9b7-73d08dec34ce",
    "types": [
      "songwriters",
      "8"
    ],
    "repository": "kara.moe",
    "modified_at": "2020-03-31T19:04:35.684Z"
  }
}