{
  "header": {
    "description": "Karaoke Mugen Tag File",
    "version": 1
  },
  "tag": {
    "i18n": {
      "eng": "Kujira"
    },
    "modified_at": "2021-08-27T15:20:22.773Z",
    "name": "Kujira",
    "repository": "kara.moe",
    "tid": "32541a54-a7e0-4dd1-9acc-19e0de138a68",
    "types": [
      "songwriters",
      "8"
    ]
  }
}