{
  "header": {
    "description": "Karaoke Mugen Tag File",
    "version": 1
  },
  "tag": {
    "i18n": {
      "eng": "Kumiko Noma"
    },
    "name": "Kumiko Noma",
    "tid": "d5e964b6-afd3-4c04-b22e-02390ea695bb",
    "types": [
      "singers",
      "2"
    ],
    "repository": "kara.moe",
    "modified_at": "2020-03-31T19:04:35.707Z"
  }
}