{
  "header": {
    "description": "Karaoke Mugen Tag File",
    "version": 1
  },
  "tag": {
    "i18n": {
      "eng": "Kumi Sasaki"
    },
    "name": "Kumi Sasaki",
    "tid": "a293e979-e1d0-4ac4-92ab-246bf63e5b1e",
    "types": [
      "singers",
      "2"
    ],
    "repository": "kara.moe",
    "modified_at": "2020-03-31T19:04:35.705Z"
  }
}