{
  "header": {
    "description": "Karaoke Mugen Tag File",
    "version": 1
  },
  "tag": {
    "i18n": {
      "eng": "Kumiko Takahashi"
    },
    "name": "Kumiko Takahashi",
    "tid": "27b134cd-82e8-4a18-b98f-c36470ee8a42",
    "types": [
      "songwriters",
      "8"
    ],
    "repository": "kara.moe",
    "modified_at": "2020-03-31T19:04:35.709Z"
  }
}