{
  "header": {
    "description": "Karaoke Mugen Tag File",
    "version": 1
  },
  "tag": {
    "i18n": {
      "eng": "Kurenai"
    },
    "name": "Kurenai",
    "tid": "6908982b-e526-480c-96e8-b835b2290c5e",
    "types": [
      "singers",
      "2"
    ],
    "repository": "kara.moe",
    "modified_at": "2020-03-31T19:04:35.719Z"
  }
}