{
  "header": {
    "description": "Karaoke Mugen Tag File",
    "version": 1
  },
  "tag": {
    "external_database_ids": {
      "anilist": 161632,
      "myanimelist": 54535
    },
    "i18n": {
      "eng": "KUROMI'S PRETTY JOURNEY"
    },
    "name": "KUROMI'S PRETTY JOURNEY",
    "repository": "kara.moe",
    "tid": "d9defa6a-4254-42d7-8c99-7d76df4a3478",
    "types": [
      "series",
      "1"
    ]
  }
}