{
  "header": {
    "description": "Karaoke Mugen Tag File",
    "version": 1
  },
  "tag": {
    "aliases": [
      "Black Tomb",
      "Куродзука",
      "Курозука",
      "黑塚"
    ],
    "external_database_ids": {
      "anilist": 5039,
      "myanimelist": 5039,
      "kitsu": 3898
    },
    "i18n": {
      "eng": "Kurozuka",
      "jpn": "黒塚",
      "qro": "Kurozuka"
    },
    "modified_at": "2020-03-31T19:04:32.060Z",
    "name": "Kurozuka",
    "repository": "kara.moe",
    "tid": "5da04fe6-0170-41e5-877b-6d1271f64417",
    "types": [
      "series",
      "1"
    ]
  }
}