{
  "header": {
    "description": "Karaoke Mugen Tag File",
    "version": 1
  },
  "tag": {
    "aliases": [
      "Kurogane no Rainbareru",
      "knl",
      "Стальной Лайнбарель",
      "武装机甲"
    ],
    "external_database_ids": {
      "anilist": 3653,
      "myanimelist": 3653,
      "kitsu": 7727
    },
    "i18n": {
      "eng": "Linebarrels of Iron",
      "jpn": "鉄のラインバレル",
      "qro": "Kurogane no Linebarrels"
    },
    "modified_at": "2020-06-21T23:45:31.966Z",
    "name": "Kurogane no Linebarrels",
    "repository": "kara.moe",
    "tid": "2089af3a-65f6-4b8a-b7da-e379fbdc9198",
    "types": [
      "series",
      "1"
    ]
  }
}