{
  "header": {
    "description": "Karaoke Mugen Tag File",
    "version": 1
  },
  "tag": {
    "aliases": [
      "Kuusou"
    ],
    "i18n": {
      "eng": "Kûsô Calibration",
      "jpn": "空想キャリブレーション",
      "qro": "Kûsô Calibration"
    },
    "name": "Kûsô Calibration",
    "repository": "kara.moe",
    "tid": "9c524532-599d-4ef6-a3ab-6c93ef509588",
    "types": [
      "singergroups",
      "17"
    ]
  }
}