{
  "header": {
    "description": "Karaoke Mugen Tag File",
    "version": 1
  },
  "tag": {
    "i18n": {
      "eng": "Kyoco"
    },
    "modified_at": "2020-08-17T15:30:29.328Z",
    "name": "Kyoco",
    "repository": "kara.moe",
    "tid": "10f3908b-9c8a-4359-87f2-8e818e932d8d",
    "types": [
      "singers",
      "2"
    ]
  }
}