{
  "header": {
    "description": "Karaoke Mugen Tag File",
    "version": 1
  },
  "tag": {
    "i18n": {
      "eng": "Kyohei Nishizaka"
    },
    "name": "Kyohei Nishizaka",
    "tid": "7ea6860f-d2fc-4a58-b42d-1194ca181f34",
    "types": [
      "songwriters",
      "8"
    ],
    "repository": "kara.moe",
    "modified_at": "2020-03-31T19:04:35.733Z"
  }
}