{
  "header": {
    "description": "Karaoke Mugen Tag File",
    "version": 1
  },
  "tag": {
    "i18n": {
      "eng": "Kyohei Yamamoto"
    },
    "name": "Kyohei Yamamoto",
    "repository": "kara.moe",
    "tid": "24da5e07-2515-4fbf-b78f-175834d1de8f",
    "types": [
      "songwriters",
      "8"
    ]
  }
}