{
  "header": {
    "description": "Karaoke Mugen Tag File",
    "version": 1
  },
  "tag": {
    "i18n": {
      "eng": "Kyôjo Yamamoto"
    },
    "name": "Kyôjo Yamamoto",
    "tid": "13074a68-769b-4f47-86fd-475340c5de56",
    "types": [
      "songwriters",
      "8"
    ],
    "repository": "kara.moe",
    "modified_at": "2020-03-31T19:04:35.740Z"
  }
}