{
  "header": {
    "description": "Karaoke Mugen Tag File",
    "version": 1
  },
  "tag": {
    "i18n": {
      "eng": "Kyôichi Miyazaki"
    },
    "name": "Kyôichi Miyazaki",
    "tid": "a8e1580e-5f9a-4fcd-ad29-f39f92617b7a",
    "types": [
      "songwriters",
      "8"
    ],
    "repository": "kara.moe",
    "modified_at": "2020-03-31T19:04:35.739Z"
  }
}