{
  "header": {
    "description": "Karaoke Mugen Tag File",
    "version": 1
  },
  "tag": {
    "i18n": {
      "eng": "La Ouache Production"
    },
    "modified_at": "2020-07-10T22:58:44.954Z",
    "name": "La Ouache Production",
    "repository": "kara.moe",
    "tid": "1d3b4a2b-ed7a-468f-836c-0a9a80ab8b35",
    "types": [
      "creators",
      "4"
    ]
  }
}