{
  "header": {
    "description": "Karaoke Mugen Tag File",
    "version": 1
  },
  "tag": {
    "i18n": {
      "eng": "Laco"
    },
    "name": "Laco",
    "repository": "kara.moe",
    "tid": "d28e72bc-ce77-4434-9364-583c1c9dd5cc",
    "types": [
      "singers",
      "2"
    ],
    "modified_at": "2020-03-31T19:04:35.759Z"
  }
}