{
  "header": {
    "description": "Karaoke Mugen Tag File",
    "version": 1
  },
  "tag": {
    "i18n": {
      "eng": "Lady Q"
    },
    "name": "Lady Q",
    "tid": "5a648814-5448-44ef-b148-4ca3a292af74",
    "types": [
      "songwriters",
      "8"
    ],
    "repository": "kara.moe",
    "modified_at": "2020-03-31T19:04:35.759Z"
  }
}