{
  "header": {
    "description": "Karaoke Mugen Tag File",
    "version": 1
  },
  "tag": {
    "i18n": {
      "eng": "LADYBABY"
    },
    "name": "LADYBABY",
    "tid": "5502b754-9478-4c4a-80a2-54712d51ecb9",
    "types": [
      "singers",
      "2"
    ],
    "repository": "kara.moe",
    "modified_at": "2020-03-31T19:04:35.760Z"
  }
}