{
  "header": {
    "description": "Karaoke Mugen Tag File",
    "version": 1
  },
  "tag": {
    "i18n": {
      "eng": "LadyIgiko"
    },
    "modified_at": "2021-02-24T20:35:44.561Z",
    "name": "LadyIgiko",
    "repository": "kara.moe",
    "tid": "a426b4ad-ea8d-4888-9759-db68e5c7dc38",
    "types": [
      "singers",
      "2"
    ]
  }
}