{
  "header": {
    "description": "Karaoke Mugen Tag File",
    "version": 1
  },
  "tag": {
    "i18n": {
      "eng": "Lamento: Beyond the Void",
      "jpn": "Lamento: Beyond the Void",
      "qro": "Lamento: Beyond the Void"
    },
    "modified_at": "2020-03-31T19:04:32.074Z",
    "name": "Lamento: Beyond the Void",
    "repository": "kara.moe",
    "tid": "37870155-ce09-48b2-953f-bc34527fe119",
    "types": [
      "series",
      "1"
    ]
  }
}