{
  "header": {
    "description": "Karaoke Mugen Tag File",
    "version": 1
  },
  "tag": {
    "i18n": {
      "eng": "Lamune-P"
    },
    "name": "Lamune-P",
    "tid": "df0aa0ac-678d-46f5-8456-7e65f61cfaef",
    "types": [
      "songwriters",
      "8",
      "creators",
      "4"
    ],
    "repository": "kara.moe",
    "modified_at": "2020-03-31T19:04:35.762Z"
  }
}