{
  "header": {
    "description": "Karaoke Mugen Tag File",
    "version": 1
  },
  "tag": {
    "i18n": {
      "eng": "Lantis"
    },
    "name": "Lantis",
    "tid": "b2805292-730e-473a-96f0-fd8e7ffd1fd7",
    "types": [
      "creators",
      "4"
    ],
    "repository": "kara.moe",
    "modified_at": "2020-03-31T19:04:35.764Z"
  }
}