{
  "header": {
    "description": "Karaoke Mugen Tag File",
    "version": 1
  },
  "tag": {
    "i18n": {
      "eng": "Larry Morey"
    },
    "name": "Larry Morey",
    "repository": "kara.moe",
    "tid": "7b910873-dd90-49e8-922a-fa2174a94c1c",
    "types": [
      "songwriters",
      "8"
    ]
  }
}