{
  "header": {
    "description": "Karaoke Mugen Tag File",
    "version": 1
  },
  "tag": {
    "i18n": {
      "eng": "Le Poto Rico"
    },
    "modified_at": "2020-07-04T11:23:54.675Z",
    "name": "Le Poto Rico",
    "repository": "kara.moe",
    "tid": "e4f64ec9-1cee-44a9-af47-ba5f2b48eded",
    "types": [
      "creators",
      "4"
    ]
  }
}