{
  "header": {
    "description": "Karaoke Mugen Tag File",
    "version": 1
  },
  "tag": {
    "i18n": {
      "eng": "Leïla Bakhtiar"
    },
    "name": "Leïla Bakhtiar",
    "tid": "6b34ec42-21fa-4d61-a164-81defff11aeb",
    "types": [
      "singers",
      "2"
    ],
    "repository": "kara.moe",
    "modified_at": "2020-03-31T19:04:35.793Z"
  }
}