{
  "header": {
    "description": "Karaoke Mugen Tag File",
    "version": 1
  },
  "tag": {
    "i18n": {
      "eng": "Space Goofs",
      "fre": "Les Zinzins de l'espace",
      "ger": "Ein Heim für Aliens"
    },
    "name": "Les Zinzins de l'espace",
    "repository": "kara.moe",
    "tid": "5ddd7ef6-5162-412e-8c81-2677760f202a",
    "types": [
      "series",
      "1"
    ]
  }
}