{
  "header": {
    "description": "Karaoke Mugen Tag File",
    "version": 1
  },
  "tag": {
    "i18n": {
      "eng": "Lia Mitsurugi"
    },
    "modified_at": "2021-01-29T01:02:28.312Z",
    "name": "Lia Mitsurugi",
    "repository": "kara.moe",
    "tid": "0901ee8d-a068-4379-be67-44c988641c12",
    "types": [
      "singers",
      "2"
    ]
  }
}