{
  "header": {
    "description": "Karaoke Mugen Tag File",
    "version": 1
  },
  "tag": {
    "i18n": {
      "eng": "Liam Fink"
    },
    "modified_at": "2021-01-13T18:12:31.879Z",
    "name": "Liam Fink",
    "repository": "kara.moe",
    "tid": "797d4589-4fa4-4841-a510-3a855d7aad44",
    "types": [
      "creators",
      "4"
    ]
  }
}