{
  "header": {
    "description": "Karaoke Mugen Tag File",
    "version": 1
  },
  "tag": {
    "i18n": {
      "eng": "light"
    },
    "name": "light",
    "tid": "90ec4be5-ad81-4de7-ab1e-9b3ca9f080b7",
    "types": [
      "creators",
      "4"
    ],
    "repository": "kara.moe",
    "modified_at": "2020-03-31T19:04:35.820Z"
  }
}