{
  "header": {
    "description": "Karaoke Mugen Tag File",
    "version": 1
  },
  "tag": {
    "i18n": {
      "eng": "Like a Dragon: Ishin!"
    },
    "name": "Like a Dragon: Ishin!",
    "repository": "kara.moe",
    "tid": "56174abe-5594-48cf-837a-fe46202a6034",
    "types": [
      "series",
      "1"
    ]
  }
}