{
  "header": {
    "description": "Karaoke Mugen Tag File",
    "version": 1
  },
  "tag": {
    "i18n": {
      "eng": "Lilas Ikuta"
    },
    "name": "Lilas Ikuta",
    "repository": "kara.moe",
    "tid": "273a7254-b24f-4e99-9516-4d0ed3a15237",
    "types": [
      "singers",
      "2"
    ]
  }
}