{
  "header": {
    "description": "Karaoke Mugen Tag File",
    "version": 1
  },
  "tag": {
    "i18n": {
      "eng": "lǐměijié"
    },
    "name": "lǐměijié",
    "repository": "kara.moe",
    "tid": "dea69ccd-3acd-4b6b-97e7-bee95c0adda3",
    "types": [
      "creators",
      "4"
    ]
  }
}