{
  "header": {
    "description": "Karaoke Mugen Tag File",
    "version": 1
  },
  "tag": {
    "aliases": [
      "Spirit Pact: Yomi no Chigiri",
      "Spiritpact Season 2",
      "Spiritpact S2",
      "Ling Qi 2",
      "スピリットパクト -黄泉の契り-",
      "灵契第二季",
      "ling",
      "huangquan",
      "zhi",
      "qi"
    ],
    "external_database_ids": {
      "anilist": 100813,
      "myanimelist": 36522,
      "kitsu": 14144
    },
    "i18n": {
      "eng": "Spiritpact: Bond of the Underworld",
      "chi": "灵契·黄泉之契",
      "jpn": "SPIRITPACT -黄泉の契り-",
      "qro": "Líng Qì: Huángquán Zhī Qì"
    },
    "modified_at": "2021-03-13T13:57:55.040Z",
    "name": "Líng Qì: Huángquán Zhī Qì",
    "repository": "kara.moe",
    "tid": "105cae84-1f42-4c51-862e-5cac94d4a3cf",
    "types": [
      "series",
      "1"
    ]
  }
}