{
  "header": {
    "description": "Karaoke Mugen Tag File",
    "version": 1
  },
  "tag": {
    "i18n": {
      "eng": "Linnea Deb"
    },
    "name": "Linnea Deb",
    "repository": "kara.moe",
    "tid": "594c9786-2f6c-4d6c-b504-12dae4dc5bd6",
    "types": [
      "songwriters",
      "8"
    ]
  }
}