{
  "header": {
    "description": "Karaoke Mugen Tag File",
    "version": 1
  },
  "tag": {
    "aliases": [
      "Elizabeth Sakura Narita"
    ],
    "i18n": {
      "eng": "LISA"
    },
    "modified_at": "2021-09-11T17:02:25.746Z",
    "name": "LISA",
    "repository": "kara.moe",
    "tid": "60454719-a89c-4178-8f45-3f4d49fab53f",
    "types": [
      "songwriters",
      "8",
      "singers",
      "2"
    ]
  }
}