{
  "header": {
    "description": "Karaoke Mugen Tag File",
    "version": 1
  },
  "tag": {
    "i18n": {
      "afr": "Litaus",
      "amh": "ሉቴንያንኛ",
      "ara": "الليتوانية",
      "aze": "Litvalı",
      "bak": "Литва теле",
      "bel": "Літоўскі",
      "bul": "Литовски",
      "ben": "লিথুয়ানিয়ান",
      "bos": "Litvanski",
      "cat": "El lituà",
      "cze": "Litevský",
      "wel": "Litas",
      "dan": "Litauisk",
      "ger": "Litauisch",
      "gre": "Λιθουανικά",
      "eng": "Lithuanian",
      "epo": "Litova",
      "spa": "Lituano",
      "est": "Leedu",
      "baq": "Lituaniako",
      "per": "لیتوانیایی",
      "fin": "Liettuan",
      "fre": "Lituanien",
      "gle": "Liotuáinis",
      "gla": "Liotuainis",
      "glg": "Litas",
      "guj": "લિથુનિયન",
      "heb": "ליטאי",
      "hin": "लिथुनियन्",
      "hrv": "Litvanski",
      "hat": "Haitian",
      "hun": "Litván",
      "arm": "Լիտվական",
      "ind": "Lithuania",
      "ice": "Litháíska",
      "ita": "Lituano",
      "jpn": "リトアニア",
      "jav": "Lithuania",
      "geo": "ლიტვის",
      "kaz": "Литва",
      "kan": "ಲಿಥುವೇನಿಯನ್",
      "kor": "리투아니아",
      "kir": "Литовский",
      "lat": "Lithuanian",
      "lit": "Lietuvių",
      "lav": "Lietuvas",
      "mlg": "Litoanianina",
      "mao": "Lithuanian",
      "mac": "Литвански",
      "mal": "Lithuanian",
      "mon": "Литва",
      "mar": "Lithuanian",
      "may": "Lithuania",
      "mlt": "Litwan",
      "nep": "लिथुनियन्",
      "dut": "Litouws",
      "nor": "Litauisk",
      "pan": "ਲਿਥੁਆਨੀ",
      "pol": "Litewski",
      "por": "Lituano",
      "rum": "Lituaniană",
      "rus": "Литовский",
      "sin": "ලිතුවේනියානු",
      "slo": "Litovská",
      "slv": "Litovski",
      "alb": "Lituanisht",
      "srp": "Литвански",
      "sun": "Lituania",
      "swe": "Litauiska",
      "swa": "Kilithuania",
      "tam": "லிதுவேனியன்",
      "tel": "లిథుయేనియన్",
      "tgk": "Литовский",
      "tha": "ภาษาลิธัวเนีย name",
      "tgl": "Lithuanian",
      "tur": "Litvanyalı",
      "tat": "Литва теле",
      "ukr": "Литовський",
      "urd": "لتھواینین",
      "uzb": "Britaniya",
      "vie": "Lithuania",
      "xho": "Isilithuania",
      "yid": "ליטוויש",
      "chi": "立陶宛"
    },
    "name": "lit",
    "tid": "6dcab458-6175-4d53-af9f-95769534f6d2",
    "types": [
      "langs",
      "5"
    ],
    "repository": "kara.moe",
    "modified_at": "2020-03-31T19:04:35.842Z"
  }
}