{
  "header": {
    "description": "Karaoke Mugen Tag File",
    "version": 1
  },
  "tag": {
    "i18n": {
      "eng": "LITHIUM"
    },
    "name": "LITHIUM",
    "tid": "24d7d67c-6db3-447b-9952-93aef545d636",
    "types": [
      "songwriters",
      "8"
    ],
    "repository": "kara.moe",
    "modified_at": "2020-03-31T19:04:35.843Z"
  }
}