{
  "header": {
    "description": "Karaoke Mugen Tag File",
    "version": 1
  },
  "tag": {
    "i18n": {
      "eng": "little by little"
    },
    "name": "little by little",
    "tid": "3e49fae8-0b8d-4cc5-938c-4b3be7f6375e",
    "types": [
      "singers",
      "2"
    ],
    "repository": "kara.moe",
    "modified_at": "2020-03-31T19:04:35.852Z"
  }
}