{
  "header": {
    "description": "Karaoke Mugen Tag File",
    "version": 1
  },
  "tag": {
    "i18n": {
      "eng": "Little Glee Monster"
    },
    "name": "Little Glee Monster",
    "tid": "826dac56-13f6-444d-ac3e-cc7a82b3574b",
    "types": [
      "singers",
      "2"
    ],
    "repository": "kara.moe",
    "modified_at": "2020-03-31T19:04:35.853Z"
  }
}