{
  "header": {
    "description": "Karaoke Mugen Tag File",
    "version": 1
  },
  "tag": {
    "i18n": {
      "eng": "Liu Mu"
    },
    "modified_at": "2021-06-19T21:19:46.759Z",
    "name": "Liu Mu",
    "repository": "kara.moe",
    "tid": "822b0ea6-2283-46bc-b474-af4b814a2956",
    "types": [
      "singers",
      "2"
    ]
  }
}