{
  "header": {
    "description": "Karaoke Mugen Tag File",
    "version": 1
  },
  "tag": {
    "i18n": {
      "eng": "Lizz Robinett"
    },
    "name": "Lizz Robinett",
    "repository": "kara.moe",
    "tid": "ad3a242d-3169-4dae-a2f4-e53ef6a89074",
    "types": [
      "singers",
      "2"
    ]
  }
}