{
  "header": {
    "description": "Karaoke Mugen Tag File",
    "version": 1
  },
  "tag": {
    "external_database_ids": {
      "anilist": 20671,
      "myanimelist": 23321,
      "kitsu": 8313
    },
    "i18n": {
      "eng": "Log Horizon 2",
      "fre": "Log Horizon 2",
      "jpn": "ログ・ホライズン (2014)",
      "qro": "Log Horizon 2"
    },
    "modified_at": "2020-03-31T19:04:32.097Z",
    "name": "Log Horizon 2",
    "repository": "kara.moe",
    "tid": "5d6c8593-0771-4852-ab62-d02e1b920d8c",
    "types": [
      "series",
      "1"
    ]
  }
}