{
  "header": {
    "description": "Karaoke Mugen Tag File",
    "version": 1
  },
  "tag": {
    "i18n": {
      "eng": "London Records"
    },
    "modified_at": "2021-09-03T18:19:16.348Z",
    "name": "London Records",
    "repository": "kara.moe",
    "tid": "781d4fa6-6628-4947-b028-3250174c059e",
    "types": [
      "creators",
      "4"
    ]
  }
}