{
  "header": {
    "description": "Karaoke Mugen Tag File",
    "version": 1
  },
  "tag": {
    "aliases": [
      "LU",
      "Universo Perdido",
      "Потерянная вселенная",
      "失落的宇宙",
      "宇宙特警"
    ],
    "external_database_ids": {
      "anilist": 1184,
      "myanimelist": 1184,
      "kitsu": 1064
    },
    "i18n": {
      "ara": "السيف القاطع",
      "eng": "Lost Universe",
      "fre": "Lost Universe",
      "gre": "Χαμένος Γαλαξίας",
      "jpn": "ロスト・ユニバース",
      "por": "Lost Universe",
      "rus": "Затерянная вселенная",
      "spa": "Universo Perdido",
      "qro": "Lost Universe"
    },
    "modified_at": "2020-03-31T19:04:32.101Z",
    "name": "Lost Universe",
    "repository": "kara.moe",
    "tid": "41c0422e-1d0d-42a2-8cff-69dbc51e343b",
    "types": [
      "series",
      "1"
    ]
  }
}