{
  "header": {
    "description": "Karaoke Mugen Tag File",
    "version": 1
  },
  "tag": {
    "i18n": {
      "eng": "LOTTE"
    },
    "name": "LOTTE",
    "tid": "cca1858a-211b-40a7-a575-300ef679aa9c",
    "types": [
      "creators",
      "4",
      "songwriters",
      "8"
    ],
    "repository": "kara.moe",
    "modified_at": "2020-03-31T19:04:35.868Z"
  }
}