{
  "header": {
    "description": "Karaoke Mugen Tag File",
    "version": 1
  },
  "tag": {
    "i18n": {
      "eng": "Lotus Juice"
    },
    "name": "Lotus Juice",
    "tid": "900e7353-d9db-4c9e-88e9-24649beef963",
    "types": [
      "singers",
      "2",
      "songwriters",
      "8"
    ],
    "repository": "kara.moe",
    "modified_at": "2020-03-31T19:04:35.869Z"
  }
}