{
  "header": {
    "description": "Karaoke Mugen Tag File",
    "version": 1
  },
  "tag": {
    "i18n": {
      "eng": "Loudness"
    },
    "name": "Loudness",
    "tid": "5cf015bc-ae6e-4d28-b3a9-cebb52170f1e",
    "types": [
      "singers",
      "2"
    ],
    "repository": "kara.moe",
    "modified_at": "2020-03-31T19:04:35.871Z"
  }
}