{
  "header": {
    "description": "Karaoke Mugen Tag File",
    "version": 1
  },
  "tag": {
    "i18n": {
      "eng": "Louis-San"
    },
    "modified_at": "2020-04-29T01:41:58.424Z",
    "name": "Louis-San",
    "repository": "kara.moe",
    "tid": "14c6451b-b801-4d10-839f-ae4f6410d5ed",
    "types": [
      "songwriters",
      "8",
      "singers",
      "2"
    ]
  }
}