{
  "header": {
    "description": "Karaoke Mugen Tag File",
    "version": 1
  },
  "tag": {
    "i18n": {
      "eng": "Love Live! School Idol Festival",
      "jpn": "ラブライブ！スクールアイドルフェスティバル",
      "qro": "Love Live! School Idol Festival"
    },
    "name": "Love Live! School Idol Festival",
    "repository": "kara.moe",
    "tid": "ec05f279-c37e-40af-836f-91121c18d99c",
    "types": [
      "series",
      "1"
    ]
  }
}