{
  "header": {
    "description": "Karaoke Mugen Tag File",
    "version": 1
  },
  "tag": {
    "i18n": {
      "eng": "Lovefoxxx"
    },
    "name": "Lovefoxxx",
    "repository": "kara.moe",
    "tid": "5217e17b-d694-4310-b5ed-ee7fefc7c658",
    "types": [
      "singers",
      "2"
    ]
  }
}