{
  "header": {
    "description": "Karaoke Mugen Tag File",
    "version": 1
  },
  "tag": {
    "i18n": {
      "eng": "LOVERIN TAMBURIN"
    },
    "name": "LOVERIN TAMBURIN",
    "tid": "387d98d8-8019-4178-884b-05ee742a9236",
    "types": [
      "singers",
      "2"
    ],
    "repository": "kara.moe",
    "modified_at": "2020-03-31T19:04:35.874Z"
  }
}