{
  "header": {
    "description": "Karaoke Mugen Tag File",
    "version": 1
  },
  "tag": {
    "i18n": {
      "eng": "Low-tech Son"
    },
    "name": "Low-tech Son",
    "tid": "3f689df1-1ddd-4e0c-ab94-6ed9f6531756",
    "types": [
      "songwriters",
      "8"
    ],
    "repository": "kara.moe",
    "modified_at": "2020-03-31T19:04:35.875Z"
  }
}