{
  "header": {
    "description": "Karaoke Mugen Tag File",
    "version": 1
  },
  "tag": {
    "i18n": {
      "eng": "Lucas Ripberger"
    },
    "name": "Lucas Ripberger",
    "tid": "5d9c9020-456b-4b94-b4c5-d9789486fc76",
    "types": [
      "singers",
      "2"
    ],
    "repository": "kara.moe",
    "modified_at": "2020-03-31T19:04:35.881Z"
  }
}