{
  "header": {
    "description": "Karaoke Mugen Tag File",
    "version": 1
  },
  "tag": {
    "i18n": {
      "eng": "Lucky Luke"
    },
    "name": "Lucky Luke",
    "repository": "kara.moe",
    "tid": "99d61955-b247-4cbd-ac51-165fb69918ab",
    "types": [
      "series",
      "1",
      "franchises",
      "18"
    ]
  }
}