{
  "header": {
    "description": "Karaoke Mugen Tag File",
    "version": 1
  },
  "tag": {
    "i18n": {
      "eng": "Luminous Arc 2",
      "jpn": "ルミナスアーク2 ウィル",
      "qro": "Luminous Arc 2: Will"
    },
    "modified_at": "2020-03-31T19:04:32.116Z",
    "name": "Luminous Arc 2: Will",
    "repository": "kara.moe",
    "tid": "f7c6fedd-4fad-4b3c-9c1f-008bfdc502dd",
    "types": [
      "series",
      "1"
    ]
  }
}