{
  "header": {
    "description": "Karaoke Mugen Tag File",
    "version": 1
  },
  "tag": {
    "i18n": {
      "eng": "Lump of Sugar"
    },
    "name": "Lump of Sugar",
    "tid": "4b1ae8d9-804b-47a6-b4ad-2b7e75698154",
    "types": [
      "creators",
      "4"
    ],
    "repository": "kara.moe",
    "modified_at": "2020-03-31T19:04:35.891Z"
  }
}