{
  "header": {
    "description": "Karaoke Mugen Tag File",
    "version": 1
  },
  "tag": {
    "i18n": {
      "eng": "Lye"
    },
    "name": "Lye",
    "repository": "kara.moe",
    "tid": "506f3a76-4f3b-4e9a-a6a4-ae398b2ea502",
    "types": [
      "creators",
      "4"
    ]
  }
}