{
  "header": {
    "description": "Karaoke Mugen Tag File",
    "version": 1
  },
  "tag": {
    "i18n": {
      "eng": "Lyph"
    },
    "name": "Lyph",
    "tid": "2f9a36db-ba3e-4f2a-a56e-19d1f5c520ae",
    "types": [
      "authors",
      "6"
    ],
    "repository": "kara.moe",
    "modified_at": "2020-03-31T19:04:35.896Z"
  }
}