{
  "header": {
    "description": "Karaoke Mugen Tag File",
    "version": 1
  },
  "tag": {
    "i18n": {
      "eng": "m²"
    },
    "name": "m²",
    "repository": "kara.moe",
    "tid": "f21e0625-1a7d-4953-b606-7d1b4646a38f",
    "types": [
      "creators",
      "4"
    ]
  }
}