{
  "header": {
    "description": "Karaoke Mugen Tag File",
    "version": 1
  },
  "tag": {
    "i18n": {
      "eng": "maaayi"
    },
    "modified_at": "2021-04-19T18:49:38.051Z",
    "name": "maaayi",
    "repository": "kara.moe",
    "tid": "ef909f00-3bfc-41dc-a495-16fb38eec56a",
    "types": [
      "songwriters",
      "8"
    ]
  }
}