{
  "header": {
    "description": "Karaoke Mugen Tag File",
    "version": 1
  },
  "tag": {
    "i18n": {
      "eng": "Machiko Ryû"
    },
    "name": "Machiko Ryû",
    "tid": "12bd774b-282b-4ce2-9194-5340fea20c48",
    "types": [
      "songwriters",
      "8"
    ],
    "repository": "kara.moe",
    "modified_at": "2020-03-31T19:04:35.908Z"
  }
}