{
  "header": {
    "description": "Karaoke Mugen Tag File",
    "version": 1
  },
  "tag": {
    "external_database_ids": {
      "anilist": 3571,
      "myanimelist": 3571,
      "kitsu": 3112
    },
    "i18n": {
      "eng": "Speed Racer",
      "jpn": "マッハGoGoGo",
      "qro": "Mach Go Go Go"
    },
    "modified_at": "2021-10-17T17:30:54.862Z",
    "name": "Mach Go Go Go",
    "repository": "kara.moe",
    "tid": "1bfb68b7-7e1c-4392-b487-2b70863e64dc",
    "types": [
      "series",
      "1"
    ]
  }
}