{
  "header": {
    "description": "Karaoke Mugen Tag File",
    "version": 1
  },
  "tag": {
    "i18n": {
      "eng": "Macklemore"
    },
    "name": "Macklemore",
    "repository": "kara.moe",
    "tid": "77a6b88e-ec30-48bb-904c-8cc2af4ea99d",
    "types": [
      "singers",
      "2",
      "songwriters",
      "8"
    ]
  }
}