{
  "header": {
    "description": "Karaoke Mugen Tag File",
    "version": 1
  },
  "tag": {
    "i18n": {
      "eng": "Mad Dog"
    },
    "name": "Mad Dog",
    "repository": "kara.moe",
    "tid": "0675668a-5ca8-4401-8d57-e36e53434b95",
    "types": [
      "authors",
      "6"
    ]
  }
}