{
  "header": {
    "description": "Karaoke Mugen Tag File",
    "version": 1
  },
  "tag": {
    "i18n": {
      "eng": "Mademoiselle Mina"
    },
    "name": "Mademoiselle Mina",
    "tid": "aa55a2d9-5274-4b73-bab3-10b184a0aa32",
    "types": [
      "songwriters",
      "8"
    ],
    "repository": "kara.moe",
    "modified_at": "2020-03-31T19:04:35.913Z"
  }
}