{
  "header": {
    "description": "Karaoke Mugen Tag File",
    "version": 1
  },
  "tag": {
    "i18n": {
      "eng": "Madoka Asahina"
    },
    "name": "Madoka Asahina",
    "tid": "d1677c63-9e90-4126-b140-0aee4ce95b4f",
    "types": [
      "singers",
      "2"
    ],
    "repository": "kara.moe",
    "modified_at": "2020-03-31T19:04:35.917Z"
  }
}