{
  "header": {
    "description": "Karaoke Mugen Tag File",
    "version": 1
  },
  "tag": {
    "i18n": {
      "eng": "Maeda Tasuku"
    },
    "name": "Maeda Tasuku",
    "tid": "a0c2e46b-d1b6-4d3d-aefd-cdd5c532e5bd",
    "types": [
      "songwriters",
      "8"
    ],
    "repository": "kara.moe",
    "modified_at": "2020-03-31T19:04:35.919Z"
  }
}