{
  "header": {
    "description": "Karaoke Mugen Tag File",
    "version": 1
  },
  "tag": {
    "i18n": {
      "eng": "Maéva Méline"
    },
    "name": "Maéva Méline",
    "repository": "kara.moe",
    "tid": "fb7c1953-406e-4b91-b6c2-b47d7d2d2fc4",
    "types": [
      "singers",
      "2"
    ]
  }
}