{
  "header": {
    "description": "Karaoke Mugen Tag File",
    "version": 1
  },
  "tag": {
    "i18n": {
      "eng": "mafumafukoiinuchan"
    },
    "name": "mafumafukoiinuchan",
    "tid": "74587919-c3ff-49e2-b264-c7c581a025ed",
    "types": [
      "songwriters",
      "8"
    ],
    "repository": "kara.moe",
    "modified_at": "2020-03-31T19:04:35.921Z"
  }
}