{
  "header": {
    "description": "Karaoke Mugen Tag File",
    "version": 1
  },
  "tag": {
    "i18n": {
      "eng": "Magical Battle Festa"
    },
    "modified_at": "2021-09-05T02:26:30.710Z",
    "name": "Magical Battle Festa",
    "repository": "kara.moe",
    "tid": "513e0853-75f0-41d7-9ec2-c14ccd215b66",
    "types": [
      "series",
      "1"
    ]
  }
}