{
  "header": {
    "description": "Karaoke Mugen Tag File",
    "version": 1
  },
  "tag": {
    "i18n": {
      "eng": "MAGIC OF LiFE"
    },
    "name": "MAGIC OF LiFE",
    "tid": "5aa8e383-c2a4-4967-8c9b-b7265c7a1b94",
    "types": [
      "singers",
      "2"
    ],
    "repository": "kara.moe",
    "modified_at": "2020-03-31T19:04:35.924Z"
  }
}