{
  "header": {
    "description": "Karaoke Mugen Tag File",
    "version": 1
  },
  "tag": {
    "i18n": {
      "eng": "Magsushi Nerd"
    },
    "modified_at": "2021-04-05T16:14:35.202Z",
    "name": "Magsushi Nerd",
    "repository": "kara.moe",
    "tid": "4525729b-ea89-4801-8e39-f8019ad2aa77",
    "types": [
      "creators",
      "4"
    ]
  }
}