{
  "header": {
    "description": "Karaoke Mugen Tag File",
    "version": 1
  },
  "tag": {
    "aliases": [
      "Magical Teacher Negima! ~Another World~",
      "Mahou Sensei Negima! Mou Hitotsu no Sekai",
      "mahou",
      "mou"
    ],
    "external_database_ids": {
      "anilist": 6050,
      "myanimelist": 6050,
      "kitsu": 4399
    },
    "i18n": {
      "jpn": "魔法先生ネギま! ~もうひとつの世界~",
      "qro": "Mahô Sensei Negima! Mô Hitotsu no Sekai"
    },
    "modified_at": "2020-03-31T19:04:32.146Z",
    "name": "Mahô Sensei Negima! Mô Hitotsu no Sekai",
    "repository": "kara.moe",
    "tid": "d856cdf1-c911-4fa8-91ea-56621839efd1",
    "types": [
      "series",
      "1"
    ]
  }
}