{
  "header": {
    "description": "Karaoke Mugen Tag File",
    "version": 1
  },
  "tag": {
    "aliases": [
      "Mahoyo",
      "Mahoutsukai no Yoru",
      "mahoutsukai"
    ],
    "i18n": {
      "eng": "Mahôtsukai no Yoru",
      "jpn": "魔法使いの夜",
      "qro": "Mahôtsukai no Yoru"
    },
    "modified_at": "2020-11-02T15:32:11.469Z",
    "name": "Mahôtsukai no Yoru",
    "repository": "kara.moe",
    "tid": "ba78ad66-85d9-4ee1-9416-3203a10d7493",
    "types": [
      "series",
      "1"
    ]
  }
}