{
  "header": {
    "description": "Karaoke Mugen Tag File",
    "version": 1
  },
  "tag": {
    "aliases": [
      "Creamy adorable Creamy",
      "Mahou no Tenshi Creamy Mami",
      "Магическият ангел Крийми Мами",
      "ทรามวัยกายสิทธิ์",
      "mahou"
    ],
    "external_database_ids": {
      "anilist": 2044,
      "myanimelist": 2044,
      "kitsu": 1843
    },
    "i18n": {
      "eng": "Magical Angel Creamy Mami",
      "fre": "Creamy merveilleuse Creamy",
      "ita": "L'Incantevole Creamy",
      "jpn": "魔法の天使 クリィミーマミ",
      "spa": "El broche encantado",
      "qro": "Mahô no Tenshi Creamy Mami"
    },
    "modified_at": "2020-06-21T23:45:31.966Z",
    "name": "Mahô no Tenshi Creamy Mami",
    "repository": "kara.moe",
    "tid": "d53d352c-886c-4114-8754-6e85a44f1808",
    "types": [
      "series",
      "1"
    ]
  }
}