{
  "header": {
    "description": "Karaoke Mugen Tag File",
    "version": 1
  },
  "tag": {
    "i18n": {
      "eng": "Mai Kanazawa"
    },
    "name": "Mai Kanazawa",
    "tid": "eea968be-0add-49ed-95cb-f2d425f5b727",
    "types": [
      "singers",
      "2"
    ],
    "repository": "kara.moe",
    "modified_at": "2020-03-31T19:04:35.940Z"
  }
}