{
  "header": {
    "description": "Karaoke Mugen Tag File",
    "version": 1
  },
  "tag": {
    "i18n": {
      "eng": "Maikurosofuto"
    },
    "name": "Maikurosofuto",
    "repository": "kara.moe",
    "tid": "40484b1e-9494-4717-a0db-34eed7fd969c",
    "types": [
      "creators",
      "4"
    ]
  }
}