{
  "header": {
    "description": "Karaoke Mugen Tag File",
    "version": 1
  },
  "tag": {
    "aliases": [
      "The caterer at the Maiko Manor"
    ],
    "external_database_ids": {
      "anilist": 117067,
      "myanimelist": 41556,
      "kitsu": 43750
    },
    "i18n": {
      "eng": "Kiyo in Kyoto: From the Maiko House",
      "jpn": "舞妓さんちのまかないさん",
      "qro": "Maiko-san Chi no Makanai-san"
    },
    "modified_at": "2021-07-14T17:40:07.020Z",
    "name": "Maiko-san Chi no Makanai-san",
    "repository": "kara.moe",
    "tid": "2f136c51-a75c-4ed5-b7fb-ae1b0f5ceb2d",
    "types": [
      "series",
      "1"
    ]
  }
}