{
  "header": {
    "description": "Karaoke Mugen Tag File",
    "version": 1
  },
  "tag": {
    "i18n": {
      "eng": "Maïko Fukushima"
    },
    "name": "Maïko Fukushima",
    "repository": "kara.moe",
    "tid": "1e22fa88-8ade-42fc-ac42-27a1c5f0d135",
    "types": [
      "songwriters",
      "8"
    ]
  }
}