{
  "header": {
    "description": "Karaoke Mugen Tag File",
    "version": 1
  },
  "tag": {
    "external_database_ids": {
      "anilist": 14563,
      "myanimelist": 14563,
      "kitsu": 7137
    },
    "i18n": {
      "eng": "Maji de Otaku na English! Ribbon-chan: Eigo de Tatakau Mahou Shojo",
      "fre": "Maji de Otaku na English! Ribbon-chan: Eigo de Tatakau Mahou Shôjo",
      "jpn": "マジでオタクなイングリッシュ! りぼんちゃん ~英語で戦う魔法少女~",
      "qro": "Maji de Otaku na English! Ribbon-chan"
    },
    "modified_at": "2020-03-31T19:04:32.171Z",
    "name": "Maji de Otaku na English! Ribbon-chan",
    "repository": "kara.moe",
    "tid": "919eb05d-f7e2-484c-acbf-8635fd37f25c",
    "types": [
      "series",
      "1"
    ]
  }
}