{
  "header": {
    "description": "Karaoke Mugen Tag File",
    "version": 1
  },
  "tag": {
    "aliases": [
      "Major 2nd (TV) 2nd Season",
      "Major Second Season 2",
      "メジャーセカンド (2020)"
    ],
    "i18n": {
      "eng": "Major 2nd Season 2",
      "jpn": "メジャー2nd (2020)",
      "qro": "Major 2nd (2020)"
    },
    "modified_at": "2020-04-14T10:41:29.713Z",
    "name": "Major 2nd (2020)",
    "repository": "kara.moe",
    "tid": "3886d979-64e7-4648-b65d-9ac94e87d6ae",
    "types": [
      "series",
      "1"
    ]
  }
}