{
  "header": {
    "description": "Karaoke Mugen Tag File",
    "version": 1
  },
  "tag": {
    "aliases": [
      "Jiburiru the Devil Angel 3"
    ],
    "i18n": {
      "eng": "Djibril: The Devil Angel 3",
      "jpn": "魔界天使ジブリール 3",
      "qro": "Makai Tenshi Djibril 3",
      "kor": "마계천사 지브릴 3"
    },
    "name": "Makai Tenshi Djibril 3",
    "repository": "kara.moe",
    "tid": "e1c138a8-cd37-4243-bcbe-ef02878092a4",
    "types": [
      "series",
      "1"
    ]
  }
}