{
  "header": {
    "description": "Karaoke Mugen Tag File",
    "version": 1
  },
  "tag": {
    "i18n": {
      "eng": "makixnico"
    },
    "name": "makixnico",
    "repository": "kara.moe",
    "tid": "02a290f1-5fb0-4cdc-b68a-6e9a6f2a7495",
    "types": [
      "authors",
      "6"
    ]
  }
}