{
  "header": {
    "description": "Karaoke Mugen Tag File",
    "version": 1
  },
  "tag": {
    "i18n": {
      "eng": "Maki Tanimoto"
    },
    "name": "Maki Tanimoto",
    "tid": "a87bd421-7f23-404e-aaa9-b5b860bc3e83",
    "types": [
      "songwriters",
      "8"
    ],
    "repository": "kara.moe",
    "modified_at": "2020-03-31T19:04:35.964Z"
  }
}