{
  "header": {
    "description": "Karaoke Mugen Tag File",
    "version": 1
  },
  "tag": {
    "i18n": {
      "eng": "Makoto Fujiwara"
    },
    "name": "Makoto Fujiwara",
    "tid": "011c4b74-4839-4798-9af8-6ae827fbdc72",
    "types": [
      "singers",
      "2"
    ],
    "repository": "kara.moe",
    "modified_at": "2020-03-31T19:04:35.970Z"
  }
}