{
  "header": {
    "description": "Karaoke Mugen Tag File",
    "version": 1
  },
  "tag": {
    "i18n": {
      "eng": "Makoto Wakatabe"
    },
    "name": "Makoto Wakatabe",
    "tid": "edd2c1df-4a5f-4675-b73e-99b4b6203352",
    "types": [
      "songwriters",
      "8"
    ],
    "repository": "kara.moe",
    "modified_at": "2020-03-31T19:04:35.977Z"
  }
}