{
  "header": {
    "description": "Karaoke Mugen Tag File",
    "version": 1
  },
  "tag": {
    "i18n": {
      "eng": "Makoto Kawamoto"
    },
    "name": "Makoto Kawamoto",
    "tid": "0c32ec99-cb13-4d30-b92a-d16a890e49c4",
    "types": [
      "singers",
      "2",
      "songwriters",
      "8"
    ],
    "repository": "kara.moe",
    "modified_at": "2020-03-31T19:04:35.973Z"
  }
}