{
  "header": {
    "description": "Karaoke Mugen Tag File",
    "version": 1
  },
  "tag": {
    "i18n": {
      "eng": "Mako Niina"
    },
    "name": "Mako Niina",
    "tid": "f46d4887-36c3-4d85-aad8-ce02a606a749",
    "types": [
      "singers",
      "2"
    ],
    "repository": "kara.moe",
    "modified_at": "2020-03-31T19:04:35.968Z"
  }
}