{
  "header": {
    "description": "Karaoke Mugen Tag File",
    "version": 1
  },
  "tag": {
    "aliases": [
      "Makura no Soushi",
      "soushi"
    ],
    "i18n": {
      "jpn": "枕草子",
      "qro": "Makura no Sôshi",
      "eng": "Makura no Sôshi"
    },
    "name": "Makura no Sôshi",
    "repository": "kara.moe",
    "tid": "c51bd902-b11a-48ab-8dd0-672ee8988c3b",
    "types": [
      "singers",
      "2"
    ]
  }
}