{
  "header": {
    "description": "Karaoke Mugen Tag File",
    "version": 1
  },
  "tag": {
    "i18n": {
      "eng": "Mam Houari"
    },
    "name": "Mam Houari",
    "tid": "c0916785-41f2-4899-b997-cbb93890a92c",
    "types": [
      "songwriters",
      "8"
    ],
    "repository": "kara.moe",
    "modified_at": "2020-03-31T19:04:35.982Z"
  }
}