{
  "header": {
    "description": "Karaoke Mugen Tag File",
    "version": 1
  },
  "tag": {
    "i18n": {
      "eng": "Mami Amikawa"
    },
    "name": "Mami Amikawa",
    "tid": "eae5f1ed-defc-4a61-a743-2a34763e48ea",
    "types": [
      "singers",
      "2"
    ],
    "repository": "kara.moe",
    "modified_at": "2020-03-31T19:04:35.983Z"
  }
}