{
  "header": {
    "description": "Karaoke Mugen Tag File",
    "version": 1
  },
  "tag": {
    "i18n": {
      "eng": "Manami Ishikawa"
    },
    "name": "Manami Ishikawa",
    "tid": "fee9fa49-42d8-47dd-8aee-36b9afefddcf",
    "types": [
      "singers",
      "2"
    ],
    "repository": "kara.moe",
    "modified_at": "2020-03-31T19:04:36.004Z"
  }
}