{
  "header": {
    "description": "Karaoke Mugen Tag File",
    "version": 1
  },
  "tag": {
    "i18n": {
      "eng": "Mana"
    },
    "name": "Mana",
    "repository": "kara.moe",
    "tid": "32d457e7-6138-45e2-8f19-39fd6bd2a349",
    "types": [
      "singers",
      "2"
    ]
  }
}