{
  "header": {
    "description": "Karaoke Mugen Tag File",
    "version": 1
  },
  "tag": {
    "i18n": {
      "eng": "MANNA"
    },
    "name": "MANNA",
    "tid": "60e928bc-7fe9-43b2-87cd-00f4df6ba2e1",
    "types": [
      "singers",
      "2"
    ],
    "repository": "kara.moe",
    "modified_at": "2020-03-31T19:04:36.012Z"
  }
}