{
  "header": {
    "description": "Karaoke Mugen Tag File",
    "version": 1
  },
  "tag": {
    "i18n": {
      "eng": "Manterou"
    },
    "name": "Manterou",
    "tid": "8a1fef48-1b39-48d1-8120-f687734a47cb",
    "types": [
      "singers",
      "2"
    ],
    "repository": "kara.moe",
    "modified_at": "2020-03-31T19:04:36.014Z"
  }
}