{
  "header": {
    "description": "Karaoke Mugen Tag File",
    "version": 1
  },
  "tag": {
    "i18n": {
      "eng": "Manuel Herrera"
    },
    "name": "Manuel Herrera",
    "tid": "44688921-adf1-4e90-8961-32ed7c41aa9a",
    "types": [
      "singers",
      "2"
    ],
    "repository": "kara.moe",
    "modified_at": "2020-03-31T19:04:36.015Z"
  }
}