{
  "header": {
    "description": "Karaoke Mugen Tag File",
    "version": 1
  },
  "tag": {
    "i18n": {
      "eng": "Maoh Shinmakoku"
    },
    "name": "Maoh Shinmakoku",
    "tid": "515ecc10-53ec-4777-a164-0c018e92ccc2",
    "types": [
      "authors",
      "6"
    ],
    "repository": "kara.moe",
    "modified_at": "2020-03-31T19:04:36.024Z"
  }
}