{
  "header": {
    "description": "Karaoke Mugen Tag File",
    "version": 1
  },
  "tag": {
    "i18n": {
      "eng": "Mariko Tone"
    },
    "name": "Mariko Tone",
    "tid": "76fb422b-693f-439a-b8b2-d7cb93c2f79e",
    "types": [
      "singers",
      "2"
    ],
    "repository": "kara.moe",
    "modified_at": "2020-03-31T19:04:36.058Z"
  }
}