{
  "header": {
    "description": "Karaoke Mugen Tag File",
    "version": 1
  },
  "tag": {
    "i18n": {
      "eng": "Maria Kuze"
    },
    "name": "Maria Kuze",
    "tid": "ad26acd7-3f8a-4bef-87fe-9f842a854efa",
    "types": [
      "songwriters",
      "8"
    ],
    "repository": "kara.moe",
    "modified_at": "2020-03-31T19:04:36.040Z"
  }
}