{
  "header": {
    "description": "Karaoke Mugen Tag File",
    "version": 1
  },
  "tag": {
    "i18n": {
      "eng": "Mario Pirolla"
    },
    "name": "Mario Pirolla",
    "repository": "kara.moe",
    "tid": "dd659e44-c7e6-4677-9838-f6e37deb03d7",
    "types": [
      "songwriters",
      "8"
    ]
  }
}