{
  "header": {
    "description": "Karaoke Mugen Tag File",
    "version": 1
  },
  "tag": {
    "i18n": {
      "eng": "Marie Dauphin"
    },
    "name": "Marie Dauphin",
    "tid": "1a430dbf-6df7-4090-8a5c-191ea057f8ac",
    "types": [
      "singers",
      "2"
    ],
    "repository": "kara.moe",
    "modified_at": "2020-03-31T19:04:36.045Z"
  }
}