{
  "header": {
    "description": "Karaoke Mugen Tag File",
    "version": 1
  },
  "tag": {
    "i18n": {
      "eng": "Mari"
    },
    "name": "Mari",
    "tid": "3d8cbff5-14ce-4f68-b3fc-9122d9291547",
    "types": [
      "songwriters",
      "8"
    ],
    "repository": "kara.moe",
    "modified_at": "2020-03-31T19:04:36.037Z"
  }
}