{
  "header": {
    "description": "Karaoke Mugen Tag File",
    "version": 1
  },
  "tag": {
    "i18n": {
      "eng": "MARIA"
    },
    "name": "MARIA",
    "tid": "91ecf88b-2e98-4cb3-b86e-6ae2dd22bc86",
    "types": [
      "singers",
      "2"
    ],
    "repository": "kara.moe",
    "modified_at": "2020-03-31T19:04:36.042Z"
  }
}