{
  "header": {
    "description": "Karaoke Mugen Tag File",
    "version": 1
  },
  "tag": {
    "i18n": {
      "eng": "Marie Rugierri"
    },
    "name": "Marie Rugierri",
    "repository": "kara.moe",
    "tid": "91c438c2-548e-4cd2-8333-e6fe6e38fa31",
    "types": [
      "singers",
      "2"
    ]
  }
}