{
  "header": {
    "description": "Karaoke Mugen Tag File",
    "version": 1
  },
  "tag": {
    "i18n": {
      "eng": "Mario Party"
    },
    "modified_at": "2021-01-22T22:49:52.725Z",
    "name": "Mario Party",
    "repository": "kara.moe",
    "tid": "7561984d-eac3-47d6-8963-eb323eacae28",
    "types": [
      "series",
      "1"
    ]
  }
}