{
  "header": {
    "description": "Karaoke Mugen Tag File",
    "version": 1
  },
  "tag": {
    "i18n": {
      "eng": "Martin Giroux"
    },
    "name": "Martin Giroux",
    "repository": "kara.moe",
    "tid": "0936ea01-b59c-4c2b-95ca-41c420a55a28",
    "types": [
      "singers",
      "2"
    ]
  }
}