{
  "header": {
    "description": "Karaoke Mugen Tag File",
    "version": 1
  },
  "tag": {
    "i18n": {
      "jpn": "るだせ金太狼",
      "qro": "Marudase Kintarô"
    },
    "name": "Marudase Kintarô",
    "repository": "kara.moe",
    "tid": "26d80e95-343a-4e4b-ae19-a9d53eca4643",
    "types": [
      "series",
      "1"
    ]
  }
}