{
  "header": {
    "description": "Karaoke Mugen Tag File",
    "version": 1
  },
  "tag": {
    "i18n": {
      "eng": "Masahito Arai"
    },
    "name": "Masahito Arai",
    "tid": "93d5dcbc-d564-4162-a4c3-29444a5b20a5",
    "types": [
      "singers",
      "2"
    ],
    "repository": "kara.moe",
    "modified_at": "2020-03-31T19:04:36.104Z"
  }
}