{
  "header": {
    "description": "Karaoke Mugen Tag File",
    "version": 1
  },
  "tag": {
    "i18n": {
      "eng": "Masatoshi Ishikawa"
    },
    "name": "Masatoshi Ishikawa",
    "tid": "66c594bf-3c6c-48b0-83f2-6a763f894775",
    "types": [
      "songwriters",
      "8"
    ],
    "repository": "kara.moe",
    "modified_at": "2020-03-31T19:04:36.146Z"
  }
}