{
  "header": {
    "description": "Karaoke Mugen Tag File",
    "version": 1
  },
  "tag": {
    "i18n": {
      "eng": "Masaaki Sakakibara"
    },
    "name": "Masaaki Sakakibara",
    "tid": "8eade614-a923-4d39-8a47-62e02d0dcacd",
    "types": [
      "songwriters",
      "8"
    ],
    "repository": "kara.moe",
    "modified_at": "2020-03-31T19:04:36.089Z"
  }
}