{
  "header": {
    "description": "Karaoke Mugen Tag File",
    "version": 1
  },
  "tag": {
    "i18n": {
      "eng": "Masamori Tomotake"
    },
    "name": "Masamori Tomotake",
    "tid": "80d9eacf-0b95-4604-b645-a010d25711cb",
    "types": [
      "singers",
      "2"
    ],
    "repository": "kara.moe",
    "modified_at": "2020-03-31T19:04:36.121Z"
  }
}