{
  "header": {
    "description": "Karaoke Mugen Tag File",
    "version": 1
  },
  "tag": {
    "i18n": {
      "eng": "Masanori Takumi"
    },
    "name": "Masanori Takumi",
    "tid": "af92bb48-705b-499b-aa4e-01c1174abc30",
    "types": [
      "songwriters",
      "8"
    ],
    "repository": "kara.moe",
    "modified_at": "2020-03-31T19:04:36.124Z"
  }
}