{
  "header": {
    "description": "Karaoke Mugen Tag File",
    "version": 1
  },
  "tag": {
    "i18n": {
      "eng": "Masahiro Noda"
    },
    "name": "Masahiro Noda",
    "tid": "6c7491ae-70ab-4961-b63d-291dc4f39a63",
    "types": [
      "songwriters",
      "8"
    ],
    "repository": "kara.moe",
    "modified_at": "2020-03-31T19:04:36.101Z"
  }
}