{
  "header": {
    "description": "Karaoke Mugen Tag File",
    "version": 1
  },
  "tag": {
    "i18n": {
      "eng": "Masanori Kobayashi"
    },
    "name": "Masanori Kobayashi",
    "repository": "kara.moe",
    "tid": "f4e393df-b60e-4313-aa08-1901cf02825d",
    "types": [
      "songwriters",
      "8"
    ]
  }
}