{
  "header": {
    "description": "Karaoke Mugen Tag File",
    "version": 1
  },
  "tag": {
    "i18n": {
      "eng": "Masahiko Iida"
    },
    "name": "Masahiko Iida",
    "tid": "a591f0fe-3a8d-43ac-abac-2696044c96ba",
    "types": [
      "songwriters",
      "8"
    ],
    "repository": "kara.moe",
    "modified_at": "2020-03-31T19:04:36.095Z"
  }
}