{
  "header": {
    "description": "Karaoke Mugen Tag File",
    "version": 1
  },
  "tag": {
    "i18n": {
      "eng": "Masato Kitano"
    },
    "name": "Masato Kitano",
    "tid": "b44e2194-020f-4d6f-a016-7d21f8da7a31",
    "types": [
      "songwriters",
      "8"
    ],
    "repository": "kara.moe",
    "modified_at": "2020-03-31T19:04:36.139Z"
  }
}