{
  "header": {
    "description": "Karaoke Mugen Tag File",
    "version": 1
  },
  "tag": {
    "i18n": {
      "eng": "Masayo Kurata"
    },
    "name": "Masayo Kurata",
    "tid": "7038766e-6f5e-46b5-b283-647d25db9f36",
    "types": [
      "singers",
      "2"
    ],
    "repository": "kara.moe",
    "modified_at": "2020-03-31T19:04:36.156Z"
  }
}