{
  "header": {
    "description": "Karaoke Mugen Tag File",
    "version": 1
  },
  "tag": {
    "aliases": [
      "まさ",
      "youki",
      "ell"
    ],
    "i18n": {
      "eng": "MASA WORKS DESIGN"
    },
    "name": "MASA WORKS DESIGN",
    "repository": "kara.moe",
    "tid": "bc0cec2b-2e7d-4bd0-aa5b-2fcee8607e71",
    "types": [
      "songwriters",
      "8",
      "creators",
      "4"
    ]
  }
}