{
  "header": {
    "description": "Karaoke Mugen Tag File",
    "version": 1
  },
  "tag": {
    "i18n": {
      "eng": "Masami Kakinuma"
    },
    "name": "Masami Kakinuma",
    "repository": "kara.moe",
    "tid": "f46f78ca-7ac5-4149-a346-bc2a8f513f6b",
    "types": [
      "songwriters",
      "8"
    ]
  }
}