{
  "header": {
    "description": "Karaoke Mugen Tag File",
    "version": 1
  },
  "tag": {
    "i18n": {
      "eng": "Masaki Okayu"
    },
    "name": "Masaki Okayu",
    "tid": "a2b56a34-833d-4cd0-b587-d8f3032099a8",
    "types": [
      "songwriters",
      "8"
    ],
    "repository": "kara.moe",
    "modified_at": "2020-03-31T19:04:36.110Z"
  }
}