{
  "header": {
    "description": "Karaoke Mugen Tag File",
    "version": 1
  },
  "tag": {
    "i18n": {
      "eng": "Masami Kuramada"
    },
    "name": "Masami Kuramada",
    "tid": "33ffd898-a5e2-4aaa-96be-b3bac98c1240",
    "types": [
      "songwriters",
      "8"
    ],
    "repository": "kara.moe",
    "modified_at": "2020-03-31T19:04:36.115Z"
  }
}