{
  "header": {
    "description": "Karaoke Mugen Tag File",
    "version": 1
  },
  "tag": {
    "aliases": [
      "Keith Courage",
      "Mashin Eiyuuden Wataru",
      "Rainbow Fantasia",
      "Spirit Hero Wataru",
      "eiyuuden"
    ],
    "external_database_ids": {
      "anilist": 3837,
      "myanimelist": 3837,
      "kitsu": 3289
    },
    "i18n": {
      "chi": "魔神英雄传",
      "eng": "Mashin Hero Wataru",
      "fre": "Adrien le sauveur du monde",
      "jpn": "魔神英雄伝ワタル",
      "qro": "Mashin Eiyûden Wataru"
    },
    "modified_at": "2020-06-21T23:45:31.966Z",
    "name": "Mashin Eiyûden Wataru",
    "repository": "kara.moe",
    "tid": "f5cd49e3-cad5-46d0-b3cf-d8744c0b3a30",
    "types": [
      "series",
      "1",
      "franchises",
      "18"
    ]
  }
}