{
  "header": {
    "description": "Karaoke Mugen Tag File",
    "version": 1
  },
  "tag": {
    "i18n": {
      "eng": "Massimiliano Alto"
    },
    "name": "Massimiliano Alto",
    "repository": "kara.moe",
    "tid": "429bb51a-3321-4de2-ad01-14b7a8de774a",
    "types": [
      "singers",
      "2"
    ]
  }
}