{
  "header": {
    "description": "Karaoke Mugen Tag File",
    "version": 1
  },
  "tag": {
    "aliases": [
      "マスターキートン"
    ],
    "external_database_ids": {
      "anilist": 1483,
      "myanimelist": 1483,
      "kitsu": 1329
    },
    "i18n": {
      "fre": "Master Keaton",
      "jpn": "MASTER KEATON",
      "qro": "Master Keaton"
    },
    "modified_at": "2020-03-31T19:04:32.204Z",
    "name": "Master Keaton",
    "repository": "kara.moe",
    "tid": "19a8537f-5893-486f-b754-e050d0a97378",
    "types": [
      "series",
      "1"
    ]
  }
}