{
  "header": {
    "description": "Karaoke Mugen Tag File",
    "version": 1
  },
  "tag": {
    "i18n": {
      "eng": "Masumi Yamazaki"
    },
    "name": "Masumi Yamazaki",
    "tid": "7fcfa775-3961-4c51-89a4-ca8ec851964c",
    "types": [
      "songwriters",
      "8"
    ],
    "repository": "kara.moe",
    "modified_at": "2020-03-31T19:04:36.174Z"
  }
}