{
  "header": {
    "description": "Karaoke Mugen Tag File",
    "version": 1
  },
  "tag": {
    "i18n": {
      "eng": "Mathieu Balanca"
    },
    "name": "Mathieu Balanca",
    "repository": "kara.moe",
    "tid": "3108b098-fc9d-4a9b-b510-3505beb26c9f",
    "types": [
      "songwriters",
      "8"
    ]
  }
}