{
  "header": {
    "description": "Karaoke Mugen Tag File",
    "version": 1
  },
  "tag": {
    "i18n": {
      "eng": "Matsuo Yasuharu"
    },
    "name": "Matsuo Yasuharu",
    "repository": "kara.moe",
    "tid": "0729e9ef-59e5-4dab-b9fc-e026baa50016",
    "types": [
      "songwriters",
      "8"
    ]
  }
}