{
  "header": {
    "description": "Karaoke Mugen Tag File",
    "version": 1
  },
  "tag": {
    "i18n": {
      "afr": "Asiër",
      "amh": "ማላይኛ",
      "ara": "الملايو",
      "aze": "Малай",
      "bak": "Ир бала",
      "bel": "Малая",
      "bul": "Malai",
      "ben": "Malay",
      "bos": "Mađarski",
      "cat": "Malai",
      "cze": "Malajský",
      "wel": "Maleieg",
      "dan": "Malay",
      "ger": "Malaiisch",
      "gre": "Μαλαισίας",
      "eng": "Malay",
      "epo": "Malaja",
      "spa": "Malayo",
      "est": "Malai",
      "baq": "Malay",
      "per": "مالایی",
      "fin": "Malaiji",
      "fre": "Malais",
      "gle": "Malaeis",
      "gla": "Malaidhis",
      "glg": "Malaio",
      "guj": "મલય",
      "heb": "מלאית",
      "hin": "मलय",
      "hrv": "Malai",
      "hat": "Malay",
      "hun": "Maláj",
      "arm": "Малай",
      "ind": "Melayu",
      "ice": "Enska",
      "ita": "Malese",
      "jpn": "マレー",
      "jav": "Malay",
      "geo": "Malay",
      "kaz": "Малай",
      "kan": "ಮಲಯ",
      "kor": "말레이",
      "kir": "Малай",
      "lat": "Malay",
      "lit": "Malajų",
      "lav": "Malajietis",
      "mlg": "Malay",
      "mao": "Malay",
      "mac": "Малајски",
      "mal": "മലായ്",
      "mon": "Малай",
      "mar": "Malay",
      "may": "Melayu",
      "mlt": "}",
      "nep": "मलाया",
      "dut": "Maleis",
      "nor": "Malayisk",
      "pan": "ਮਾਲੇਈ",
      "pol": "Малай",
      "por": "Malaio",
      "rum": "Malay",
      "rus": "Малай",
      "sin": "මැලේ",
      "slo": "Malajský",
      "slv": "Malajski",
      "alb": "Malajas",
      "srp": "Малай",
      "sun": "Melayu",
      "swe": "Malajiska",
      "swa": "Malay",
      "tam": "மலாய்",
      "tel": "మలయ్",
      "tgk": "Малай",
      "tha": "ภาษามลายู name",
      "tgl": "Malay",
      "tur": "Malayca",
      "tat": "Малай",
      "ukr": "Малай",
      "urd": "مالائی",
      "uzb": "Malay",
      "vie": "Malay",
      "xho": "Isimalay",
      "yid": "אַראַביש",
      "chi": "马来"
    },
    "name": "may",
    "tid": "8dd67a4e-9b4e-4570-87c8-d3b6582aef63",
    "types": [
      "langs",
      "5"
    ],
    "repository": "kara.moe",
    "modified_at": "2020-03-31T19:04:36.202Z"
  }
}