{
  "header": {
    "description": "Karaoke Mugen Tag File",
    "version": 1
  },
  "tag": {
    "i18n": {
      "eng": "Mayumi Shinozuka"
    },
    "name": "Mayumi Shinozuka",
    "tid": "c5bf32eb-d0a0-476b-ae12-26494057ec81",
    "types": [
      "singers",
      "2"
    ],
    "repository": "kara.moe",
    "modified_at": "2020-03-31T19:04:36.219Z"
  }
}