{
  "header": {
    "description": "Karaoke Mugen Tag File",
    "version": 1
  },
  "tag": {
    "i18n": {
      "eng": "Mayu Amase"
    },
    "name": "Mayu Amase",
    "tid": "d56c1c3e-ae22-43e4-85c1-30bbf6e8adf1",
    "types": [
      "singers",
      "2"
    ],
    "repository": "kara.moe",
    "modified_at": "2020-03-31T19:04:36.207Z"
  }
}