{
  "header": {
    "description": "Karaoke Mugen Tag File",
    "version": 1
  },
  "tag": {
    "i18n": {
      "eng": "Mayumi Funaki"
    },
    "modified_at": "2021-03-08T16:46:03.746Z",
    "name": "Mayumi Funaki",
    "repository": "kara.moe",
    "tid": "3f0f9b62-bd9b-4a86-b0e3-ec87f5af93c4",
    "types": [
      "singers",
      "2"
    ]
  }
}