{
  "header": {
    "description": "Karaoke Mugen Tag File",
    "version": 1
  },
  "tag": {
    "i18n": {
      "eng": "Media.Vision"
    },
    "name": "Media.Vision",
    "tid": "f9a97b6b-1ea0-4c63-ac09-070f70c799e4",
    "types": [
      "creators",
      "4"
    ],
    "repository": "kara.moe",
    "modified_at": "2020-03-31T19:04:36.223Z"
  }
}