{
  "header": {
    "description": "Karaoke Mugen Tag File",
    "version": 1
  },
  "tag": {
    "i18n": {
      "eng": "Megadimension Neptunia VIIR (Victory II Realize)",
      "jpn": "新次元ゲイム ネプテューヌVIIR (ビクトリィーツーリアライズ)",
      "qro": "Shin Jigen Game Neptune VIIR (Victory II Realize)"
    },
    "name": "Megadimension Neptunia VIIR",
    "repository": "kara.moe",
    "tid": "4112ed30-0762-4d18-b33d-3f32d2508478",
    "types": [
      "series",
      "1"
    ]
  }
}