{
  "header": {
    "description": "Karaoke Mugen Tag File",
    "version": 1
  },
  "tag": {
    "i18n": {
      "eng": "Mega Ran"
    },
    "name": "Mega Ran",
    "repository": "kara.moe",
    "tid": "5a4e184b-1059-416a-83fa-7862479776e9",
    "types": [
      "singers",
      "2"
    ]
  }
}