{
  "header": {
    "description": "Karaoke Mugen Tag File",
    "version": 1
  },
  "tag": {
    "i18n": {
      "eng": "Megumi Mori"
    },
    "name": "Megumi Mori",
    "tid": "f7b8c58b-40fd-4aef-99a8-5053c3e4459a",
    "types": [
      "singers",
      "2",
      "songwriters",
      "8"
    ],
    "repository": "kara.moe",
    "modified_at": "2020-03-31T19:04:36.236Z"
  }
}