{
  "header": {
    "description": "Karaoke Mugen Tag File",
    "version": 1
  },
  "tag": {
    "i18n": {
      "eng": "Megumi Ayukawa"
    },
    "modified_at": "2020-04-18T13:28:54.724Z",
    "name": "Megumi Ayukawa",
    "repository": "kara.moe",
    "tid": "b47bab46-0c66-468e-bda5-a10322cb9eb0",
    "types": [
      "songwriters",
      "8"
    ]
  }
}