{
  "header": {
    "description": "Karaoke Mugen Tag File",
    "version": 1
  },
  "tag": {
    "i18n": {
      "eng": "Megumi Tsubosaka"
    },
    "name": "Megumi Tsubosaka",
    "tid": "ff3c7488-817a-48ad-8cf4-42046b2a9876",
    "types": [
      "songwriters",
      "8"
    ],
    "repository": "kara.moe",
    "modified_at": "2020-03-31T19:04:36.243Z"
  }
}