{
  "header": {
    "description": "Karaoke Mugen Tag File",
    "version": 1
  },
  "tag": {
    "i18n": {
      "eng": "Megumi Toda"
    },
    "name": "Megumi Toda",
    "tid": "e12e55c6-323b-492c-978b-4d5dde18e3be",
    "types": [
      "singers",
      "2"
    ],
    "repository": "kara.moe",
    "modified_at": "2020-03-31T19:04:36.242Z"
  }
}