{
  "header": {
    "description": "Karaoke Mugen Tag File",
    "version": 1
  },
  "tag": {
    "aliases": [
      "Meikyû Black Company",
      "meikyuu"
    ],
    "external_database_ids": {
      "anilist": 120608,
      "myanimelist": 42340,
      "kitsu": 43268
    },
    "i18n": {
      "eng": "The Dungeon of Black Company",
      "jpn": "迷宮ブラックカンパニー",
      "qro": "Meikyû Black Company"
    },
    "name": "Meikyû Black Company",
    "repository": "kara.moe",
    "tid": "7763f05a-0689-49ea-b95e-c9897eac708f",
    "types": [
      "series",
      "1"
    ]
  }
}