{
  "header": {
    "description": "Karaoke Mugen Tag File",
    "version": 1
  },
  "tag": {
    "i18n": {
      "eng": "Meiko Nakahara"
    },
    "name": "Meiko Nakahara",
    "tid": "bbe1af03-a232-4739-9a09-25767bf9dfc4",
    "types": [
      "singers",
      "2",
      "songwriters",
      "8"
    ],
    "repository": "kara.moe",
    "modified_at": "2020-03-31T19:04:36.246Z"
  }
}