{
  "header": {
    "description": "Karaoke Mugen Tag File",
    "version": 1
  },
  "tag": {
    "i18n": {
      "eng": "Meiko Kawasaki"
    },
    "name": "Meiko Kawasaki",
    "tid": "a9e4f337-44d6-4051-90c7-a7e48847dc2b",
    "types": [
      "singers",
      "2"
    ],
    "repository": "kara.moe",
    "modified_at": "2020-03-31T19:04:36.246Z"
  }
}