{
  "header": {
    "description": "Karaoke Mugen Tag File",
    "version": 1
  },
  "tag": {
    "aliases": [
      "l'heure du thé de zéro",
      "zero no tea time",
      "zero's tea time"
    ],
    "external_database_ids": {
      "anilist": 140002,
      "myanimelist": 50012,
      "kitsu": 45281
    },
    "i18n": {
      "eng": "Detective Conan: Zero's Tea Time",
      "qro": "Meitantei Conan : Zero no Tea Time",
      "fre": "Détective Conan : L'Heure du Thé pour Zéro",
      "spa": "Detective Conan : La hora del té de Zero"
    },
    "name": "Meitantei Conan : Zero no Tea Time",
    "repository": "kara.moe",
    "tid": "53dfdb72-efe4-454a-98ef-2823bdd03c41",
    "types": [
      "series",
      "1"
    ]
  }
}