{
  "header": {
    "description": "Karaoke Mugen Tag File",
    "version": 1
  },
  "tag": {
    "i18n": {
      "eng": "Mélanie Fontaine"
    },
    "modified_at": "2020-12-20T20:16:21.215Z",
    "name": "Mélanie Fontaine",
    "repository": "kara.moe",
    "tid": "32eae606-af2b-40fb-a0e6-0b53c9c81d6c",
    "types": [
      "songwriters",
      "8",
      "singers",
      "2"
    ]
  }
}