{
  "header": {
    "description": "Karaoke Mugen Tag File",
    "version": 1
  },
  "tag": {
    "i18n": {
      "eng": "Meles Badger"
    },
    "name": "Meles Badger",
    "tid": "d3fb7ca3-ca02-45dc-9d5d-6716b02d1402",
    "types": [
      "creators",
      "4"
    ],
    "repository": "kara.moe",
    "modified_at": "2020-03-31T19:04:36.252Z"
  }
}