{
  "header": {
    "description": "Karaoke Mugen Tag File",
    "version": 1
  },
  "tag": {
    "i18n": {
      "eng": "MELTY BLOOD: TYPE LUMINA"
    },
    "name": "MELTY BLOOD: TYPE LUMINA",
    "repository": "kara.moe",
    "tid": "0fbcb0a8-d20a-4078-bddf-caa4599eaa1e",
    "types": [
      "series",
      "1"
    ]
  }
}