{
  "header": {
    "description": "Karaoke Mugen Tag File",
    "version": 1
  },
  "tag": {
    "i18n": {
      "eng": "Men Men"
    },
    "name": "Men Men",
    "repository": "kara.moe",
    "tid": "72df1cca-6096-41ee-8536-3705c05a0231",
    "types": [
      "songwriters",
      "8"
    ]
  }
}