{
  "header": {
    "description": "Karaoke Mugen Tag File",
    "version": 1
  },
  "tag": {
    "i18n": {
      "eng": "Mentholatum Lip Baby",
      "jpn": "Mentholatum Lip Baby",
      "qro": "Mentholatum Lip Baby"
    },
    "modified_at": "2020-06-01T01:35:03.827Z",
    "name": "Mentholatum Lip Baby",
    "repository": "kara.moe",
    "tid": "a835722d-748c-44bc-b3f0-b6dbdbf155ff",
    "types": [
      "series",
      "1",
      "creators",
      "4"
    ]
  }
}