{
  "header": {
    "description": "Karaoke Mugen Tag File",
    "version": 1
  },
  "tag": {
    "i18n": {
      "eng": "Méry Lanzafame"
    },
    "name": "Méry Lanzafame",
    "tid": "a9db16a9-90da-47aa-b218-a02d168f2812",
    "types": [
      "singers",
      "2"
    ],
    "repository": "kara.moe",
    "modified_at": "2020-03-31T19:04:36.264Z"
  }
}