{
  "header": {
    "description": "Karaoke Mugen Tag File",
    "version": 1
  },
  "tag": {
    "i18n": {
      "eng": "mesand"
    },
    "modified_at": "2020-05-23T21:33:53.918Z",
    "name": "mesand",
    "repository": "kara.moe",
    "tid": "1a15eff5-8859-45d6-a7c1-ae565d34cc29",
    "types": [
      "authors",
      "6"
    ]
  }
}