{
  "header": {
    "description": "Karaoke Mugen Tag File",
    "version": 1
  },
  "tag": {
    "aliases": [
      "MGS 3",
      "MGS III",
      "MGS3"
    ],
    "i18n": {
      "eng": "Metal Gear Solid 3: Snake Eater",
      "jpn": "メタルギアソリッド3 スネーク・イーター",
      "qro": "Metal Gear Solid 3"
    },
    "modified_at": "2020-03-31T19:04:32.230Z",
    "name": "Metal Gear Solid 3",
    "repository": "kara.moe",
    "tid": "84380dd1-76f1-4217-918a-4757670982b3",
    "types": [
      "series",
      "1"
    ]
  }
}