{
  "header": {
    "description": "Karaoke Mugen Tag File",
    "version": 1
  },
  "tag": {
    "i18n": {
      "eng": "Mia Kusakabe"
    },
    "modified_at": "2021-05-17T10:08:11.015Z",
    "name": "Mia Kusakabe",
    "repository": "kara.moe",
    "tid": "a71a55fd-863e-4776-a08e-2a73ad57d3e9",
    "types": [
      "singers",
      "2"
    ]
  }
}