{
  "header": {
    "description": "Karaoke Mugen Tag File",
    "version": 1
  },
  "tag": {
    "i18n": {
      "eng": "Michael Fraser"
    },
    "modified_at": "2021-03-13T17:37:47.316Z",
    "name": "Michael Fraser",
    "repository": "kara.moe",
    "tid": "f5be55a0-209d-496b-b198-58c5948fdf99",
    "types": [
      "songwriters",
      "8"
    ]
  }
}