{
  "header": {
    "description": "Karaoke Mugen Tag File",
    "version": 1
  },
  "tag": {
    "aliases": [
      "加藤 道明"
    ],
    "i18n": {
      "jpn": "加藤 みちあき",
      "qro": "Michiaki Kato"
    },
    "name": "Michiaki Kato",
    "repository": "kara.moe",
    "tid": "7d7fa909-a682-4db9-b238-669654f26c5e",
    "types": [
      "songwriters",
      "8"
    ]
  }
}