{
  "header": {
    "description": "Karaoke Mugen Tag File",
    "version": 1
  },
  "tag": {
    "i18n": {
      "eng": "Michiru Ooshima"
    },
    "name": "Michiru Ooshima",
    "tid": "bad10aec-be36-42b0-97f0-852c473631c0",
    "types": [
      "songwriters",
      "8"
    ],
    "repository": "kara.moe",
    "modified_at": "2020-03-31T19:04:36.298Z"
  }
}