{
  "header": {
    "description": "Karaoke Mugen Tag File",
    "version": 1
  },
  "tag": {
    "i18n": {
      "eng": "Michel Delpech"
    },
    "name": "Michel Delpech",
    "repository": "kara.moe",
    "tid": "da29f1ff-2f0a-4dfa-b76c-61dcdadd684b",
    "types": [
      "singers",
      "2",
      "songwriters",
      "8"
    ]
  }
}