{
  "header": {
    "description": "Karaoke Mugen Tag File",
    "version": 1
  },
  "tag": {
    "i18n": {
      "eng": "Michael Bradley"
    },
    "name": "Michael Bradley",
    "repository": "kara.moe",
    "tid": "1555b583-ca3b-4dfa-8bf2-baafaafbc077",
    "types": [
      "songwriters",
      "8"
    ]
  }
}