{
  "header": {
    "description": "Karaoke Mugen Tag File",
    "version": 1
  },
  "tag": {
    "aliases": [
      "Michihiko Ohta"
    ],
    "i18n": {
      "eng": "Michihiko Oota"
    },
    "modified_at": "2020-08-19T15:31:28.552Z",
    "name": "Michihiko Oota",
    "repository": "kara.moe",
    "tid": "fd55ec21-1de1-4c53-a76b-c10f7ea53948",
    "types": [
      "songwriters",
      "8"
    ]
  }
}