{
  "header": {
    "description": "Karaoke Mugen Tag File",
    "version": 1
  },
  "tag": {
    "i18n": {
      "eng": "Michiko Oota",
      "jpn": "太田美知彦",
      "qro": "Michiko Oota"
    },
    "name": "Michiko Oota",
    "repository": "kara.moe",
    "tid": "79d565b1-a2b4-4693-bb3b-37426814021c",
    "types": [
      "songwriters",
      "8"
    ]
  }
}