{
  "header": {
    "description": "Karaoke Mugen Tag File",
    "version": 1
  },
  "tag": {
    "i18n": {
      "eng": "Mickaël Benayoun"
    },
    "name": "Mickaël Benayoun",
    "repository": "kara.moe",
    "tid": "e6ca100f-8640-48d2-8c51-0d379d1e3b6c",
    "types": [
      "songwriters",
      "8"
    ]
  }
}