{
  "header": {
    "description": "Karaoke Mugen Tag File",
    "version": 1
  },
  "tag": {
    "i18n": {
      "eng": "Mickaël Furnon"
    },
    "modified_at": "2020-06-30T08:10:43.142Z",
    "name": "Mickaël Furnon",
    "repository": "kara.moe",
    "tid": "9dceb18c-4f75-40dc-b0ec-4db3f5c5bb7c",
    "types": [
      "songwriters",
      "8"
    ]
  }
}