{
  "header": {
    "description": "Karaoke Mugen Tag File",
    "version": 1
  },
  "tag": {
    "i18n": {
      "eng": "miHoYoAnime"
    },
    "modified_at": "2021-09-07T17:29:25.863Z",
    "name": "miHoYoAnime",
    "repository": "kara.moe",
    "tid": "64eea276-7461-43d5-a9c9-07af9c780f84",
    "types": [
      "creators",
      "4"
    ]
  }
}