{
  "header": {
    "description": "Karaoke Mugen Tag File",
    "version": 1
  },
  "tag": {
    "i18n": {
      "jpn": "天音 みほ",
      "qro": "Miho Amane"
    },
    "name": "Miho Amane",
    "repository": "kara.moe",
    "tid": "9efa8ea6-f13d-499c-a2ca-de452a60f090",
    "types": [
      "singers",
      "2"
    ]
  }
}