{
  "header": {
    "description": "Karaoke Mugen Tag File",
    "version": 1
  },
  "tag": {
    "i18n": {
      "eng": "Miho Koga"
    },
    "name": "Miho Koga",
    "tid": "6ec1ca91-18e9-42b4-a146-f4fa1abcb855",
    "types": [
      "songwriters",
      "8"
    ],
    "repository": "kara.moe",
    "modified_at": "2020-03-31T19:04:36.313Z"
  }
}