{
  "header": {
    "description": "Karaoke Mugen Tag File",
    "version": 1
  },
  "tag": {
    "i18n": {
      "eng": "Mii"
    },
    "name": "Mii",
    "repository": "kara.moe",
    "tid": "0af0613a-8a7b-4c6b-a4bb-783c44417279",
    "types": [
      "singers",
      "2"
    ]
  }
}