{
  "header": {
    "description": "Karaoke Mugen Tag File",
    "version": 1
  },
  "tag": {
    "i18n": {
      "eng": "Mika Okudoi"
    },
    "name": "Mika Okudoi",
    "tid": "993a3269-f9a8-457a-ad41-9327cd2f9248",
    "types": [
      "singers",
      "2",
      "songwriters",
      "8"
    ],
    "repository": "kara.moe",
    "modified_at": "2020-03-31T19:04:36.323Z"
  }
}