{
  "header": {
    "description": "Karaoke Mugen Tag File",
    "version": 1
  },
  "tag": {
    "i18n": {
      "eng": "Mika Arata"
    },
    "name": "Mika Arata",
    "tid": "b26681d1-a84f-40f7-8944-277be5a7954e",
    "types": [
      "songwriters",
      "8"
    ],
    "repository": "kara.moe",
    "modified_at": "2020-03-31T19:04:36.318Z"
  }
}