{
  "header": {
    "description": "Karaoke Mugen Tag File",
    "version": 1
  },
  "tag": {
    "i18n": {
      "eng": "Mika Watanabe"
    },
    "name": "Mika Watanabe",
    "tid": "d5f4599c-3540-4514-b5ac-9bab0450222b",
    "types": [
      "songwriters",
      "8"
    ],
    "repository": "kara.moe",
    "modified_at": "2020-03-31T19:04:36.323Z"
  }
}