{
  "header": {
    "description": "Karaoke Mugen Tag File",
    "version": 1
  },
  "tag": {
    "i18n": {
      "eng": "Mika Kaneko"
    },
    "name": "Mika Kaneko",
    "tid": "16d7810d-a036-4c5a-9c5e-b12afa7e84f2",
    "types": [
      "singers",
      "2",
      "songwriters",
      "8"
    ],
    "repository": "kara.moe",
    "modified_at": "2020-03-31T19:04:36.321Z"
  }
}