{
  "header": {
    "description": "Karaoke Mugen Tag File",
    "version": 1
  },
  "tag": {
    "i18n": {
      "eng": "Miketama",
      "jpn": "みけたま",
      "qro": "Miketama"
    },
    "name": "Miketama",
    "repository": "kara.moe",
    "tid": "4191929e-dc4c-4952-adb6-5fcbde5c8b4d",
    "types": [
      "singers",
      "2"
    ]
  }
}