{
  "header": {
    "description": "Karaoke Mugen Tag File",
    "version": 1
  },
  "tag": {
    "i18n": {
      "eng": "Mikiko Tagata"
    },
    "name": "Mikiko Tagata",
    "tid": "c5009194-cb6b-4a5e-9c40-395a654e1bb9",
    "types": [
      "songwriters",
      "8"
    ],
    "repository": "kara.moe",
    "modified_at": "2020-03-31T19:04:36.341Z"
  }
}