{
  "header": {
    "description": "Karaoke Mugen Tag File",
    "version": 1
  },
  "tag": {
    "i18n": {
      "eng": "Mikiya Katakura"
    },
    "name": "Mikiya Katakura",
    "tid": "ffb2194e-3dd1-478f-ac22-71b3bcbd426a",
    "types": [
      "songwriters",
      "8"
    ],
    "repository": "kara.moe",
    "modified_at": "2020-03-31T19:04:36.343Z"
  }
}