{
  "header": {
    "description": "Karaoke Mugen Tag File",
    "version": 1
  },
  "tag": {
    "i18n": {
      "eng": "Miki Itô"
    },
    "name": "Miki Itô",
    "tid": "e62566ab-b9db-49f7-a4e7-a5d42f53514c",
    "types": [
      "singers",
      "2"
    ],
    "repository": "kara.moe",
    "modified_at": "2020-03-31T19:04:36.335Z"
  }
}