{
  "header": {
    "description": "Karaoke Mugen Tag File",
    "version": 1
  },
  "tag": {
    "i18n": {
      "eng": "millennium parade"
    },
    "name": "millennium parade",
    "repository": "kara.moe",
    "tid": "647a3ce4-760d-444a-a9d5-933ad1062b7e",
    "types": [
      "songwriters",
      "8",
      "singers",
      "2"
    ]
  }
}