{
  "header": {
    "description": "Karaoke Mugen Tag File",
    "version": 1
  },
  "tag": {
    "i18n": {
      "eng": "Min Hyuk"
    },
    "name": "Min Hyuk",
    "tid": "984c585a-b4d4-4fcd-9b8d-17bb95e1ec48",
    "types": [
      "songwriters",
      "8"
    ],
    "repository": "kara.moe",
    "modified_at": "2020-03-31T19:04:36.359Z"
  }
}