{
  "header": {
    "description": "Karaoke Mugen Tag File",
    "version": 1
  },
  "tag": {
    "i18n": {
      "eng": "Minami Machi Bugyôsho"
    },
    "name": "Minami Machi Bugyôsho",
    "tid": "20bb19c4-34ff-494d-8748-69a4ae48c323",
    "types": [
      "creators",
      "4"
    ],
    "repository": "kara.moe",
    "modified_at": "2020-03-31T19:04:36.366Z"
  }
}