{
  "header": {
    "description": "Karaoke Mugen Tag File",
    "version": 1
  },
  "tag": {
    "i18n": {
      "eng": "Minako Kotobuki"
    },
    "name": "Minako Kotobuki",
    "tid": "a193b82b-0c3c-44df-ade9-f21077bef97f",
    "types": [
      "singers",
      "2"
    ],
    "repository": "kara.moe",
    "modified_at": "2020-03-31T19:04:36.364Z"
  }
}