{
  "header": {
    "description": "Karaoke Mugen Tag File",
    "version": 1
  },
  "tag": {
    "i18n": {
      "eng": "Minami Shinoda"
    },
    "name": "Minami Shinoda",
    "tid": "7f283a74-e7f4-4d25-af71-d30c3c0ed9eb",
    "types": [
      "singers",
      "2"
    ],
    "repository": "kara.moe",
    "modified_at": "2020-03-31T19:04:36.367Z"
  }
}