{
  "header": {
    "description": "Karaoke Mugen Tag File",
    "version": 1
  },
  "tag": {
    "i18n": {
      "eng": "Minami"
    },
    "name": "Minami",
    "tid": "bbcb98c4-2b9d-4796-9ec7-e621d8ce56e7",
    "types": [
      "singers",
      "2",
      "songwriters",
      "8"
    ],
    "repository": "kara.moe",
    "modified_at": "2020-03-31T19:04:36.372Z"
  }
}