{
  "header": {
    "description": "Karaoke Mugen Tag File",
    "version": 1
  },
  "tag": {
    "aliases": [
      "滝上裕司",
      "Yuuji Takinoue",
      "Yûji Takinoue"
    ],
    "i18n": {
      "eng": "Mine Kushita",
      "jpn": "久下真音",
      "qro": "Mine Kushita"
    },
    "modified_at": "2021-06-20T11:32:29.522Z",
    "name": "Mine Kushita",
    "repository": "kara.moe",
    "tid": "9729978c-1cab-4327-9c02-9c51700a424d",
    "types": [
      "songwriters",
      "8"
    ]
  }
}