{
  "header": {
    "description": "Karaoke Mugen Tag File",
    "version": 1
  },
  "tag": {
    "i18n": {
      "eng": "Rhythm Heaven Fever",
      "fre": "Beat the Beat: Rhythm Paradise",
      "jpn": "みんなのリズム天国",
      "qro": "Minna no Rhythm Tengoku"
    },
    "modified_at": "2020-03-31T19:04:32.245Z",
    "name": "Minna no Rhythm Tengoku",
    "repository": "kara.moe",
    "tid": "596cea36-ae38-445e-badf-cfcfcd1dd341",
    "types": [
      "series",
      "1"
    ]
  }
}