{
  "header": {
    "description": "Karaoke Mugen Tag File",
    "version": 1
  },
  "tag": {
    "i18n": {
      "eng": "mistiru"
    },
    "name": "mistiru",
    "tid": "4775243d-52ef-4e6b-8a57-4b6dcd7d6b83",
    "types": [
      "authors",
      "6"
    ],
    "repository": "kara.moe",
    "modified_at": "2020-03-31T19:04:36.407Z"
  }
}