{
  "header": {
    "description": "Karaoke Mugen Tag File",
    "version": 1
  },
  "tag": {
    "i18n": {
      "eng": "Mitski"
    },
    "name": "Mitski",
    "repository": "kara.moe",
    "tid": "e00e41de-e621-4d2f-9943-7251a32dd87e",
    "types": [
      "singers",
      "2",
      "songwriters",
      "8"
    ]
  }
}