{
  "header": {
    "description": "Karaoke Mugen Tag File",
    "version": 1
  },
  "tag": {
    "i18n": {
      "eng": "Mitsu.J"
    },
    "name": "Mitsu.J",
    "tid": "8e6b4b28-aef8-43ea-a091-8158585d1725",
    "types": [
      "songwriters",
      "8"
    ],
    "repository": "kara.moe",
    "modified_at": "2020-03-31T19:04:36.413Z"
  }
}