{
  "header": {
    "description": "Karaoke Mugen Tag File",
    "version": 1
  },
  "tag": {
    "aliases": [
      "MDOM",
      "Mitsudomoe 1",
      "Three Way Struggle",
      "超元气三姐妹"
    ],
    "external_database_ids": {
      "anilist": 7627,
      "myanimelist": 7627,
      "kitsu": 5060
    },
    "i18n": {
      "eng": "Mitsudomoe",
      "jpn": "みつどもえ",
      "qro": "Mitsudomoe"
    },
    "modified_at": "2020-03-31T19:04:32.257Z",
    "name": "Mitsudomoe",
    "repository": "kara.moe",
    "tid": "d6338cbc-cc47-4ea2-bb89-3d2e76fc807c",
    "types": [
      "series",
      "1",
      "franchises",
      "18"
    ]
  }
}