{
  "header": {
    "description": "Karaoke Mugen Tag File",
    "version": 1
  },
  "tag": {
    "i18n": {
      "eng": "Mitsuru Wakabayashi"
    },
    "name": "Mitsuru Wakabayashi",
    "tid": "595dd7ad-6df3-4757-94b3-4014f25dee23",
    "types": [
      "songwriters",
      "8"
    ],
    "repository": "kara.moe",
    "modified_at": "2020-03-31T19:04:36.424Z"
  }
}