{
  "header": {
    "description": "Karaoke Mugen Tag File",
    "version": 1
  },
  "tag": {
    "i18n": {
      "eng": "Miwako Chinone"
    },
    "modified_at": "2021-06-20T12:29:25.694Z",
    "name": "Miwako Chinone",
    "repository": "kara.moe",
    "tid": "8dd40e62-f9e2-476a-a0d1-8d2dfb6568b4",
    "types": [
      "songwriters",
      "8"
    ]
  }
}