{
  "header": {
    "description": "Karaoke Mugen Tag File",
    "version": 1
  },
  "tag": {
    "i18n": {
      "eng": "Miyako Suzuta"
    },
    "name": "Miyako Suzuta",
    "tid": "ca08e696-f6cd-4ac9-9ae6-2f676651502c",
    "types": [
      "singers",
      "2"
    ],
    "repository": "kara.moe",
    "modified_at": "2020-03-31T19:04:36.431Z"
  }
}