{
  "header": {
    "description": "Karaoke Mugen Tag File",
    "version": 1
  },
  "tag": {
    "i18n": {
      "eng": "Miyuki Sawashiro"
    },
    "name": "Miyuki Sawashiro",
    "tid": "e1890e7a-41f1-4ab5-bd7f-6d23960bda9c",
    "types": [
      "singers",
      "2"
    ],
    "repository": "kara.moe",
    "modified_at": "2020-03-31T19:04:36.443Z"
  }
}