{
  "header": {
    "description": "Karaoke Mugen Tag File",
    "version": 1
  },
  "tag": {
    "i18n": {
      "eng": "Mizuki Ohkawa",
      "jpn": "大川みずき"
    },
    "name": "Mizuki Ohkawa",
    "repository": "kara.moe",
    "tid": "a38fc563-2f0f-408a-9202-9d8069fa7cf6",
    "types": [
      "songwriters",
      "8"
    ]
  }
}