{
  "header": {
    "description": "Karaoke Mugen Tag File",
    "version": 1
  },
  "tag": {
    "i18n": {
      "eng": "Mizuho"
    },
    "name": "Mizuho",
    "tid": "7edfb287-f8d1-4908-85fa-c82780115965",
    "types": [
      "singers",
      "2"
    ],
    "repository": "kara.moe",
    "modified_at": "2020-03-31T19:04:36.448Z"
  }
}