{
  "header": {
    "description": "Karaoke Mugen Tag File",
    "version": 1
  },
  "tag": {
    "i18n": {
      "eng": "Moe Tsurumi"
    },
    "name": "Moe Tsurumi",
    "repository": "kara.moe",
    "tid": "e1e4b485-673f-44a5-a0ac-27aa9533458d",
    "types": [
      "singers",
      "2"
    ]
  }
}