{
  "header": {
    "description": "Karaoke Mugen Tag File",
    "version": 1
  },
  "tag": {
    "i18n": {
      "eng": "Moeha Nochimoto"
    },
    "name": "Moeha Nochimoto",
    "repository": "kara.moe",
    "tid": "42ce9cf2-34a3-45b6-9f3f-4bd944612fbc",
    "types": [
      "singers",
      "2"
    ]
  }
}