{
  "header": {
    "description": "Karaoke Mugen Tag File",
    "version": 1
  },
  "tag": {
    "i18n": {
      "eng": "MOI Animation"
    },
    "name": "MOI Animation",
    "tid": "dbb36810-c068-4914-9b0e-d384b8077d39",
    "types": [
      "creators",
      "4"
    ],
    "repository": "kara.moe",
    "modified_at": "2020-03-31T19:04:36.465Z"
  }
}