{
  "header": {
    "description": "Karaoke Mugen Tag File",
    "version": 1
  },
  "tag": {
    "i18n": {
      "eng": "Momoiro Clover"
    },
    "name": "Momoiro Clover",
    "tid": "4ea9ef51-d867-4033-ba5d-598358168b17",
    "types": [
      "singers",
      "2"
    ],
    "repository": "kara.moe",
    "modified_at": "2020-03-31T19:04:36.471Z"
  }
}