{
  "header": {
    "description": "Karaoke Mugen Tag File",
    "version": 1
  },
  "tag": {
    "i18n": {
      "eng": "Momoko Suzuki"
    },
    "name": "Momoko Suzuki",
    "tid": "981c9240-12e9-496c-ad04-3bcd28f312ca",
    "types": [
      "singers",
      "2"
    ],
    "repository": "kara.moe",
    "modified_at": "2020-03-31T19:04:36.474Z"
  }
}