{
  "header": {
    "description": "Karaoke Mugen Tag File",
    "version": 1
  },
  "tag": {
    "i18n": {
      "eng": "Momoe Yamaguchi",
      "jpn": "山口百恵",
      "qro": "Momoe Yamaguchi"
    },
    "name": "Momoe Yamaguchi",
    "repository": "kara.moe",
    "tid": "c89adec4-8fd5-4b2f-b646-3c239ebd0ac2",
    "types": [
      "singers",
      "2"
    ]
  }
}