{
  "header": {
    "description": "Karaoke Mugen Tag File",
    "version": 1
  },
  "tag": {
    "i18n": {
      "eng": "Momoko Sakura"
    },
    "name": "Momoko Sakura",
    "tid": "9fe1a1ab-a571-42f5-8bfe-a707ab7873ab",
    "types": [
      "songwriters",
      "8"
    ],
    "repository": "kara.moe",
    "modified_at": "2020-03-31T19:04:36.474Z"
  }
}