{
  "header": {
    "description": "Karaoke Mugen Tag File",
    "version": 1
  },
  "tag": {
    "i18n": {
      "eng": "Momona Matsumoto",
      "jpn": "松本ももな",
      "qro": "Momona Matsumoto"
    },
    "name": "Momona Matsumoto",
    "repository": "kara.moe",
    "tid": "bf8eeb40-cf3f-4162-afef-d5666c539dbe",
    "types": [
      "singers",
      "2"
    ]
  }
}