{
  "header": {
    "description": "Karaoke Mugen Tag File",
    "version": 1
  },
  "tag": {
    "i18n": {
      "eng": "Momo Watanabe"
    },
    "name": "Momo Watanabe",
    "tid": "624cfa81-9373-4b0f-9473-e3392f30551c",
    "types": [
      "songwriters",
      "8"
    ],
    "repository": "kara.moe",
    "modified_at": "2020-03-31T19:04:36.469Z"
  }
}