{
  "header": {
    "description": "Karaoke Mugen Tag File",
    "version": 1
  },
  "tag": {
    "i18n": {
      "eng": "Momoko Hayashi"
    },
    "name": "Momoko Hayashi",
    "tid": "a6fec218-24b4-44bc-9d49-8c0662d50607",
    "types": [
      "singers",
      "2"
    ],
    "repository": "kara.moe",
    "modified_at": "2020-03-31T19:04:36.473Z"
  }
}