{
  "header": {
    "description": "Karaoke Mugen Tag File",
    "version": 1
  },
  "tag": {
    "i18n": {
      "eng": "Monark"
    },
    "name": "Monark",
    "repository": "kara.moe",
    "tid": "b0828c70-69ba-4a5e-922a-489d11add9c7",
    "types": [
      "series",
      "1"
    ]
  }
}