{
  "header": {
    "description": "Karaoke Mugen Tag File",
    "version": 1
  },
  "tag": {
    "i18n": {
      "eng": "Monday Michiru"
    },
    "name": "Monday Michiru",
    "tid": "03b69ce8-c0fd-4c4b-a9f0-ff2e7c7e496c",
    "types": [
      "singers",
      "2",
      "songwriters",
      "8"
    ],
    "repository": "kara.moe",
    "modified_at": "2020-03-31T19:04:36.479Z"
  }
}