{
  "header": {
    "description": "Karaoke Mugen Tag File",
    "version": 1
  },
  "tag": {
    "aliases": [
      "モンスターハンターライズ",
      "MH Rise"
    ],
    "i18n": {
      "eng": "Monster Hunter Rise"
    },
    "modified_at": "2021-06-20T12:31:10.286Z",
    "name": "Monster Hunter Rise",
    "repository": "kara.moe",
    "tid": "6e494362-888f-4b6d-92da-8b8b1cdb1d29",
    "types": [
      "series",
      "1"
    ]
  }
}