{
  "header": {
    "description": "Karaoke Mugen Tag File",
    "version": 1
  },
  "tag": {
    "aliases": [
      "Mori no Ki Jidou Gasshoudan",
      "Morinoki Jidou Gasshoudan"
    ],
    "i18n": {
      "eng": "Mori no Ki Jidô Gasshôdan"
    },
    "modified_at": "2021-02-16T10:57:06.179Z",
    "name": "Mori no Ki Jidô Gasshôdan",
    "repository": "kara.moe",
    "tid": "118644ac-1cbb-47ac-a2c4-9275abed5f22",
    "types": [
      "singers",
      "2"
    ]
  }
}