{
  "header": {
    "description": "Karaoke Mugen Tag File",
    "version": 1
  },
  "tag": {
    "i18n": {
      "eng": "Morten Harket"
    },
    "modified_at": "2020-06-01T15:24:33.434Z",
    "name": "Morten Harket",
    "repository": "kara.moe",
    "tid": "b34394fc-0c10-49e8-a115-c5c71df6c313",
    "types": [
      "songwriters",
      "8"
    ]
  }
}