{
  "header": {
    "description": "Karaoke Mugen Tag File",
    "version": 1
  },
  "tag": {
    "i18n": {
      "eng": "Motoki Funayama"
    },
    "name": "Motoki Funayama",
    "tid": "e6ee599e-737c-46b5-9452-91e9c5cbfec9",
    "types": [
      "songwriters",
      "8"
    ],
    "repository": "kara.moe",
    "modified_at": "2020-03-31T19:04:36.503Z"
  }
}