{
  "header": {
    "description": "Karaoke Mugen Tag File",
    "version": 1
  },
  "tag": {
    "aliases": [
      "Doremi (2001)",
      "Doremi 3",
      "DoremiS3",
      "Dorémi Magique",
      "Dó-Ré-Mi 3",
      "More! Bothersome Witch Doremi",
      "More! Useless Witch Doremi"
    ],
    "external_database_ids": {
      "anilist": 352,
      "myanimelist": 352,
      "kitsu": 319
    },
    "i18n": {
      "eng": "Magical DoReMi (3rd season)",
      "fre": "Magical DoReMi (saison 3)",
      "jpn": "も~っと! おジャ魔女どれみ",
      "por": "Dó-Ré-Mi (2001)",
      "qro": "Motto! Ojamajo Doremi"
    },
    "modified_at": "2020-03-31T19:04:32.277Z",
    "name": "Motto! Ojamajo Doremi",
    "repository": "kara.moe",
    "tid": "6ec1f9fd-47a1-4093-b6ee-e1bf9393cb7b",
    "types": [
      "series",
      "1"
    ]
  }
}