{
  "header": {
    "description": "Karaoke Mugen Tag File",
    "version": 1
  },
  "tag": {
    "aliases": [
      "Box of Goblins",
      "Box of the Mouryou",
      "MnH",
      "Moryo no Hako",
      "Mouryou no Hako",
      "Ларец нечисти",
      "Ящик демонов",
      "魍魉之匣",
      "mouryou"
    ],
    "external_database_ids": {
      "anilist": 4879,
      "myanimelist": 4879,
      "kitsu": 3835
    },
    "i18n": {
      "eng": "Moryo no Hako",
      "fre": "Môryô no Hako",
      "jpn": "魍魎の匣",
      "qro": "Môryô no Hako"
    },
    "modified_at": "2020-03-31T19:04:32.279Z",
    "name": "Môryô no Hako",
    "repository": "kara.moe",
    "tid": "39c47b35-c9e5-49a6-b2be-6730ff28042d",
    "types": [
      "series",
      "1"
    ]
  }
}