{
  "header": {
    "description": "Karaoke Mugen Tag File",
    "version": 1
  },
  "tag": {
    "aliases": [
      "Mousou",
      "MoCali ",
      "妄キャリ"
    ],
    "i18n": {
      "eng": "Môsô Calibration",
      "jpn": "妄想キャリブレーション 妄キャリ",
      "qro": "Môsô Calibration"
    },
    "name": "Môsô Calibration",
    "repository": "kara.moe",
    "tid": "2427ce8d-8f8e-4198-a77e-490c56d43e7d",
    "types": [
      "singers",
      "2",
      "songwriters",
      "8",
      "singergroups",
      "17"
    ]
  }
}