{
  "header": {
    "description": "Karaoke Mugen Tag File",
    "version": 1
  },
  "tag": {
    "aliases": [
      "Moyashimon: Kin Gekijou Deluxe",
      "Moyashimon: Microbe Theatre Deluxe",
      "Příběhy z hnojárny",
      "Tales of Agriculture",
      "Сельскохозяйственные истории",
      "موياشيمون",
      "萌菌物语",
      "豆芽小文",
      "豆芽纹"
    ],
    "external_database_ids": {
      "anilist": 3001,
      "myanimelist": 3001,
      "kitsu": 2712
    },
    "i18n": {
      "eng": "Moyashimon",
      "jpn": "もやしもん",
      "qro": "Moyashimon"
    },
    "modified_at": "2020-03-31T19:04:32.282Z",
    "name": "Moyashimon",
    "repository": "kara.moe",
    "tid": "f3376507-ba8d-4fc4-8aa2-78ac43ed8cdf",
    "types": [
      "series",
      "1",
      "franchises",
      "18"
    ]
  }
}