{
  "header": {
    "description": "Karaoke Mugen Tag File",
    "version": 1
  },
  "tag": {
    "i18n": {
      "eng": "moyu"
    },
    "modified_at": "2020-11-21T23:01:52.424Z",
    "name": "moyu",
    "repository": "kara.moe",
    "tid": "81ce94e2-1b95-43c2-8797-6af46a56a8ea",
    "types": [
      "songwriters",
      "8"
    ]
  }
}