{
  "header": {
    "description": "Karaoke Mugen Tag File",
    "version": 1
  },
  "tag": {
    "i18n": {
      "eng": "Ms Roq"
    },
    "name": "Ms Roq",
    "tid": "26497203-f096-4ca6-b141-26696f4c878f",
    "types": [
      "songwriters",
      "8"
    ],
    "repository": "kara.moe",
    "modified_at": "2020-03-31T19:04:36.515Z"
  }
}