{
  "header": {
    "description": "Karaoke Mugen Tag File",
    "version": 1
  },
  "tag": {
    "aliases": [
      "Muse",
      "Mu's",
      "μ's"
    ],
    "i18n": {
      "eng": "µ's"
    },
    "name": "µ's",
    "repository": "kara.moe",
    "tid": "fc107f1a-4759-4869-857f-fc1966f345f9",
    "types": [
      "singergroups",
      "17"
    ]
  }
}