{
  "header": {
    "description": "Karaoke Mugen Tag File",
    "version": 1
  },
  "tag": {
    "aliases": [
      "Reform Without Wasted Draws - The Legend of Koizumi"
    ],
    "external_database_ids": {
      "anilist": 6946,
      "myanimelist": 6946,
      "kitsu": 4798
    },
    "i18n": {
      "eng": "Mudazumo Naki Kaikaku: The Legend of Koizumi",
      "jpn": "ムダヅモ無き改革 -THE LEGEND OF KOIZUMI-",
      "qro": "Mudazumo Naki Kaikaku: The Legend of Koizumi"
    },
    "modified_at": "2020-07-17T10:04:30.772Z",
    "name": "Mudazumo Naki Kaikaku: The Legend of Koizumi",
    "repository": "kara.moe",
    "tid": "a9d5501b-a1fc-4a00-8083-8d2a0274bcad",
    "types": [
      "series",
      "1"
    ]
  }
}