{
  "header": {
    "description": "Karaoke Mugen Tag File",
    "version": 1
  },
  "tag": {
    "aliases": [
      "MuWa",
      "Survive! - Uninhabited Planet",
      "Uninhabited Planet SURVIVE",
      "Uninhabited Planet Survival",
      "ups",
      "Выжить на необитаемой планете",
      "مغامرات الكوكب المهجور"
    ],
    "external_database_ids": {
      "anilist": 709,
      "myanimelist": 709,
      "kitsu": 643
    },
    "i18n": {
      "eng": "Mujin Wakusei Survive",
      "heb": "כוכב ההישרדות",
      "jpn": "無人惑星サヴァイヴ",
      "por": "Planet Survival",
      "qro": "Mujin Wakusei Survive"
    },
    "modified_at": "2020-06-21T23:45:31.966Z",
    "name": "Mujin Wakusei Survive",
    "repository": "kara.moe",
    "tid": "85096e46-2523-4ad0-99b0-2867262eae17",
    "types": [
      "series",
      "1"
    ]
  }
}