{
  "header": {
    "description": "Karaoke Mugen Tag File",
    "version": 1
  },
  "tag": {
    "aliases": [
      "Come Together! To the Seton Academy"
    ],
    "external_database_ids": {
      "anilist": 112293,
      "myanimelist": 40483,
      "kitsu": 42601
    },
    "i18n": {
      "eng": "Seton Academy: Join the Pack!",
      "jpn": "群れなせ! シートン学園",
      "qro": "Murenase! Seton Gakuen"
    },
    "modified_at": "2020-03-31T19:04:32.285Z",
    "name": "Murenase! Seton Gakuen",
    "repository": "kara.moe",
    "tid": "07961697-735d-4f8e-b9d8-f67ccb617dfd",
    "types": [
      "series",
      "1"
    ]
  }
}