{
  "header": {
    "description": "Karaoke Mugen Tag File",
    "version": 1
  },
  "tag": {
    "aliases": [
      "ICT",
      "Musekinin Kanchou Tylor",
      "Безответственный капитан Тайлор",
      "kanchou"
    ],
    "external_database_ids": {
      "anilist": 569,
      "myanimelist": 569,
      "kitsu": 526
    },
    "i18n": {
      "eng": "The Irresponsible Captain Tylor",
      "ita": "L'irresponsabile Capitano Tylor",
      "jpn": "無責任艦長タイラー",
      "spa": "Tylor, El Capitán Irresponsable",
      "qro": "Musekinin Kanchô Tylor"
    },
    "modified_at": "2020-03-31T19:04:32.286Z",
    "name": "Musekinin Kanchô Tylor",
    "repository": "kara.moe",
    "tid": "c1d40e01-bd32-4e3f-b3ec-ecc93c5bddec",
    "types": [
      "series",
      "1"
    ]
  }
}