{
  "header": {
    "description": "Karaoke Mugen Tag File",
    "version": 1
  },
  "tag": {
    "i18n": {
      "eng": "Mushi Production"
    },
    "name": "Mushi Production",
    "tid": "1f5fd53e-1906-4c7b-8003-c5822e8e7718",
    "types": [
      "creators",
      "4"
    ],
    "repository": "kara.moe",
    "modified_at": "2020-03-31T19:04:36.522Z"
  }
}