{
  "header": {
    "description": "Karaoke Mugen Tag File",
    "version": 1
  },
  "tag": {
    "i18n": {
      "eng": "Music Bank"
    },
    "name": "Music Bank",
    "repository": "kara.moe",
    "tid": "a59798f9-f868-417a-8262-ec25c23d958e",
    "types": [
      "creators",
      "4"
    ]
  }
}