{
  "header": {
    "description": "Karaoke Mugen Tag File",
    "version": 1
  },
  "tag": {
    "external_database_ids": {
      "anilist": 120209,
      "myanimelist": 42282,
      "kitsu": 43238
    },
    "i18n": {
      "eng": "My Next Life as a Villainess All Routes Lead to Doom! X",
      "jpn": " 乙女ゲームの破滅フラグしかない悪役令嬢に転生してしまった…Ｘ",
      "qro": "My Next Life as a Villainess All Routes Lead to Doom! X"
    },
    "modified_at": "2021-07-14T17:17:50.475Z",
    "name": "My Next Life as a Villainess All Routes Lead to Doom! X",
    "repository": "kara.moe",
    "tid": "adec1a42-66f3-41e2-a362-fb1b07471f71",
    "types": [
      "series",
      "1"
    ]
  }
}