{
  "header": {
    "description": "Karaoke Mugen Tag File",
    "version": 1
  },
  "tag": {
    "i18n": {
      "eng": "Mylène Farmer"
    },
    "modified_at": "2020-07-04T12:35:21.101Z",
    "name": "Mylène Farmer",
    "repository": "kara.moe",
    "tid": "4ca0a78e-b9e3-4351-8529-05f5bc0236cd",
    "types": [
      "songwriters",
      "8",
      "singers",
      "2"
    ]
  }
}