{
  "header": {
    "description": "Karaoke Mugen Tag File",
    "version": 1
  },
  "tag": {
    "i18n": {
      "eng": "myu314"
    },
    "name": "myu314",
    "tid": "6da99060-acc4-48c0-9d5b-042dae38ed28",
    "types": [
      "songwriters",
      "8"
    ],
    "repository": "kara.moe",
    "modified_at": "2020-03-31T19:04:36.530Z"
  }
}