{
  "header": {
    "description": "Karaoke Mugen Tag File",
    "version": 1
  },
  "tag": {
    "i18n": {
      "eng": "Mz. Moxy"
    },
    "name": "Mz. Moxy",
    "repository": "kara.moe",
    "tid": "395b573f-cb17-4326-9618-bfbdb28ae1d5",
    "types": [
      "singers",
      "2"
    ]
  }
}