{
  "header": {
    "description": "Karaoke Mugen Tag File",
    "version": 1
  },
  "tag": {
    "aliases": [
      "Emi Nakamura"
    ],
    "i18n": {
      "eng": "NakamuraEmi"
    },
    "name": "NakamuraEmi",
    "repository": "kara.moe",
    "tid": "6ccb7e6e-b711-4c0d-9303-0da41623f393",
    "types": [
      "singers",
      "2",
      "songwriters",
      "8"
    ]
  }
}