{
  "header": {
    "description": "Karaoke Mugen Tag File",
    "version": 1
  },
  "tag": {
    "i18n": {
      "eng": "Namco"
    },
    "name": "Namco",
    "tid": "4098d0f9-bf4e-47ca-b451-d2597b487e95",
    "types": [
      "creators",
      "4"
    ],
    "repository": "kara.moe",
    "modified_at": "2020-03-31T19:04:36.551Z"
  }
}