{
  "header": {
    "description": "Karaoke Mugen Tag File",
    "version": 1
  },
  "tag": {
    "i18n": {
      "eng": "Namco Tales Studio"
    },
    "name": "Namco Tales Studio",
    "tid": "7e37aea2-311a-4b93-8059-ba7a8fad65d9",
    "types": [
      "creators",
      "4"
    ],
    "repository": "kara.moe",
    "modified_at": "2020-03-31T19:04:36.550Z"
  }
}