{
  "header": {
    "description": "Karaoke Mugen Tag File",
    "version": 1
  },
  "tag": {
    "i18n": {
      "eng": "Namewee"
    },
    "name": "Namewee",
    "tid": "0b7e99fb-972a-437b-8000-a416e8479d54",
    "types": [
      "singers",
      "2",
      "songwriters",
      "8"
    ],
    "repository": "kara.moe",
    "modified_at": "2020-03-31T19:04:36.552Z"
  }
}