{
  "header": {
    "description": "Karaoke Mugen Tag File",
    "version": 1
  },
  "tag": {
    "i18n": {
      "eng": "Nami Tamaki"
    },
    "name": "Nami Tamaki",
    "tid": "97bbc758-3cc4-4928-9f04-68ba786d9a89",
    "types": [
      "singers",
      "2"
    ],
    "repository": "kara.moe",
    "modified_at": "2020-03-31T19:04:36.554Z"
  }
}