{
  "header": {
    "description": "Karaoke Mugen Tag File",
    "version": 1
  },
  "tag": {
    "i18n": {
      "eng": "Namie Amuro"
    },
    "name": "Namie Amuro",
    "tid": "ed6fcc94-df07-40d4-b196-938a0dc7c3c9",
    "types": [
      "singers",
      "2"
    ],
    "repository": "kara.moe",
    "modified_at": "2020-03-31T19:04:36.556Z"
  }
}