{
  "header": {
    "description": "Karaoke Mugen Tag File",
    "version": 1
  },
  "tag": {
    "aliases": [
      "ナナホシ",
      "ナナかん",
      "nanakan"
    ],
    "i18n": {
      "eng": "Nanahoshi",
      "jpn": "ナナホシ",
      "qro": "Nanahoshi"
    },
    "modified_at": "2021-05-21T21:47:33.717Z",
    "name": "Nanahoshi",
    "repository": "kara.moe",
    "tid": "62218f64-7ea7-42e8-89f2-dcc8483cf099",
    "types": [
      "songwriters",
      "8"
    ]
  }
}