{
  "header": {
    "description": "Karaoke Mugen Tag File",
    "version": 1
  },
  "tag": {
    "i18n": {
      "eng": "Nao (heidi.)"
    },
    "name": "Nao (heidi.)",
    "tid": "15de4099-0fda-483d-9063-6ed6e8c040a5",
    "types": [
      "songwriters",
      "8"
    ],
    "repository": "kara.moe",
    "modified_at": "2020-03-31T19:04:36.570Z"
  }
}