{
  "header": {
    "description": "Karaoke Mugen Tag File",
    "version": 1
  },
  "tag": {
    "i18n": {
      "eng": "Naoko Takeuchi"
    },
    "name": "Naoko Takeuchi",
    "tid": "62e1c858-ad05-4563-b8a3-b6c6f697562c",
    "types": [
      "songwriters",
      "8"
    ],
    "repository": "kara.moe",
    "modified_at": "2020-03-31T19:04:36.590Z"
  }
}