{
  "header": {
    "description": "Karaoke Mugen Tag File",
    "version": 1
  },
  "tag": {
    "i18n": {
      "eng": "Naoko Sugiura"
    },
    "name": "Naoko Sugiura",
    "tid": "ac039828-2e2d-4b73-9c2f-1ae3214f45be",
    "types": [
      "singers",
      "2"
    ],
    "repository": "kara.moe",
    "modified_at": "2020-03-31T19:04:36.589Z"
  }
}