{
  "header": {
    "description": "Karaoke Mugen Tag File",
    "version": 1
  },
  "tag": {
    "i18n": {
      "eng": "Naoki Takada"
    },
    "modified_at": "2020-08-19T12:38:45.942Z",
    "name": "Naoki Takada",
    "repository": "kara.moe",
    "tid": "e542343d-3366-4ac5-8737-50727cb2fe05",
    "types": [
      "songwriters",
      "8"
    ]
  }
}