{
  "header": {
    "description": "Karaoke Mugen Tag File",
    "version": 1
  },
  "tag": {
    "i18n": {
      "eng": "Naoki Takao"
    },
    "name": "Naoki Takao",
    "tid": "7ec47546-8162-4ac8-a3e4-0c8344fcf78d",
    "types": [
      "songwriters",
      "8"
    ],
    "repository": "kara.moe",
    "modified_at": "2020-03-31T19:04:36.584Z"
  }
}