{
  "header": {
    "description": "Karaoke Mugen Tag File",
    "version": 1
  },
  "tag": {
    "i18n": {
      "eng": "Naomi Amagata"
    },
    "name": "Naomi Amagata",
    "tid": "64ccb5ed-fa8d-4919-ba9e-2dc3c1a7f5da",
    "types": [
      "singers",
      "2",
      "songwriters",
      "8"
    ],
    "repository": "kara.moe",
    "modified_at": "2020-03-31T19:04:36.591Z"
  }
}