{
  "header": {
    "description": "Karaoke Mugen Tag File",
    "version": 1
  },
  "tag": {
    "i18n": {
      "eng": "Naotaka Utsunomiya"
    },
    "name": "Naotaka Utsunomiya",
    "repository": "kara.moe",
    "tid": "37bf3748-d13e-40da-9dcb-7091d715b228",
    "types": [
      "singers",
      "2"
    ]
  }
}