{
  "header": {
    "description": "Karaoke Mugen Tag File",
    "version": 1
  },
  "tag": {
    "i18n": {
      "eng": "Naoya Fujimaki"
    },
    "name": "Naoya Fujimaki",
    "repository": "kara.moe",
    "tid": "3c31af06-62ad-4fe4-a0a5-74c0c2ab7110",
    "types": [
      "singers",
      "2"
    ],
    "modified_at": "2020-03-31T19:04:36.601Z"
  }
}