{
  "header": {
    "description": "Karaoke Mugen Tag File",
    "version": 1
  },
  "tag": {
    "i18n": {
      "eng": "Naozumi Yamamoto"
    },
    "name": "Naozumi Yamamoto",
    "tid": "eb9e5cb2-8453-4b2b-bf17-4fe0921cd26f",
    "types": [
      "songwriters",
      "8"
    ],
    "repository": "kara.moe",
    "modified_at": "2020-03-31T19:04:36.608Z"
  }
}