{
  "header": {
    "description": "Karaoke Mugen Tag File",
    "version": 1
  },
  "tag": {
    "i18n": {
      "eng": "Napalm Records"
    },
    "name": "Napalm Records",
    "repository": "kara.moe",
    "tid": "041f16b7-dc24-41c2-ac7a-3960f40b6867",
    "types": [
      "creators",
      "4"
    ]
  }
}