{
  "header": {
    "description": "Karaoke Mugen Tag File",
    "version": 1
  },
  "tag": {
    "i18n": {
      "eng": "NAT'S"
    },
    "name": "NAT'S",
    "tid": "bfd33a14-df26-4524-a739-1c425e1744a4",
    "types": [
      "singers",
      "2"
    ],
    "repository": "kara.moe",
    "modified_at": "2020-03-31T19:04:36.615Z"
  }
}