{
  "header": {
    "description": "Karaoke Mugen Tag File",
    "version": 1
  },
  "tag": {
    "i18n": {
      "eng": "NateWantsToBattle"
    },
    "name": "NateWantsToBattle",
    "repository": "kara.moe",
    "tid": "7f61e2d3-6e52-4abd-93cf-81704736b023",
    "types": [
      "songwriters",
      "8"
    ],
    "modified_at": "2020-03-31T19:04:36.619Z"
  }
}