{
  "header": {
    "description": "Karaoke Mugen Tag File",
    "version": 1
  },
  "tag": {
    "i18n": {
      "eng": "Nate Mendel"
    },
    "name": "Nate Mendel",
    "tid": "f0d20469-56d8-4d5e-b049-f83ecf14bdba",
    "types": [
      "songwriters",
      "8"
    ],
    "repository": "kara.moe",
    "modified_at": "2020-03-31T19:04:36.617Z"
  }
}