{
  "header": {
    "description": "Karaoke Mugen Tag File",
    "version": 1
  },
  "tag": {
    "i18n": {
      "eng": "Natewantstobattle"
    },
    "name": "Natewantstobattle",
    "tid": "3cac11c4-5b54-4b86-8c6a-f4c7b9c13b6f",
    "types": [
      "singers",
      "2"
    ],
    "repository": "kara.moe",
    "modified_at": "2020-03-31T19:04:36.618Z"
  }
}