{
  "header": {
    "description": "Karaoke Mugen Tag File",
    "version": 1
  },
  "tag": {
    "i18n": {
      "eng": "Natsuno Suzune"
    },
    "name": "Natsuno Suzune",
    "repository": "kara.moe",
    "tid": "2df9e6f8-cdb7-4630-a780-89e230b9514d",
    "types": [
      "singers",
      "2"
    ]
  }
}