{
  "header": {
    "description": "Karaoke Mugen Tag File",
    "version": 1
  },
  "tag": {
    "i18n": {
      "jpn": "夏空カナタ",
      "qro": "Natsuzora Kanata"
    },
    "name": "Natsuzora Kanata",
    "repository": "kara.moe",
    "tid": "c8f76ae2-4191-4061-8be5-c23977516f1b",
    "types": [
      "series",
      "1"
    ]
  }
}