{
  "header": {
    "description": "Karaoke Mugen Tag File",
    "version": 1
  },
  "tag": {
    "i18n": {
      "eng": "Natsuki Ogoda"
    },
    "name": "Natsuki Ogoda",
    "tid": "c3dcae82-d5b4-425b-8a27-fda7afa1787b",
    "types": [
      "songwriters",
      "8"
    ],
    "repository": "kara.moe",
    "modified_at": "2020-03-31T19:04:36.624Z"
  }
}