{
  "header": {
    "description": "Karaoke Mugen Tag File",
    "version": 1
  },
  "tag": {
    "i18n": {
      "eng": "Naughty Dog"
    },
    "name": "Naughty Dog",
    "tid": "2b8c4efd-8822-49d3-8aa8-5060600a7a0d",
    "types": [
      "creators",
      "4"
    ],
    "repository": "kara.moe",
    "modified_at": "2020-03-31T19:04:36.638Z"
  }
}