{
  "header": {
    "description": "Karaoke Mugen Tag File",
    "version": 1
  },
  "tag": {
    "i18n": {
      "eng": "nayuta"
    },
    "name": "nayuta",
    "tid": "109bac32-3b61-44d8-b495-040c4ce869e7",
    "types": [
      "singers",
      "2"
    ],
    "repository": "kara.moe",
    "modified_at": "2020-03-31T19:04:36.642Z"
  }
}