{
  "header": {
    "description": "Karaoke Mugen Tag File",
    "version": 1
  },
  "tag": {
    "i18n": {
      "eng": "Neal Acree"
    },
    "name": "Neal Acree",
    "repository": "kara.moe",
    "tid": "1d3f0912-57b7-49e0-983b-6728c6b48372",
    "types": [
      "songwriters",
      "8"
    ]
  }
}