{
  "header": {
    "description": "Karaoke Mugen Tag File",
    "version": 1
  },
  "tag": {
    "i18n": {
      "eng": "Neal Hefti"
    },
    "name": "Neal Hefti",
    "tid": "5a1d25c4-c3be-4781-a909-932a4a8dc3ca",
    "types": [
      "songwriters",
      "8"
    ],
    "repository": "kara.moe",
    "modified_at": "2020-03-31T19:04:36.648Z"
  }
}