{
  "header": {
    "description": "Karaoke Mugen Tag File",
    "version": 1
  },
  "tag": {
    "i18n": {
      "eng": "Nekomuru"
    },
    "name": "Nekomuru",
    "repository": "kara.moe",
    "tid": "5b8a9d8a-f7d8-42c1-bc9c-41757fcdafd2",
    "types": [
      "creators",
      "4"
    ]
  }
}