{
  "header": {
    "description": "Karaoke Mugen Tag File",
    "version": 1
  },
  "tag": {
    "i18n": {
      "eng": "nekozemon"
    },
    "modified_at": "2021-08-06T12:55:46.937Z",
    "name": "nekozemon",
    "repository": "kara.moe",
    "tid": "7f349dff-02c7-47dd-b423-dc58e79c3559",
    "types": [
      "creators",
      "4"
    ]
  }
}