{
  "header": {
    "description": "Karaoke Mugen Tag File",
    "version": 1
  },
  "tag": {
    "i18n": {
      "eng": "nelku"
    },
    "name": "nelku",
    "repository": "kara.moe",
    "tid": "95277037-67e7-45e8-8227-b0693b9bbdac",
    "types": [
      "creators",
      "4"
    ]
  }
}