{
  "header": {
    "description": "Karaoke Mugen Tag File",
    "version": 1
  },
  "tag": {
    "i18n": {
      "eng": "nen_ai"
    },
    "name": "nen_ai",
    "repository": "kara.moe",
    "tid": "1f4d93b0-b99c-4ee9-aa49-fa7095bdb8e6",
    "types": [
      "creators",
      "4"
    ]
  }
}