{
  "header": {
    "description": "Karaoke Mugen Tag File",
    "version": 1
  },
  "tag": {
    "i18n": {
      "eng": "Neversoft"
    },
    "name": "Neversoft",
    "repository": "kara.moe",
    "tid": "bef0165f-99fc-40fb-b1b1-62f10f443d1e",
    "types": [
      "creators",
      "4"
    ]
  }
}