{
  "header": {
    "description": "Karaoke Mugen Tag File",
    "version": 1
  },
  "tag": {
    "i18n": {
      "eng": "Nick Carr"
    },
    "name": "Nick Carr",
    "tid": "3cf61fd2-0f3a-4292-a292-6dc5e389c4a7",
    "types": [
      "singers",
      "2"
    ],
    "repository": "kara.moe",
    "modified_at": "2020-03-31T19:04:36.674Z"
  }
}