{
  "header": {
    "description": "Karaoke Mugen Tag File",
    "version": 1
  },
  "tag": {
    "i18n": {
      "eng": "Nickelodeon"
    },
    "name": "Nickelodeon",
    "repository": "kara.moe",
    "tid": "e89598e7-1bd5-4b0e-ac55-a5909dd142fe",
    "types": [
      "creators",
      "4"
    ]
  }
}