{
  "header": {
    "description": "Karaoke Mugen Tag File",
    "version": 1
  },
  "tag": {
    "i18n": {
      "eng": "Nicolas Leroy"
    },
    "name": "Nicolas Leroy",
    "repository": "kara.moe",
    "tid": "cc951c0e-a121-40b6-9e1c-43eea4b64995",
    "types": [
      "creators",
      "4"
    ]
  }
}