{
  "header": {
    "description": "Karaoke Mugen Tag File",
    "version": 1
  },
  "tag": {
    "i18n": {
      "eng": "NightcoreReality"
    },
    "name": "NightcoreReality",
    "repository": "kara.moe",
    "tid": "6b545d15-b672-429a-bc57-49acdffa1e4c",
    "types": [
      "songwriters",
      "8"
    ]
  }
}