{
  "header": {
    "description": "Karaoke Mugen Tag File",
    "version": 1
  },
  "tag": {
    "aliases": [
      "Japan Animator Expo",
      "Japan Animator Expo Short Films",
      "Japan Animator's Exhibition",
      "Nihon Animator Mihon'ichi",
      "The Japan Animator Expo"
    ],
    "external_database_ids": {
      "anilist": 20947,
      "myanimelist": 28149,
      "kitsu": 10012
    },
    "i18n": {
      "eng": "Japan Anima(tor)'s Exhibition",
      "jpn": "日本アニメ(ーター)見本市",
      "qro": "Nihon Animator Mihonichi"
    },
    "modified_at": "2020-03-31T19:04:32.337Z",
    "name": "Nihon Animator Mihonichi",
    "repository": "kara.moe",
    "tid": "ad9b7efa-e11b-46f7-9f87-bbed534d919c",
    "types": [
      "series",
      "1"
    ]
  }
}