{
  "header": {
    "description": "Karaoke Mugen Tag File",
    "version": 1
  },
  "tag": {
    "i18n": {
      "eng": "Niikyousou"
    },
    "name": "Niikyousou",
    "repository": "kara.moe",
    "tid": "3402d9b2-a4fc-4407-9503-6240c3b7aadb",
    "types": [
      "creators",
      "4"
    ]
  }
}