{
  "header": {
    "description": "Karaoke Mugen Tag File",
    "version": 1
  },
  "tag": {
    "i18n": {
      "eng": "Nijisanji",
      "jpn": "にじさんじ",
      "qro": "Nijisanji"
    },
    "modified_at": "2021-09-03T21:35:45.181Z",
    "name": "Nijisanji",
    "repository": "kara.moe",
    "tid": "7ea65041-c849-4ada-a721-4e955fbb0af5",
    "types": [
      "creators",
      "4"
    ]
  }
}