{
  "header": {
    "description": "Karaoke Mugen Tag File",
    "version": 1
  },
  "tag": {
    "i18n": {
      "eng": "Nikolay Mohr"
    },
    "name": "Nikolay Mohr",
    "repository": "kara.moe",
    "tid": "c975734e-8775-4817-b10b-cc8b8bae395a",
    "types": [
      "songwriters",
      "8"
    ]
  }
}