{
  "header": {
    "description": "Karaoke Mugen Tag File",
    "version": 1
  },
  "tag": {
    "i18n": {
      "eng": "NIRGILIS"
    },
    "name": "NIRGILIS",
    "tid": "3e870d4d-e065-4f6c-9d54-62218c659f46",
    "types": [
      "singers",
      "2"
    ],
    "repository": "kara.moe",
    "modified_at": "2020-03-31T19:04:36.701Z"
  }
}