{
  "header": {
    "description": "Karaoke Mugen Tag File",
    "version": 1
  },
  "tag": {
    "i18n": {
      "eng": "Nitroplus"
    },
    "name": "Nitroplus",
    "tid": "d8c36618-4baf-4969-a667-188a901a1f00",
    "types": [
      "creators",
      "4"
    ],
    "repository": "kara.moe",
    "modified_at": "2020-03-31T19:04:36.707Z"
  }
}