{
  "header": {
    "description": "Karaoke Mugen Tag File",
    "version": 1
  },
  "tag": {
    "i18n": {
      "eng": "Noa"
    },
    "modified_at": "2021-05-27T22:41:45.992Z",
    "name": "Noa",
    "repository": "kara.moe",
    "tid": "2e491908-da20-4a4f-b42c-f740853222be",
    "types": [
      "singers",
      "2"
    ]
  }
}