{
  "header": {
    "description": "Karaoke Mugen Tag File",
    "version": 1
  },
  "tag": {
    "i18n": {
      "eng": "noaon"
    },
    "name": "noaon",
    "repository": "kara.moe",
    "tid": "6127aa14-9b17-4c80-a661-55ad6e02cee5",
    "types": [
      "singers",
      "2"
    ]
  }
}