{
  "header": {
    "description": "Karaoke Mugen Tag File",
    "version": 1
  },
  "tag": {
    "external_database_ids": {
      "anilist": 19855,
      "myanimelist": 19855,
      "kitsu": 7771
    },
    "i18n": {
      "eng": "Nobunagun",
      "jpn": "ノブナガン",
      "qro": "Nobunagun"
    },
    "modified_at": "2020-03-31T19:04:32.351Z",
    "name": "Nobunagun",
    "repository": "kara.moe",
    "tid": "5ae9da90-1faa-4e58-ac09-776cbfdda690",
    "types": [
      "series",
      "1"
    ]
  }
}