{
  "header": {
    "description": "Karaoke Mugen Tag File",
    "version": 1
  },
  "tag": {
    "i18n": {
      "eng": "Nobuyuki Hiyama"
    },
    "modified_at": "2021-04-07T12:36:42.740Z",
    "name": "Nobuyuki Hiyama",
    "repository": "kara.moe",
    "tid": "fc6a7812-d0a0-48db-9d67-e05fe283a66e",
    "types": [
      "singers",
      "2"
    ]
  }
}