{
  "header": {
    "description": "Karaoke Mugen Tag File",
    "version": 1
  },
  "tag": {
    "i18n": {
      "eng": "Nobuaki Tanaka"
    },
    "name": "Nobuaki Tanaka",
    "repository": "kara.moe",
    "tid": "606036ca-b66f-42ac-9b78-9e3361d9193e",
    "types": [
      "songwriters",
      "8"
    ]
  }
}