{
  "header": {
    "description": "Karaoke Mugen Tag File",
    "version": 1
  },
  "tag": {
    "i18n": {
      "eng": "NOBUYA"
    },
    "name": "NOBUYA",
    "tid": "71eca08b-b1fc-4dd5-a20a-bb7167021108",
    "types": [
      "songwriters",
      "8"
    ],
    "repository": "kara.moe",
    "modified_at": "2020-03-31T19:04:36.730Z"
  }
}