{
  "header": {
    "description": "Karaoke Mugen Tag File",
    "version": 1
  },
  "tag": {
    "i18n": {
      "eng": "Nobuhiko Okamoto"
    },
    "name": "Nobuhiko Okamoto",
    "tid": "f2678e2e-c09f-4fa9-a161-d8b9e602c1aa",
    "types": [
      "singers",
      "2"
    ],
    "repository": "kara.moe",
    "modified_at": "2020-03-31T19:04:36.721Z"
  }
}