{
  "header": {
    "description": "Karaoke Mugen Tag File",
    "version": 1
  },
  "tag": {
    "i18n": {
      "eng": "Noda Masahiro"
    },
    "name": "Noda Masahiro",
    "tid": "4da95c52-80e0-4c9a-a6af-dcf7c3545192",
    "types": [
      "songwriters",
      "8"
    ],
    "repository": "kara.moe",
    "modified_at": "2020-03-31T19:04:36.735Z"
  }
}