{
  "header": {
    "description": "Karaoke Mugen Tag File",
    "version": 1
  },
  "tag": {
    "i18n": {
      "eng": "Nodamin"
    },
    "name": "Nodamin",
    "tid": "79e0aa7d-da9a-4e9a-aa2b-64056a83b49b",
    "types": [
      "authors",
      "6"
    ],
    "repository": "kara.moe",
    "modified_at": "2020-03-31T19:04:36.736Z"
  }
}