{
  "header": {
    "description": "Karaoke Mugen Tag File",
    "version": 1
  },
  "tag": {
    "i18n": {
      "eng": "Noday"
    },
    "modified_at": "2021-07-14T17:10:02.884Z",
    "name": "Noday",
    "repository": "kara.moe",
    "tid": "c3fe2cd4-8fc1-4e14-8e19-cede81dacb96",
    "types": [
      "songwriters",
      "8"
    ]
  }
}