{
  "header": {
    "description": "Karaoke Mugen Tag File",
    "version": 1
  },
  "tag": {
    "i18n": {
      "eng": "noe"
    },
    "name": "noe",
    "tid": "8d0dcc70-9499-440b-877c-0a4967545372",
    "types": [
      "songwriters",
      "8"
    ],
    "repository": "kara.moe",
    "modified_at": "2020-03-31T19:04:36.737Z"
  }
}