{
  "header": {
    "description": "Karaoke Mugen Tag File",
    "version": 1
  },
  "tag": {
    "i18n": {
      "eng": "noisemaker87"
    },
    "modified_at": "2021-09-19T14:16:22.904Z",
    "name": "noisemaker87",
    "repository": "kara.moe",
    "tid": "1a1d4c51-3aca-484f-bd77-9d3d3bb48134",
    "types": [
      "authors",
      "6"
    ]
  }
}