{
  "header": {
    "description": "Karaoke Mugen Tag File",
    "version": 1
  },
  "tag": {
    "i18n": {
      "eng": "noitaminA"
    },
    "name": "noitaminA",
    "tid": "33881a14-788e-4e2a-a97d-1e5f51542a26",
    "types": [
      "groups",
      "9"
    ],
    "repository": "kara.moe",
    "modified_at": "2020-03-31T19:04:36.741Z"
  }
}