{
  "header": {
    "description": "Karaoke Mugen Tag File",
    "version": 1
  },
  "tag": {
    "i18n": {
      "eng": "Nolwenn Corbel"
    },
    "name": "Nolwenn Corbel",
    "tid": "fc7566fd-2aea-4b1f-acc2-7d7841993618",
    "types": [
      "singers",
      "2"
    ],
    "repository": "kara.moe",
    "modified_at": "2020-03-31T19:04:36.743Z"
  }
}