{
  "header": {
    "description": "Karaoke Mugen Tag File",
    "version": 1
  },
  "tag": {
    "aliases": [
      "Nolwenn Le Magueresse"
    ],
    "i18n": {
      "eng": "Nolwenn Leroy"
    },
    "name": "Nolwenn Leroy",
    "repository": "kara.moe",
    "tid": "3ae79a46-0457-4f04-9f8e-16d48d6a410a",
    "types": [
      "singers",
      "2"
    ]
  }
}