{
  "header": {
    "description": "Karaoke Mugen Tag File",
    "version": 1
  },
  "tag": {
    "i18n": {
      "eng": "Norbert Gilbert"
    },
    "name": "Norbert Gilbert",
    "repository": "kara.moe",
    "tid": "ed3c3abc-0dc9-45a0-88a0-1c173319a946",
    "types": [
      "songwriters",
      "8"
    ]
  }
}