{
  "header": {
    "description": "Karaoke Mugen Tag File",
    "version": 1
  },
  "tag": {
    "aliases": [
      "NoriP",
      "のりぴー"
    ],
    "i18n": {
      "eng": "noripy",
      "jpn": "のりP",
      "qro": "Nori-P"
    },
    "name": "Nori-P",
    "repository": "kara.moe",
    "tid": "07d192ba-bd58-4f44-8014-0cd5fb3fbffa",
    "types": [
      "songwriters",
      "8"
    ]
  }
}