{
  "header": {
    "description": "Karaoke Mugen Tag File",
    "version": 1
  },
  "tag": {
    "i18n": {
      "eng": "Noriko Fujimoto"
    },
    "name": "Noriko Fujimoto",
    "tid": "79009b02-66ba-442d-9225-4ffa85a2d923",
    "types": [
      "songwriters",
      "8"
    ],
    "repository": "kara.moe",
    "modified_at": "2020-03-31T19:04:36.758Z"
  }
}