{
  "header": {
    "description": "Karaoke Mugen Tag File",
    "version": 1
  },
  "tag": {
    "i18n": {
      "eng": "notai"
    },
    "modified_at": "2021-05-10T20:31:58.205Z",
    "name": "notai",
    "repository": "kara.moe",
    "tid": "fe0ff53e-0216-480a-b916-465674ccd1a7",
    "types": [
      "creators",
      "4"
    ]
  }
}