{
  "header": {
    "description": "Karaoke Mugen Tag File",
    "version": 1
  },
  "tag": {
    "i18n": {
      "eng": "NP2hu"
    },
    "name": "NP2hu",
    "repository": "kara.moe",
    "tid": "dd692d7a-9524-4e91-9fba-d44e4050c1d1",
    "types": [
      "creators",
      "4"
    ]
  }
}