{
  "header": {
    "description": "Karaoke Mugen Tag File",
    "version": 1
  },
  "tag": {
    "i18n": {
      "eng": "Nujabes"
    },
    "modified_at": "2020-04-26T21:09:03.298Z",
    "name": "Nujabes",
    "repository": "kara.moe",
    "tid": "819be179-0f74-4601-9964-810a43ccb643",
    "types": [
      "songwriters",
      "8",
      "singers",
      "2"
    ]
  }
}