{
  "header": {
    "description": "Karaoke Mugen Tag File",
    "version": 1
  },
  "tag": {
    "i18n": {
      "eng": "NuTz"
    },
    "name": "NuTz",
    "tid": "96f12505-261d-4ae5-ab05-fb920072b7c6",
    "types": [
      "songwriters",
      "8"
    ],
    "repository": "kara.moe",
    "modified_at": "2020-03-31T19:04:36.786Z"
  }
}