{
  "header": {
    "description": "Karaoke Mugen Tag File",
    "version": 1
  },
  "tag": {
    "i18n": {
      "eng": "Oasis"
    },
    "name": "Oasis",
    "tid": "30c8028f-0bcd-4bb4-9242-2c4161f0697f",
    "types": [
      "singers",
      "2"
    ],
    "repository": "kara.moe",
    "modified_at": "2020-03-31T19:04:36.790Z"
  }
}