{
  "header": {
    "description": "Karaoke Mugen Tag File",
    "version": 1
  },
  "tag": {
    "i18n": {
      "eng": "OdiakeS"
    },
    "modified_at": "2021-04-14T23:34:27.625Z",
    "name": "OdiakeS",
    "repository": "kara.moe",
    "tid": "4def33ed-98b3-4816-933e-ae82bf1218fe",
    "types": [
      "songwriters",
      "8"
    ]
  }
}