{
  "header": {
    "description": "Karaoke Mugen Tag File",
    "version": 1
  },
  "tag": {
    "i18n": {
      "eng": "Off the Record"
    },
    "name": "Off the Record",
    "repository": "kara.moe",
    "tid": "ec6ec63e-9dbc-4af3-bf97-99d826311f88",
    "types": [
      "creators",
      "4"
    ]
  }
}