{
  "header": {
    "description": "Karaoke Mugen Tag File",
    "version": 1
  },
  "tag": {
    "i18n": {
      "eng": "OGRE YOU ASSHOLE"
    },
    "name": "OGRE YOU ASSHOLE",
    "tid": "d469878b-7f48-4e0a-9657-9b16d22e72dd",
    "types": [
      "singers",
      "2",
      "songwriters",
      "8"
    ],
    "repository": "kara.moe",
    "modified_at": "2020-03-31T19:04:36.796Z"
  }
}