{
  "header": {
    "description": "Karaoke Mugen Tag File",
    "version": 1
  },
  "tag": {
    "i18n": {
      "eng": "OIMO"
    },
    "name": "OIMO",
    "repository": "kara.moe",
    "tid": "4dc49968-1a41-4d24-adac-46756e49a955",
    "types": [
      "creators",
      "4"
    ]
  }
}