{
  "header": {
    "description": "Karaoke Mugen Tag File",
    "version": 1
  },
  "tag": {
    "i18n": {
      "eng": "Ojamajo Doremi"
    },
    "name": "Ojamajo Doremi",
    "repository": "kara.moe",
    "tid": "bfcefd13-8780-49fe-88aa-f64bdc8f6103",
    "types": [
      "franchises",
      "18"
    ]
  }
}