{
  "header": {
    "description": "Karaoke Mugen Tag File",
    "version": 1
  },
  "tag": {
    "i18n": {
      "eng": "OKEI"
    },
    "name": "OKEI",
    "tid": "947c1b87-6688-4527-b7d5-8d1a400ba9df",
    "types": [
      "songwriters",
      "8"
    ],
    "repository": "kara.moe",
    "modified_at": "2020-03-31T19:04:36.801Z"
  }
}