{
  "header": {
    "description": "Karaoke Mugen Tag File",
    "version": 1
  },
  "tag": {
    "i18n": {
      "eng": "Olesya Rulin"
    },
    "modified_at": "2020-07-07T16:48:33.148Z",
    "name": "Olesya Rulin",
    "repository": "kara.moe",
    "tid": "c3eedc91-ea3f-4289-a0db-61ba40c8d462",
    "types": [
      "singers",
      "2"
    ]
  }
}