{
  "header": {
    "description": "Karaoke Mugen Tag File",
    "version": 1
  },
  "tag": {
    "i18n": {
      "eng": "Oliver Onions"
    },
    "name": "Oliver Onions",
    "tid": "af19407f-53ff-424e-bf69-53d9c111cf8c",
    "types": [
      "singers",
      "2"
    ],
    "repository": "kara.moe",
    "modified_at": "2020-03-31T19:04:36.804Z"
  }
}