{
  "header": {
    "description": "Karaoke Mugen Tag File",
    "version": 1
  },
  "tag": {
    "i18n": {
      "eng": "OMOCHIKAERI RECORDS"
    },
    "name": "OMOCHIKAERI RECORDS",
    "repository": "kara.moe",
    "tid": "5dd67975-1477-4b7b-9046-8780997c5dc1",
    "types": [
      "creators",
      "4"
    ]
  }
}