{
  "header": {
    "description": "Karaoke Mugen Tag File",
    "version": 1
  },
  "tag": {
    "i18n": {
      "eng": "Omokage Lucky Hole"
    },
    "name": "Omokage Lucky Hole",
    "tid": "24f8cff5-6645-41ba-bfb6-fb77ecd4acbb",
    "types": [
      "singers",
      "2"
    ],
    "repository": "kara.moe",
    "modified_at": "2020-03-31T19:04:36.811Z"
  }
}