{
  "header": {
    "description": "Karaoke Mugen Tag File",
    "version": 1
  },
  "tag": {
    "aliases": [
      "Ongaku Shôjo"
    ],
    "external_database_ids": {
      "anilist": 21071,
      "myanimelist": 29511,
      "kitsu": 10422
    },
    "i18n": {
      "eng": "Music Girls",
      "jpn": "音楽少女",
      "qro": "Ongaku Shoujo"
    },
    "modified_at": "2020-03-31T19:04:32.387Z",
    "name": "Ongaku Shoujo",
    "repository": "kara.moe",
    "tid": "7fb6baf8-a8bd-47c9-850a-90d3e301b28b",
    "types": [
      "series",
      "1"
    ]
  }
}