{
  "header": {
    "description": "Karaoke Mugen Tag File",
    "version": 1
  },
  "tag": {
    "i18n": {
      "eng": "Ongaku Shôjo"
    },
    "name": "Ongaku Shôjo",
    "tid": "07f70eb2-a653-4171-944c-c8f3845d89d7",
    "types": [
      "singers",
      "2"
    ],
    "repository": "kara.moe",
    "modified_at": "2020-03-31T19:04:36.816Z"
  }
}