{
  "header": {
    "description": "Karaoke Mugen Tag File",
    "version": 1
  },
  "tag": {
    "i18n": {
      "eng": "Oni Harano"
    },
    "modified_at": "2020-08-26T21:15:35.136Z",
    "name": "Oni Harano",
    "repository": "kara.moe",
    "tid": "7b4bf325-d0a9-48d9-be36-24e1deed3a32",
    "types": [
      "singers",
      "2"
    ]
  }
}