{
  "header": {
    "description": "Karaoke Mugen Tag File",
    "version": 1
  },
  "tag": {
    "i18n": {
      "eng": "OniiFGC"
    },
    "name": "OniiFGC",
    "repository": "kara.moe",
    "tid": "391e8f63-af54-4088-b619-c7c1e286e5e1",
    "types": [
      "authors",
      "6"
    ]
  }
}