{
  "header": {
    "description": "Karaoke Mugen Tag File",
    "version": 1
  },
  "tag": {
    "i18n": {
      "eng": "ONIPANS!"
    },
    "name": "ONIPANS!",
    "repository": "kara.moe",
    "tid": "bfee70c5-9dc8-4cda-b9af-b504b2dbe0c7",
    "types": [
      "singers",
      "2"
    ]
  }
}