{
  "header": {
    "description": "Karaoke Mugen Tag File",
    "version": 1
  },
  "tag": {
    "aliases": [
      "Big Windup! 2",
      "Big Windup! Season 2",
      "OF2",
      "Oofuri 2",
      "Ookiku Furikabutte 2"
    ],
    "external_database_ids": {
      "anilist": 7720,
      "myanimelist": 7720,
      "kitsu": 5095
    },
    "i18n": {
      "eng": "Big Windup! 2: The Summer Tournament",
      "fre": "Ôkiku Furikabutte: Natsu no Taikai-hen",
      "jpn": "おおきく振りかぶって~夏の大会編~",
      "qro": "Ookiku Furikabutte Natsu no Taikai-hen"
    },
    "modified_at": "2020-03-31T19:04:32.395Z",
    "name": "Ookiku Furikabutte Natsu no Taikai-hen",
    "repository": "kara.moe",
    "tid": "fefeb934-36cf-4c9b-a5c6-2b973764efcf",
    "types": [
      "series",
      "1"
    ]
  }
}