{
  "header": {
    "description": "Karaoke Mugen Tag File",
    "version": 1
  },
  "tag": {
    "aliases": [
      "NouKome",
      "Noucome",
      "NôKome",
      "Nôcome"
    ],
    "external_database_ids": {
      "anilist": 19221,
      "myanimelist": 19221,
      "kitsu": 7846
    },
    "i18n": {
      "eng": "My Mental Choices Are Completely Interfering With My School Romantic Comedy",
      "fre": "NouCome",
      "jpn": "俺の脳内選択肢が、学園ラブコメを全力で邪魔している",
      "qro": "Ore no Nounai Sentakushi ga Gakuen Love Comedy wo Zenryoku de Jama Shiteiru"
    },
    "modified_at": "2020-03-31T19:04:32.401Z",
    "name": "Ore no Nounai Sentakushi ga Gakuen Love Comedy wo Zenryoku de Jama Shiteiru",
    "repository": "kara.moe",
    "tid": "4870dd13-dd9d-492c-ae4f-875dc1c38feb",
    "types": [
      "series",
      "1"
    ]
  }
}