{
  "header": {
    "description": "Karaoke Mugen Tag File",
    "version": 1
  },
  "tag": {
    "aliases": [
      "Merman in my Tub",
      "Orenchi no Furo Jijou",
      "orefuro",
      "jijou"
    ],
    "external_database_ids": {
      "anilist": 20720,
      "myanimelist": 24211,
      "kitsu": 8575
    },
    "i18n": {
      "eng": "Orenchi no Furo Jijo",
      "fre": "Orenchi no Furo Jijô",
      "jpn": "オレん家のフロ事情",
      "qro": "Orenchi no Furo Jijô"
    },
    "modified_at": "2020-03-31T19:04:32.404Z",
    "name": "Orenchi no Furo Jijô",
    "repository": "kara.moe",
    "tid": "8e3c943a-1d2b-41f6-a287-a652feca70fe",
    "types": [
      "series",
      "1"
    ]
  }
}