{
  "header": {
    "description": "Karaoke Mugen Tag File",
    "version": 1
  },
  "tag": {
    "i18n": {
      "afr": "Oriya",
      "amh": "ቅድሚያ",
      "ara": "الأوريا",
      "aze": "Norveç",
      "bak": "Ория",
      "bel": "Ория",
      "bul": "Oriya",
      "ben": "ওড়িয়া",
      "bos": "Orijski",
      "cat": "Oriya",
      "cze": "Urijština",
      "wel": "Oriya",
      "dan": "Oriya",
      "ger": "Oriya",
      "gre": "Ορίγια",
      "eng": "Oriya",
      "epo": "Oriya",
      "spa": "Oriya",
      "est": "Oriya",
      "baq": "Oriya",
      "per": "اوریهای",
      "fin": "Oriya",
      "fre": "Oriya",
      "gle": "Oraisis",
      "gla": "Oriya",
      "glg": "Oriya",
      "guj": "ઉડિયા",
      "heb": "אוריה",
      "hin": "उड़िया",
      "hrv": "Orijski",
      "hat": "Oriya",
      "hun": "Oriya",
      "arm": "Օրիյա",
      "ind": "Oriya",
      "ice": "Íslenska",
      "ita": "Oriya",
      "jpn": "Oriya",
      "jav": "Oriya",
      "geo": "ორია",
      "kaz": "Ория",
      "kan": "ಓರಿಯಾ",
      "kor": "Oriya",
      "kir": "Ория",
      "lat": "Oriya",
      "lit": "Orijų",
      "lav": "Oriju",
      "mlg": "Oriya",
      "mao": "Oriya",
      "mac": "Oriya",
      "mal": "ഒറിയ",
      "mon": "Oriya",
      "mar": "ओरिया",
      "may": "Bengali",
      "mlt": "}",
      "nep": "Oriya",
      "dut": "Oriya",
      "nor": "Oriya",
      "pan": "Oriya",
      "pol": "Oria",
      "por": "Oriya",
      "rum": "Oriya",
      "rus": "Ория",
      "sin": "ඔරිය",
      "slo": "Oriya",
      "slv": "V maithilščino",
      "alb": "Afrikanisht",
      "srp": "Орија",
      "sun": "Oriya",
      "swe": "Oriya",
      "swa": "Kioriya",
      "tam": "ஒரியா",
      "tel": "ఒరియా",
      "tgk": "Ория",
      "tha": "ภาษาโอริยา name",
      "tgl": "Oriya",
      "tur": "Kazakça",
      "tat": "Ория",
      "ukr": "Орія",
      "urd": "اورِیا",
      "uzb": "Oriya",
      "vie": "Tiếng",
      "xho": "I-oriya",
      "yid": "Oriya",
      "chi": "奥里亚"
    },
    "name": "ori",
    "tid": "0839b5e1-cd76-436e-b558-643a4c511e0a",
    "types": [
      "langs",
      "5"
    ],
    "repository": "kara.moe",
    "modified_at": "2020-03-31T19:04:36.828Z"
  }
}