{
  "header": {
    "description": "Karaoke Mugen Tag File",
    "version": 1
  },
  "tag": {
    "i18n": {
      "eng": "ORIGA"
    },
    "name": "ORIGA",
    "tid": "01982549-873e-401b-b6e5-23d7f8205efa",
    "types": [
      "singers",
      "2",
      "songwriters",
      "8"
    ],
    "repository": "kara.moe",
    "modified_at": "2020-03-31T19:04:36.830Z"
  }
}