{
  "header": {
    "description": "Karaoke Mugen Tag File",
    "version": 1
  },
  "tag": {
    "i18n": {
      "eng": "ORTF Télévision 2"
    },
    "name": "ORTF Télévision 2",
    "repository": "kara.moe",
    "tid": "bd6f766e-6623-49d5-bdc6-0cd63ce082d6",
    "types": [
      "creators",
      "4"
    ]
  }
}