{
  "header": {
    "description": "Karaoke Mugen Tag File",
    "version": 1
  },
  "tag": {
    "i18n": {
      "eng": "Osamu Totsuya"
    },
    "name": "Osamu Totsuya",
    "tid": "01dfacfe-ef14-40f6-9541-4a62648bce72",
    "types": [
      "songwriters",
      "8"
    ],
    "repository": "kara.moe",
    "modified_at": "2020-03-31T19:04:36.838Z"
  }
}