{
  "header": {
    "description": "Karaoke Mugen Tag File",
    "version": 1
  },
  "tag": {
    "i18n": {
      "eng": "Osawa Atsushi"
    },
    "name": "Osawa Atsushi",
    "repository": "kara.moe",
    "tid": "3fc0e8c9-8f99-4e77-a720-4614e372910d",
    "types": [
      "songwriters",
      "8"
    ],
    "modified_at": "2020-03-31T19:04:36.840Z"
  }
}