{
  "header": {
    "description": "Karaoke Mugen Tag File",
    "version": 1
  },
  "tag": {
    "i18n": {
      "eng": "österreich"
    },
    "name": "österreich",
    "tid": "08f70a99-1cf7-4c4a-b45f-cb84f80e37a0",
    "types": [
      "singers",
      "2"
    ],
    "repository": "kara.moe",
    "modified_at": "2020-03-31T19:04:36.843Z"
  }
}