{
  "header": {
    "description": "Karaoke Mugen Tag File",
    "version": 1
  },
  "tag": {
    "i18n": {
      "eng": "Otaku2Vice"
    },
    "name": "Otaku2Vice",
    "tid": "d5ca0834-75e9-4c59-ac8a-a87a3614cfd6",
    "types": [
      "singers",
      "2"
    ],
    "repository": "kara.moe",
    "modified_at": "2020-03-31T19:04:36.844Z"
  }
}