{
  "header": {
    "description": "Karaoke Mugen Tag File",
    "version": 1
  },
  "tag": {
    "i18n": {
      "eng": "OTMGirls"
    },
    "name": "OTMGirls",
    "repository": "kara.moe",
    "tid": "231a08da-c3b3-4645-80c1-78702d40a333",
    "types": [
      "singers",
      "2"
    ]
  }
}