{
  "header": {
    "description": "Karaoke Mugen Tag File",
    "version": 1
  },
  "tag": {
    "i18n": {
      "eng": "Oyuki Konno"
    },
    "name": "Oyuki Konno",
    "tid": "0e031fd0-bc51-407a-9cf0-461bdebfed0e",
    "types": [
      "songwriters",
      "8"
    ],
    "repository": "kara.moe",
    "modified_at": "2020-03-31T19:04:36.854Z"
  }
}