{
  "header": {
    "description": "Karaoke Mugen Tag File",
    "version": 1
  },
  "tag": {
    "i18n": {
      "eng": "OzaShin"
    },
    "name": "OzaShin",
    "tid": "6844cf89-d0d8-437d-a3eb-2f777d8c590b",
    "types": [
      "songwriters",
      "8"
    ],
    "repository": "kara.moe",
    "modified_at": "2020-03-31T19:04:36.855Z"
  }
}