{
  "header": {
    "description": "Karaoke Mugen Tag File",
    "version": 1
  },
  "tag": {
    "i18n": {
      "eng": "P.I.C.S."
    },
    "name": "P.I.C.S.",
    "repository": "kara.moe",
    "tid": "e76d027c-b04e-40e5-a2f5-38905bd6d68f",
    "types": [
      "creators",
      "4"
    ]
  }
}