{
  "header": {
    "description": "Karaoke Mugen Tag File",
    "version": 1
  },
  "tag": {
    "i18n": {
      "eng": "Pacayaka"
    },
    "name": "Pacayaka",
    "repository": "kara.moe",
    "tid": "75faf1cf-66a8-4063-9100-5dd550352144",
    "types": [
      "authors",
      "6"
    ]
  }
}