{
  "header": {
    "description": "Karaoke Mugen Tag File",
    "version": 1
  },
  "tag": {
    "i18n": {
      "eng": "Painted Edge"
    },
    "name": "Painted Edge",
    "repository": "kara.moe",
    "tid": "773337fd-8095-43ba-92e2-bcc5dcbce324",
    "types": [
      "creators",
      "4"
    ]
  }
}