{
  "header": {
    "description": "Karaoke Mugen Tag File",
    "version": 1
  },
  "tag": {
    "i18n": {
      "eng": "Paisano87"
    },
    "name": "Paisano87",
    "repository": "kara.moe",
    "tid": "3d370ebb-c9f6-4f9a-b44d-f529fa822c89",
    "types": [
      "authors",
      "6"
    ]
  }
}