{
  "header": {
    "description": "Karaoke Mugen Tag File",
    "version": 1
  },
  "tag": {
    "i18n": {
      "eng": "Pamela Lansbury"
    },
    "name": "Pamela Lansbury",
    "repository": "kara.moe",
    "tid": "fecc2f02-dfcd-44fa-b695-273f5169ba3d",
    "types": [
      "singers",
      "2"
    ]
  }
}