{
  "header": {
    "description": "Karaoke Mugen Tag File",
    "version": 1
  },
  "tag": {
    "i18n": {
      "eng": "Pandanium"
    },
    "name": "Pandanium",
    "tid": "c720ccab-4ade-4c54-b585-df669ec00a47",
    "types": [
      "creators",
      "4"
    ],
    "repository": "kara.moe",
    "modified_at": "2020-03-31T19:04:36.864Z"
  }
}