{
  "header": {
    "description": "Karaoke Mugen Tag File",
    "version": 1
  },
  "tag": {
    "i18n": {
      "eng": "Pandaboy"
    },
    "modified_at": "2021-04-19T16:47:14.676Z",
    "name": "Pandaboy",
    "repository": "kara.moe",
    "tid": "308d3464-56b7-45ef-bce5-f898d25b707e",
    "types": [
      "songwriters",
      "8"
    ]
  }
}