{
  "header": {
    "description": "Karaoke Mugen Tag File",
    "version": 1
  },
  "tag": {
    "i18n": {
      "eng": "Paprinka"
    },
    "name": "Paprinka",
    "repository": "kara.moe",
    "tid": "1cf5099a-d032-4f83-a99d-cf38adeb5c67",
    "types": [
      "series",
      "1"
    ]
  }
}