{
  "header": {
    "description": "Karaoke Mugen Tag File",
    "version": 1
  },
  "tag": {
    "aliases": [
      "パラライ"
    ],
    "i18n": {
      "jpn": "パラドックスライブ",
      "qro": "Paradox Live"
    },
    "name": "Paradox Live",
    "repository": "kara.moe",
    "short": "Pararai",
    "tid": "75f920f8-98bf-4ef1-8c1b-5a26f4bfc16e",
    "types": [
      "franchises",
      "18",
      "series",
      "1"
    ]
  }
}