{
  "header": {
    "description": "Karaoke Mugen Tag File",
    "version": 1
  },
  "tag": {
    "i18n": {
      "fre": "Paris RER"
    },
    "modified_at": "2020-03-31T19:04:32.436Z",
    "name": "Paris RER",
    "repository": "kara.moe",
    "tid": "507205b0-766e-45ba-8901-ee4fd6a040ad",
    "types": [
      "series",
      "1"
    ]
  }
}