{
  "header": {
    "description": "Karaoke Mugen Tag File",
    "version": 1
  },
  "tag": {
    "i18n": {
      "eng": "Park Lena"
    },
    "name": "Park Lena",
    "tid": "e6d51019-ec6e-498d-8a2a-898a8ffef496",
    "types": [
      "singers",
      "2"
    ],
    "repository": "kara.moe",
    "modified_at": "2020-03-31T19:04:36.873Z"
  }
}