{
  "header": {
    "description": "Karaoke Mugen Tag File",
    "version": 1
  },
  "tag": {
    "aliases": [
      "Pataliro",
      "Patalirro",
      "Patarillo",
      "Patariro"
    ],
    "external_database_ids": {
      "anilist": 2835,
      "myanimelist": 2835,
      "kitsu": 2589
    },
    "i18n": {
      "eng": "Patalliro!",
      "jpn": "パタリロ!",
      "qro": "Patalliro!"
    },
    "modified_at": "2020-03-31T19:04:32.437Z",
    "name": "Patalliro!",
    "repository": "kara.moe",
    "tid": "601ca9c6-dc28-4773-b0ba-53747905006d",
    "types": [
      "series",
      "1"
    ]
  }
}