{
  "header": {
    "description": "Karaoke Mugen Tag File",
    "version": 1
  },
  "tag": {
    "i18n": {
      "eng": "Patricia Legrand"
    },
    "name": "Patricia Legrand",
    "tid": "5738f097-a238-46b5-91b8-3b2f4be4232f",
    "types": [
      "singers",
      "2"
    ],
    "repository": "kara.moe",
    "modified_at": "2020-03-31T19:04:36.883Z"
  }
}