{
  "header": {
    "description": "Karaoke Mugen Tag File",
    "version": 1
  },
  "tag": {
    "i18n": {
      "eng": "PatTwo"
    },
    "name": "PatTwo",
    "repository": "kara.moe",
    "tid": "5c6d3f71-9de0-48b6-8144-db6e2dc0fd36",
    "types": [
      "authors",
      "6"
    ]
  }
}