{
  "header": {
    "description": "Karaoke Mugen Tag File",
    "version": 1
  },
  "tag": {
    "i18n": {
      "eng": "paukshop"
    },
    "name": "paukshop",
    "repository": "kara.moe",
    "tid": "a15c454c-0b99-4885-adbc-d2251eca843d",
    "types": [
      "creators",
      "4"
    ]
  }
}