{
  "header": {
    "description": "Karaoke Mugen Tag File",
    "version": 1
  },
  "tag": {
    "i18n": {
      "eng": "Paulina Cerrilla"
    },
    "name": "Paulina Cerrilla",
    "repository": "kara.moe",
    "tid": "253f5825-89ac-4549-a8d7-241e07725f0c",
    "types": [
      "songwriters",
      "8"
    ]
  }
}