{
  "header": {
    "description": "Karaoke Mugen Tag File",
    "version": 1
  },
  "tag": {
    "i18n": {
      "eng": "PeachyFranny"
    },
    "name": "PeachyFranny",
    "repository": "kara.moe",
    "tid": "b573d901-6d60-4f1d-ac99-9932d7d1c701",
    "types": [
      "songwriters",
      "8"
    ]
  }
}