{
  "header": {
    "description": "Karaoke Mugen Tag File",
    "version": 1
  },
  "tag": {
    "i18n": {
      "eng": "PENICILLIN"
    },
    "name": "PENICILLIN",
    "tid": "7862e04f-3210-4694-a5b5-f12032f4559b",
    "types": [
      "singers",
      "2",
      "songwriters",
      "8"
    ],
    "repository": "kara.moe",
    "modified_at": "2020-03-31T19:04:36.900Z"
  }
}