{
  "header": {
    "description": "Karaoke Mugen Tag File",
    "version": 1
  },
  "tag": {
    "i18n": {
      "eng": "Peperoni"
    },
    "name": "Peperoni",
    "repository": "kara.moe",
    "tid": "7c78eb45-3ee6-4216-b5b5-358819ee995c",
    "types": [
      "songwriters",
      "8"
    ]
  }
}