{
  "header": {
    "description": "Karaoke Mugen Tag File",
    "version": 1
  },
  "tag": {
    "external_database_ids": {
      "anilist": 437,
      "myanimelist": 437,
      "kitsu": 400
    },
    "i18n": {
      "eng": "Perfect Blue"
    },
    "modified_at": "2020-09-25T22:52:14.600Z",
    "name": "Perfect Blue",
    "repository": "kara.moe",
    "tid": "df29c85d-9bef-4218-ac44-f188b109143b",
    "types": [
      "series",
      "1"
    ]
  }
}