{
  "header": {
    "description": "Karaoke Mugen Tag File",
    "version": 1
  },
  "tag": {
    "aliases": [
      "P-man",
      "Paaman",
      "Parman",
      "Superkid"
    ],
    "external_database_ids": {
      "anilist": 11595,
      "myanimelist": 11595,
      "kitsu": 6545
    },
    "i18n": {
      "eng": "Perman (1983)",
      "jpn": "パーマン (1983)",
      "qro": "Perman (1983)"
    },
    "modified_at": "2020-03-31T19:04:32.441Z",
    "name": "Perman (1983)",
    "repository": "kara.moe",
    "tid": "06b9eff2-9782-4c7e-a77e-dd1e9273fc70",
    "types": [
      "series",
      "1"
    ]
  }
}