{
  "header": {
    "description": "Karaoke Mugen Tag File",
    "version": 1
  },
  "tag": {
    "aliases": [
      "P5"
    ],
    "i18n": {
      "eng": "Persona 5",
      "jpn": "ペルソナ5",
      "qro": "Persona 5"
    },
    "modified_at": "2020-03-31T19:04:32.450Z",
    "name": "Persona 5",
    "repository": "kara.moe",
    "tid": "68c6b386-b57a-48cb-a082-818e49ff6548",
    "types": [
      "series",
      "1"
    ]
  }
}