{
  "header": {
    "description": "Karaoke Mugen Tag File",
    "version": 1
  },
  "tag": {
    "i18n": {
      "eng": "Peter Risavy"
    },
    "modified_at": "2021-05-23T23:22:13.480Z",
    "name": "Peter Risavy",
    "repository": "kara.moe",
    "tid": "7bb787ae-38bd-4d83-8f56-d6e43f08cee7",
    "types": [
      "songwriters",
      "8"
    ]
  }
}