{
  "header": {
    "description": "Karaoke Mugen Tag File",
    "version": 1
  },
  "tag": {
    "i18n": {
      "eng": "Peter Brown"
    },
    "name": "Peter Brown",
    "repository": "kara.moe",
    "tid": "96bbfd1f-b511-412e-bf8d-161af4068c2f",
    "types": [
      "songwriters",
      "8"
    ]
  }
}