{
  "header": {
    "description": "Karaoke Mugen Tag File",
    "version": 1
  },
  "tag": {
    "external_database_ids": {
      "anilist": 111965,
      "myanimelist": 40436,
      "kitsu": 42563
    },
    "i18n": {
      "eng": "Peter Grill and the Philosopher's Time",
      "qro": "Peter Grill to Kenja no Jikan",
      "jpn": "ピーター・グリルと賢者の時間"
    },
    "modified_at": "2021-10-15T22:06:57.426Z",
    "name": "Peter Grill to Kenja no Jikan",
    "repository": "kara.moe",
    "tid": "e2ecb8cc-4c5e-482c-b865-7a3803612b00",
    "types": [
      "series",
      "1"
    ]
  }
}