{
  "header": {
    "description": "Karaoke Mugen Tag File",
    "version": 1
  },
  "tag": {
    "i18n": {
      "eng": "Petra Scheeser"
    },
    "name": "Petra Scheeser",
    "repository": "kara.moe",
    "tid": "f23c61ea-497b-4a47-b5c7-b3716b7d6169",
    "types": [
      "songwriters",
      "8",
      "singers",
      "2"
    ]
  }
}