{
  "header": {
    "description": "Karaoke Mugen Tag File",
    "version": 1
  },
  "tag": {
    "aliases": [
      "Phi Brain: The God's Puzzle",
      "PhiBrain",
      "Мозг Фи: Божественная головоломка",
      "Фи Брейн: Господарят на пъзелите",
      "فی برین: پازل ایزدی"
    ],
    "external_database_ids": {
      "anilist": 9981,
      "myanimelist": 9981,
      "kitsu": 5978
    },
    "i18n": {
      "ara": "دماغ الفيلسوف : لغز الإله",
      "eng": "Phi-Brain: Puzzle of God",
      "jpn": "ファイ・ブレイン 神のパズル",
      "qro": "Phi Brain Kami no Puzzle"
    },
    "modified_at": "2020-06-21T23:45:31.966Z",
    "name": "Phi Brain Kami no Puzzle",
    "repository": "kara.moe",
    "tid": "3cb042f8-be7a-4fa0-8135-5e2b7e5d8704",
    "types": [
      "series",
      "1",
      "franchises",
      "18"
    ]
  }
}