{
  "header": {
    "description": "Karaoke Mugen Tag File",
    "version": 1
  },
  "tag": {
    "i18n": {
      "eng": "Philosophy no Dance"
    },
    "modified_at": "2021-11-20T16:40:50.017Z",
    "name": "Philosophy no Dance",
    "repository": "kara.moe",
    "tid": "e3642953-46d9-4b67-a211-2aae52391dd1",
    "types": [
      "singers",
      "2"
    ]
  }
}