{
  "header": {
    "description": "Karaoke Mugen Tag File",
    "version": 1
  },
  "tag": {
    "i18n": {
      "eng": "Philippe d'Avilla"
    },
    "name": "Philippe d'Avilla",
    "repository": "kara.moe",
    "tid": "3f2189e9-536e-4458-a8b0-ae17744b7255",
    "types": [
      "singers",
      "2"
    ]
  }
}