{
  "header": {
    "description": "Karaoke Mugen Tag File",
    "version": 1
  },
  "tag": {
    "i18n": {
      "eng": "Philippe Roullier"
    },
    "name": "Philippe Roullier",
    "tid": "10e591fc-7557-4103-b7d7-715c3cd15c36",
    "types": [
      "songwriters",
      "8"
    ],
    "repository": "kara.moe",
    "modified_at": "2020-03-31T19:04:36.917Z"
  }
}