{
  "header": {
    "description": "Karaoke Mugen Tag File",
    "version": 1
  },
  "tag": {
    "i18n": {
      "eng": "Phil Thornalley"
    },
    "modified_at": "2021-05-21T15:12:49.196Z",
    "name": "Phil Thornalley",
    "repository": "kara.moe",
    "tid": "553cddae-9547-41d8-bc5f-7f327a6824d9",
    "types": [
      "songwriters",
      "8"
    ]
  }
}