{
  "header": {
    "description": "Karaoke Mugen Tag File",
    "version": 1
  },
  "tag": {
    "i18n": {
      "eng": "Photon Maiden"
    },
    "name": "Photon Maiden",
    "repository": "kara.moe",
    "tid": "6d679de1-81d9-418d-bf45-90b79f0ab9ab",
    "types": [
      "singergroups",
      "17"
    ]
  }
}