{
  "header": {
    "description": "Karaoke Mugen Tag File",
    "version": 1
  },
  "tag": {
    "i18n": {
      "eng": "Pierre Billon"
    },
    "name": "Pierre Billon",
    "tid": "59a25696-ebee-4a63-9844-2cad975451d7",
    "types": [
      "singers",
      "2"
    ],
    "repository": "kara.moe",
    "modified_at": "2020-03-31T19:04:36.922Z"
  }
}