{
  "header": {
    "description": "Karaoke Mugen Tag File",
    "version": 1
  },
  "tag": {
    "i18n": {
      "eng": "PIERROT"
    },
    "name": "PIERROT",
    "tid": "aaff4ba6-9a12-4bac-9bd0-c0cb783e4177",
    "types": [
      "creators",
      "4"
    ],
    "repository": "kara.moe",
    "modified_at": "2020-03-31T19:04:36.929Z"
  }
}