{
  "header": {
    "description": "Karaoke Mugen Tag File",
    "version": 1
  },
  "tag": {
    "i18n": {
      "eng": "Pierre Bodson"
    },
    "name": "Pierre Bodson",
    "tid": "8478b374-7b75-4bdb-bf6c-69f6125acf35",
    "types": [
      "singers",
      "2"
    ],
    "repository": "kara.moe",
    "modified_at": "2020-03-31T19:04:36.923Z"
  }
}