{
  "header": {
    "description": "Karaoke Mugen Tag File",
    "version": 1
  },
  "tag": {
    "i18n": {
      "fre": "Pif et Hercule"
    },
    "modified_at": "2020-03-31T19:04:32.460Z",
    "name": "Pif et Hercule",
    "repository": "kara.moe",
    "tid": "a13af7f9-0bcb-4e41-b57b-3739001bc84f",
    "types": [
      "series",
      "1"
    ]
  }
}