{
  "header": {
    "description": "Karaoke Mugen Tag File",
    "version": 1
  },
  "tag": {
    "i18n": {
      "eng": "Pikmin",
      "jpn": "ピクミン",
      "qro": "Pikmin"
    },
    "modified_at": "2020-07-17T13:30:10.367Z",
    "name": "Pikmin",
    "repository": "kara.moe",
    "tid": "6398e822-60d9-4140-a2d5-c7f1f2b37c0c",
    "types": [
      "series",
      "1"
    ]
  }
}