{
  "header": {
    "description": "Karaoke Mugen Tag File",
    "version": 1
  },
  "tag": {
    "i18n": {
      "eng": "pin"
    },
    "name": "pin",
    "tid": "b3d1df94-ba02-4951-b082-2c5bbcf168f1",
    "types": [
      "creators",
      "4"
    ],
    "repository": "kara.moe",
    "modified_at": "2020-03-31T19:04:36.933Z"
  }
}