{
  "header": {
    "description": "Karaoke Mugen Tag File",
    "version": 1
  },
  "tag": {
    "i18n": {
      "eng": "Pistol Takehara"
    },
    "name": "Pistol Takehara",
    "tid": "88e51564-2eb4-4263-9811-22bc2d8e2214",
    "types": [
      "singers",
      "2",
      "songwriters",
      "8"
    ],
    "repository": "kara.moe",
    "modified_at": "2020-03-31T19:04:36.938Z"
  }
}