{
  "header": {
    "description": "Karaoke Mugen Tag File",
    "version": 1
  },
  "tag": {
    "i18n": {
      "eng": "PlayStation 5"
    },
    "karafile_tag": "PS5",
    "modified_at": "2021-09-02T19:19:18.380Z",
    "name": "PlayStation 5",
    "repository": "kara.moe",
    "short": "PS5",
    "tid": "d22db878-440d-46c1-a749-ae575c78983d",
    "types": [
      "platforms",
      "13"
    ]
  }
}