{
  "header": {
    "description": "Karaoke Mugen Tag File",
    "version": 1
  },
  "tag": {
    "i18n": {
      "eng": "PNGN 6"
    },
    "name": "PNGN 6",
    "repository": "kara.moe",
    "tid": "d09a24b1-814f-4e03-b553-ae950c0bfedb",
    "types": [
      "singergroups",
      "17"
    ]
  }
}