{
  "header": {
    "description": "Karaoke Mugen Tag File",
    "version": 1
  },
  "tag": {
    "i18n": {
      "eng": "Poker Face"
    },
    "name": "Poker Face",
    "repository": "kara.moe",
    "tid": "a9aa747d-2427-437e-a38f-fa0cf4a6345b",
    "types": [
      "singers",
      "2"
    ]
  }
}