{
  "header": {
    "description": "Karaoke Mugen Tag File",
    "version": 1
  },
  "tag": {
    "i18n": {
      "eng": "Pokémon Music Club"
    },
    "name": "Pokémon Music Club",
    "tid": "4b02d49b-d151-4d59-8d0e-88521a97f99e",
    "types": [
      "singers",
      "2"
    ],
    "repository": "kara.moe",
    "modified_at": "2020-03-31T19:04:36.958Z"
  }
}