{
  "header": {
    "description": "Karaoke Mugen Tag File",
    "version": 1
  },
  "tag": {
    "i18n": {
      "eng": "Polygon Pictures"
    },
    "name": "Polygon Pictures",
    "tid": "fb13d18f-0d0e-4eba-bea9-67aebf2f8a24",
    "types": [
      "creators",
      "4"
    ],
    "repository": "kara.moe",
    "modified_at": "2020-03-31T19:04:36.959Z"
  }
}