{
  "header": {
    "description": "Karaoke Mugen Tag File",
    "version": 1
  },
  "tag": {
    "i18n": {
      "eng": "Pom"
    },
    "name": "Pom",
    "repository": "kara.moe",
    "tid": "4d34aaea-442e-4429-835e-5b45b4c08b14",
    "types": [
      "creators",
      "4"
    ]
  }
}