{
  "header": {
    "description": "Karaoke Mugen Tag File",
    "version": 1
  },
  "tag": {
    "i18n": {
      "eng": "Pontus Norgren"
    },
    "name": "Pontus Norgren",
    "repository": "kara.moe",
    "tid": "7fd29411-666c-4155-8723-b5ccc61b4f20",
    "types": [
      "songwriters",
      "8"
    ]
  }
}