{
  "header": {
    "description": "Karaoke Mugen Tag File",
    "version": 1
  },
  "tag": {
    "i18n": {
      "eng": "Pop Time"
    },
    "name": "Pop Time",
    "tid": "102de828-6fc2-485a-89b0-e215e3e15c2b",
    "types": [
      "songwriters",
      "8"
    ],
    "repository": "kara.moe",
    "modified_at": "2020-03-31T19:04:36.963Z"
  }
}