{
  "header": {
    "description": "Karaoke Mugen Tag File",
    "version": 1
  },
  "tag": {
    "aliases": [
      "ppt",
      "Попотан"
    ],
    "external_database_ids": {
      "anilist": 610,
      "myanimelist": 610,
      "kitsu": 565
    },
    "i18n": {
      "eng": "Popotan",
      "jpn": "ぽぽたん",
      "qro": "Popotan"
    },
    "modified_at": "2020-03-31T19:04:32.493Z",
    "name": "Popotan",
    "repository": "kara.moe",
    "tid": "caa95c93-a6ea-4bfb-8c1a-d573bf16824d",
    "types": [
      "series",
      "1"
    ]
  }
}