{
  "header": {
    "description": "Karaoke Mugen Tag File",
    "version": 1
  },
  "tag": {
    "i18n": {
      "eng": "Porter Robinson"
    },
    "name": "Porter Robinson",
    "repository": "kara.moe",
    "tid": "ff2044a6-c11c-4b3a-bab0-1cf3cbc8c745",
    "types": [
      "songwriters",
      "8",
      "singers",
      "2"
    ]
  }
}