{
  "header": {
    "description": "Karaoke Mugen Tag File",
    "version": 1
  },
  "tag": {
    "i18n": {
      "eng": "Positiva Records"
    },
    "name": "Positiva Records",
    "repository": "kara.moe",
    "tid": "f2cabdb3-30eb-4dd2-a526-81344cc99078",
    "types": [
      "creators",
      "4"
    ]
  }
}