{
  "header": {
    "description": "Karaoke Mugen Tag File",
    "version": 1
  },
  "tag": {
    "i18n": {
      "eng": "Powerhouse Animation Studios"
    },
    "modified_at": "2020-12-12T15:18:38.893Z",
    "name": "Powerhouse Animation Studios",
    "repository": "kara.moe",
    "tid": "eeddd8f3-2ae5-45c0-adf9-804e628e673e",
    "types": [
      "creators",
      "4"
    ]
  }
}