{
  "header": {
    "description": "Karaoke Mugen Tag File",
    "version": 1
  },
  "tag": {
    "i18n": {
      "eng": "Power Rangers Time Force",
      "fre": "Power Rangers : La Force du temps"
    },
    "modified_at": "2020-03-31T19:04:32.496Z",
    "name": "Power Rangers Time Force",
    "repository": "kara.moe",
    "tid": "152ae1f3-a3ff-4d7b-9eea-026374610da3",
    "types": [
      "series",
      "1"
    ]
  }
}