{
  "header": {
    "description": "Karaoke Mugen Tag File",
    "version": 1
  },
  "tag": {
    "aliases": [
      "Pretty Cure",
      "Glitter Force",
      "光之美少女",
      "พริตตี้เคียว"
    ],
    "i18n": {
      "eng": "PreCure",
      "jpn": "プリキュア",
      "kor": "프리큐어",
      "tha": "พรีเคียว"
    },
    "name": "PreCure",
    "repository": "kara.moe",
    "tid": "0067bd2a-ad9f-49eb-9e57-4a3ee0c9622a",
    "types": [
      "franchises",
      "18"
    ]
  }
}