{
  "header": {
    "description": "Karaoke Mugen Tag File",
    "version": 1
  },
  "tag": {
    "aliases": [
      "Pretty Cure"
    ],
    "external_database_ids": {
      "anilist": 10549,
      "myanimelist": 10549,
      "kitsu": 6237
    },
    "i18n": {
      "eng": "PreCure All Stars GoGo Dream Live!",
      "jpn": "プリキュアオールスターズ GoGoドリームライブ",
      "qro": "Precure All Stars GoGo Dream Live!"
    },
    "modified_at": "2021-02-28T02:39:57.773Z",
    "name": "Precure All Stars GoGo Dream Live!",
    "repository": "kara.moe",
    "tid": "b7be7320-3284-4e31-9d73-d514e0850663",
    "types": [
      "series",
      "1"
    ]
  }
}