{
  "header": {
    "description": "Karaoke Mugen Tag File",
    "version": 1
  },
  "tag": {
    "i18n": {
      "eng": "PRIMROSE"
    },
    "name": "PRIMROSE",
    "tid": "66f4cbcf-f8b7-4e8f-b921-8f03fe205118",
    "types": [
      "singers",
      "2"
    ],
    "repository": "kara.moe",
    "modified_at": "2020-03-31T19:04:36.974Z"
  }
}