{
  "header": {
    "description": "Karaoke Mugen Tag File",
    "version": 1
  },
  "tag": {
    "aliases": [
      "miku hatsune",
      "prosekai"
    ],
    "i18n": {
      "eng": "Hatsune Miku: COLORFUL STAGE!",
      "jpn": "プロジェクトセカイ カラフルステージ！ feat. 初音ミク",
      "qro": "Project SEKAI COLORFUL STAGE!"
    },
    "name": "Project SEKAI COLORFUL STAGE!",
    "repository": "kara.moe",
    "tid": "192b33fb-638a-4680-bdb2-a5adb9889849",
    "types": [
      "series",
      "1"
    ]
  }
}