{
  "header": {
    "description": "Karaoke Mugen Tag File",
    "version": 1
  },
  "tag": {
    "i18n": {
      "eng": "Pyramid"
    },
    "name": "Pyramid",
    "tid": "51342c97-14c3-4188-85a1-df38c5af33c7",
    "types": [
      "creators",
      "4"
    ],
    "repository": "kara.moe",
    "modified_at": "2020-03-31T19:04:36.993Z"
  }
}