{
  "header": {
    "description": "Karaoke Mugen Tag File",
    "version": 1
  },
  "tag": {
    "i18n": {
      "eng": "Qian Lei"
    },
    "name": "Qian Lei",
    "repository": "kara.moe",
    "tid": "edd37c46-ea24-41f5-82cd-44dc826a73fd",
    "types": [
      "songwriters",
      "8"
    ]
  }
}