{
  "header": {
    "description": "Karaoke Mugen Tag File",
    "version": 1
  },
  "tag": {
    "i18n": {
      "eng": "qiānyǔ cài yáyī"
    },
    "name": "qiānyǔ cài yáyī",
    "repository": "kara.moe",
    "tid": "352b8f43-ae0c-45c2-b93e-f9c700afc42b",
    "types": [
      "creators",
      "4"
    ]
  }
}