{
  "header": {
    "description": "Karaoke Mugen Tag File",
    "version": 1
  },
  "tag": {
    "i18n": {
      "eng": "queens label"
    },
    "name": "queens label",
    "tid": "0aeb0884-bf34-46fc-bbb9-44079ca3fe09",
    "types": [
      "creators",
      "4"
    ],
    "repository": "kara.moe",
    "modified_at": "2020-03-31T19:04:37.000Z"
  }
}