{
  "header": {
    "description": "Karaoke Mugen Tag File",
    "version": 1
  },
  "tag": {
    "aliases": [
      "ROD",
      "Read Or Die"
    ],
    "i18n": {
      "eng": "R.O.D"
    },
    "name": "R.O.D",
    "repository": "kara.moe",
    "tid": "e1c6bd5d-2ef4-4fa3-9707-d4749f7fa83c",
    "types": [
      "franchises",
      "18"
    ]
  }
}