{
  "header": {
    "description": "Karaoke Mugen Tag File",
    "version": 1
  },
  "tag": {
    "i18n": {
      "eng": "RADWIMPS"
    },
    "name": "RADWIMPS",
    "repository": "kara.moe",
    "tid": "2afe9818-539c-4010-ae0a-7fa4c009fdbe",
    "types": [
      "songwriters",
      "8",
      "singergroups",
      "17"
    ]
  }
}