{
  "header": {
    "description": "Karaoke Mugen Tag File",
    "version": 1
  },
  "tag": {
    "i18n": {
      "eng": "Ragnarok Battle Offline",
      "jpn": "Ragnarok Battle Offline",
      "qro": "Ragnarok Battle Offline"
    },
    "modified_at": "2020-03-31T19:04:32.533Z",
    "name": "Ragnarok Battle Offline",
    "repository": "kara.moe",
    "tid": "7f6b32a6-ff9e-4bd1-8f8c-136f24ff4a60",
    "types": [
      "series",
      "1"
    ]
  }
}