{
  "header": {
    "description": "Karaoke Mugen Tag File",
    "version": 1
  },
  "tag": {
    "i18n": {
      "eng": "Raito"
    },
    "name": "Raito",
    "tid": "eb233a07-b21c-46bb-960b-bc7f17af98eb",
    "types": [
      "songwriters",
      "8",
      "singers",
      "2"
    ],
    "repository": "kara.moe",
    "modified_at": "2020-03-31T19:04:37.012Z"
  }
}