{
  "header": {
    "description": "Karaoke Mugen Tag File",
    "version": 1
  },
  "tag": {
    "i18n": {
      "eng": "Raku Taniya",
      "jpn": "谷屋 楽",
      "qro": "Raku Taniya"
    },
    "name": "Raku Taniya",
    "repository": "kara.moe",
    "tid": "c4896271-4c7f-4ca4-b4ec-967f4c1fffb5",
    "types": [
      "songwriters",
      "8"
    ]
  }
}