{
  "header": {
    "description": "Karaoke Mugen Tag File",
    "version": 1
  },
  "tag": {
    "i18n": {
      "eng": "RAMM ni Haiyoru Nyaruko-san"
    },
    "name": "RAMM ni Haiyoru Nyaruko-san",
    "tid": "e702ae4c-9297-4c78-8f46-089d47fc6113",
    "types": [
      "singers",
      "2"
    ],
    "repository": "kara.moe",
    "modified_at": "2020-03-31T19:04:37.017Z"
  }
}