{
  "header": {
    "description": "Karaoke Mugen Tag File",
    "version": 1
  },
  "tag": {
    "i18n": {
      "eng": "Ransuo"
    },
    "name": "Ransuo",
    "repository": "kara.moe",
    "tid": "8d23fd64-4a05-425b-ab4f-74a62d886c36",
    "types": [
      "songwriters",
      "8",
      "creators",
      "4"
    ],
    "modified_at": "2020-03-31T19:04:37.021Z"
  }
}