{
  "header": {
    "description": "Karaoke Mugen Tag File",
    "version": 1
  },
  "tag": {
    "i18n": {
      "ara": "راتز",
      "eng": "Ratz",
      "fre": "Ratz",
      "ita": "Ratti Matti"
    },
    "modified_at": "2020-03-31T19:04:32.539Z",
    "name": "Ratz",
    "repository": "kara.moe",
    "tid": "723f160c-7043-42e5-9d24-68e84f7e72e6",
    "types": [
      "series",
      "1"
    ]
  }
}