{
  "header": {
    "description": "Karaoke Mugen Tag File",
    "version": 1
  },
  "tag": {
    "i18n": {
      "eng": "Raul Cubina"
    },
    "name": "Raul Cubina",
    "repository": "kara.moe",
    "tid": "08f00c5f-e6ed-4d05-a3c3-eaaff7d07ee0",
    "types": [
      "songwriters",
      "8"
    ]
  }
}