{
  "header": {
    "description": "Karaoke Mugen Tag File",
    "version": 1
  },
  "tag": {
    "i18n": {
      "eng": "Ray Kimishima"
    },
    "name": "Ray Kimishima",
    "tid": "24a64966-e9d5-470d-86f6-f11cf790005c",
    "types": [
      "songwriters",
      "8"
    ],
    "repository": "kara.moe",
    "modified_at": "2020-03-31T19:04:37.027Z"
  }
}