{
  "header": {
    "description": "Karaoke Mugen Tag File",
    "version": 1
  },
  "tag": {
    "i18n": {
      "eng": "RAY-GUNS"
    },
    "name": "RAY-GUNS",
    "tid": "d53ddc88-11dd-40b1-bac7-1b2704727faf",
    "types": [
      "singers",
      "2"
    ],
    "repository": "kara.moe",
    "modified_at": "2020-03-31T19:04:37.027Z"
  }
}