{
  "header": {
    "description": "Karaoke Mugen Tag File",
    "version": 1
  },
  "tag": {
    "aliases": [
      "Re: Cutey Honey",
      "RCH",
      "Cherry Miel"
    ],
    "external_database_ids": {
      "anilist": 151,
      "kitsu": 129,
      "myanimelist": 151
    },
    "i18n": {
      "eng": "Re: Cutie Honey",
      "jpn": "Re:キューティーハニー"
    },
    "name": "Re: Cutie Honey",
    "repository": "kara.moe",
    "tid": "765d8a15-2ea3-4cbd-ab51-6e6d3972ffb7",
    "types": [
      "series",
      "1"
    ]
  }
}