{
  "header": {
    "description": "Karaoke Mugen Tag File",
    "version": 1
  },
  "tag": {
    "i18n": {
      "eng": "Red Hot Chili Peppers"
    },
    "modified_at": "2020-05-07T17:45:51.891Z",
    "name": "Red Hot Chili Peppers",
    "repository": "kara.moe",
    "tid": "0d78476e-e0f6-4b41-949c-101a1da514b3",
    "types": [
      "songwriters",
      "8",
      "singers",
      "2"
    ]
  }
}