{
  "header": {
    "description": "Karaoke Mugen Tag File",
    "version": 1
  },
  "tag": {
    "i18n": {
      "eng": "REDSHiFT"
    },
    "modified_at": "2021-05-05T17:23:56.889Z",
    "name": "REDSHiFT",
    "repository": "kara.moe",
    "tid": "8461a5ca-079e-46d0-a5ba-5343a5101e63",
    "types": [
      "songwriters",
      "8"
    ]
  }
}