{
  "header": {
    "description": "Karaoke Mugen Tag File",
    "version": 1
  },
  "tag": {
    "i18n": {
      "eng": "Régis Ivanov"
    },
    "name": "Régis Ivanov",
    "repository": "kara.moe",
    "tid": "e24ef824-661f-4eec-a02d-4b0e84b864a3",
    "types": [
      "singers",
      "2"
    ],
    "modified_at": "2020-03-31T19:04:37.041Z"
  }
}