{
  "header": {
    "description": "Karaoke Mugen Tag File",
    "version": 1
  },
  "tag": {
    "i18n": {
      "eng": "Rei Kudô"
    },
    "name": "Rei Kudô",
    "tid": "9a4a26f0-9e32-4ea6-86d9-ae0203a9131a",
    "types": [
      "songwriters",
      "8"
    ],
    "repository": "kara.moe",
    "modified_at": "2020-03-31T19:04:37.042Z"
  }
}