{
  "header": {
    "description": "Karaoke Mugen Tag File",
    "version": 1
  },
  "tag": {
    "i18n": {
      "eng": "Reiko Yoshida"
    },
    "name": "Reiko Yoshida",
    "repository": "kara.moe",
    "tid": "a1cb7a84-e474-49f0-af38-6065f65e232c",
    "types": [
      "songwriters",
      "8"
    ]
  }
}