{
  "header": {
    "description": "Karaoke Mugen Tag File",
    "version": 1
  },
  "tag": {
    "aliases": [
      "Congqian Youzuo Lingjianshan",
      "Spirit Blade Mountain"
    ],
    "external_database_ids": {
      "anilist": 21497,
      "myanimelist": 32094,
      "kitsu": 11560
    },
    "i18n": {
      "chi": "从前有座灵剑山",
      "eng": "Reikenzan: Hoshikuzu-tachi no Utage",
      "jpn": "霊剣山 星屑たちの宴",
      "qro": "Reikenzan: Hoshikuzu-tachi no Utage"
    },
    "modified_at": "2020-03-31T19:04:32.546Z",
    "name": "Reikenzan: Hoshikuzu-tachi no Utage",
    "repository": "kara.moe",
    "tid": "885c30a6-2d15-4fdc-9b6c-466b83a81bd8",
    "types": [
      "series",
      "1"
    ]
  }
}