{
  "header": {
    "description": "Karaoke Mugen Tag File",
    "version": 1
  },
  "tag": {
    "i18n": {
      "eng": "Reina Kubo"
    },
    "modified_at": "2021-05-17T10:08:10.859Z",
    "name": "Reina Kubo",
    "repository": "kara.moe",
    "tid": "83580c6b-ff15-487e-b68d-8b7c05356b1e",
    "types": [
      "singers",
      "2"
    ]
  }
}