{
  "header": {
    "description": "Karaoke Mugen Tag File",
    "version": 1
  },
  "tag": {
    "i18n": {
      "eng": "Reio Fujii",
      "jpn": "藤井レオ "
    },
    "modified_at": "2021-10-20T13:51:13.125Z",
    "name": "Reio Fujii",
    "repository": "kara.moe",
    "tid": "67425504-37c4-429d-826f-ed28ade14525",
    "types": [
      "singers",
      "2",
      "songwriters",
      "8"
    ]
  }
}