{
  "header": {
    "description": "Karaoke Mugen Tag File",
    "version": 1
  },
  "tag": {
    "i18n": {
      "eng": "Rena Maeda"
    },
    "name": "Rena Maeda",
    "tid": "cc6a5fa0-df35-44d0-a2c9-0a05d7853ef8",
    "types": [
      "singers",
      "2"
    ],
    "repository": "kara.moe",
    "modified_at": "2020-03-31T19:04:37.061Z"
  }
}