{
  "header": {
    "description": "Karaoke Mugen Tag File",
    "version": 1
  },
  "tag": {
    "i18n": {
      "eng": "Reni Takagi",
      "jpn": "高城れに"
    },
    "name": "Reni Takagi",
    "repository": "kara.moe",
    "tid": "743d6d16-572c-420e-95f3-ebc8ac2e742f",
    "types": [
      "singers",
      "2"
    ]
  }
}