{
  "header": {
    "description": "Karaoke Mugen Tag File",
    "version": 1
  },
  "tag": {
    "i18n": {
      "eng": "Richard Hughes"
    },
    "modified_at": "2020-08-16T16:38:13.642Z",
    "name": "Richard Hughes",
    "repository": "kara.moe",
    "tid": "ada1ded6-a6fa-4d2c-95f6-22983c935685",
    "types": [
      "songwriters",
      "8"
    ]
  }
}