{
  "header": {
    "description": "Karaoke Mugen Tag File",
    "version": 1
  },
  "tag": {
    "i18n": {
      "eng": "Richard H. Blake"
    },
    "name": "Richard H. Blake",
    "tid": "c79020d8-c4eb-4c29-a07b-f5f4e9acde6b",
    "types": [
      "singers",
      "2"
    ],
    "repository": "kara.moe",
    "modified_at": "2020-03-31T19:04:37.083Z"
  }
}