{
  "header": {
    "description": "Karaoke Mugen Tag File",
    "version": 1
  },
  "tag": {
    "i18n": {
      "eng": "Richard Darbois"
    },
    "name": "Richard Darbois",
    "tid": "5a28bd94-0555-43d4-8d83-158bccfed18f",
    "types": [
      "singers",
      "2"
    ],
    "repository": "kara.moe",
    "modified_at": "2020-03-31T19:04:37.081Z"
  }
}