{
  "header": {
    "description": "Karaoke Mugen Tag File",
    "version": 1
  },
  "tag": {
    "aliases": [
      "Eric Burton Frederic"
    ],
    "i18n": {
      "eng": "Ricky Reed"
    },
    "name": "Ricky Reed",
    "repository": "kara.moe",
    "tid": "55fdce52-b573-4928-9edc-86e04cebcb44",
    "types": [
      "songwriters",
      "8"
    ]
  }
}