{
  "header": {
    "description": "Karaoke Mugen Tag File",
    "version": 1
  },
  "tag": {
    "i18n": {
      "eng": "Rie Fujishiro"
    },
    "name": "Rie Fujishiro",
    "tid": "fdd32f52-27f4-4df9-9e1d-92cdba1833d4",
    "types": [
      "singers",
      "2"
    ],
    "repository": "kara.moe",
    "modified_at": "2020-03-31T19:04:37.089Z"
  }
}