{
  "header": {
    "description": "Karaoke Mugen Tag File",
    "version": 1
  },
  "tag": {
    "i18n": {
      "eng": "rihoco"
    },
    "name": "rihoco",
    "repository": "kara.moe",
    "tid": "04c3565f-79e7-4f8e-9b34-0cb165fa5d08",
    "types": [
      "songwriters",
      "8"
    ],
    "modified_at": "2020-03-31T19:04:37.100Z"
  }
}