{
  "header": {
    "description": "Karaoke Mugen Tag File",
    "version": 1
  },
  "tag": {
    "aliases": [
      "りけいがこいにおちたのでしょうめいしてみた.",
      "Science-types Fell in Love, So They Tried to Prove It",
      "RikeKoi"
    ],
    "external_database_ids": {
      "anilist": 107067,
      "myanimelist": 38992,
      "kitsu": 42297
    },
    "i18n": {
      "ara": "وقع العلم في الحبّ، لذلك حاولت إثبات صحّته",
      "chi": "理科生坠入情网，故尝试证明。",
      "eng": "Science Fell in Love, So I Tried to Prove It.",
      "jpn": "理系が恋に落ちたので証明してみた.",
      "qro": "Rikei ga Koi ni Ochita no de Shoumei Shite Mita."
    },
    "name": "Rikei ga Koi ni Ochita no de Shoumei Shite Mita.",
    "repository": "kara.moe",
    "tid": "a41c38af-b962-463a-960d-1d2628828e31",
    "types": [
      "series",
      "1",
      "franchises",
      "18"
    ]
  }
}