{
  "header": {
    "description": "Karaoke Mugen Tag File",
    "version": 1
  },
  "tag": {
    "i18n": {
      "jpn": "律可",
      "qro": "Rikka (Hololive)"
    },
    "name": "Rikka (Hololive)",
    "repository": "kara.moe",
    "tid": "82ead1c5-d9e3-40cf-b9da-22d08fcefee1",
    "types": [
      "singers",
      "2",
      "songwriters",
      "8",
      "creators",
      "4"
    ]
  }
}