{
  "header": {
    "description": "Karaoke Mugen Tag File",
    "version": 1
  },
  "tag": {
    "i18n": {
      "eng": "Rina Hon'izumi"
    },
    "name": "Rina Hon'izumi",
    "tid": "0fee5b4a-4ee0-477c-9cfe-c6f9c1d1777f",
    "types": [
      "singers",
      "2"
    ],
    "repository": "kara.moe",
    "modified_at": "2020-03-31T19:04:37.120Z"
  }
}