{
  "header": {
    "description": "Karaoke Mugen Tag File",
    "version": 1
  },
  "tag": {
    "i18n": {
      "eng": "Ringo Mori"
    },
    "name": "Ringo Mori",
    "tid": "0793d243-a9a0-41b7-ac05-2212b7cc0f70",
    "types": [
      "songwriters",
      "8"
    ],
    "repository": "kara.moe",
    "modified_at": "2020-03-31T19:04:37.125Z"
  }
}