{
  "header": {
    "description": "Karaoke Mugen Tag File",
    "version": 1
  },
  "tag": {
    "i18n": {
      "eng": "RIONA"
    },
    "name": "RIONA",
    "tid": "586da503-69c3-462f-bcfa-4023a0a242aa",
    "types": [
      "songwriters",
      "8"
    ],
    "repository": "kara.moe",
    "modified_at": "2020-03-31T19:04:37.129Z"
  }
}