{
  "header": {
    "description": "Karaoke Mugen Tag File",
    "version": 1
  },
  "tag": {
    "i18n": {
      "eng": "ЯIRE"
    },
    "name": "ЯIRE",
    "tid": "e5d22625-96d3-4020-9244-c34e0f384e43",
    "types": [
      "songwriters",
      "8"
    ],
    "repository": "kara.moe",
    "modified_at": "2020-03-31T19:04:37.132Z"
  }
}