{
  "header": {
    "description": "Karaoke Mugen Tag File",
    "version": 1
  },
  "tag": {
    "i18n": {
      "eng": "Risako Murai"
    },
    "name": "Risako Murai",
    "tid": "6989fac5-58f9-42c5-9411-af1f87a21e42",
    "types": [
      "singers",
      "2"
    ],
    "repository": "kara.moe",
    "modified_at": "2020-03-31T19:04:37.141Z"
  }
}