{
  "header": {
    "description": "Karaoke Mugen Tag File",
    "version": 1
  },
  "tag": {
    "i18n": {
      "eng": "Ritsu Takatsuki"
    },
    "modified_at": "2021-01-29T01:02:29.833Z",
    "name": "Ritsu Takatsuki",
    "repository": "kara.moe",
    "tid": "3be7cafe-d389-4282-8756-7672af94760d",
    "types": [
      "singers",
      "2"
    ]
  }
}