{
  "header": {
    "description": "Karaoke Mugen Tag File",
    "version": 1
  },
  "tag": {
    "i18n": {
      "eng": "Riya Mukherjee"
    },
    "name": "Riya Mukherjee",
    "repository": "kara.moe",
    "tid": "39775bfb-7cc0-4cff-9ecf-5164b126d97c",
    "types": [
      "songwriters",
      "8"
    ]
  }
}