{
  "header": {
    "description": "Karaoke Mugen Tag File",
    "version": 1
  },
  "tag": {
    "i18n": {
      "eng": "Robert Rans"
    },
    "name": "Robert Rans",
    "repository": "kara.moe",
    "tid": "19650e1f-665c-4f39-982e-ff53ae35e50c",
    "types": [
      "songwriters",
      "8"
    ]
  }
}