{
  "header": {
    "description": "Karaoke Mugen Tag File",
    "version": 1
  },
  "tag": {
    "i18n": {
      "eng": "Robin Mannix"
    },
    "name": "Robin Mannix",
    "tid": "a4bfa73a-901f-45fc-b245-6414a97a753c",
    "types": [
      "songwriters",
      "8"
    ],
    "repository": "kara.moe",
    "modified_at": "2020-03-31T19:04:37.163Z"
  }
}