{
  "header": {
    "description": "Karaoke Mugen Tag File",
    "version": 1
  },
  "tag": {
    "i18n": {
      "eng": "Robin Gibb"
    },
    "modified_at": "2020-06-01T21:49:48.817Z",
    "name": "Robin Gibb",
    "repository": "kara.moe",
    "tid": "df30bfdc-c333-467c-bacb-051e7d6e35cc",
    "types": [
      "songwriters",
      "8"
    ]
  }
}