{
  "header": {
    "description": "Karaoke Mugen Tag File",
    "version": 1
  },
  "tag": {
    "i18n": {
      "eng": "Roboco-san",
      "jpn": "ロボ子さん",
      "qro": "Roboco-san"
    },
    "modified_at": "2021-09-02T20:03:58.140Z",
    "name": "Roboco-san",
    "repository": "kara.moe",
    "tid": "adec8be9-0ebf-4149-bcc1-e14530c07c33",
    "types": [
      "singers",
      "2"
    ]
  }
}