{
  "header": {
    "description": "Karaoke Mugen Tag File",
    "version": 1
  },
  "tag": {
    "i18n": {
      "eng": "Rocking Horse"
    },
    "modified_at": "2021-09-12T13:14:45.415Z",
    "name": "Rocking Horse",
    "repository": "kara.moe",
    "tid": "80c58930-399a-46ed-8f8e-c9920ecc557e",
    "types": [
      "singers",
      "2"
    ]
  }
}