{
  "header": {
    "description": "Karaoke Mugen Tag File",
    "version": 1
  },
  "tag": {
    "aliases": [
      "MegaMan X5"
    ],
    "i18n": {
      "eng": "Mega Man X5",
      "jpn": "ロックマンX5",
      "qro": "Rockman X5"
    },
    "modified_at": "2021-05-21T16:36:55.641Z",
    "name": "Rockman X5",
    "repository": "kara.moe",
    "tid": "2bb722c4-e8a7-4503-96f2-652fd2330cbf",
    "types": [
      "series",
      "1"
    ]
  }
}