{
  "header": {
    "description": "Karaoke Mugen Tag File",
    "version": 1
  },
  "tag": {
    "i18n": {
      "eng": "Rokusuke Ei"
    },
    "name": "Rokusuke Ei",
    "repository": "kara.moe",
    "tid": "a322bbe6-f597-44c3-a80f-c3664257eb40",
    "types": [
      "songwriters",
      "8"
    ]
  }
}