{
  "header": {
    "description": "Karaoke Mugen Tag File",
    "version": 1
  },
  "tag": {
    "i18n": {
      "eng": "ronare"
    },
    "name": "ronare",
    "repository": "kara.moe",
    "tid": "8c62473e-ec6e-4926-a53c-175c4eddfa59",
    "types": [
      "singers",
      "2"
    ]
  }
}