{
  "header": {
    "description": "Karaoke Mugen Tag File",
    "version": 1
  },
  "tag": {
    "i18n": {
      "eng": "ROOT"
    },
    "name": "ROOT",
    "tid": "795e5fd0-7976-4849-b61e-b36eaa182c44",
    "types": [
      "creators",
      "4"
    ],
    "repository": "kara.moe",
    "modified_at": "2020-03-31T19:04:37.177Z"
  }
}