{
  "header": {
    "description": "Karaoke Mugen Tag File",
    "version": 1
  },
  "tag": {
    "i18n": {
      "eng": "Rosario Castagnola"
    },
    "name": "Rosario Castagnola",
    "repository": "kara.moe",
    "tid": "7b23c01c-0fe0-4b9f-809f-547dec4f8b20",
    "types": [
      "songwriters",
      "8"
    ]
  }
}