{
  "header": {
    "description": "Karaoke Mugen Tag File",
    "version": 1
  },
  "tag": {
    "i18n": {
      "jpn": "Rose Guns Days",
      "qro": "Rose Guns Days"
    },
    "modified_at": "2020-03-31T19:04:32.572Z",
    "name": "Rose Guns Days",
    "repository": "kara.moe",
    "tid": "96da705f-ab2b-435b-87cf-674d48871ef0",
    "types": [
      "series",
      "1"
    ]
  }
}