{
  "header": {
    "description": "Karaoke Mugen Tag File",
    "version": 1
  },
  "tag": {
    "i18n": {},
    "name": "Rosemi Lovelock",
    "repository": "kara.moe",
    "tid": "c6ab0b9a-87c9-48d0-b02c-1b4444ee9c7d",
    "types": [
      "singers",
      "2"
    ]
  }
}