{
  "header": {
    "description": "Karaoke Mugen Tag File",
    "version": 1
  },
  "tag": {
    "i18n": {
      "eng": "Rosenthal Aki",
      "jpn": "アキ・ローゼンタール",
      "qro": "Rosenthal Aki"
    },
    "modified_at": "2021-09-02T20:08:16.016Z",
    "name": "Rosenthal Aki",
    "repository": "kara.moe",
    "tid": "3325cf00-a75e-431a-8b2e-e888e47c8ed8",
    "types": [
      "singers",
      "2"
    ]
  }
}