{
  "header": {
    "description": "Karaoke Mugen Tag File",
    "version": 1
  },
  "tag": {
    "i18n": {
      "eng": "ROTTENGRAFFTY"
    },
    "name": "ROTTENGRAFFTY",
    "tid": "5b73aedd-9d0b-4bcd-b656-2962ee71de81",
    "types": [
      "singers",
      "2"
    ],
    "repository": "kara.moe",
    "modified_at": "2020-03-31T19:04:37.181Z"
  }
}