{
  "header": {
    "description": "Karaoke Mugen Tag File",
    "version": 1
  },
  "tag": {
    "i18n": {
      "eng": "Rough Trade Records"
    },
    "name": "Rough Trade Records",
    "repository": "kara.moe",
    "tid": "15935ffd-aed5-4a7b-a7c4-c36b3d7a0757",
    "types": [
      "creators",
      "4"
    ]
  }
}