{
  "header": {
    "description": "Karaoke Mugen Tag File",
    "version": 1
  },
  "tag": {
    "i18n": {
      "eng": "Rowan Atkinson"
    },
    "name": "Rowan Atkinson",
    "repository": "kara.moe",
    "tid": "2c48fb10-7ffc-463f-9588-a9df0dfc7f3c",
    "types": [
      "singers",
      "2"
    ]
  }
}