{
  "header": {
    "description": "Karaoke Mugen Tag File",
    "version": 1
  },
  "tag": {
    "i18n": {
      "eng": "Roy Lenzo"
    },
    "name": "Roy Lenzo",
    "repository": "kara.moe",
    "tid": "b1184e7f-b1da-4a75-b5d3-fae040e18072",
    "types": [
      "songwriters",
      "8"
    ]
  }
}