{
  "header": {
    "description": "Karaoke Mugen Tag File",
    "version": 1
  },
  "tag": {
    "i18n": {
      "eng": "Rude-α"
    },
    "name": "Rude-α",
    "tid": "9b4a84e9-006c-4bbf-82b8-41bcf809cec3",
    "types": [
      "songwriters",
      "8",
      "singers",
      "2"
    ],
    "repository": "kara.moe",
    "modified_at": "2020-03-31T19:04:37.188Z"
  }
}