{
  "header": {
    "description": "Karaoke Mugen Tag File",
    "version": 1
  },
  "tag": {
    "i18n": {
      "eng": "Rui Nagai"
    },
    "name": "Rui Nagai",
    "tid": "6096a886-a68e-4960-900e-1d00eeaa387c",
    "types": [
      "singers",
      "2",
      "songwriters",
      "8"
    ],
    "repository": "kara.moe",
    "modified_at": "2020-03-31T19:04:37.189Z"
  }
}