{
  "header": {
    "description": "Karaoke Mugen Tag File",
    "version": 1
  },
  "tag": {
    "i18n": {
      "eng": "Rujay"
    },
    "modified_at": "2020-08-08T14:55:49.238Z",
    "name": "Rujay",
    "repository": "kara.moe",
    "tid": "d962b0e7-043a-4508-8c87-62933a6fa477",
    "types": [
      "songwriters",
      "8"
    ]
  }
}