{
  "header": {
    "description": "Karaoke Mugen Tag File",
    "version": 1
  },
  "tag": {
    "i18n": {
      "eng": "Rukka"
    },
    "name": "Rukka",
    "repository": "kara.moe",
    "tid": "b78baf74-982b-40a9-a6da-5bf413c6d03a",
    "types": [
      "creators",
      "4"
    ]
  }
}