{
  "header": {
    "description": "Karaoke Mugen Tag File",
    "version": 1
  },
  "tag": {
    "i18n": {
      "eng": "Ruriko Noguchi"
    },
    "modified_at": "2021-10-06T21:00:23.569Z",
    "name": "Ruriko Noguchi",
    "repository": "kara.moe",
    "tid": "45350754-a9ee-4836-a3ab-a88a43e419e8",
    "types": [
      "singers",
      "2"
    ]
  }
}