{
  "header": {
    "description": "Karaoke Mugen Tag File",
    "version": 1
  },
  "tag": {
    "i18n": {
      "eng": "Ruri Asano"
    },
    "modified_at": "2021-01-29T01:02:29.654Z",
    "name": "Ruri Asano",
    "repository": "kara.moe",
    "tid": "40103c76-526e-43fb-a976-a55ca0060e3b",
    "types": [
      "singers",
      "2"
    ]
  }
}