{
  "header": {
    "description": "Karaoke Mugen Tag File",
    "version": 1
  },
  "tag": {
    "i18n": {
      "eng": "Ryan Cayabyab"
    },
    "name": "Ryan Cayabyab",
    "repository": "kara.moe",
    "tid": "087cd0d1-b5d9-4990-8ac7-6a35b229aabc",
    "types": [
      "songwriters",
      "8"
    ]
  }
}