{
  "header": {
    "description": "Karaoke Mugen Tag File",
    "version": 1
  },
  "tag": {
    "i18n": {
      "eng": "Ryan Peake"
    },
    "name": "Ryan Peake",
    "repository": "kara.moe",
    "tid": "63811138-82a8-47c9-be0b-eb820950a0e0",
    "types": [
      "songwriters",
      "8"
    ]
  }
}