{
  "header": {
    "description": "Karaoke Mugen Tag File",
    "version": 1
  },
  "tag": {
    "i18n": {
      "eng": "Ryan Ross"
    },
    "name": "Ryan Ross",
    "repository": "kara.moe",
    "tid": "7b9a4347-cd08-4566-a5c1-0df0bff019f9",
    "types": [
      "songwriters",
      "8"
    ]
  }
}