{
  "header": {
    "description": "Karaoke Mugen Tag File",
    "version": 1
  },
  "tag": {
    "i18n": {
      "eng": "ryo (supercell)"
    },
    "modified_at": "2021-11-19T10:33:11.557Z",
    "name": "ryo (supercell)",
    "repository": "kara.moe",
    "tid": "b269bf90-79fc-4167-a78d-e22328df4ee0",
    "types": [
      "songwriters",
      "8",
      "singers",
      "2"
    ]
  }
}