{
  "header": {
    "description": "Karaoke Mugen Tag File",
    "version": 1
  },
  "tag": {
    "i18n": {
      "eng": "Ryo Matsui"
    },
    "name": "Ryo Matsui",
    "tid": "6b4048d9-975b-4f98-b146-7abf6497687d",
    "types": [
      "songwriters",
      "8"
    ],
    "repository": "kara.moe",
    "modified_at": "2020-03-31T19:04:37.208Z"
  }
}