{
  "header": {
    "description": "Karaoke Mugen Tag File",
    "version": 1
  },
  "tag": {
    "i18n": {
      "eng": "Ryoichi Wago"
    },
    "name": "Ryoichi Wago",
    "repository": "kara.moe",
    "tid": "e464058d-8d97-4191-884f-c87f9d978c91",
    "types": [
      "songwriters",
      "8"
    ]
  }
}