{
  "header": {
    "description": "Karaoke Mugen Tag File",
    "version": 1
  },
  "tag": {
    "i18n": {
      "eng": "Ryota Kozuka"
    },
    "name": "Ryota Kozuka",
    "tid": "9ab29f61-cc93-4cde-b29d-5d9f3790fec4",
    "types": [
      "songwriters",
      "8"
    ],
    "repository": "kara.moe",
    "modified_at": "2020-03-31T19:04:37.217Z"
  }
}