{
  "header": {
    "description": "Karaoke Mugen Tag File",
    "version": 1
  },
  "tag": {
    "i18n": {
      "eng": "Ryôko Tezuka"
    },
    "name": "Ryôko Tezuka",
    "tid": "5fe0a797-88a8-4505-bb7f-e4680d402c43",
    "types": [
      "singers",
      "2"
    ],
    "repository": "kara.moe",
    "modified_at": "2020-03-31T19:04:37.233Z"
  }
}