{
  "header": {
    "description": "Karaoke Mugen Tag File",
    "version": 1
  },
  "tag": {
    "aliases": [
      "Lefty"
    ],
    "i18n": {
      "eng": "Ryô Miyata",
      "jpn": "宮田リョウ"
    },
    "name": "Ryô Miyata",
    "repository": "kara.moe",
    "tid": "555464a8-5d71-45b6-9b0b-0b7b8dd32f40",
    "types": [
      "songwriters",
      "8"
    ]
  }
}