{
  "header": {
    "description": "Karaoke Mugen Tag File",
    "version": 1
  },
  "tag": {
    "i18n": {
      "eng": "Ryô Asuka"
    },
    "name": "Ryô Asuka",
    "tid": "9d7e4599-14cb-4eed-998e-d545c4eb7587",
    "types": [
      "songwriters",
      "8"
    ],
    "repository": "kara.moe",
    "modified_at": "2020-03-31T19:04:37.220Z"
  }
}