{
  "header": {
    "description": "Karaoke Mugen Tag File",
    "version": 1
  },
  "tag": {
    "i18n": {
      "eng": "Ryô Sakai"
    },
    "name": "Ryô Sakai",
    "tid": "216e674d-faa2-4fb4-b42e-1f613b74f556",
    "types": [
      "songwriters",
      "8"
    ],
    "repository": "kara.moe",
    "modified_at": "2020-03-31T19:04:37.225Z"
  }
}