{
  "header": {
    "description": "Karaoke Mugen Tag File",
    "version": 1
  },
  "tag": {
    "i18n": {
      "eng": "Ryô Watanabe"
    },
    "name": "Ryô Watanabe",
    "tid": "99fc4480-0acb-46e3-b1f1-50c0df44fa0f",
    "types": [
      "songwriters",
      "8"
    ],
    "repository": "kara.moe",
    "modified_at": "2020-03-31T19:04:37.226Z"
  }
}