{
  "header": {
    "description": "Karaoke Mugen Tag File",
    "version": 1
  },
  "tag": {
    "aliases": [
      "Ryu ga Gotoku OF THE END",
      "ryuu"
    ],
    "i18n": {
      "eng": "Yakuza: Dead Souls",
      "jpn": "龍が如く OF THE END",
      "qro": "Ryû ga Gotoku OF THE END"
    },
    "modified_at": "2020-03-31T19:04:32.579Z",
    "name": "Ryû ga Gotoku OF THE END",
    "repository": "kara.moe",
    "tid": "09f2ba08-e6e1-47bf-b2a5-316965bd616b",
    "types": [
      "series",
      "1"
    ]
  }
}