{
  "header": {
    "description": "Karaoke Mugen Tag File",
    "version": 1
  },
  "tag": {
    "aliases": [
      "Ryuu ga Gotoku",
      "RGG"
    ],
    "i18n": {
      "eng": "Yakuza",
      "jpn": "龍が如く",
      "qro": "Ryû ga Gotoku"
    },
    "name": "Ryû ga Gotoku",
    "repository": "kara.moe",
    "tid": "d39de2d9-b14c-495d-be4a-8fad3b65305f",
    "types": [
      "franchises",
      "18"
    ]
  }
}