{
  "header": {
    "description": "Karaoke Mugen Tag File",
    "version": 1
  },
  "tag": {
    "i18n": {
      "eng": "Saban Entertainment"
    },
    "name": "Saban Entertainment",
    "tid": "e8793844-e3d5-4378-a39b-d891df19c653",
    "types": [
      "creators",
      "4"
    ],
    "repository": "kara.moe",
    "modified_at": "2020-03-31T19:04:37.256Z"
  }
}