{
  "header": {
    "description": "Karaoke Mugen Tag File",
    "version": 1
  },
  "tag": {
    "i18n": {
      "eng": "SAEKO"
    },
    "modified_at": "2021-03-06T23:00:12.885Z",
    "name": "SAEKO",
    "repository": "kara.moe",
    "tid": "6f69210c-3e7a-469b-84b3-4acc8e6f2170",
    "types": [
      "singers",
      "2"
    ]
  }
}