{
  "header": {
    "description": "Karaoke Mugen Tag File",
    "version": 1
  },
  "tag": {
    "i18n": {
      "eng": "Saeron"
    },
    "modified_at": "2021-02-14T16:26:38.794Z",
    "name": "Saeron",
    "repository": "kara.moe",
    "tid": "6122a38c-ee20-43c8-b524-d7055f537c67",
    "types": [
      "creators",
      "4"
    ]
  }
}