{
  "header": {
    "description": "Karaoke Mugen Tag File",
    "version": 1
  },
  "tag": {
    "i18n": {
      "eng": "Saigô Someya"
    },
    "name": "Saigô Someya",
    "tid": "89a56fa6-060f-499a-9071-3d353cd6d131",
    "types": [
      "songwriters",
      "8"
    ],
    "repository": "kara.moe",
    "modified_at": "2020-03-31T19:04:37.275Z"
  }
}