{
  "header": {
    "description": "Karaoke Mugen Tag File",
    "version": 1
  },
  "tag": {
    "aliases": [
      "Saikyou Bushoden Sangoku Engi",
      "Saikyou Bushou-den Sangoku Engi",
      "Saikyou Bushouden Sangoku Engi",
      "saikyou",
      "bushou-den"
    ],
    "external_database_ids": {
      "anilist": 6902,
      "myanimelist": 6902,
      "kitsu": 4780
    },
    "i18n": {
      "eng": "Romance of the Three Kingdoms",
      "jpn": "最強武将伝 三国演義",
      "qro": "Saikyô Bushô-den Sangoku Engi"
    },
    "modified_at": "2020-03-31T19:04:32.589Z",
    "name": "Saikyô Bushô-den Sangoku Engi",
    "repository": "kara.moe",
    "tid": "16e8bdf9-ad89-49fe-a822-ecab591fb51f",
    "types": [
      "series",
      "1"
    ]
  }
}