{
  "header": {
    "description": "Karaoke Mugen Tag File",
    "version": 1
  },
  "tag": {
    "aliases": [
      "sso"
    ],
    "external_database_ids": {
      "anilist": 12929,
      "myanimelist": 12929,
      "kitsu": 6850
    },
    "i18n": {
      "eng": "Saint Seiya Omega",
      "jpn": "聖闘士星矢Ω[セイントセイヤオメガ]",
      "por": "Saint Seiya Omega ‒ Les nouveaux Chevaliers du Zodiaque",
      "qro": "Saint Seiya Omega"
    },
    "modified_at": "2020-03-31T19:04:32.594Z",
    "name": "Saint Seiya Omega",
    "repository": "kara.moe",
    "tid": "6f22e38a-355a-45d2-8a01-68c14bdf58f0",
    "types": [
      "series",
      "1"
    ]
  }
}