{
  "header": {
    "description": "Karaoke Mugen Tag File",
    "version": 1
  },
  "tag": {
    "aliases": [
      "Monkey Magic",
      "Saiyuuki",
      "saiyuuki"
    ],
    "i18n": {
      "eng": "Monkey",
      "fre": "Saiyûki (Drama)",
      "jpn": "西遊記",
      "qro": "Saiyûki"
    },
    "modified_at": "2020-03-31T19:04:32.600Z",
    "name": "Saiyûki",
    "repository": "kara.moe",
    "tid": "91b289f2-e3c5-4c00-a3d1-dd868e3af0e7",
    "types": [
      "series",
      "1"
    ]
  }
}