{
  "header": {
    "description": "Karaoke Mugen Tag File",
    "version": 1
  },
  "tag": {
    "i18n": {
      "eng": "Saki Yamakita"
    },
    "name": "Saki Yamakita",
    "tid": "92adbbb5-d77d-4ab5-9ea6-81cb0f04800a",
    "types": [
      "singers",
      "2"
    ],
    "repository": "kara.moe",
    "modified_at": "2020-03-31T19:04:37.284Z"
  }
}