{
  "header": {
    "description": "Karaoke Mugen Tag File",
    "version": 1
  },
  "tag": {
    "i18n": {
      "eng": "Saki Ishii"
    },
    "name": "Saki Ishii",
    "tid": "6e519d6e-bcdc-4a30-be98-b25a2d5edfc4",
    "types": [
      "singers",
      "2"
    ],
    "repository": "kara.moe",
    "modified_at": "2020-03-31T19:04:37.282Z"
  }
}