{
  "header": {
    "description": "Karaoke Mugen Tag File",
    "version": 1
  },
  "tag": {
    "i18n": {
      "eng": "Sakura Ishadoh"
    },
    "modified_at": "2020-10-18T02:02:58.902Z",
    "name": "Sakura Ishadoh",
    "repository": "kara.moe",
    "tid": "e770edf3-e484-428d-951e-02a0bdd14da3",
    "types": [
      "singers",
      "2"
    ]
  }
}