{
  "header": {
    "description": "Karaoke Mugen Tag File",
    "version": 1
  },
  "tag": {
    "i18n": {
      "eng": "Sakura Nagahara"
    },
    "name": "Sakura Nagahara",
    "tid": "8534f929-7103-4256-83d2-6e7685d2f484",
    "types": [
      "songwriters",
      "8"
    ],
    "repository": "kara.moe",
    "modified_at": "2020-03-31T19:04:37.289Z"
  }
}