{
  "header": {
    "description": "Karaoke Mugen Tag File",
    "version": 1
  },
  "tag": {
    "i18n": {
      "eng": "Sams"
    },
    "name": "Sams",
    "tid": "a452adf7-8922-4003-a310-975dcfc55fba",
    "types": [
      "authors",
      "6"
    ],
    "repository": "kara.moe",
    "modified_at": "2020-03-31T19:04:37.303Z"
  }
}