{
  "header": {
    "description": "Karaoke Mugen Tag File",
    "version": 1
  },
  "tag": {
    "i18n": {
      "eng": "Sandra Nordstrom"
    },
    "name": "Sandra Nordstrom",
    "tid": "9060035e-ed6d-45d1-b2fd-a18aae49065d",
    "types": [
      "songwriters",
      "8"
    ],
    "repository": "kara.moe",
    "modified_at": "2020-03-31T19:04:37.309Z"
  }
}