{
  "header": {
    "description": "Karaoke Mugen Tag File",
    "version": 1
  },
  "tag": {
    "i18n": {
      "eng": "SANMUYYB"
    },
    "name": "SANMUYYB",
    "repository": "kara.moe",
    "tid": "9b3fcc26-90f9-4cd3-b58d-a8ca0e2d1f5f",
    "types": [
      "creators",
      "4"
    ]
  }
}