{
  "header": {
    "description": "Karaoke Mugen Tag File",
    "version": 1
  },
  "tag": {
    "i18n": {
      "eng": "sanmen"
    },
    "name": "sanmen",
    "repository": "kara.moe",
    "tid": "5c07287c-586d-4df2-9984-d8e9f1ef9e02",
    "types": [
      "creators",
      "4"
    ]
  }
}