{
  "header": {
    "description": "Karaoke Mugen Tag File",
    "version": 1
  },
  "tag": {
    "i18n": {
      "eng": "Saori Kiuji"
    },
    "name": "Saori Kiuji",
    "tid": "2bfbb4bd-c984-48e0-ba6b-64192b9c7a43",
    "types": [
      "singers",
      "2"
    ],
    "repository": "kara.moe",
    "modified_at": "2020-03-31T19:04:37.319Z"
  }
}