{
  "header": {
    "description": "Karaoke Mugen Tag File",
    "version": 1
  },
  "tag": {
    "i18n": {
      "eng": "Sara Sakurai"
    },
    "name": "Sara Sakurai",
    "tid": "a8140487-243f-4153-891c-45ffb0fb9040",
    "types": [
      "songwriters",
      "8"
    ],
    "repository": "kara.moe",
    "modified_at": "2020-03-31T19:04:37.323Z"
  }
}