{
  "header": {
    "description": "Karaoke Mugen Tag File",
    "version": 1
  },
  "tag": {
    "i18n": {
      "eng": "SARD UNDERGROUND"
    },
    "name": "SARD UNDERGROUND",
    "repository": "kara.moe",
    "tid": "a8d0f15e-a000-41b7-bbb7-2377ba3bd6c4",
    "types": [
      "singers",
      "2"
    ]
  }
}