{
  "header": {
    "description": "Karaoke Mugen Tag File",
    "version": 1
  },
  "tag": {
    "i18n": {
      "eng": "Satanta"
    },
    "name": "Satanta",
    "tid": "54f1f72f-7bcc-47d8-afa2-fc2152f4c421",
    "types": [
      "songwriters",
      "8"
    ],
    "repository": "kara.moe",
    "modified_at": "2020-03-31T19:04:37.332Z"
  }
}