{
  "header": {
    "description": "Karaoke Mugen Tag File",
    "version": 1
  },
  "tag": {
    "i18n": {
      "eng": "Satori Shiraishi"
    },
    "name": "Satori Shiraishi",
    "tid": "138ca2e4-a728-4917-9d39-815cd7f4c967",
    "types": [
      "songwriters",
      "8"
    ],
    "repository": "kara.moe",
    "modified_at": "2020-03-31T19:04:37.341Z"
  }
}