{
  "header": {
    "description": "Karaoke Mugen Tag File",
    "version": 1
  },
  "tag": {
    "i18n": {
      "eng": "Satoshi Ishikawa"
    },
    "name": "Satoshi Ishikawa",
    "tid": "819914ae-30cc-4545-9fb2-0b597d57abf6",
    "types": [
      "songwriters",
      "8"
    ],
    "repository": "kara.moe",
    "modified_at": "2020-03-31T19:04:37.347Z"
  }
}