{
  "header": {
    "description": "Karaoke Mugen Tag File",
    "version": 1
  },
  "tag": {
    "i18n": {
      "eng": "Satomi Arai"
    },
    "modified_at": "2021-04-19T16:07:49.730Z",
    "name": "Satomi Arai",
    "repository": "kara.moe",
    "tid": "80838871-055c-42ac-915e-9e1d1f954c25",
    "types": [
      "singers",
      "2"
    ]
  }
}