{
  "header": {
    "description": "Karaoke Mugen Tag File",
    "version": 1
  },
  "tag": {
    "i18n": {
      "eng": "Satochi"
    },
    "name": "Satochi",
    "tid": "2b32b03a-0988-4abd-b786-3bfbd5c10f83",
    "types": [
      "songwriters",
      "8"
    ],
    "repository": "kara.moe",
    "modified_at": "2020-03-31T19:04:37.334Z"
  }
}