{
  "header": {
    "description": "Karaoke Mugen Tag File",
    "version": 1
  },
  "tag": {
    "i18n": {
      "eng": "Satoshi Fujiwara"
    },
    "modified_at": "2020-04-11T16:07:09.981Z",
    "name": "Satoshi Fujiwara",
    "repository": "kara.moe",
    "tid": "5f660b23-ff0e-47e5-8962-b84457b105da",
    "types": [
      "songwriters",
      "8"
    ]
  }
}