{
  "header": {
    "description": "Karaoke Mugen Tag File",
    "version": 1
  },
  "tag": {
    "i18n": {
      "eng": "Satou Kenta"
    },
    "name": "Satou Kenta",
    "tid": "369f824e-8dbe-4258-8bff-588f798cfcb7",
    "types": [
      "singers",
      "2"
    ],
    "repository": "kara.moe",
    "modified_at": "2020-03-31T19:04:37.353Z"
  }
}