{
  "header": {
    "description": "Karaoke Mugen Tag File",
    "version": 1
  },
  "tag": {
    "i18n": {
      "eng": "Satoko Yamano"
    },
    "name": "Satoko Yamano",
    "tid": "546d8fc7-4b92-4594-bff6-1b01970bdd81",
    "types": [
      "singers",
      "2"
    ],
    "repository": "kara.moe",
    "modified_at": "2020-03-31T19:04:37.336Z"
  }
}