{
  "header": {
    "description": "Karaoke Mugen Tag File",
    "version": 1
  },
  "tag": {
    "i18n": {
      "eng": "Satsuki Yoshino"
    },
    "name": "Satsuki Yoshino",
    "tid": "3932dc74-0101-493d-9caf-774484090485",
    "types": [
      "songwriters",
      "8"
    ],
    "repository": "kara.moe",
    "modified_at": "2020-03-31T19:04:37.354Z"
  }
}