{
  "header": {
    "description": "Karaoke Mugen Tag File",
    "version": 1
  },
  "tag": {
    "i18n": {
      "eng": "Satsuki Soeda"
    },
    "name": "Satsuki Soeda",
    "tid": "ddb0fee4-ef19-42c2-9c04-17c54faf6679",
    "types": [
      "songwriters",
      "8"
    ],
    "repository": "kara.moe",
    "modified_at": "2020-03-31T19:04:37.354Z"
  }
}