{
  "header": {
    "description": "Karaoke Mugen Tag File",
    "version": 1
  },
  "tag": {
    "i18n": {
      "eng": "Sawa Nakamura"
    },
    "name": "Sawa Nakamura",
    "repository": "kara.moe",
    "tid": "6c8452d6-193d-49f4-a5cb-c580a5bfda6b",
    "types": [
      "songwriters",
      "8"
    ],
    "modified_at": "2020-03-31T19:04:37.360Z"
  }
}