{
  "header": {
    "description": "Karaoke Mugen Tag File",
    "version": 1
  },
  "tag": {
    "i18n": {
      "eng": "Sawa Ishige"
    },
    "name": "Sawa Ishige",
    "tid": "6749d63a-0c14-44bc-a653-37e92058d69d",
    "types": [
      "singers",
      "2"
    ],
    "repository": "kara.moe",
    "modified_at": "2020-03-31T19:04:37.359Z"
  }
}