{
  "header": {
    "description": "Karaoke Mugen Tag File",
    "version": 1
  },
  "tag": {
    "i18n": {
      "eng": "SAWA"
    },
    "name": "SAWA",
    "repository": "kara.moe",
    "tid": "0d6369d0-7067-40fe-8a88-0677b326f181",
    "types": [
      "songwriters",
      "8"
    ]
  }
}