{
  "header": {
    "description": "Karaoke Mugen Tag File",
    "version": 1
  },
  "tag": {
    "i18n": {
      "eng": "sayroo"
    },
    "name": "sayroo",
    "tid": "a168e1f1-3f2c-4077-91bc-ab35ac0e3b3c",
    "types": [
      "songwriters",
      "8"
    ],
    "repository": "kara.moe",
    "modified_at": "2020-03-31T19:04:37.369Z"
  }
}