{
  "header": {
    "description": "Karaoke Mugen Tag File",
    "version": 1
  },
  "tag": {
    "i18n": {
      "eng": "Sayuri Hara"
    },
    "name": "Sayuri Hara",
    "tid": "d73946db-0a7e-4845-b00b-2ece8ddfddd8",
    "types": [
      "singers",
      "2"
    ],
    "repository": "kara.moe",
    "modified_at": "2020-03-31T19:04:37.370Z"
  }
}