{
  "header": {
    "description": "Karaoke Mugen Tag File",
    "version": 1
  },
  "tag": {
    "i18n": {
      "eng": "SCANDAL"
    },
    "name": "SCANDAL",
    "tid": "581aad8c-8d51-44af-8b8c-4b1a507484eb",
    "types": [
      "singers",
      "2",
      "songwriters",
      "8"
    ],
    "repository": "kara.moe",
    "modified_at": "2020-03-31T19:04:37.374Z"
  }
}