{
  "header": {
    "description": "Karaoke Mugen Tag File",
    "version": 1
  },
  "tag": {
    "aliases": [
      "SR OVA",
      "School Rumble OVA",
      "School Rumble: First Extra Term",
      "School Rumble: Ichi Gakki Hoshuu",
      "sukuran ova",
      "Школьный переполох OVA",
      "喧嚣学园 第一学期补习",
      "hoshuu"
    ],
    "external_database_ids": {
      "anilist": 517,
      "myanimelist": 517,
      "kitsu": 476
    },
    "i18n": {
      "eng": "School Rumble: Extra Class",
      "ger": "School Rumble: Nachhilfe",
      "jpn": "スクールランブル一学期補習",
      "qro": "School Rumble: Ichi Gakki Hoshû"
    },
    "modified_at": "2020-03-31T19:04:32.631Z",
    "name": "School Rumble: Ichi Gakki Hoshû",
    "repository": "kara.moe",
    "tid": "c0612a40-1882-4042-b2df-a085d66c5aad",
    "types": [
      "series",
      "1"
    ]
  }
}