{
  "header": {
    "description": "Karaoke Mugen Tag File",
    "version": 1
  },
  "tag": {
    "i18n": {
      "eng": "Scott Krippayne"
    },
    "name": "Scott Krippayne",
    "repository": "kara.moe",
    "tid": "9a39fed0-1514-47f4-a884-c134bf7c955f",
    "types": [
      "songwriters",
      "8"
    ]
  }
}