{
  "header": {
    "description": "Karaoke Mugen Tag File",
    "version": 1
  },
  "tag": {
    "i18n": {
      "eng": "Sébastien Rassiat"
    },
    "name": "Sébastien Rassiat",
    "tid": "12a1de3a-d7cb-480e-9a10-4890beb223fe",
    "types": [
      "singers",
      "2",
      "songwriters",
      "8"
    ],
    "repository": "kara.moe",
    "modified_at": "2020-03-31T19:04:37.386Z"
  }
}