{
  "header": {
    "description": "Karaoke Mugen Tag File",
    "version": 1
  },
  "tag": {
    "i18n": {
      "eng": "Sébastien Pintiaux"
    },
    "name": "Sébastien Pintiaux",
    "tid": "b837503d-688d-4ef7-b776-5faaf6ca43f8",
    "types": [
      "songwriters",
      "8",
      "singers",
      "2"
    ],
    "repository": "kara.moe",
    "modified_at": "2020-03-31T19:04:37.385Z"
  }
}