{
  "header": {
    "description": "Karaoke Mugen Tag File",
    "version": 1
  },
  "tag": {
    "i18n": {
      "eng": "Sebu Simonian"
    },
    "modified_at": "2020-10-25T13:59:40.348Z",
    "name": "Sebu Simonian",
    "repository": "kara.moe",
    "tid": "fb3f1615-1cf3-4903-98a4-ec24026d1e8c",
    "types": [
      "songwriters",
      "8"
    ]
  }
}