{
  "header": {
    "description": "Karaoke Mugen Tag File",
    "version": 1
  },
  "tag": {
    "aliases": [
      "Seigi o Ai Suru Mono Gekkou Kamen",
      "Moonlight Mask",
      "The Man Who Loves Justice",
      "gekkou"
    ],
    "external_database_ids": {
      "anilist": 4332,
      "myanimelist": 4332,
      "kitsu": 3558
    },
    "i18n": {
      "eng": "Seigi o Ai Suru Mono Gekkô Kamen",
      "spa": "Capitán Centella",
      "jpn": "正義を愛する者 月光仮面",
      "qro": "Seigi o Ai Suru Mono Gekkô Kamen"
    },
    "modified_at": "2020-08-20T16:00:05.657Z",
    "name": "Seigi o Ai Suru Mono Gekkô Kamen",
    "repository": "kara.moe",
    "tid": "d4469efc-2dae-4373-9f0c-ecb01f6c353e",
    "types": [
      "series",
      "1"
    ]
  }
}