{
  "header": {
    "description": "Karaoke Mugen Tag File",
    "version": 1
  },
  "tag": {
    "i18n": {
      "eng": "Seiko Oomori"
    },
    "modified_at": "2021-05-18T17:20:40.972Z",
    "name": "Seiko Oomori",
    "repository": "kara.moe",
    "tid": "f5f1d360-dbc8-4fe2-ac42-ec1b5433eb3a",
    "types": [
      "singers",
      "2",
      "songwriters",
      "8",
      "songwriters",
      "8"
    ]
  }
}