{
  "header": {
    "description": "Karaoke Mugen Tag File",
    "version": 1
  },
  "tag": {
    "i18n": {
      "eng": "seima"
    },
    "name": "seima",
    "tid": "77e4d038-f781-44ed-affa-54689c3d72de",
    "types": [
      "authors",
      "6"
    ],
    "repository": "kara.moe",
    "modified_at": "2020-03-31T19:04:37.402Z"
  }
}