{
  "header": {
    "description": "Karaoke Mugen Tag File",
    "version": 1
  },
  "tag": {
    "aliases": [
      "Seirei Tsukai no Kenbu",
      "رقصة سيوف مستخدمي الارواح",
      "Bladedance"
    ],
    "external_database_ids": {
      "anilist": 20663,
      "myanimelist": 22877,
      "kitsu": 7878
    },
    "i18n": {
      "chi": "精灵使的剑舞",
      "eng": "Blade Dance of Elementalers",
      "fre": "Seirei Tsukai no Blade Dance",
      "jpn": "精霊使いの剣舞",
      "per": "تیغه رقص المنتلرس",
      "qro": "Seirei Tsukai No Blade Dance"
    },
    "name": "Seirei Tsukai No Blade Dance",
    "repository": "kara.moe",
    "tid": "99897f29-dffc-48a8-b4c9-0d0af7279192",
    "types": [
      "series",
      "1"
    ]
  }
}