{
  "header": {
    "description": "Karaoke Mugen Tag File",
    "version": 1
  },
  "tag": {
    "aliases": [
      "Kutsal Savaş Cerberus: Ejderhanın Ölüm Zamanı",
      "ryuukoku"
    ],
    "external_database_ids": {
      "anilist": 21608,
      "myanimelist": 32595,
      "kitsu": 11779
    },
    "i18n": {
      "eng": "Cerberus",
      "jpn": "聖戦ケルベロス 竜刻のファタリテ",
      "chi": "龙心战纪",
      "qro": "Seisen Cerberus: Ryûkoku no Fatalite"
    },
    "modified_at": "2020-08-23T21:45:35.159Z",
    "name": "Seisen Cerberus: Ryûkoku no Fatalite",
    "repository": "kara.moe",
    "tid": "02b114b9-d2dc-48d4-b866-626bcdd29585",
    "types": [
      "series",
      "1"
    ]
  }
}