{
  "header": {
    "description": "Karaoke Mugen Tag File",
    "version": 1
  },
  "tag": {
    "aliases": [
      "Sekai-ichi Hatsukoi",
      "sekakoi",
      "セカコイ"
    ],
    "external_database_ids": {
      "anilist": 9926,
      "myanimelist": 9926,
      "kitsu": 5944
    },
    "i18n": {
      "eng": "Sekai Ichi Hatsukoi: The World's Greatest First Love",
      "jpn": "世界一初恋",
      "qro": "Sekaiichi Hatsukoi"
    },
    "modified_at": "2020-03-31T19:04:32.654Z",
    "name": "Sekaiichi Hatsukoi",
    "repository": "kara.moe",
    "tid": "59cd30f9-9a56-4105-a77b-008f2fa2b659",
    "types": [
      "series",
      "1",
      "franchises",
      "18"
    ]
  }
}