{
  "header": {
    "description": "Karaoke Mugen Tag File",
    "version": 1
  },
  "tag": {
    "aliases": [
      "Ansatsu Kizoku "
    ],
    "external_database_ids": {
      "anilist": 129898,
      "myanimelist": 47790,
      "kitsu": 44393
    },
    "i18n": {
      "eng": "The World's Finest Assassin Gets Reincarnated in Another World as an Aristocrat",
      "qro": "Sekai Saikou no Ansatsusha, Isekai Kizoku ni Tensei suru",
      "jpn": "世界最高の暗殺者、異世界貴族に転生する "
    },
    "modified_at": "2021-12-05T15:20:09.528Z",
    "name": "Sekai Saikou no Ansatsusha, Isekai Kizoku ni Tensei suru",
    "repository": "kara.moe",
    "tid": "46da68b8-4bf2-43c4-9ce0-63c97150a623",
    "types": [
      "series",
      "1"
    ]
  }
}