{
  "header": {
    "description": "Karaoke Mugen Tag File",
    "version": 1
  },
  "tag": {
    "i18n": {
      "eng": "SELEN"
    },
    "name": "SELEN",
    "tid": "5d16da11-37e8-4e20-9d3e-9317c4fc65e9",
    "types": [
      "singers",
      "2"
    ],
    "repository": "kara.moe",
    "modified_at": "2020-03-31T19:04:37.406Z"
  }
}