{
  "header": {
    "description": "Karaoke Mugen Tag File",
    "version": 1
  },
  "tag": {
    "i18n": {
      "eng": "Sena Hoshiki"
    },
    "modified_at": "2020-07-25T00:18:23.314Z",
    "name": "Sena Hoshiki",
    "repository": "kara.moe",
    "tid": "70f932f4-ba05-4253-a4dc-7d0d16c24c80",
    "types": [
      "singers",
      "2"
    ]
  }
}