{
  "header": {
    "description": "Karaoke Mugen Tag File",
    "version": 1
  },
  "tag": {
    "aliases": [
      "Senki Zesshou Symphogear XV",
      "zesshou"
    ],
    "external_database_ids": {
      "anilist": 21673,
      "myanimelist": 32843,
      "kitsu": 11884
    },
    "i18n": {
      "eng": "Symphogear XV",
      "jpn": "戦姫絶唱シンフォギアXV",
      "qro": "Senki Zesshô Symphogear XV"
    },
    "modified_at": "2020-03-31T19:04:32.669Z",
    "name": "Senki Zesshô Symphogear XV",
    "repository": "kara.moe",
    "tid": "5a0d57d7-a6e9-45bf-9960-334128e43e0a",
    "types": [
      "series",
      "1"
    ]
  }
}