{
  "header": {
    "description": "Karaoke Mugen Tag File",
    "version": 1
  },
  "tag": {
    "i18n": {
      "jpn": "閃乱カグラ ESTIVAL VERSUS -少女達の選択",
      "qro": "Senran Kagura Estival Versus -Shoujotachi no Sentaku"
    },
    "modified_at": "2020-03-31T19:04:32.672Z",
    "name": "Senran Kagura Estival Versus -Shoujotachi no Sentaku",
    "repository": "kara.moe",
    "tid": "ae17b5d4-bff4-480e-ad96-1f43b8f5c7fd",
    "types": [
      "series",
      "1"
    ]
  }
}