{
  "header": {
    "description": "Karaoke Mugen Tag File",
    "version": 1
  },
  "tag": {
    "i18n": {
      "eng": "Sentimental Bus"
    },
    "name": "Sentimental Bus",
    "tid": "9cdca092-5a89-4a14-ae20-02f9c99c5e3b",
    "types": [
      "singers",
      "2"
    ],
    "repository": "kara.moe",
    "modified_at": "2020-03-31T19:04:37.411Z"
  }
}