{
  "header": {
    "description": "Karaoke Mugen Tag File",
    "version": 1
  },
  "tag": {
    "i18n": {
      "eng": "Seo Ji Eum"
    },
    "name": "Seo Ji Eum",
    "tid": "015b64fa-5608-4099-b74d-5b3cdb7114aa",
    "types": [
      "songwriters",
      "8"
    ],
    "repository": "kara.moe",
    "modified_at": "2020-03-31T19:04:37.414Z"
  }
}