{
  "header": {
    "description": "Karaoke Mugen Tag File",
    "version": 1
  },
  "tag": {
    "aliases": [
      "ServantxService",
      "sxs"
    ],
    "external_database_ids": {
      "anilist": 18119,
      "myanimelist": 18119,
      "kitsu": 7669
    },
    "i18n": {
      "eng": "Servant × Service",
      "jpn": "サーバント×サービス",
      "qro": "Servant x Service"
    },
    "modified_at": "2020-06-21T23:45:31.966Z",
    "name": "Servant x Service",
    "repository": "kara.moe",
    "tid": "8a34d5f0-5fa2-4a52-91ec-81d74b0a2425",
    "types": [
      "series",
      "1"
    ]
  }
}