{
  "header": {
    "description": "Karaoke Mugen Tag File",
    "version": 1
  },
  "tag": {
    "aliases": [
      "Jackie & Jill - Die Bärenkinder vom Berg Tarak",
      "Seton Animal Chronicle: Bearcub Jackie",
      "Seton Doubutsuki: Kuma no Ko Jacky",
      "doubutsuki"
    ],
    "external_database_ids": {
      "anilist": 4514,
      "myanimelist": 4514,
      "kitsu": 3659
    },
    "i18n": {
      "ara": "بندق الدب الأسمر",
      "eng": "Monarch: The Big Bear of Tallac",
      "fre": "Bouba le petit ourson",
      "ger": "Jackie und Jill - Die Bärenkinder vom Berg Tarak",
      "ita": "Jacky, l'orso del monte Tallac",
      "jpn": "シートン動物記 くまの子ジャッキー",
      "pol": "Mali Mieszkancy Wielkich Gór",
      "por": "Jacky, o Urso de Tallac",
      "ukr": "Джекі та Джил. Ведмежата з гори Тарак",
      "qro": "Seton Dôbutsuki: Kuma no Ko Jacky"
    },
    "modified_at": "2020-03-31T19:04:32.680Z",
    "name": "Seton Dôbutsuki: Kuma no Ko Jacky",
    "repository": "kara.moe",
    "tid": "b9bdfde8-5603-4bd5-b2e0-accce180a59b",
    "types": [
      "series",
      "1"
    ]
  }
}