{
  "header": {
    "description": "Karaoke Mugen Tag File",
    "version": 1
  },
  "tag": {
    "i18n": {
      "eng": "Seven Seasons"
    },
    "name": "Seven Seasons",
    "tid": "fad58712-747b-4642-8696-04cb328e0298",
    "types": [
      "creators",
      "4"
    ],
    "repository": "kara.moe",
    "modified_at": "2020-03-31T19:04:37.421Z"
  }
}