{
  "header": {
    "description": "Karaoke Mugen Tag File",
    "version": 1
  },
  "tag": {
    "aliases": [
      "Senko san"
    ],
    "external_database_ids": {
      "anilist": 105914,
      "myanimelist": 38759,
      "kitsu": 42026
    },
    "i18n": {
      "eng": "The Helpful Fox Senko-san",
      "jpn": "世話やきキツネの仙狐さん",
      "qro": "Sewayaki Kitsune no Senko-san"
    },
    "modified_at": "2020-03-31T19:04:32.681Z",
    "name": "Sewayaki Kitsune no Senko-san",
    "repository": "kara.moe",
    "tid": "74d9df3f-0299-40bf-8e7d-f6a3c012225d",
    "types": [
      "series",
      "1"
    ]
  }
}