{
  "header": {
    "description": "Karaoke Mugen Tag File",
    "version": 1
  },
  "tag": {
    "i18n": {
      "eng": "Sharam Q"
    },
    "name": "Sharam Q",
    "tid": "3c734b6a-a6be-41a3-954c-9929ac2e22f3",
    "types": [
      "singers",
      "2"
    ],
    "repository": "kara.moe",
    "modified_at": "2020-03-31T19:04:37.430Z"
  }
}