{
  "header": {
    "description": "Karaoke Mugen Tag File",
    "version": 1
  },
  "tag": {
    "aliases": [
      "The Beauty Blogger"
    ],
    "external_database_ids": {
      "anilist": 102446,
      "myanimelist": 37209,
      "kitsu": 41037
    },
    "i18n": {
      "eng": "Shèng Shì Zhuāng Niáng",
      "chi": "盛世妆娘"
    },
    "modified_at": "2021-03-11T18:01:20.361Z",
    "name": "Shèng Shì Zhuāng Niáng",
    "repository": "kara.moe",
    "tid": "1152cd99-d6f4-4bd4-baaa-12e409617511",
    "types": [
      "series",
      "1"
    ]
  }
}