{
  "header": {
    "description": "Karaoke Mugen Tag File",
    "version": 1
  },
  "tag": {
    "i18n": {
      "eng": "Shí Yīn",
      "chi": "十音"
    },
    "modified_at": "2021-03-11T20:45:49.591Z",
    "name": "Shí Yīn",
    "repository": "kara.moe",
    "tid": "79159e88-ad0c-4949-ab66-07e87e8db267",
    "types": [
      "songwriters",
      "8"
    ]
  }
}