{
  "header": {
    "description": "Karaoke Mugen Tag File",
    "version": 1
  },
  "tag": {
    "i18n": {
      "eng": "Shibayan"
    },
    "modified_at": "2021-08-01T23:11:56.491Z",
    "name": "Shibayan",
    "repository": "kara.moe",
    "tid": "b7e7890d-0aad-4432-b374-00aed612d4ba",
    "types": [
      "songwriters",
      "8",
      "creators",
      "4"
    ]
  }
}