{
  "header": {
    "description": "Karaoke Mugen Tag File",
    "version": 1
  },
  "tag": {
    "i18n": {
      "eng": "Shichinin no Mugiwara Kaizoku-dan"
    },
    "name": "Shichinin no Mugiwara Kaizoku-dan",
    "tid": "ff633c24-fa5f-410e-9344-b47b468adbbd",
    "types": [
      "singers",
      "2"
    ],
    "repository": "kara.moe",
    "modified_at": "2020-03-31T19:04:37.433Z"
  }
}