{
  "header": {
    "description": "Karaoke Mugen Tag File",
    "version": 1
  },
  "tag": {
    "i18n": {
      "eng": "Shigeru Izumiya"
    },
    "name": "Shigeru Izumiya",
    "tid": "2c790181-09f5-4adc-b9ec-0ce5facb34a3",
    "types": [
      "singers",
      "2"
    ],
    "repository": "kara.moe",
    "modified_at": "2020-03-31T19:04:37.438Z"
  }
}