{
  "header": {
    "description": "Karaoke Mugen Tag File",
    "version": 1
  },
  "tag": {
    "aliases": [
      "Shíguāng Dàilǐrén"
    ],
    "external_database_ids": {
      "anilist": 126403,
      "kitsu": 44503,
      "myanimelist": 44074
    },
    "i18n": {
      "chi": "时光代理人",
      "eng": "Link Click",
      "qro": "Shiguang Dailiren"
    },
    "name": "Shiguang Dailiren",
    "repository": "kara.moe",
    "tid": "78de8471-7c1a-4ba9-b10b-10c022e08a8c",
    "types": [
      "series",
      "1"
    ]
  }
}