{
  "header": {
    "description": "Karaoke Mugen Tag File",
    "version": 1
  },
  "tag": {
    "i18n": {
      "eng": "Shigeo Komori"
    },
    "name": "Shigeo Komori",
    "tid": "fe336c2c-58be-4751-acf4-842e8f6f3bb0",
    "types": [
      "songwriters",
      "8"
    ],
    "repository": "kara.moe",
    "modified_at": "2020-03-31T19:04:37.437Z"
  }
}