{
  "header": {
    "description": "Karaoke Mugen Tag File",
    "version": 1
  },
  "tag": {
    "i18n": {
      "eng": "Shijimi"
    },
    "modified_at": "2020-11-02T14:49:45.865Z",
    "name": "Shijimi",
    "repository": "kara.moe",
    "tid": "b64828f9-eaa9-4e35-a088-b5faa496dc2f",
    "types": [
      "songwriters",
      "8",
      "creators",
      "4"
    ]
  }
}