{
  "header": {
    "description": "Karaoke Mugen Tag File",
    "version": 1
  },
  "tag": {
    "aliases": [
      "HSD Kenichi",
      "HSDK",
      "History's Strongest Disciple Kenichi",
      "Kenichi el Discípulo Más Fuerte de la Historia.",
      "Kenichi o discípulo mais forte da História",
      "Shijou Saikyou no Deshi Kenichi",
      "Най-силният ученик в историята Кеничи",
      "Сильнейший в истории ученик Кэнъити",
      "史上最强弟子兼一",
      "shijou",
      "saikyou"
    ],
    "external_database_ids": {
      "anilist": 1559,
      "myanimelist": 1559,
      "kitsu": 1399
    },
    "i18n": {
      "eng": "KenIchi: The Mightiest Disciple",
      "jpn": "史上最強の弟子 ケンイチ",
      "qro": "Shijô Saikyô no Deshi Ken'ichi"
    },
    "modified_at": "2020-06-21T23:45:31.966Z",
    "name": "Shijô Saikyô no Deshi Ken'ichi",
    "repository": "kara.moe",
    "tid": "e3753467-c933-4a36-81c3-ba5d2a3b447b",
    "types": [
      "series",
      "1"
    ]
  }
}