{
  "header": {
    "description": "Karaoke Mugen Tag File",
    "version": 1
  },
  "tag": {
    "external_database_ids": {
      "anilist": 5034,
      "kitsu": 7667,
      "myanimelist": 5034
    },
    "i18n": {
      "eng": "Corpse Princess: Kuro",
      "qro": "Shikabane-Hime: Kuro",
      "jpn": "屍姫 玄"
    },
    "name": "Shikabane-Hime: Kuro",
    "repository": "kara.moe",
    "tid": "e0cdf296-8e14-4c98-95ff-078c7100f89c",
    "types": [
      "series",
      "1"
    ]
  }
}