{
  "header": {
    "description": "Karaoke Mugen Tag File",
    "version": 1
  },
  "tag": {
    "external_database_ids": {
      "anilist": 9768,
      "myanimelist": 9768,
      "kitsu": 5857
    },
    "i18n": {
      "eng": "Shima Shima Tora no Shimajirou"
    },
    "modified_at": "2020-09-11T22:34:49.765Z",
    "name": "Shima Shima Tora no Shimajirou",
    "repository": "kara.moe",
    "tid": "2b143833-c120-4926-a2a7-5a0942c3b145",
    "types": [
      "series",
      "1"
    ]
  }
}