{
  "header": {
    "description": "Karaoke Mugen Tag File",
    "version": 1
  },
  "tag": {
    "i18n": {
      "eng": "Shining Resonance Refrain",
      "jpn": "シャイニング・レゾナンス リフレイン",
      "qro": "Shining Resonance Refrain"
    },
    "modified_at": "2020-03-31T19:04:32.721Z",
    "name": "Shining Resonance Refrain",
    "repository": "kara.moe",
    "tid": "096b6c54-6f55-486a-bcf8-f2e6a8c6b537",
    "types": [
      "series",
      "1"
    ]
  }
}