{
  "header": {
    "description": "Karaoke Mugen Tag File",
    "version": 1
  },
  "tag": {
    "i18n": {
      "eng": "Shin'Ichirô Murayama"
    },
    "name": "Shin'Ichirô Murayama",
    "tid": "964178b7-0350-41a0-8281-8610477e98c4",
    "types": [
      "songwriters",
      "8"
    ],
    "repository": "kara.moe",
    "modified_at": "2020-03-31T19:04:37.472Z"
  }
}