{
  "header": {
    "description": "Karaoke Mugen Tag File",
    "version": 1
  },
  "tag": {
    "i18n": {
      "eng": "Shinji Hayashi"
    },
    "name": "Shinji Hayashi",
    "tid": "80be0af4-07d3-46fe-af06-a7d6f6e909d9",
    "types": [
      "songwriters",
      "8"
    ],
    "repository": "kara.moe",
    "modified_at": "2020-03-31T19:04:37.490Z"
  }
}