{
  "header": {
    "description": "Karaoke Mugen Tag File",
    "version": 1
  },
  "tag": {
    "aliases": [
      "SnB",
      "RoB"
    ],
    "i18n": {
      "eng": "Rage of Bahamut",
      "jpn": "神撃のバハムート",
      "qro": "Shingeki no Bahamut"
    },
    "name": "Shingeki no Bahamut",
    "repository": "kara.moe",
    "tid": "34cface9-ff63-4e60-aeb6-4639795ab06a",
    "types": [
      "franchises",
      "18"
    ]
  }
}