{
  "header": {
    "description": "Karaoke Mugen Tag File",
    "version": 1
  },
  "tag": {
    "i18n": {
      "eng": "Shinichiro Matsumoto"
    },
    "name": "Shinichiro Matsumoto",
    "tid": "c7b75fd1-636e-4400-b64f-68ecaef1b4ca",
    "types": [
      "songwriters",
      "8"
    ],
    "repository": "kara.moe",
    "modified_at": "2020-03-31T19:04:37.488Z"
  }
}