{
  "header": {
    "description": "Karaoke Mugen Tag File",
    "version": 1
  },
  "tag": {
    "i18n": {
      "eng": "Shinichi Osawa"
    },
    "name": "Shinichi Osawa",
    "tid": "39f42e1d-06ea-469a-bf07-b805a2169a62",
    "types": [
      "songwriters",
      "8"
    ],
    "repository": "kara.moe",
    "modified_at": "2020-03-31T19:04:37.485Z"
  }
}