{
  "header": {
    "description": "Karaoke Mugen Tag File",
    "version": 1
  },
  "tag": {
    "i18n": {
      "eng": "Shin Kenjushi France Five",
      "fre": "Shin Kenjushi France Five",
      "jpn": "Shin Kenjushi France Five",
      "qro": "Shin Kenjushi France Five"
    },
    "modified_at": "2020-03-31T19:04:32.699Z",
    "name": "Shin Kenjushi France Five",
    "repository": "kara.moe",
    "tid": "67657ce0-bec7-4104-ab5f-91c8751114b5",
    "types": [
      "series",
      "1"
    ]
  }
}