{
  "header": {
    "description": "Karaoke Mugen Tag File",
    "version": 1
  },
  "tag": {
    "i18n": {
      "eng": "Shin'ichirô Ikebe"
    },
    "name": "Shin'ichirô Ikebe",
    "tid": "6cd6956d-b370-47f2-bcec-789832b14e5e",
    "types": [
      "songwriters",
      "8"
    ],
    "repository": "kara.moe",
    "modified_at": "2020-03-31T19:04:37.470Z"
  }
}