{
  "header": {
    "description": "Karaoke Mugen Tag File",
    "version": 1
  },
  "tag": {
    "i18n": {
      "eng": "Shingo Asari"
    },
    "name": "Shingo Asari",
    "tid": "6b5b09c9-e087-416b-891d-3296de552d9d",
    "types": [
      "songwriters",
      "8"
    ],
    "repository": "kara.moe",
    "modified_at": "2020-03-31T19:04:37.482Z"
  }
}