{
  "header": {
    "description": "Karaoke Mugen Tag File",
    "version": 1
  },
  "tag": {
    "external_database_ids": {
      "anilist": 5485,
      "myanimelist": 5485,
      "kitsu": 4121
    },
    "i18n": {
      "eng": "Mazinger Edition Z: The Impact!",
      "jpn": "真マジンガー 衝撃! Z編",
      "qro": "Shin Mazinger Shougeki! Z-Hen"
    },
    "modified_at": "2020-03-31T19:04:32.701Z",
    "name": "Shin Mazinger Shougeki! Z-Hen",
    "repository": "kara.moe",
    "tid": "404ffc49-11d9-4652-b5fb-21fd46a14303",
    "types": [
      "series",
      "1"
    ]
  }
}