{
  "header": {
    "description": "Karaoke Mugen Tag File",
    "version": 1
  },
  "tag": {
    "aliases": [
      "シャインポスト",
      "閃耀路標"
    ],
    "external_database_ids": {
      "anilist": 140753,
      "kitsu": 45389,
      "myanimelist": 50221
    },
    "i18n": {
      "eng": "Shine Post"
    },
    "name": "Shine Post",
    "repository": "kara.moe",
    "tid": "79a1162a-c5d3-474c-a6ac-e152a9217cde",
    "types": [
      "series",
      "1"
    ]
  }
}