{
  "header": {
    "description": "Karaoke Mugen Tag File",
    "version": 1
  },
  "tag": {
    "aliases": [
      "SMT",
      "Persona",
      "MegaTen"
    ],
    "i18n": {
      "eng": "Shin Megami Tensei: Devil Survivor",
      "jpn": "女神異聞録デビルサバイバー",
      "qro": "Shin Megami Tensei: Devil Survivor"
    },
    "modified_at": "2021-02-08T19:29:51.512Z",
    "name": "Shin Megami Tensei: Devil Survivor",
    "repository": "kara.moe",
    "tid": "e49dc077-5623-4c5c-8c3e-e350b0715a55",
    "types": [
      "series",
      "1"
    ]
  }
}