{
  "header": {
    "description": "Karaoke Mugen Tag File",
    "version": 1
  },
  "tag": {
    "aliases": [
      "Advancing Giants",
      "AoT",
      "AoT TV",
      "Atacul Titanilor",
      "SNK",
      "Shingeki no Kyojin TV",
      "Η Επίθεση των Τιτάνων",
      "Атака Титанів",
      "Вторжение Гигантов",
      "На бій проти титанів",
      "Нашествие на гиганти",
      "Поход срещу титаните",
      "מתקפת הטיטאנים"
    ],
    "external_database_ids": {
      "anilist": 16498,
      "myanimelist": 16498,
      "kitsu": 7442
    },
    "i18n": {
      "ara": "الهجوم على العمالقة",
      "chi": "進擊的巨人",
      "cze": "Útok Titánů",
      "eng": "Attack on Titan",
      "fre": "L'Attaque des Titans",
      "ger": "Attack on Titan",
      "ita": "L'attacco dei Giganti",
      "jpn": "進撃の巨人 attack on titan",
      "kor": "진격의 거인",
      "per": "حمله به تایتان",
      "por": "Ataque dos Titãs",
      "spa": "Ataque a los Titanes",
      "qro": "Shingeki no Kyojin"
    },
    "modified_at": "2020-06-21T23:45:31.966Z",
    "name": "Shingeki no Kyojin",
    "repository": "kara.moe",
    "tid": "1086e47f-30cd-4219-9454-4ad608f07481",
    "types": [
      "series",
      "1",
      "franchises",
      "18"
    ]
  }
}