{
  "header": {
    "description": "Karaoke Mugen Tag File",
    "version": 1
  },
  "tag": {
    "i18n": {
      "eng": "Shinobi"
    },
    "name": "Shinobi",
    "tid": "a8ce8ce0-25eb-478c-96e7-ef19231a7067",
    "types": [
      "songwriters",
      "8"
    ],
    "repository": "kara.moe",
    "modified_at": "2020-03-31T19:04:37.499Z"
  }
}