{
  "header": {
    "description": "Karaoke Mugen Tag File",
    "version": 1
  },
  "tag": {
    "i18n": {
      "eng": "Shion Itsuki",
      "jpn": "樹詩音"
    },
    "name": "Shion Itsuki",
    "repository": "kara.moe",
    "tid": "06019a21-8955-4896-a49e-c98544222d7a",
    "types": [
      "singers",
      "2"
    ]
  }
}