{
  "header": {
    "description": "Karaoke Mugen Tag File",
    "version": 1
  },
  "tag": {
    "i18n": {
      "eng": "shirafu P"
    },
    "modified_at": "2020-11-28T22:27:24.524Z",
    "name": "shirafu P",
    "repository": "kara.moe",
    "tid": "7351f09e-0ccf-4438-9516-7ace7c230e10",
    "types": [
      "creators",
      "4"
    ]
  }
}