{
  "header": {
    "description": "Karaoke Mugen Tag File",
    "version": 1
  },
  "tag": {
    "i18n": {
      "eng": "shirosagi"
    },
    "name": "shirosagi",
    "repository": "kara.moe",
    "tid": "93a552e1-4a8b-483c-986a-323d7b777b7e",
    "types": [
      "songwriters",
      "8"
    ]
  }
}