{
  "header": {
    "description": "Karaoke Mugen Tag File",
    "version": 1
  },
  "tag": {
    "i18n": {
      "eng": "Shirobeats"
    },
    "name": "Shirobeats",
    "repository": "kara.moe",
    "tid": "8f21bdcf-7867-4cdd-803a-0d64f81c57e2",
    "types": [
      "songwriters",
      "8"
    ]
  }
}