{
  "header": {
    "description": "Karaoke Mugen Tag File",
    "version": 1
  },
  "tag": {
    "i18n": {
      "eng": "Sho Asami"
    },
    "modified_at": "2020-05-15T20:32:02.396Z",
    "name": "Sho Asami",
    "repository": "kara.moe",
    "tid": "65d92f4c-0d4d-43c2-a75e-3ce3310e97b5",
    "types": [
      "songwriters",
      "8"
    ]
  }
}