{
  "header": {
    "description": "Karaoke Mugen Tag File",
    "version": 1
  },
  "tag": {
    "i18n": {
      "eng": "Shoocharu"
    },
    "modified_at": "2021-01-03T23:47:33.768Z",
    "name": "Shoocharu",
    "repository": "kara.moe",
    "tid": "9f35bce2-739b-4799-b6e6-1c989abf3ae9",
    "types": [
      "creators",
      "4"
    ]
  }
}