{
  "header": {
    "description": "Karaoke Mugen Tag File",
    "version": 1
  },
  "tag": {
    "description": {
      "eng": "Shôjo☆Kageki Revue Starlight Movie",
      "jpn": "劇場版 少女☆歌劇 レヴュースタァライト",
      "qro": "Gekijôban Shôjo☆Kageki Revue Starlight"
    },
    "external_database_ids": {
      "anilist": 113024,
      "kitsu": 42681,
      "myanimelist": 40664
    },
    "i18n": {
      "eng": "Shôjo☆Kageki Revue Starlight Movie"
    },
    "name": "Shôjo☆Kageki Revue Starlight Movie",
    "repository": "kara.moe",
    "tid": "f628ef85-4ab4-4c62-b458-7ca124a665c5",
    "types": [
      "series",
      "1"
    ]
  }
}