{
  "header": {
    "description": "Karaoke Mugen Tag File",
    "version": 1
  },
  "tag": {
    "aliases": [
      "Shougou: Mobile Armor Division",
      "shougou"
    ],
    "i18n": {
      "eng": "Shôgô: Mobile Armor Division",
      "jpn": "昇剛: モバイルアーマーディビジョン",
      "qro": "Shôgô: Mobile Armor Division"
    },
    "modified_at": "2020-09-03T21:12:44.223Z",
    "name": "Shôgô: Mobile Armor Division",
    "repository": "kara.moe",
    "tid": "69bce35d-fee8-472a-ac62-af09d119d77b",
    "types": [
      "series",
      "1"
    ]
  }
}