{
  "header": {
    "description": "Karaoke Mugen Tag File",
    "version": 1
  },
  "tag": {
    "i18n": {
      "eng": "Shôichi Igari"
    },
    "name": "Shôichi Igari",
    "tid": "9f1cf457-bd2c-46a8-a16c-53af469d3fae",
    "types": [
      "songwriters",
      "8"
    ],
    "repository": "kara.moe",
    "modified_at": "2020-03-31T19:04:37.542Z"
  }
}