{
  "header": {
    "description": "Karaoke Mugen Tag File",
    "version": 1
  },
  "tag": {
    "i18n": {
      "eng": "Shôzô Totsuka"
    },
    "name": "Shôzô Totsuka",
    "tid": "a6fb0f5c-fcfd-435a-b5cd-f31a9a4f29ae",
    "types": [
      "songwriters",
      "8"
    ],
    "repository": "kara.moe",
    "modified_at": "2020-03-31T19:04:37.561Z"
  }
}