{
  "header": {
    "description": "Karaoke Mugen Tag File",
    "version": 1
  },
  "tag": {
    "i18n": {
      "eng": "Shô Goshima"
    },
    "name": "Shô Goshima",
    "tid": "7c2874e1-c755-43fd-bd19-2f60eeb889c1",
    "types": [
      "songwriters",
      "8"
    ],
    "repository": "kara.moe",
    "modified_at": "2020-03-31T19:04:37.533Z"
  }
}