{
  "header": {
    "description": "Karaoke Mugen Tag File",
    "version": 1
  },
  "tag": {
    "aliases": [
      "PROJECT ALTAIR",
      "Shoukoku no Altair",
      "shoukoku"
    ],
    "external_database_ids": {
      "anilist": 97984,
      "myanimelist": 34547,
      "kitsu": 13057
    },
    "i18n": {
      "eng": "Altair: A Record of Battles",
      "jpn": "将国のアルタイル",
      "kor": "장국의 알타이르",
      "qro": "Shôkoku no Altair"
    },
    "modified_at": "2020-03-31T19:04:32.750Z",
    "name": "Shôkoku no Altair",
    "repository": "kara.moe",
    "tid": "07330ac2-7177-4761-8da5-b8d89940bafe",
    "types": [
      "series",
      "1"
    ]
  }
}