{
  "header": {
    "description": "Karaoke Mugen Tag File",
    "version": 1
  },
  "tag": {
    "i18n": {
      "eng": "Show Mirai"
    },
    "name": "Show Mirai",
    "tid": "fb2d043e-fbc7-46fc-b3aa-ef13233614fa",
    "types": [
      "songwriters",
      "8"
    ],
    "repository": "kara.moe",
    "modified_at": "2020-03-31T19:04:37.563Z"
  }
}