{
  "header": {
    "description": "Karaoke Mugen Tag File",
    "version": 1
  },
  "tag": {
    "aliases": [
      "SB69"
    ],
    "external_database_ids": {
      "anilist": 20843,
      "myanimelist": 27441,
      "kitsu": 9729
    },
    "i18n": {
      "eng": "Show by Rock!!",
      "jpn": "SHOW BY ROCK!!（ショウ・バイ・ロック!!） ",
      "qro": "Show By Rock!!"
    },
    "modified_at": "2020-03-31T19:04:32.757Z",
    "name": "Show By Rock!!",
    "repository": "kara.moe",
    "tid": "d8667cbb-468b-4e09-aa06-32405941bf90",
    "types": [
      "series",
      "1",
      "franchises",
      "18"
    ]
  }
}