{
  "header": {
    "description": "Karaoke Mugen Tag File",
    "version": 1
  },
  "tag": {
    "i18n": {
      "eng": "Shunsaku Okuda"
    },
    "name": "Shunsaku Okuda",
    "tid": "7efbc51a-b795-4bab-a4b6-d5f49e553493",
    "types": [
      "songwriters",
      "8"
    ],
    "repository": "kara.moe",
    "modified_at": "2020-03-31T19:04:37.578Z"
  }
}