{
  "header": {
    "description": "Karaoke Mugen Tag File",
    "version": 1
  },
  "tag": {
    "i18n": {
      "eng": "Shun Taguchi"
    },
    "name": "Shun Taguchi",
    "tid": "5d1b5072-c65c-412f-8435-cfd56031dcf6",
    "types": [
      "songwriters",
      "8"
    ],
    "repository": "kara.moe",
    "modified_at": "2020-03-31T19:04:37.573Z"
  }
}