{
  "header": {
    "description": "Karaoke Mugen Tag File",
    "version": 1
  },
  "tag": {
    "i18n": {
      "eng": "Shuu Uchida",
      "jpn": "内田秀",
      "qro": "Shuu Uchida"
    },
    "name": "Shuu Uchida",
    "repository": "kara.moe",
    "tid": "5c5a517e-2aec-467f-b21c-3b8e73e02cb8",
    "types": [
      "singers",
      "2"
    ]
  }
}