{
  "header": {
    "description": "Karaoke Mugen Tag File",
    "version": 1
  },
  "tag": {
    "i18n": {
      "eng": "Shû Ihara"
    },
    "name": "Shû Ihara",
    "tid": "5f919378-7f7f-4ca3-896e-93ef2eee2510",
    "types": [
      "songwriters",
      "8"
    ],
    "repository": "kara.moe",
    "modified_at": "2020-03-31T19:04:37.591Z"
  }
}