{
  "header": {
    "description": "Karaoke Mugen Tag File",
    "version": 1
  },
  "tag": {
    "i18n": {
      "eng": "Shûzô Aoshima"
    },
    "name": "Shûzô Aoshima",
    "tid": "b30ea78d-3c67-45e3-ba4d-090af1da49b3",
    "types": [
      "songwriters",
      "8"
    ],
    "repository": "kara.moe",
    "modified_at": "2020-03-31T19:04:37.600Z"
  }
}