{
  "header": {
    "description": "Karaoke Mugen Tag File",
    "version": 1
  },
  "tag": {
    "aliases": [
      "Shuuichirou"
    ],
    "i18n": {
      "eng": "Shûichirô Fukuhiro",
      "qro": "Shûichirô Fukuhiro",
      "jpn": "福廣秀一朗"
    },
    "name": "Shûichirô Fukuhiro",
    "repository": "kara.moe",
    "tid": "dad1f625-061f-4396-b3f4-7bb0a422875e",
    "types": [
      "songwriters",
      "8"
    ]
  }
}