{
  "header": {
    "description": "Karaoke Mugen Tag File",
    "version": 1
  },
  "tag": {
    "i18n": {
      "eng": "Side Chest Karasuya"
    },
    "name": "Side Chest Karasuya",
    "tid": "4591fdbc-192d-4732-a07e-3eb2d51966e8",
    "types": [
      "songwriters",
      "8"
    ],
    "repository": "kara.moe",
    "modified_at": "2020-03-31T19:04:37.601Z"
  }
}