{
  "header": {
    "description": "Karaoke Mugen Tag File",
    "version": 1
  },
  "tag": {
    "i18n": {
      "eng": "Siegfeld Institute of Music Junior High",
      "qro": "Siegfeld Ongaku Gakuin Chûtôbu",
      "jpn": "シークフェルト音楽学院中等部"
    },
    "name": "Siegfeld Ongaku Gakuin Chûtôbu",
    "repository": "kara.moe",
    "tid": "357ef93e-8764-498c-9c88-aebb0790c97d",
    "types": [
      "singergroups",
      "17"
    ]
  }
}