{
  "header": {
    "description": "Karaoke Mugen Tag File",
    "version": 1
  },
  "tag": {
    "i18n": {
      "eng": "SILVER LINK."
    },
    "name": "SILVER LINK.",
    "tid": "bee26a9b-bc7b-4cdc-9317-6c9ee6707706",
    "types": [
      "creators",
      "4"
    ],
    "repository": "kara.moe",
    "modified_at": "2020-03-31T19:04:37.610Z"
  }
}