{
  "header": {
    "description": "Karaoke Mugen Tag File",
    "version": 1
  },
  "tag": {
    "i18n": {
      "eng": "Simple Plan"
    },
    "name": "Simple Plan",
    "tid": "20fad143-9a0a-40d2-b3db-d80f5eaca213",
    "types": [
      "singers",
      "2",
      "songwriters",
      "8"
    ],
    "repository": "kara.moe",
    "modified_at": "2020-03-31T19:04:37.613Z"
  }
}