{
  "header": {
    "description": "Karaoke Mugen Tag File",
    "version": 1
  },
  "tag": {
    "i18n": {
      "eng": "singstarfreak89"
    },
    "name": "singstarfreak89",
    "repository": "kara.moe",
    "tid": "db257545-ad5c-4507-aba5-18e644256ff6",
    "types": [
      "authors",
      "6"
    ]
  }
}