{
  "header": {
    "description": "Karaoke Mugen Tag File",
    "version": 1
  },
  "tag": {
    "i18n": {
      "eng": "Sirange!"
    },
    "name": "Sirange!",
    "tid": "7ae26cfe-272e-4220-a535-f26c8fefbf55",
    "types": [
      "songwriters",
      "8"
    ],
    "repository": "kara.moe",
    "modified_at": "2020-03-31T19:04:37.619Z"
  }
}