{
  "header": {
    "description": "Karaoke Mugen Tag File",
    "version": 1
  },
  "tag": {
    "i18n": {
      "eng": "SISTAR"
    },
    "name": "SISTAR",
    "tid": "a91d4129-fe46-4e71-a8cb-bf3a109f7333",
    "types": [
      "singers",
      "2"
    ],
    "repository": "kara.moe",
    "modified_at": "2020-03-31T19:04:37.620Z"
  }
}