{
  "header": {
    "description": "Karaoke Mugen Tag File",
    "version": 1
  },
  "tag": {
    "i18n": {
      "eng": "Six Pack Shinozaki"
    },
    "name": "Six Pack Shinozaki",
    "tid": "6e54c4ac-e8d0-4be9-8d05-76b2412ffc0a",
    "types": [
      "songwriters",
      "8"
    ],
    "repository": "kara.moe",
    "modified_at": "2020-03-31T19:04:37.623Z"
  }
}