{
  "header": {
    "description": "Karaoke Mugen Tag File",
    "version": 1
  },
  "tag": {
    "i18n": {
      "eng": "Skarsnik"
    },
    "name": "Skarsnik",
    "tid": "1efdaf5b-3fa4-4628-8dd9-6f796f795b1f",
    "types": [
      "authors",
      "6"
    ],
    "repository": "kara.moe",
    "modified_at": "2020-03-31T19:04:37.625Z"
  }
}