{
  "header": {
    "description": "Karaoke Mugen Tag File",
    "version": 1
  },
  "tag": {
    "i18n": {
      "eng": "Skeleton Knight in Another World",
      "fre": "Skeleton Knight in Another World",
      "qro": "Gaikotsu Kishi-sama, Tadaima Isekai e Odekakechuu",
      "jpn": "骸骨騎士様、只今異世界へお出掛け中 "
    },
    "name": "Skeleton Knight in Another World",
    "repository": "kara.moe",
    "tid": "f8b48258-5960-4c18-95bb-99b863a17281",
    "types": [
      "series",
      "1"
    ]
  }
}