{
  "header": {
    "description": "Karaoke Mugen Tag File",
    "version": 1
  },
  "tag": {
    "i18n": {
      "eng": "Skellington Inc."
    },
    "name": "Skellington Inc.",
    "tid": "19ef0f56-38ef-4677-a79d-8043512e6387",
    "types": [
      "creators",
      "4"
    ],
    "repository": "kara.moe",
    "modified_at": "2020-03-31T19:04:37.626Z"
  }
}