{
  "header": {
    "description": "Karaoke Mugen Tag File",
    "version": 1
  },
  "tag": {
    "i18n": {
      "eng": "Skirt"
    },
    "modified_at": "2021-04-19T16:42:59.200Z",
    "name": "Skirt",
    "repository": "kara.moe",
    "tid": "f6872cd8-a294-425c-9eb8-fe8bbac22c18",
    "types": [
      "singers",
      "2",
      "songwriters",
      "8"
    ]
  }
}