{
  "header": {
    "description": "Karaoke Mugen Tag File",
    "version": 1
  },
  "tag": {
    "i18n": {
      "eng": "Sky-Boys"
    },
    "name": "Sky-Boys",
    "repository": "kara.moe",
    "tid": "c85e9801-3ba1-46c1-ae49-b1b7f7cc20cb",
    "types": [
      "songwriters",
      "8"
    ],
    "modified_at": "2020-03-31T19:04:37.629Z"
  }
}