{
  "header": {
    "description": "Karaoke Mugen Tag File",
    "version": 1
  },
  "tag": {
    "i18n": {
      "eng": "Sleeping Beauty",
      "fre": "La Belle au Bois Dormant"
    },
    "name": "Sleeping Beauty",
    "repository": "kara.moe",
    "tid": "3462effa-e8f2-4ae2-a37e-73d00dce5f20",
    "types": [
      "series",
      "1"
    ]
  }
}