{
  "header": {
    "description": "Karaoke Mugen Tag File",
    "version": 1
  },
  "tag": {
    "i18n": {
      "eng": "SM Entertainment"
    },
    "name": "SM Entertainment",
    "tid": "41112842-f1a3-4fef-9ebd-55b7fa600589",
    "types": [
      "creators",
      "4"
    ],
    "repository": "kara.moe",
    "modified_at": "2020-03-31T19:04:37.640Z"
  }
}