{
  "header": {
    "description": "Karaoke Mugen Tag File",
    "version": 1
  },
  "tag": {
    "i18n": {
      "eng": "Smewthie"
    },
    "name": "Smewthie",
    "repository": "kara.moe",
    "tid": "791eb272-5dd7-4155-904e-04ede5e9161e",
    "types": [
      "singers",
      "2"
    ]
  }
}