{
  "header": {
    "description": "Karaoke Mugen Tag File",
    "version": 1
  },
  "tag": {
    "i18n": {
      "eng": "SOARA"
    },
    "name": "SOARA",
    "repository": "kara.moe",
    "tid": "f9cfa326-50a2-47f8-a9d0-c8ce6efc88e7",
    "types": [
      "singergroups",
      "17"
    ]
  }
}