{
  "tag": {
    "tid": "449844e4-3a1f-46e1-8a92-bf72e2d1b6f1",
    "i18n": {
      "eng": "Sodachi"
    },
    "name": "Sodachi",
    "types": [
      "authors",
      "6"
    ],
    "repository": "kara.moe"
  },
  "header": {
    "version": 1,
    "description": "Karaoke Mugen Tag File"
  }
}