{
  "header": {
    "description": "Karaoke Mugen Tag File",
    "version": 1
  },
  "tag": {
    "i18n": {
      "eng": "Sol Trigger",
      "jpn": "ソールトリガー",
      "qro": "Sol Trigger"
    },
    "modified_at": "2020-03-31T19:04:32.783Z",
    "name": "Sol Trigger",
    "repository": "kara.moe",
    "tid": "f50bc9b0-652c-49c6-9afb-416ce4e86cc5",
    "types": [
      "series",
      "1"
    ]
  }
}