{
  "header": {
    "description": "Karaoke Mugen Tag File",
    "version": 1
  },
  "tag": {
    "i18n": {
      "eng": "Sola Digital Arts"
    },
    "modified_at": "2021-01-28T15:11:00.698Z",
    "name": "Sola Digital Arts",
    "repository": "kara.moe",
    "tid": "2d4abbfc-0667-419d-a71e-0a0302becfe2",
    "types": [
      "creators",
      "4"
    ]
  }
}