{
  "header": {
    "description": "Karaoke Mugen Tag File",
    "version": 1
  },
  "tag": {
    "i18n": {
      "eng": "SolPie"
    },
    "name": "SolPie",
    "tid": "f0d024b5-c5d9-4d7a-a4c1-c4c06daf9ff8",
    "types": [
      "creators",
      "4",
      "songwriters",
      "8"
    ],
    "repository": "kara.moe",
    "modified_at": "2020-03-31T19:04:37.655Z"
  }
}