{
  "header": {
    "description": "Karaoke Mugen Tag File",
    "version": 1
  },
  "tag": {
    "i18n": {
      "eng": "Something Witty Entertainment"
    },
    "modified_at": "2021-04-04T12:16:32.546Z",
    "name": "Something Witty Entertainment",
    "repository": "kara.moe",
    "tid": "e3a5a542-f654-4a4e-9f49-97adec382642",
    "types": [
      "creators",
      "4"
    ]
  }
}