{
  "header": {
    "description": "Karaoke Mugen Tag File",
    "version": 1
  },
  "tag": {
    "i18n": {
      "qro": "Sô",
      "eng": "Sou"
    },
    "name": "Sou",
    "repository": "kara.moe",
    "tid": "bd49eba8-b82a-483d-ba3d-5f445b218b2a",
    "types": [
      "songwriters",
      "8",
      "singers",
      "2"
    ]
  }
}