{
  "header": {
    "description": "Karaoke Mugen Tag File",
    "version": 1
  },
  "tag": {
    "aliases": [
      "Souhei"
    ],
    "i18n": {
      "eng": "Sôhei Mishima"
    },
    "name": "Sôhei Mishima",
    "repository": "kara.moe",
    "tid": "a8e2fb47-f875-437e-b1ca-a8c2c7491871",
    "types": [
      "songwriters",
      "8"
    ]
  }
}