{
  "header": {
    "description": "Karaoke Mugen Tag File",
    "version": 1
  },
  "tag": {
    "aliases": [
      "Fafner in the Azure: Exodus",
      "soukyuu"
    ],
    "external_database_ids": {
      "anilist": 17080,
      "myanimelist": 17080,
      "kitsu": 7575
    },
    "i18n": {
      "chi": "蒼穹之法芙娜 EXODUS",
      "eng": "Fafner of the Blue Sky: Exodus",
      "jpn": "蒼穹のファフナー Dead Aggressor EXODUS",
      "qro": "Sôkyû no Fafner: Dead Aggressor Exodus"
    },
    "modified_at": "2020-03-31T19:04:32.799Z",
    "name": "Sôkyû no Fafner: Dead Aggressor Exodus",
    "repository": "kara.moe",
    "tid": "133c97f2-4ba1-4df4-8aa6-7fc36f740212",
    "types": [
      "series",
      "1"
    ]
  }
}