{
  "header": {
    "description": "Karaoke Mugen Tag File",
    "version": 1
  },
  "tag": {
    "i18n": {
      "eng": "Soul Blade",
      "jpn": "ソウルエッジ",
      "qro": "Soul Edge"
    },
    "modified_at": "2020-03-31T19:04:32.801Z",
    "name": "Soul Edge",
    "repository": "kara.moe",
    "tid": "9f50d6e2-0910-4501-ac3c-123c1481969c",
    "types": [
      "series",
      "1"
    ]
  }
}