{
  "header": {
    "description": "Karaoke Mugen Tag File",
    "version": 1
  },
  "tag": {
    "i18n": {
      "eng": "SOUL'd OUT"
    },
    "name": "SOUL'd OUT",
    "repository": "kara.moe",
    "tid": "f519735c-26af-422b-824b-7c4f5df23ee4",
    "types": [
      "singers",
      "2",
      "songwriters",
      "8"
    ],
    "modified_at": "2020-03-31T19:04:37.678Z"
  }
}