{
  "header": {
    "description": "Karaoke Mugen Tag File",
    "version": 1
  },
  "tag": {
    "aliases": [
      "Genesis of Aquarion",
      "Holy Genesis Aquarion",
      "Sousei no Aquarion",
      "sna",
      "Święta Geneza Aquarion",
      "Акварион",
      "أكواريون",
      "sousei"
    ],
    "external_database_ids": {
      "anilist": 478,
      "myanimelist": 478,
      "kitsu": 440
    },
    "i18n": {
      "eng": "Aquarion",
      "ita": "Aquarion",
      "jpn": "創聖のアクエリオン",
      "pol": "Aquarion",
      "tha": "อควอเรี่ยน สงครามหุ่นศักดิ์สิทธิ์",
      "qro": "Sôsei no Aquarion"
    },
    "modified_at": "2020-03-31T19:04:32.805Z",
    "name": "Sôsei no Aquarion",
    "repository": "kara.moe",
    "tid": "6a3e4f89-46b7-4934-8e8a-f2a36ebac2e7",
    "types": [
      "series",
      "1"
    ]
  }
}