{
  "header": {
    "description": "Karaoke Mugen Tag File",
    "version": 1
  },
  "tag": {
    "i18n": {
      "eng": "South Carolina ETV"
    },
    "name": "South Carolina ETV",
    "tid": "465fdb8f-8818-4296-bf4f-ac8ad048f1a5",
    "types": [
      "creators",
      "4"
    ],
    "repository": "kara.moe",
    "modified_at": "2020-03-31T19:04:37.683Z"
  }
}