{
  "header": {
    "description": "Karaoke Mugen Tag File",
    "version": 1
  },
  "tag": {
    "i18n": {
      "afr": "Spaans",
      "amh": "ስፓኒሽ",
      "ara": "الإسبانية",
      "aze": "İspan",
      "bak": "Испан теле",
      "bel": "Іспанскі",
      "bul": "Испански",
      "ben": "স্প্যানিশ",
      "bos": "Španski",
      "cat": "Espanyol",
      "cze": "Španělština",
      "wel": "Sbaeneg",
      "dan": "Spansk",
      "ger": "Spanisch",
      "gre": "Ισπανικά",
      "eng": "Spanish",
      "epo": "La hispana",
      "spa": "Español",
      "est": "Hispaania",
      "baq": "Espainiako",
      "per": "اسپانیایی",
      "fin": "Espanja",
      "fre": "Espagnol",
      "gle": "Spáinnis",
      "gla": "'S e",
      "glg": "Español",
      "guj": "સ્પેનિશ",
      "heb": "ספרדית",
      "hin": "स्पेनिश",
      "hrv": "Španjolski",
      "hat": "Panyòl",
      "hun": "Spanyol",
      "arm": "Իսպաներեն",
      "ind": "Spanyol",
      "ice": "Spænska",
      "ita": "Spagnolo",
      "jpn": "スペイン語",
      "jav": "Spanyol",
      "geo": "ესპანური",
      "kaz": "Испан",
      "kan": "ಸ್ಪ್ಯಾನಿಷ್",
      "kor": "스페인",
      "kir": "Испан",
      "lat": "Spanish",
      "lit": "Ispanų",
      "lav": "Spāņu",
      "mlg": "Espaniola",
      "mao": "Spanish",
      "mac": "Шпански",
      "mal": "സ്പാനിഷ്",
      "mon": "Испани",
      "mar": "स्पॅनिश",
      "may": "Bahasa sepanyol",
      "mlt": "Spanjol",
      "nep": "स्पेनिस",
      "dut": "Spaans",
      "nor": "Spansk",
      "pan": "ਸਪੇਨੀ",
      "pol": "Hiszpański",
      "por": "Espanhol",
      "rum": "Spaniolă",
      "rus": "Испанский",
      "sin": "ස්පාඤ්ඤ",
      "slo": "Španielčina",
      "slv": "Španski",
      "alb": "Spanjolle",
      "srp": "Шпански",
      "sun": "Spanyol",
      "swe": "Spanska",
      "swa": "Kihispania",
      "tam": "ஸ்பானிஷ்",
      "tel": "స్పానిష్",
      "tgk": "Испанӣ",
      "tha": "สอนภาษาสเปน",
      "tgl": "Espanyol",
      "tur": "İspanyolca",
      "tat": "Испан теле",
      "ukr": "Іспанська",
      "urd": "ہسپانوی",
      "uzb": "Ispaniya",
      "vie": "Tiếng tây ban nha",
      "xho": "Isispanish",
      "yid": "שפּאַניש",
      "chi": "西班牙语"
    },
    "name": "spa",
    "tid": "11e9665f-f813-4495-bced-7ef9422cc992",
    "types": [
      "langs",
      "5"
    ],
    "repository": "kara.moe",
    "modified_at": "2020-03-31T19:04:37.686Z"
  }
}