{
  "header": {
    "description": "Karaoke Mugen Tag File",
    "version": 1
  },
  "tag": {
    "aliases": [
      "Cobra - Bạn của loài người",
      "Cobra: Uzay Macerası",
      "Космічні пригоди Кобри"
    ],
    "external_database_ids": {
      "anilist": 2451,
      "myanimelist": 2451,
      "kitsu": 2225
    },
    "i18n": {
      "eng": "Space Adventure Cobra",
      "fre": "Cobra",
      "jpn": "スペースコブラ",
      "qro": "Space Cobra"
    },
    "modified_at": "2020-03-31T19:04:32.807Z",
    "name": "Space Cobra",
    "repository": "kara.moe",
    "tid": "4676ae69-9b4b-4d18-bbca-162ed3125cdd",
    "types": [
      "series",
      "1"
    ]
  }
}