{
  "header": {
    "description": "Karaoke Mugen Tag File",
    "version": 1
  },
  "tag": {
    "i18n": {
      "eng": "speena"
    },
    "name": "speena",
    "repository": "kara.moe",
    "tid": "ea536bb3-221a-4f34-8ead-71daf912abfd",
    "types": [
      "singers",
      "2"
    ]
  }
}