{
  "header": {
    "description": "Karaoke Mugen Tag File",
    "version": 1
  },
  "tag": {
    "i18n": {
      "eng": "Spica"
    },
    "name": "Spica",
    "repository": "kara.moe",
    "tid": "67fba33a-9817-4ceb-b9aa-313dc6981fbb",
    "types": [
      "singers",
      "2"
    ]
  }
}