{
  "header": {
    "description": "Karaoke Mugen Tag File",
    "version": 1
  },
  "tag": {
    "aliases": [
      "Spiral ~Bond of Inference~",
      "Spiral ~Bond of Reasoning~",
      "Spiral ~Suiri no Kizuna~",
      "Spirală",
      "推理之绊"
    ],
    "external_database_ids": {
      "anilist": 341,
      "myanimelist": 341,
      "kitsu": 308
    },
    "i18n": {
      "cze": "Spirála",
      "eng": "Spiral: Bond of Reasoning",
      "fre": "Spiral : Les Liens du raisonnement",
      "hun": "Spirál",
      "jpn": "スパイラル -推理の絆-",
      "rum": "Spiral",
      "qro": "Spiral: Suiri no Kizuna"
    },
    "modified_at": "2020-03-31T19:04:32.814Z",
    "name": "Spiral: Suiri no Kizuna",
    "repository": "kara.moe",
    "tid": "71f65ab7-1cad-464c-bb55-bd7289263064",
    "types": [
      "series",
      "1"
    ]
  }
}