{
  "header": {
    "description": "Karaoke Mugen Tag File",
    "version": 1
  },
  "tag": {
    "i18n": {
      "eng": "SpiralS"
    },
    "name": "SpiralS",
    "tid": "df0bb1a1-6aaf-4940-99dc-6b728d8716d2",
    "types": [
      "songwriters",
      "8"
    ],
    "repository": "kara.moe",
    "modified_at": "2020-03-31T19:04:37.692Z"
  }
}