{
  "header": {
    "description": "Karaoke Mugen Tag File",
    "version": 1
  },
  "tag": {
    "i18n": {
      "eng": "Sprite"
    },
    "name": "Sprite",
    "tid": "28961b66-ec49-4a5c-943a-92f73c00f15b",
    "types": [
      "creators",
      "4"
    ],
    "repository": "kara.moe",
    "modified_at": "2020-03-31T19:04:37.695Z"
  }
}