{
  "header": {
    "description": "Karaoke Mugen Tag File",
    "version": 1
  },
  "tag": {
    "i18n": {
      "eng": "Squid Sisters",
      "jpn": "シオカラーズ",
      "qro": "Shiokarāzu",
      "fre": "Calamazones",
      "ger": "Sea Sirens",
      "spa": "Calamarciñas"
    },
    "name": "Squid Sisters",
    "repository": "kara.moe",
    "tid": "7bd4946c-a82f-4a6b-8e81-7dc866a3cd5d",
    "types": [
      "singergroups",
      "17"
    ]
  }
}