{
  "header": {
    "description": "Karaoke Mugen Tag File",
    "version": 1
  },
  "tag": {
    "i18n": {
      "eng": "SRP"
    },
    "name": "SRP",
    "repository": "kara.moe",
    "tid": "e6ef85ce-0272-454f-a722-d55e5ef8ef25",
    "types": [
      "creators",
      "4"
    ]
  }
}