{
  "header": {
    "description": "Karaoke Mugen Tag File",
    "version": 1
  },
  "tag": {
    "i18n": {
      "eng": "STAND-ALONE"
    },
    "name": "STAND-ALONE",
    "repository": "kara.moe",
    "tid": "fe7253bf-fb1b-4e02-9c20-18afd95b9da0",
    "types": [
      "singergroups",
      "17"
    ]
  }
}