{
  "header": {
    "description": "Karaoke Mugen Tag File",
    "version": 1
  },
  "tag": {
    "i18n": {
      "jpn": "Starry☆Sky ～Summer Stories～",
      "qro": "Starry☆Sky ～Summer Stories～"
    },
    "modified_at": "2020-03-31T19:04:32.829Z",
    "name": "Starry☆Sky ～Summer Stories～",
    "repository": "kara.moe",
    "tid": "4addb480-7b54-4256-ad57-5f466eff7c25",
    "types": [
      "series",
      "1"
    ]
  }
}