{
  "header": {
    "description": "Karaoke Mugen Tag File",
    "version": 1
  },
  "tag": {
    "i18n": {
      "eng": "Stark"
    },
    "name": "Stark",
    "tid": "67ea80e2-30f4-45f0-8fa8-841f582b3035",
    "types": [
      "authors",
      "6"
    ],
    "repository": "kara.moe",
    "modified_at": "2020-03-31T19:04:37.707Z"
  }
}