{
  "header": {
    "description": "Karaoke Mugen Tag File",
    "version": 1
  },
  "tag": {
    "i18n": {
      "eng": "STARTRACK"
    },
    "modified_at": "2020-06-13T19:22:39.599Z",
    "name": "STARTRACK",
    "repository": "kara.moe",
    "tid": "cec064b9-9c4a-4342-a40a-e2a0e13e37d5",
    "types": [
      "songwriters",
      "8"
    ]
  }
}