{
  "header": {
    "description": "Karaoke Mugen Tag File",
    "version": 1
  },
  "tag": {
    "i18n": {
      "eng": "Starbomb"
    },
    "modified_at": "2021-01-12T23:18:43.980Z",
    "name": "Starbomb",
    "repository": "kara.moe",
    "tid": "a7f86a15-5d13-4c56-ad63-a7cb9b2f74ba",
    "types": [
      "songwriters",
      "8",
      "singers",
      "2",
      "creators",
      "4"
    ]
  }
}