{
  "header": {
    "description": "Karaoke Mugen Tag File",
    "version": 1
  },
  "tag": {
    "i18n": {
      "jpn": "Starry☆Sky ～After Spring～",
      "qro": "Starry☆Sky ～After Spring～"
    },
    "modified_at": "2020-03-31T19:04:32.824Z",
    "name": "Starry☆Sky ～After Spring～",
    "repository": "kara.moe",
    "tid": "5e68649b-65fb-49b4-bcea-4d49effe36cb",
    "types": [
      "series",
      "1"
    ]
  }
}