{
  "header": {
    "description": "Karaoke Mugen Tag File",
    "version": 1
  },
  "tag": {
    "i18n": {
      "eng": "Stefano Castagna"
    },
    "name": "Stefano Castagna",
    "repository": "kara.moe",
    "tid": "9b20f973-c583-4341-abb5-ba87b88c1e1b",
    "types": [
      "songwriters",
      "8"
    ]
  }
}