{
  "header": {
    "description": "Karaoke Mugen Tag File",
    "version": 1
  },
  "tag": {
    "i18n": {
      "eng": "Stone Music Entertainment"
    },
    "name": "Stone Music Entertainment",
    "tid": "ffdf8826-6236-4e88-8086-795ba2aed81d",
    "types": [
      "creators",
      "4"
    ],
    "repository": "kara.moe",
    "modified_at": "2020-03-31T19:04:37.728Z"
  }
}