{
  "header": {
    "description": "Karaoke Mugen Tag File",
    "version": 1
  },
  "tag": {
    "aliases": [
      "SW",
      "Strike Witches tv",
      "Штурмовые ведьмы",
      "Штурмовые ведьмы (2008)",
      "ストライクウィッチーズ",
      "侵袭魔女",
      "强袭魔女",
      "机械化少女"
    ],
    "external_database_ids": {
      "anilist": 3667,
      "myanimelist": 3667,
      "kitsu": 3179
    },
    "i18n": {
      "eng": "Strike Witches",
      "jpn": "ストライクウィッチーズ(2008)",
      "qro": "Strike Witches"
    },
    "modified_at": "2020-03-31T19:04:32.841Z",
    "name": "Strike Witches",
    "repository": "kara.moe",
    "tid": "9e479903-aec7-4043-aaee-f89cb8b86e91",
    "types": [
      "series",
      "1",
      "franchises",
      "18"
    ]
  }
}