{
  "header": {
    "description": "Karaoke Mugen Tag File",
    "version": 1
  },
  "tag": {
    "aliases": [
      "SW",
      "SWOVA"
    ],
    "external_database_ids": {
      "anilist": 20650,
      "myanimelist": 23725,
      "kitsu": 8658
    },
    "i18n": {
      "eng": "Strike Witches: Operation Victory Arrow",
      "jpn": "ストライクウィッチーズ Operation Victory Arrow",
      "qro": "Strike Witches Operation Victory Arrow"
    },
    "modified_at": "2020-03-31T19:04:32.840Z",
    "name": "Strike Witches Operation Victory Arrow",
    "repository": "kara.moe",
    "tid": "9eda7598-383f-484d-a090-0cc8160acb6d",
    "types": [
      "series",
      "1"
    ]
  }
}