{
  "header": {
    "description": "Karaoke Mugen Tag File",
    "version": 1
  },
  "tag": {
    "i18n": {
      "eng": "Studio Junio"
    },
    "name": "Studio Junio",
    "tid": "a0269b32-f357-4207-acba-116e9b9a7a70",
    "types": [
      "creators",
      "4"
    ],
    "repository": "kara.moe",
    "modified_at": "2020-03-31T19:04:37.742Z"
  }
}