{
  "header": {
    "description": "Karaoke Mugen Tag File",
    "version": 1
  },
  "tag": {
    "i18n": {
      "eng": "Studio Kikan"
    },
    "modified_at": "2020-09-11T22:34:50.499Z",
    "name": "Studio Kikan",
    "repository": "kara.moe",
    "tid": "3f56779d-7861-490b-8748-82a0aa670263",
    "types": [
      "creators",
      "4"
    ]
  }
}