{
  "header": {
    "description": "Karaoke Mugen Tag File",
    "version": 1
  },
  "tag": {
    "i18n": {
      "eng": "Studio Sign"
    },
    "name": "Studio Sign",
    "tid": "3bf68723-1622-47e3-ac15-66ce49858915",
    "types": [
      "creators",
      "4"
    ],
    "repository": "kara.moe",
    "modified_at": "2020-03-31T19:04:37.749Z"
  }
}