{
  "header": {
    "description": "Karaoke Mugen Tag File",
    "version": 1
  },
  "tag": {
    "i18n": {
      "eng": "Studio Dragon Corporation"
    },
    "name": "Studio Dragon Corporation",
    "tid": "f82e902e-39b3-475c-8021-7b43213f65b4",
    "types": [
      "creators",
      "4"
    ],
    "repository": "kara.moe",
    "modified_at": "2020-03-31T19:04:37.738Z"
  }
}