{
  "header": {
    "description": "Karaoke Mugen Tag File",
    "version": 1
  },
  "tag": {
    "i18n": {
      "eng": "Studio Rikka"
    },
    "name": "Studio Rikka",
    "repository": "kara.moe",
    "tid": "f4ca9a0f-1bcc-410a-b19a-d8b2c1d6d34d",
    "types": [
      "creators",
      "4"
    ],
    "modified_at": "2020-03-31T19:04:37.747Z"
  }
}