{
  "header": {
    "description": "Karaoke Mugen Tag File",
    "version": 1
  },
  "tag": {
    "i18n": {
      "eng": "STUDIO HIBARI"
    },
    "name": "STUDIO HIBARI",
    "tid": "875713d0-9b1c-4743-b0f9-0752715ddd5a",
    "types": [
      "creators",
      "4"
    ],
    "repository": "kara.moe",
    "modified_at": "2020-03-31T19:04:37.741Z"
  }
}