{
  "header": {
    "description": "Karaoke Mugen Tag File",
    "version": 1
  },
  "tag": {
    "i18n": {
      "eng": "STYLE FIVE"
    },
    "name": "STYLE FIVE",
    "repository": "kara.moe",
    "tid": "071b5436-f6d3-40e3-919b-2638fc5022d3",
    "types": [
      "singergroups",
      "17"
    ]
  }
}