{
  "header": {
    "description": "Karaoke Mugen Tag File",
    "version": 1
  },
  "tag": {
    "aliases": [
      "Chocola & Vanilla",
      "SSR",
      "Sugar² Rune"
    ],
    "external_database_ids": {
      "anilist": 1642,
      "myanimelist": 1642,
      "kitsu": 1477
    },
    "i18n": {
      "eng": "Sugar Sugar Rune",
      "fre": "Chocola et Vanilla",
      "heb": "שוגר שוגר רון",
      "ita": "Sugar Sugar",
      "jpn": "シュガシュガルーン",
      "pol": "Słodkie, słodkie czary",
      "qro": "Sugar Sugar Rune"
    },
    "modified_at": "2020-03-31T19:04:32.844Z",
    "name": "Sugar Sugar Rune",
    "repository": "kara.moe",
    "tid": "ec7c7c05-825b-48b9-a1f0-6d4f6749aeb1",
    "types": [
      "series",
      "1"
    ]
  }
}