{
  "header": {
    "description": "Karaoke Mugen Tag File",
    "version": 1
  },
  "tag": {
    "i18n": {
      "eng": "Suirei"
    },
    "name": "Suirei",
    "repository": "kara.moe",
    "tid": "203cf358-1c2b-4029-b275-b473a4c0cd36",
    "types": [
      "singers",
      "2"
    ]
  }
}