{
  "header": {
    "description": "Karaoke Mugen Tag File",
    "version": 1
  },
  "tag": {
    "i18n": {
      "eng": "Suisse ?"
    },
    "modified_at": "2021-04-25T13:17:24.331Z",
    "name": "Suisse ?",
    "repository": "kara.moe",
    "tid": "1a2ce3b6-b4cb-4f5b-abdf-f06ea4a0bb56",
    "types": [
      "series",
      "1"
    ]
  }
}