{
  "header": {
    "description": "Karaoke Mugen Tag File",
    "version": 1
  },
  "tag": {
    "aliases": [
      "Time Shadows"
    ],
    "external_database_ids": {
      "anilist": 129201,
      "myanimelist": 47194,
      "kitsu": 44032
    },
    "i18n": {
      "eng": "Summer Time Rendering",
      "jpn": "サマータイムレンダ ",
      "qro": "Summertime Render"
    },
    "name": "Summer Time Rendering",
    "repository": "kara.moe",
    "tid": "f088821b-48e4-48bd-96fa-683fe3b54a04",
    "types": [
      "series",
      "1"
    ]
  }
}