{
  "header": {
    "description": "Karaoke Mugen Tag File",
    "version": 1
  },
  "tag": {
    "external_database_ids": {
      "anilist": 113418,
      "myanimelist": 40685,
      "kitsu": 42736
    },
    "i18n": {
      "eng": "Super Cub",
      "jpn": "スーパーカブ",
      "qro": "Super Cub"
    },
    "modified_at": "2021-04-28T23:46:49.107Z",
    "name": "Super Cub",
    "repository": "kara.moe",
    "tid": "005ad9ac-4903-4ae2-ade9-ab3825fd16bd",
    "types": [
      "series",
      "1"
    ]
  }
}