{
  "header": {
    "description": "Karaoke Mugen Tag File",
    "version": 1
  },
  "tag": {
    "i18n": {
      "eng": "Sven"
    },
    "modified_at": "2020-04-27T00:21:19.312Z",
    "name": "Sven",
    "repository": "kara.moe",
    "tid": "ae365917-d966-408b-aacb-d3ea2304492d",
    "types": [
      "creators",
      "4"
    ]
  }
}