{
  "header": {
    "description": "Karaoke Mugen Tag File",
    "version": 1
  },
  "tag": {
    "i18n": {
      "afr": "Sweedse",
      "amh": "ስዊድንኛ",
      "ara": "السويدية",
      "aze": "İsveç",
      "bak": "Швед теле",
      "bel": "Шведскі",
      "bul": "Шведски",
      "ben": "সুইডিশ",
      "bos": "Švedski",
      "cat": "Sueca",
      "cze": "Švédský",
      "wel": "Sweden",
      "dan": "Svensk",
      "ger": "Schwedisch",
      "gre": "Σουηδικά",
      "eng": "Swedish",
      "epo": "Sveda",
      "spa": "Sueco",
      "est": "Rootsi",
      "baq": "Suediako",
      "per": "سوئد",
      "fin": "Ruotsin",
      "fre": "Suédois",
      "gle": "Sualainnis",
      "gla": "Swedish",
      "glg": "Sueco",
      "guj": "સ્વીડિશ",
      "heb": "השבדי",
      "hin": "स्वीडिश",
      "hrv": "Švedski",
      "hat": "Swedish",
      "hun": "Svéd",
      "arm": "Շվեդերեն",
      "ind": "Swedia",
      "ice": "Sænska",
      "ita": "Svedese",
      "jpn": "スウェーデン",
      "jav": "Swedia",
      "geo": "შვედური",
      "kaz": "Швед",
      "kan": "ಸ್ವೀಡಿಷ್",
      "kor": "스웨덴",
      "kir": "Швед тили",
      "lat": "Swedish",
      "lit": "Švedų",
      "lav": "Zviedru",
      "mlg": "Anarana",
      "mao": "Huitene",
      "mac": "Шведски",
      "mal": "സ്വീഡിഷ്",
      "mon": "Швед",
      "mar": "स्वीडन देशाचा",
      "may": "Sweden",
      "mlt": "L-isvediż",
      "nep": "स्विडिश",
      "dut": "Zweeds",
      "nor": "Svensk",
      "pan": "ਸਵੀਡਨੀ",
      "pol": "Szwedzki",
      "por": "Sueco",
      "rum": "Suedeză",
      "rus": "Шведский",
      "sin": "ස්වීඩන",
      "slo": "Švédske",
      "slv": "Švedski",
      "alb": "Suedeze",
      "srp": "Шведски",
      "sun": "Swédia",
      "swe": "Svenska",
      "swa": "Swedish",
      "tam": "ஸ்வீடிஷ்",
      "tel": "స్వీడిష్",
      "tgk": "Шветсия",
      "tha": "สวีเดน",
      "tgl": "Suweko",
      "tur": "İsveç",
      "tat": "Швед теле",
      "ukr": "Шведський",
      "urd": "سویڈش",
      "uzb": "Shved",
      "vie": "Thụy điển",
      "xho": "Isiswedish",
      "yid": "שוועדיש",
      "chi": "瑞典"
    },
    "name": "swe",
    "tid": "f1256048-84f3-4b51-8f5d-ce5e9da20c98",
    "types": [
      "langs",
      "5"
    ],
    "repository": "kara.moe",
    "modified_at": "2020-03-31T19:04:37.806Z"
  }
}