{
  "header": {
    "description": "Karaoke Mugen Tag File",
    "version": 1
  },
  "tag": {
    "i18n": {
      "eng": "Swimy"
    },
    "modified_at": "2020-08-17T21:07:43.489Z",
    "name": "Swimy",
    "repository": "kara.moe",
    "tid": "6090ed4e-1443-4e82-90f9-e1bc1df5093f",
    "types": [
      "songwriters",
      "8",
      "singers",
      "2"
    ]
  }
}