{
  "header": {
    "description": "Karaoke Mugen Tag File",
    "version": 1
  },
  "tag": {
    "i18n": {
      "eng": "Sword Art Online: Fatal Bullet",
      "jpn": "ソードアート・オンライン フイタル・バレット"
    },
    "name": "Sword Art Online: Fatal Bullet",
    "repository": "kara.moe",
    "tid": "91d2f7ee-78a7-436e-a535-1d347f860b93",
    "types": [
      "series",
      "1"
    ]
  }
}