{
  "header": {
    "description": "Karaoke Mugen Tag File",
    "version": 1
  },
  "tag": {
    "aliases": [
      "GGO",
      "Gun Art Online",
      "SAO 2",
      "SAO II",
      "SAO2",
      "SAOII",
      "Sword Art Online 2",
      "Sword Art Online II: Calibur",
      "Sword Art Online II: Mother's Rosario",
      "Sword Art Online II: Phantom Bullet",
      "Мастера меча онлайн 2",
      "هنر شمشیر زنی آنلاین 2 : گلوله فانتوم"
    ],
    "external_database_ids": {
      "anilist": 20594,
      "myanimelist": 21881,
      "kitsu": 8174
    },
    "i18n": {
      "chi": "刀劍神域 II",
      "dut": "Sword Art Online II",
      "eng": "Sword Art Online II",
      "fre": "Sword Art Online 2",
      "jpn": "ソードアート・オンラインII",
      "kor": "소드 아트 온라인 II",
      "qro": "Sword Art Online II"
    },
    "modified_at": "2020-03-31T19:04:32.871Z",
    "name": "Sword Art Online II",
    "repository": "kara.moe",
    "tid": "02347850-e8ec-423e-8282-d61ed76cfc66",
    "types": [
      "series",
      "1"
    ]
  }
}