{
  "header": {
    "description": "Karaoke Mugen Tag File",
    "version": 1
  },
  "tag": {
    "i18n": {
      "eng": "Sya"
    },
    "modified_at": "2021-04-04T12:06:26.615Z",
    "name": "Sya",
    "repository": "kara.moe",
    "tid": "98f6fc94-eec8-4b1a-883f-befc6a4a6907",
    "types": [
      "songwriters",
      "8"
    ]
  }
}