{
  "header": {
    "description": "Karaoke Mugen Tag File",
    "version": 1
  },
  "tag": {
    "i18n": {
      "eng": "T.OSUMI"
    },
    "name": "T.OSUMI",
    "tid": "62ac2225-1267-48a0-9e32-f9de06007fd6",
    "types": [
      "songwriters",
      "8"
    ],
    "repository": "kara.moe",
    "modified_at": "2020-03-31T19:04:37.817Z"
  }
}