{
  "header": {
    "description": "Karaoke Mugen Tag File",
    "version": 1
  },
  "tag": {
    "i18n": {
      "eng": "Ta_2"
    },
    "name": "Ta_2",
    "tid": "fb1bb4fb-92cb-40ee-b857-f1bf55060814",
    "types": [
      "songwriters",
      "8"
    ],
    "repository": "kara.moe",
    "modified_at": "2020-03-31T19:04:38.023Z"
  }
}