{
  "header": {
    "description": "Karaoke Mugen Tag File",
    "version": 1
  },
  "tag": {
    "i18n": {
      "eng": "Tachio Akano"
    },
    "name": "Tachio Akano",
    "tid": "d97239f3-6510-4af4-b317-6840a1343d0c",
    "types": [
      "songwriters",
      "8"
    ],
    "repository": "kara.moe",
    "modified_at": "2020-03-31T19:04:37.820Z"
  }
}