{
  "header": {
    "description": "Karaoke Mugen Tag File",
    "version": 1
  },
  "tag": {
    "aliases": [
      "Taehyun"
    ],
    "i18n": {
      "eng": "Terry Kang",
      "qro": "Kang Tae Hyun",
      "kor": "강태현"
    },
    "name": "Taehyun",
    "repository": "kara.moe",
    "tid": "1be9fced-4607-4454-bf06-e0b10f14ba2b",
    "types": [
      "singers",
      "2"
    ]
  }
}