{
  "header": {
    "description": "Karaoke Mugen Tag File",
    "version": 1
  },
  "tag": {
    "i18n": {
      "eng": "Taeko Oonuki"
    },
    "modified_at": "2020-07-09T21:12:05.209Z",
    "name": "Taeko Oonuki",
    "repository": "kara.moe",
    "tid": "241595e3-4bef-4363-bbc9-1781a85899d1",
    "types": [
      "songwriters",
      "8",
      "singers",
      "2"
    ]
  }
}