{
  "header": {
    "description": "Karaoke Mugen Tag File",
    "version": 1
  },
  "tag": {
    "aliases": [
      "Jean Jacques Goldman"
    ],
    "i18n": {
      "eng": "Taï Phong"
    },
    "name": "Taï Phong",
    "repository": "kara.moe",
    "tid": "c1c16956-79e2-4c17-bf42-b85a2151cd76",
    "types": [
      "singers",
      "2"
    ]
  }
}