{
  "header": {
    "description": "Karaoke Mugen Tag File",
    "version": 1
  },
  "tag": {
    "i18n": {
      "eng": "Tainokobone"
    },
    "name": "Tainokobone",
    "tid": "da20703a-9edc-436d-9f77-72d39365a802",
    "types": [
      "songwriters",
      "8"
    ],
    "repository": "kara.moe",
    "modified_at": "2020-03-31T19:04:37.837Z"
  }
}