{
  "header": {
    "description": "Karaoke Mugen Tag File",
    "version": 1
  },
  "tag": {
    "i18n": {
      "eng": "Taishi Murata"
    },
    "name": "Taishi Murata",
    "tid": "dee63cde-99e1-4736-97ad-500e19255ee1",
    "types": [
      "singers",
      "2"
    ],
    "repository": "kara.moe",
    "modified_at": "2020-03-31T19:04:37.839Z"
  }
}