{
  "header": {
    "description": "Karaoke Mugen Tag File",
    "version": 1
  },
  "tag": {
    "aliases": [
      "大正処女御伽話",
      "Taishou"
    ],
    "external_database_ids": {
      "anilist": 127412,
      "myanimelist": 45055,
      "kitsu": 43817
    },
    "i18n": {
      "chi": "大正處女御伽話",
      "eng": "Taisho Otome Fairy Tale",
      "jpn": "大正オトメ御伽話",
      "qro": "Taishô Otome Otogibanashi"
    },
    "name": "Taishô Otome Otogibanashi",
    "repository": "kara.moe",
    "tid": "768d7be9-9253-4146-974e-5c72c63d4787",
    "types": [
      "series",
      "1"
    ]
  }
}