{
  "header": {
    "description": "Karaoke Mugen Tag File",
    "version": 1
  },
  "tag": {
    "i18n": {
      "eng": "Taishi Noguchi"
    },
    "modified_at": "2021-02-18T01:29:39.029Z",
    "name": "Taishi Noguchi",
    "repository": "kara.moe",
    "tid": "5b71968c-1f46-41de-9683-f8ac211aecb3",
    "types": [
      "songwriters",
      "8"
    ]
  }
}