{
  "header": {
    "description": "Karaoke Mugen Tag File",
    "version": 1
  },
  "tag": {
    "aliases": [
      "Taisou Zamurai",
      "Taisou Samurai",
      "Taisô Samurai",
      "taisou"
    ],
    "external_database_ids": {
      "anilist": 122807,
      "myanimelist": 42668,
      "kitsu": 43554
    },
    "i18n": {
      "eng": "The Gymnastics Samurai",
      "jpn": "体操ザムライ",
      "chi": "體操武士",
      "qro": "Taisô Zamurai"
    },
    "modified_at": "2021-01-24T15:15:10.515Z",
    "name": "Taisô Zamurai",
    "repository": "kara.moe",
    "tid": "d3b709b8-66e8-45e3-b1bc-aa190597398d",
    "types": [
      "series",
      "1"
    ]
  }
}