{
  "header": {
    "description": "Karaoke Mugen Tag File",
    "version": 1
  },
  "tag": {
    "i18n": {
      "eng": "taite83"
    },
    "name": "taite83",
    "repository": "kara.moe",
    "tid": "3604bf97-ef54-4ca2-9dca-82b8dcbb7225",
    "types": [
      "authors",
      "6"
    ]
  }
}