{
  "header": {
    "description": "Karaoke Mugen Tag File",
    "version": 1
  },
  "tag": {
    "i18n": {
      "eng": "Takahiro Andô"
    },
    "name": "Takahiro Andô",
    "tid": "8fceb1e3-0dd9-4c89-a0a7-aa84463e7714",
    "types": [
      "songwriters",
      "8"
    ],
    "repository": "kara.moe",
    "modified_at": "2020-03-31T19:04:37.853Z"
  }
}