{
  "header": {
    "description": "Karaoke Mugen Tag File",
    "version": 1
  },
  "tag": {
    "i18n": {
      "eng": "Takashi Aoki"
    },
    "name": "Takashi Aoki",
    "tid": "feced7d4-a18c-46e5-bb52-251ff71ef395",
    "types": [
      "songwriters",
      "8"
    ],
    "repository": "kara.moe",
    "modified_at": "2020-03-31T19:04:37.884Z"
  }
}