{
  "header": {
    "description": "Karaoke Mugen Tag File",
    "version": 1
  },
  "tag": {
    "i18n": {
      "eng": "Takao Nagatani"
    },
    "name": "Takao Nagatani",
    "tid": "b858b7a2-df24-4a99-a3b1-bf8ce24e5446",
    "types": [
      "songwriters",
      "8"
    ],
    "repository": "kara.moe",
    "modified_at": "2020-03-31T19:04:37.880Z"
  }
}