{
  "header": {
    "description": "Karaoke Mugen Tag File",
    "version": 1
  },
  "tag": {
    "i18n": {
      "eng": "Takao Yoshino"
    },
    "name": "Takao Yoshino",
    "tid": "9fa876d0-e5aa-4a00-91b3-09ac4f37c8ba",
    "types": [
      "songwriters",
      "8"
    ],
    "repository": "kara.moe",
    "modified_at": "2020-03-31T19:04:37.882Z"
  }
}