{
  "header": {
    "description": "Karaoke Mugen Tag File",
    "version": 1
  },
  "tag": {
    "i18n": {
      "eng": "Takaaki Anzai"
    },
    "modified_at": "2020-05-02T22:10:07.026Z",
    "name": "Takaaki Anzai",
    "repository": "kara.moe",
    "tid": "043de04e-4f84-425c-9240-288bb46e59e4",
    "types": [
      "songwriters",
      "8"
    ]
  }
}