{
  "header": {
    "description": "Karaoke Mugen Tag File",
    "version": 1
  },
  "tag": {
    "i18n": {
      "eng": "Takaaki Natsushiro"
    },
    "name": "Takaaki Natsushiro",
    "tid": "0968329a-07bd-49b1-9aba-de7b4defc347",
    "types": [
      "singers",
      "2",
      "songwriters",
      "8"
    ],
    "repository": "kara.moe",
    "modified_at": "2020-03-31T19:04:37.844Z"
  }
}