{
  "header": {
    "description": "Karaoke Mugen Tag File",
    "version": 1
  },
  "tag": {
    "i18n": {
      "eng": "Takanori Tsunoda"
    },
    "name": "Takanori Tsunoda",
    "tid": "b5f4a131-2ea2-4645-be20-ce086cc9ea2a",
    "types": [
      "songwriters",
      "8"
    ],
    "repository": "kara.moe",
    "modified_at": "2020-03-31T19:04:37.877Z"
  }
}