{
  "header": {
    "description": "Karaoke Mugen Tag File",
    "version": 1
  },
  "tag": {
    "i18n": {
      "eng": "Takahito Eguchi"
    },
    "name": "Takahito Eguchi",
    "tid": "9f8ef5a8-c540-4226-8a46-5b93cd63a836",
    "types": [
      "songwriters",
      "8"
    ],
    "repository": "kara.moe",
    "modified_at": "2020-03-31T19:04:37.862Z"
  }
}