{
  "header": {
    "description": "Karaoke Mugen Tag File",
    "version": 1
  },
  "tag": {
    "i18n": {
      "eng": "Takahiro Matsumoto"
    },
    "name": "Takahiro Matsumoto",
    "tid": "a5d6baf8-ed49-4a4c-8eb5-83d87db9e9b2",
    "types": [
      "songwriters",
      "8"
    ],
    "repository": "kara.moe",
    "modified_at": "2020-03-31T19:04:37.857Z"
  }
}