{
  "header": {
    "description": "Karaoke Mugen Tag File",
    "version": 1
  },
  "tag": {
    "i18n": {
      "eng": "takahashi"
    },
    "modified_at": "2021-09-01T13:29:16.951Z",
    "name": "takahashi",
    "repository": "kara.moe",
    "tid": "e3d5a230-6b03-4dcb-9641-aeebb7a81591",
    "types": [
      "songwriters",
      "8"
    ]
  }
}