{
  "header": {
    "description": "Karaoke Mugen Tag File",
    "version": 1
  },
  "tag": {
    "i18n": {
      "eng": "Takahiro Koike"
    },
    "modified_at": "2021-03-08T20:25:39.041Z",
    "name": "Takahiro Koike",
    "repository": "kara.moe",
    "tid": "c8bcea44-f70d-402e-9185-30014e8afa45",
    "types": [
      "songwriters",
      "8"
    ]
  }
}