{
  "header": {
    "description": "Karaoke Mugen Tag File",
    "version": 1
  },
  "tag": {
    "i18n": {
      "eng": "Takagi"
    },
    "modified_at": "2021-11-20T15:14:34.771Z",
    "name": "Takagi",
    "repository": "kara.moe",
    "tid": "58727e05-dc86-4063-b6ae-2037a2a67c37",
    "types": [
      "authors",
      "6"
    ]
  }
}