{
  "header": {
    "description": "Karaoke Mugen Tag File",
    "version": 1
  },
  "tag": {
    "i18n": {
      "eng": "Takayuki Michimoto"
    },
    "name": "Takayuki Michimoto",
    "tid": "a84850ec-791d-4a5f-9bbe-56a117c04751",
    "types": [
      "songwriters",
      "8"
    ],
    "repository": "kara.moe",
    "modified_at": "2020-03-31T19:04:37.905Z"
  }
}