{
  "header": {
    "description": "Karaoke Mugen Tag File",
    "version": 1
  },
  "tag": {
    "i18n": {
      "eng": "Takahiro Maeda"
    },
    "name": "Takahiro Maeda",
    "tid": "41033b7b-bda6-40b9-b528-03b0f3e036de",
    "types": [
      "songwriters",
      "8"
    ],
    "repository": "kara.moe",
    "modified_at": "2020-03-31T19:04:37.856Z"
  }
}