{
  "header": {
    "description": "Karaoke Mugen Tag File",
    "version": 1
  },
  "tag": {
    "i18n": {
      "eng": "Takashi Ikehata"
    },
    "name": "Takashi Ikehata",
    "tid": "758ddc44-04f2-4e0a-a7a4-49f2046cfca8",
    "types": [
      "songwriters",
      "8"
    ],
    "repository": "kara.moe",
    "modified_at": "2020-03-31T19:04:37.888Z"
  }
}