{
  "header": {
    "description": "Karaoke Mugen Tag File",
    "version": 1
  },
  "tag": {
    "i18n": {
      "eng": "Takeshi Matsuda"
    },
    "modified_at": "2020-05-18T21:05:59.377Z",
    "name": "Takeshi Matsuda",
    "repository": "kara.moe",
    "tid": "e8931a6d-f362-4217-8a8a-66072b45e4ca",
    "types": [
      "songwriters",
      "8"
    ]
  }
}