{
  "header": {
    "description": "Karaoke Mugen Tag File",
    "version": 1
  },
  "tag": {
    "i18n": {
      "eng": "Takeshi Kagayama"
    },
    "modified_at": "2020-11-22T16:24:17.640Z",
    "name": "Takeshi Kagayama",
    "repository": "kara.moe",
    "tid": "35dda2a0-9dbf-4f6a-8d03-88e87251b8ed",
    "types": [
      "songwriters",
      "8"
    ]
  }
}