{
  "header": {
    "description": "Karaoke Mugen Tag File",
    "version": 1
  },
  "tag": {
    "i18n": {
      "eng": "Takeru Yoda"
    },
    "modified_at": "2021-04-05T11:17:24.830Z",
    "name": "Takeru Yoda",
    "repository": "kara.moe",
    "tid": "101355ce-da03-4611-bcd5-7fa8952f98e3",
    "types": [
      "songwriters",
      "8"
    ]
  }
}