{
  "header": {
    "description": "Karaoke Mugen Tag File",
    "version": 1
  },
  "tag": {
    "i18n": {
      "eng": "Takeshi Hosomi"
    },
    "name": "Takeshi Hosomi",
    "tid": "ca989c48-32f3-4b07-b968-3ea4836dc2cc",
    "types": [
      "songwriters",
      "8"
    ],
    "repository": "kara.moe",
    "modified_at": "2020-03-31T19:04:37.927Z"
  }
}