{
  "header": {
    "description": "Karaoke Mugen Tag File",
    "version": 1
  },
  "tag": {
    "i18n": {
      "eng": "takumi"
    },
    "name": "takumi",
    "tid": "3eeda3cc-cf81-435e-8b85-3aa95c89b003",
    "types": [
      "songwriters",
      "8"
    ],
    "repository": "kara.moe",
    "modified_at": "2020-03-31T19:04:37.960Z"
  }
}