{
  "header": {
    "description": "Karaoke Mugen Tag File",
    "version": 1
  },
  "tag": {
    "i18n": {
      "eng": "Takuto Yoshinaga"
    },
    "name": "Takuto Yoshinaga",
    "tid": "ee21894c-4bf7-407f-9700-121cbf393c54",
    "types": [
      "singers",
      "2"
    ],
    "repository": "kara.moe",
    "modified_at": "2020-03-31T19:04:37.965Z"
  }
}