{
  "header": {
    "description": "Karaoke Mugen Tag File",
    "version": 1
  },
  "tag": {
    "i18n": {
      "eng": "Takuto Kôjiya"
    },
    "name": "Takuto Kôjiya",
    "tid": "b1f35f56-3ba4-4273-83ad-c2e81d3147b3",
    "types": [
      "songwriters",
      "8"
    ],
    "repository": "kara.moe",
    "modified_at": "2020-03-31T19:04:37.964Z"
  }
}