{
  "header": {
    "description": "Karaoke Mugen Tag File",
    "version": 1
  },
  "tag": {
    "i18n": {
      "eng": "Tales of Innocence",
      "jpn": "テイルズオブイノセンス",
      "qro": "Tales of Innocence"
    },
    "modified_at": "2020-03-31T19:04:32.889Z",
    "name": "Tales of Innocence",
    "repository": "kara.moe",
    "tid": "d150c2d4-6d77-4892-835c-9a20d64bab73",
    "types": [
      "series",
      "1"
    ]
  }
}