{
  "header": {
    "description": "Karaoke Mugen Tag File",
    "version": 1
  },
  "tag": {
    "aliases": [
      "Tales of Symphonia: Knight of Ratatosk",
      "ToS Ratatosk no Kishi"
    ],
    "i18n": {
      "eng": "Tales of Symphonia: Dawn of the New World",
      "jpn": "テイルズ オブ シンフォニア　- ラタトスクの騎士 -",
      "qro": "Tales of Symphonia Ratatoskr no Kishi"
    },
    "modified_at": "2020-03-31T19:04:32.892Z",
    "name": "Tales of Symphonia Ratatoskr no Kishi",
    "repository": "kara.moe",
    "tid": "70016b04-3fc0-4e3f-8772-63bb430d800f",
    "types": [
      "series",
      "1"
    ]
  }
}