{
  "header": {
    "description": "Karaoke Mugen Tag File",
    "version": 1
  },
  "tag": {
    "i18n": {
      "eng": "Tales of Arise"
    },
    "modified_at": "2021-09-13T17:07:30.513Z",
    "name": "Tales of Arise",
    "repository": "kara.moe",
    "tid": "ecd4bfd6-e806-49e6-b431-13b0bca8fb33",
    "types": [
      "series",
      "1"
    ]
  }
}