{
  "header": {
    "description": "Karaoke Mugen Tag File",
    "version": 1
  },
  "tag": {
    "aliases": [
      "ToS Chronicles"
    ],
    "i18n": {
      "eng": "Tales of Symphonia Chronicles",
      "jpn": "テイルズ オブ シンフォニア ユニゾナントパック",
      "qro": "Tales of Symphonia Chronicles"
    },
    "modified_at": "2020-03-31T19:04:32.892Z",
    "name": "Tales of Symphonia Chronicles",
    "repository": "kara.moe",
    "tid": "62fc2551-c3dd-4ef4-844b-21d901ac9ab0",
    "types": [
      "series",
      "1"
    ]
  }
}