{
  "header": {
    "description": "Karaoke Mugen Tag File",
    "version": 1
  },
  "tag": {
    "i18n": {
      "eng": "Tamiya Terashima"
    },
    "name": "Tamiya Terashima",
    "tid": "cf7f8905-35c2-474f-8367-978e2384dfe5",
    "types": [
      "songwriters",
      "8"
    ],
    "repository": "kara.moe",
    "modified_at": "2020-03-31T19:04:37.985Z"
  }
}