{
  "header": {
    "description": "Karaoke Mugen Tag File",
    "version": 1
  },
  "tag": {
    "i18n": {
      "eng": "TAMSOFT"
    },
    "name": "TAMSOFT",
    "tid": "d9d773f2-2305-4037-9b46-bf3257e423ca",
    "types": [
      "creators",
      "4"
    ],
    "repository": "kara.moe",
    "modified_at": "2020-03-31T19:04:37.986Z"
  }
}