{
  "header": {
    "description": "Karaoke Mugen Tag File",
    "version": 1
  },
  "tag": {
    "i18n": {
      "eng": "Tanaka Mush"
    },
    "name": "Tanaka Mush",
    "repository": "kara.moe",
    "tid": "63d8dac9-dc4b-4e1b-bc59-40a2ee672a76",
    "types": [
      "songwriters",
      "8"
    ]
  }
}