{
  "header": {
    "description": "Karaoke Mugen Tag File",
    "version": 1
  },
  "tag": {
    "i18n": {
      "eng": "Tanabe Shunichi"
    },
    "name": "Tanabe Shunichi",
    "repository": "kara.moe",
    "tid": "03583181-330d-460c-90b8-6f8bb238c287",
    "types": [
      "songwriters",
      "8"
    ]
  }
}