{
  "header": {
    "description": "Karaoke Mugen Tag File",
    "version": 1
  },
  "tag": {
    "i18n": {
      "eng": "Task Have Fun",
      "jpn": "タスク・ハブ・ファン"
    },
    "name": "Task Have Fun",
    "repository": "kara.moe",
    "tid": "2aa58d0e-377f-4989-98d1-1496c084a52e",
    "types": [
      "singergroups",
      "17"
    ]
  }
}