{
  "header": {
    "description": "Karaoke Mugen Tag File",
    "version": 1
  },
  "tag": {
    "i18n": {
      "eng": "Tatsuhisa Suzuki"
    },
    "name": "Tatsuhisa Suzuki",
    "tid": "46033e7b-be1e-4b16-8395-50744d81d195",
    "types": [
      "singers",
      "2"
    ],
    "repository": "kara.moe",
    "modified_at": "2020-03-31T19:04:38.001Z"
  }
}