{
  "header": {
    "description": "Karaoke Mugen Tag File",
    "version": 1
  },
  "tag": {
    "i18n": {
      "eng": "Tatsunoko Pro Bungeibu"
    },
    "name": "Tatsunoko Pro Bungeibu",
    "tid": "e3b47026-3f00-4abd-aff5-a0ebaa681db4",
    "types": [
      "songwriters",
      "8"
    ],
    "repository": "kara.moe",
    "modified_at": "2020-03-31T19:04:38.004Z"
  }
}