{
  "header": {
    "description": "Karaoke Mugen Tag File",
    "version": 1
  },
  "tag": {
    "i18n": {
      "eng": "TATSUNE"
    },
    "name": "TATSUNE",
    "repository": "kara.moe",
    "tid": "ccdcdf15-dcc6-4505-b0e7-015123a04ef9",
    "types": [
      "songwriters",
      "8"
    ]
  }
}