{
  "header": {
    "description": "Karaoke Mugen Tag File",
    "version": 1
  },
  "tag": {
    "i18n": {
      "eng": "Tck."
    },
    "name": "Tck.",
    "repository": "kara.moe",
    "tid": "5f77eb0f-4059-4493-b49e-bd17e9af9d5c",
    "types": [
      "songwriters",
      "8"
    ]
  }
}