{
  "header": {
    "description": "Karaoke Mugen Tag File",
    "version": 1
  },
  "tag": {
    "i18n": {
      "eng": "TeamFourStar"
    },
    "name": "TeamFourStar",
    "repository": "kara.moe",
    "tid": "1c0f0cdb-45c3-4d9b-b334-1111583023e7",
    "types": [
      "creators",
      "4"
    ]
  }
}