{
  "header": {
    "description": "Karaoke Mugen Tag File",
    "version": 1
  },
  "tag": {
    "i18n": {
      "eng": "team.ROCKMAN HOLIC"
    },
    "modified_at": "2021-05-18T16:56:49.444Z",
    "name": "team.ROCKMAN HOLIC",
    "repository": "kara.moe",
    "tid": "2582124e-22ea-4428-89de-1db21e7b70dd",
    "types": [
      "creators",
      "4",
      "singers",
      "2"
    ]
  }
}