{
  "header": {
    "description": "Karaoke Mugen Tag File",
    "version": 1
  },
  "tag": {
    "i18n": {
      "eng": "Teddy Park"
    },
    "name": "Teddy Park",
    "tid": "209cdc0a-9333-48d0-944f-15fdf6eb1997",
    "types": [
      "songwriters",
      "8"
    ],
    "repository": "kara.moe",
    "modified_at": "2020-03-31T19:04:38.035Z"
  }
}