{
  "header": {
    "description": "Karaoke Mugen Tag File",
    "version": 1
  },
  "tag": {
    "i18n": {
      "eng": "Tegomass"
    },
    "name": "Tegomass",
    "tid": "2da3c46d-6ebd-43b7-aed6-89f9a6c6d1d2",
    "types": [
      "singers",
      "2"
    ],
    "repository": "kara.moe",
    "modified_at": "2020-03-31T19:04:38.037Z"
  }
}