{
  "header": {
    "description": "Karaoke Mugen Tag File",
    "version": 1
  },
  "tag": {
    "i18n": {
      "eng": "Teiichi Okano"
    },
    "name": "Teiichi Okano",
    "repository": "kara.moe",
    "tid": "19344ce7-ca40-452d-b020-8aa4db1aee70",
    "types": [
      "songwriters",
      "8"
    ]
  }
}