{
  "header": {
    "description": "Karaoke Mugen Tag File",
    "version": 1
  },
  "tag": {
    "i18n": {
      "eng": "TENGUBOY"
    },
    "name": "TENGUBOY",
    "tid": "e1a8eb3b-c451-4232-815d-59e0d47271e9",
    "types": [
      "songwriters",
      "8"
    ],
    "repository": "kara.moe",
    "modified_at": "2020-03-31T19:04:38.048Z"
  }
}