{
  "header": {
    "description": "Karaoke Mugen Tag File",
    "version": 1
  },
  "tag": {
    "i18n": {
      "eng": "Teniwoha",
      "qro": "Teniwoha",
      "jpn": "てにをは"
    },
    "name": "Teniwoha",
    "repository": "kara.moe",
    "tid": "ff00519a-73af-4cbd-8ea7-7e441c2195d7",
    "types": [
      "songwriters",
      "8"
    ]
  }
}