{
  "header": {
    "description": "Karaoke Mugen Tag File",
    "version": 1
  },
  "tag": {
    "aliases": [
      "Tensou Sentai Goseiger",
      "tensou"
    ],
    "i18n": {
      "eng": "Tensô Sentai Goseiger",
      "jpn": "天装戦隊ゴセイジャー",
      "qro": "Tensô Sentai Goseiger"
    },
    "modified_at": "2020-03-31T19:04:32.939Z",
    "name": "Tensô Sentai Goseiger",
    "repository": "kara.moe",
    "tid": "4a82cc78-bad2-45c2-b36c-33def8aec1ae",
    "types": [
      "series",
      "1"
    ]
  }
}