{
  "header": {
    "description": "Karaoke Mugen Tag File",
    "version": 1
  },
  "tag": {
    "i18n": {
      "eng": "TEPPEKI〜CTF BATTLE FIELD〜"
    },
    "name": "TEPPEKI CTF BATTLE FIELD",
    "repository": "kara.moe",
    "tid": "cd90095d-20cc-4ffe-9339-794c5487da84",
    "types": [
      "series",
      "1"
    ]
  }
}