{
  "header": {
    "description": "Karaoke Mugen Tag File",
    "version": 1
  },
  "tag": {
    "i18n": {
      "eng": "Tetsuo Maruyama"
    },
    "name": "Tetsuo Maruyama",
    "tid": "a222f100-6758-4e42-85f1-508b6a1c0e2d",
    "types": [
      "songwriters",
      "8"
    ],
    "repository": "kara.moe",
    "modified_at": "2020-03-31T19:04:38.068Z"
  }
}