{
  "header": {
    "description": "Karaoke Mugen Tag File",
    "version": 1
  },
  "tag": {
    "i18n": {
      "eng": "TETSU"
    },
    "name": "TETSU",
    "tid": "44251328-d0ff-4afe-bc5f-0d022e9f030c",
    "types": [
      "singers",
      "2"
    ],
    "repository": "kara.moe",
    "modified_at": "2020-03-31T19:04:38.065Z"
  }
}