{
  "header": {
    "description": "Karaoke Mugen Tag File",
    "version": 1
  },
  "tag": {
    "aliases": [
      "Mighty Atom",
      "アストロボーイ",
      "Astroboy",
      "Robotukas Marsas",
      "铁臂阿童木",
      "自动机器人"
    ],
    "i18n": {
      "eng": "Astro Boy",
      "jpn": "鉄腕アトム",
      "qro": "Tetsuwan Atom"
    },
    "name": "Tetsuwan Atom",
    "repository": "kara.moe",
    "tid": "c1afd48d-810d-4b27-90c2-f5a50aa41608",
    "types": [
      "franchises",
      "18"
    ]
  }
}