{
  "header": {
    "description": "Karaoke Mugen Tag File",
    "version": 1
  },
  "tag": {
    "i18n": {
      "eng": "Tetsurô Oda"
    },
    "name": "Tetsurô Oda",
    "tid": "f033fd1e-2987-4a47-bc43-5f2639e21e57",
    "types": [
      "songwriters",
      "8"
    ],
    "repository": "kara.moe",
    "modified_at": "2020-03-31T19:04:38.070Z"
  }
}