{
  "header": {
    "description": "Karaoke Mugen Tag File",
    "version": 1
  },
  "tag": {
    "i18n": {
      "eng": "THE ALFEE"
    },
    "name": "THE ALFEE",
    "tid": "f6b4f588-af0d-4389-a814-3fa7719b8e9a",
    "types": [
      "singers",
      "2",
      "songwriters",
      "8"
    ],
    "repository": "kara.moe",
    "modified_at": "2020-03-31T19:04:38.085Z"
  }
}