{
  "header": {
    "description": "Karaoke Mugen Tag File",
    "version": 1
  },
  "tag": {
    "i18n": {
      "eng": "The Glitch Mob"
    },
    "modified_at": "2020-10-25T14:46:31.548Z",
    "name": "The Glitch Mob",
    "repository": "kara.moe",
    "tid": "f2c1af78-c61d-4635-beaa-ce7569530aa9",
    "types": [
      "songwriters",
      "8"
    ]
  }
}