{
  "header": {
    "description": "Karaoke Mugen Tag File",
    "version": 1
  },
  "tag": {
    "i18n": {
      "eng": "The Little Singers of Tokyo"
    },
    "name": "The Little Singers of Tokyo",
    "tid": "f0776c5c-4133-4a9f-b5c5-b61c180a4b06",
    "types": [
      "singers",
      "2"
    ],
    "repository": "kara.moe",
    "modified_at": "2020-03-31T19:04:38.109Z"
  }
}