{
  "header": {
    "description": "Karaoke Mugen Tag File",
    "version": 1
  },
  "tag": {
    "i18n": {
      "eng": "The Completionist"
    },
    "name": "The Completionist",
    "tid": "df9aa703-7294-4b12-a3f3-1c05720dc6bf",
    "types": [
      "creators",
      "4"
    ],
    "repository": "kara.moe",
    "modified_at": "2020-03-31T19:04:38.095Z"
  }
}