{
  "header": {
    "description": "Karaoke Mugen Tag File",
    "version": 1
  },
  "tag": {
    "i18n": {
      "eng": "THE ORAL CIGARETTES"
    },
    "name": "THE ORAL CIGARETTES",
    "repository": "kara.moe",
    "tid": "71550350-4175-4289-b866-e04baa99acea",
    "types": [
      "singergroups",
      "17",
      "songwriters",
      "8"
    ]
  }
}