{
  "header": {
    "description": "Karaoke Mugen Tag File",
    "version": 1
  },
  "tag": {
    "aliases": [
      "ローリング ガールズ",
      "ローリング☆ガールズ"
    ],
    "external_database_ids": {
      "anilist": 20815,
      "myanimelist": 25867,
      "kitsu": 8667
    },
    "i18n": {
      "chi": "旋转少女",
      "eng": "The Rolling Girls",
      "fre": "The Rolling Girls",
      "jpn": "THE ROLLING GIRLS",
      "qro": "The Rolling Girls"
    },
    "modified_at": "2020-03-31T19:04:32.968Z",
    "name": "The Rolling Girls",
    "repository": "kara.moe",
    "tid": "6fa14964-a6a7-4e53-852d-40b999236eb4",
    "types": [
      "series",
      "1"
    ]
  }
}