{
  "header": {
    "description": "Karaoke Mugen Tag File",
    "version": 1
  },
  "tag": {
    "i18n": {
      "eng": "The Answer Studio"
    },
    "name": "The Answer Studio",
    "tid": "fe27bcad-8bff-4e67-9eac-dd82a506bec9",
    "types": [
      "creators",
      "4"
    ],
    "repository": "kara.moe",
    "modified_at": "2020-03-31T19:04:38.086Z"
  }
}