{
  "header": {
    "description": "Karaoke Mugen Tag File",
    "version": 1
  },
  "tag": {
    "i18n": {
      "eng": "The Solids"
    },
    "modified_at": "2021-01-15T21:14:57.022Z",
    "name": "The Solids",
    "repository": "kara.moe",
    "tid": "5da2219b-b191-445d-967c-32e619aaa5a7",
    "types": [
      "songwriters",
      "8"
    ]
  }
}