{
  "header": {
    "description": "Karaoke Mugen Tag File",
    "version": 1
  },
  "tag": {
    "i18n": {
      "eng": "The Primals"
    },
    "name": "The Primals",
    "repository": "kara.moe",
    "tid": "e583dd09-4081-4bc9-9608-bbc3c08c1c05",
    "types": [
      "singergroups",
      "17"
    ]
  }
}