{
  "header": {
    "description": "Karaoke Mugen Tag File",
    "version": 1
  },
  "tag": {
    "i18n": {
      "eng": "The Rodeo Carburettor"
    },
    "modified_at": "2020-08-17T21:26:41.498Z",
    "name": "The Rodeo Carburettor",
    "repository": "kara.moe",
    "tid": "b7107753-41cd-4aa3-9995-9b318b36d627",
    "types": [
      "singers",
      "2"
    ]
  }
}