{
  "header": {
    "description": "Karaoke Mugen Tag File",
    "version": 1
  },
  "tag": {
    "i18n": {
      "eng": "Theo33500"
    },
    "name": "Theo33500",
    "repository": "kara.moe",
    "tid": "d4eb6770-4dec-407d-8955-7bc0dc2c4d47",
    "types": [
      "authors",
      "6"
    ]
  }
}