{
  "header": {
    "description": "Karaoke Mugen Tag File",
    "version": 1
  },
  "tag": {
    "i18n": {
      "eng": "Thomas d'Urfey"
    },
    "modified_at": "2021-04-05T14:13:17.848Z",
    "name": "Thomas d'Urfey",
    "repository": "kara.moe",
    "tid": "6566d75b-cf0b-489b-a71f-2adb7a9730ec",
    "types": [
      "songwriters",
      "8"
    ]
  }
}