{
  "header": {
    "description": "Karaoke Mugen Tag File",
    "version": 1
  },
  "tag": {
    "i18n": {
      "eng": "Thousand Arms",
      "jpn": "サウザンドアームズ",
      "qro": "Thousand Arms"
    },
    "modified_at": "2020-03-31T19:04:32.974Z",
    "name": "Thousand Arms",
    "repository": "kara.moe",
    "tid": "450f9ffc-6811-4587-8b26-b8dbaf4ca8cf",
    "types": [
      "series",
      "1"
    ]
  }
}