{
  "header": {
    "description": "Karaoke Mugen Tag File",
    "version": 1
  },
  "tag": {
    "i18n": {
      "eng": "Tian Yun Xiao Xiao"
    },
    "name": "Tian Yun Xiao Xiao",
    "tid": "cfe5aca9-e54a-4831-b859-0e8dff7db633",
    "types": [
      "songwriters",
      "8"
    ],
    "repository": "kara.moe",
    "modified_at": "2020-03-31T19:04:38.137Z"
  }
}