{
  "header": {
    "description": "Karaoke Mugen Tag File",
    "version": 1
  },
  "tag": {
    "i18n": {
      "eng": "TK"
    },
    "name": "TK",
    "tid": "a9798401-d7e6-4607-af6e-4ec3fb96cc21",
    "types": [
      "singers",
      "2",
      "songwriters",
      "8"
    ],
    "repository": "kara.moe",
    "modified_at": "2020-03-31T19:04:38.147Z"
  }
}