{
  "header": {
    "description": "Karaoke Mugen Tag File",
    "version": 1
  },
  "tag": {
    "i18n": {
      "eng": "Toei Jidô Gasshôdan"
    },
    "name": "Toei Jidô Gasshôdan",
    "tid": "e2dba7b9-6fe4-4dd8-aec1-a2cf1b8365c6",
    "types": [
      "singers",
      "2"
    ],
    "repository": "kara.moe",
    "modified_at": "2020-03-31T19:04:38.154Z"
  }
}