{
  "header": {
    "description": "Karaoke Mugen Tag File",
    "version": 1
  },
  "tag": {
    "i18n": {
      "eng": "Tohokushinsha Film Corporation"
    },
    "name": "Tohokushinsha Film Corporation",
    "tid": "14d9ad03-a84c-46c2-83f7-9a4a93704683",
    "types": [
      "creators",
      "4"
    ],
    "repository": "kara.moe",
    "modified_at": "2020-03-31T19:04:38.156Z"
  }
}