{
  "header": {
    "description": "Karaoke Mugen Tag File",
    "version": 1
  },
  "tag": {
    "i18n": {
      "eng": "TOHO animation RECORDS"
    },
    "modified_at": "1982-04-06",
    "name": "TOHO animation RECORDS",
    "repository": "kara.moe",
    "tid": "d9c70d58-9d52-48fc-b087-3a005aa31a11",
    "types": [
      "creators",
      "4"
    ]
  }
}