{
  "header": {
    "description": "Karaoke Mugen Tag File",
    "version": 1
  },
  "tag": {
    "i18n": {
      "eng": "Toi et Moi"
    },
    "name": "Toi et Moi",
    "repository": "kara.moe",
    "tid": "9dbaccd7-bbec-4cf9-8a61-08ba9a1d2ebe",
    "types": [
      "singers",
      "2"
    ]
  }
}