{
  "header": {
    "description": "Karaoke Mugen Tag File",
    "version": 1
  },
  "tag": {
    "i18n": {
      "eng": "Tokio Hotel"
    },
    "modified_at": "2021-07-18T18:02:46.214Z",
    "name": "Tokio Hotel",
    "repository": "kara.moe",
    "tid": "c1957878-3453-47ca-9e7e-9264870e33df",
    "types": [
      "singers",
      "2"
    ]
  }
}