{
  "header": {
    "description": "Karaoke Mugen Tag File",
    "version": 1
  },
  "tag": {
    "i18n": {
      "eng": "Tokimeki Memorial Drama Series Vol. 1: Nijiiro no Seishun",
      "jpn": "ときめきメモリアルドラマシリーズ Vol.1 虹色の青春",
      "qro": "Tokimeki Memorial Drama Series Vol. 1 Nijiiro no Seishun"
    },
    "modified_at": "2020-03-31T19:04:32.991Z",
    "name": "Tokimeki Memorial Drama Series Vol. 1 Nijiiro no Seishun",
    "repository": "kara.moe",
    "tid": "0a139495-f272-4110-bdfc-52ca482833b7",
    "types": [
      "series",
      "1"
    ]
  }
}