{
  "header": {
    "description": "Karaoke Mugen Tag File",
    "version": 1
  },
  "tag": {
    "i18n": {
      "eng": "TOMBOW"
    },
    "name": "TOMBOW",
    "tid": "670a30b0-7a88-4faa-878d-cff9b1a610e8",
    "types": [
      "songwriters",
      "8"
    ],
    "repository": "kara.moe",
    "modified_at": "2020-03-31T19:04:38.179Z"
  }
}