{
  "header": {
    "description": "Karaoke Mugen Tag File",
    "version": 1
  },
  "tag": {
    "i18n": {
      "eng": "Tomohiro Nakatsuchi"
    },
    "name": "Tomohiro Nakatsuchi",
    "tid": "acf1000c-da9d-4fe4-9722-966cf2c7914e",
    "types": [
      "songwriters",
      "8"
    ],
    "repository": "kara.moe",
    "modified_at": "2020-03-31T19:04:38.196Z"
  }
}