{
  "header": {
    "description": "Karaoke Mugen Tag File",
    "version": 1
  },
  "tag": {
    "i18n": {
      "eng": "Tomoyuki Ogawa"
    },
    "name": "Tomoyuki Ogawa",
    "tid": "9c69d959-72aa-4bbd-8cca-76ff5ebbf5f1",
    "types": [
      "songwriters",
      "8"
    ],
    "repository": "kara.moe",
    "modified_at": "2020-03-31T19:04:38.228Z"
  }
}