{
  "header": {
    "description": "Karaoke Mugen Tag File",
    "version": 1
  },
  "tag": {
    "i18n": {
      "eng": "TOMOSUKE"
    },
    "name": "TOMOSUKE",
    "tid": "51caa14b-061f-4559-8e3c-51b1ec04fd8f",
    "types": [
      "songwriters",
      "8"
    ],
    "repository": "kara.moe",
    "modified_at": "2020-03-31T19:04:38.219Z"
  }
}