{
  "header": {
    "description": "Karaoke Mugen Tag File",
    "version": 1
  },
  "tag": {
    "i18n": {
      "eng": "Tomoji Sogawa"
    },
    "name": "Tomoji Sogawa",
    "tid": "ce2fe098-387b-47e5-b6a8-2123ba21e9c4",
    "types": [
      "songwriters",
      "8"
    ],
    "repository": "kara.moe",
    "modified_at": "2020-03-31T19:04:38.199Z"
  }
}