{
  "header": {
    "description": "Karaoke Mugen Tag File",
    "version": 1
  },
  "tag": {
    "i18n": {
      "eng": "Tomohiki Kira"
    },
    "name": "Tomohiki Kira",
    "tid": "da1eec24-12a4-4c2a-bb58-52b17b977d69",
    "types": [
      "songwriters",
      "8"
    ],
    "repository": "kara.moe",
    "modified_at": "2020-03-31T19:04:38.193Z"
  }
}