{
  "header": {
    "description": "Karaoke Mugen Tag File",
    "version": 1
  },
  "tag": {
    "i18n": {
      "jpn": "種 ともこ",
      "qro": "Tomoko Tane"
    },
    "name": "Tomoko Tane",
    "repository": "kara.moe",
    "tid": "0a0ec07f-54ec-40e2-8113-90f1dd1a07a4",
    "types": [
      "songwriters",
      "8",
      "singers",
      "2"
    ]
  }
}