{
  "header": {
    "description": "Karaoke Mugen Tag File",
    "version": 1
  },
  "tag": {
    "i18n": {
      "eng": "Tomohide Ookuma"
    },
    "name": "Tomohide Ookuma",
    "tid": "766a746a-a0a9-445b-83d4-ef7efb7b8348",
    "types": [
      "songwriters",
      "8"
    ],
    "repository": "kara.moe",
    "modified_at": "2020-03-31T19:04:38.193Z"
  }
}