{
  "header": {
    "description": "Karaoke Mugen Tag File",
    "version": 1
  },
  "tag": {
    "i18n": {
      "eng": "Tomoe Hanba"
    },
    "name": "Tomoe Hanba",
    "tid": "05e88308-6593-434a-a727-55633dfdb48d",
    "types": [
      "singers",
      "2"
    ],
    "repository": "kara.moe",
    "modified_at": "2020-03-31T19:04:38.190Z"
  }
}