{
  "header": {
    "description": "Karaoke Mugen Tag File",
    "version": 1
  },
  "tag": {
    "i18n": {
      "eng": "Tomoki Ishizuka"
    },
    "name": "Tomoki Ishizuka",
    "tid": "d3bf1f8e-8fa9-42f3-aca1-f0249366f6cf",
    "types": [
      "songwriters",
      "8"
    ],
    "repository": "kara.moe",
    "modified_at": "2020-03-31T19:04:38.204Z"
  }
}