{
  "header": {
    "description": "Karaoke Mugen Tag File",
    "version": 1
  },
  "tag": {
    "i18n": {
      "jpn": "片岡 知子",
      "qro": "Tomoko Kataoka"
    },
    "name": "Tomoko Kataoka",
    "repository": "kara.moe",
    "tid": "9dd34884-e80b-4cd6-ab2a-6e07f4c5f273",
    "types": [
      "songwriters",
      "8"
    ]
  }
}