{
  "header": {
    "description": "Karaoke Mugen Tag File",
    "version": 1
  },
  "tag": {
    "aliases": [
      "Aim for the Top! Gunbuster",
      "Aim for the top!",
      "Top o Nerae",
      "Top wo Nerae",
      "Zirveyi Hedefle! Avcı Silah",
      "gunbuster 1",
      "top1",
      "Дотянись до Неба"
    ],
    "external_database_ids": {
      "anilist": 949,
      "myanimelist": 949,
      "kitsu": 841
    },
    "i18n": {
      "eng": "Gunbuster",
      "fre": "Gunbuster",
      "ger": "Gunbuster",
      "ita": "Punta al Top! - Gunbuster",
      "jpn": "トップをねらえ! GunBuster",
      "tha": "กันบัสเตอร์",
      "qro": "Top wo Nerae! Gunbuster"
    },
    "modified_at": "2020-06-21T23:45:31.966Z",
    "name": "Top wo Nerae! Gunbuster",
    "repository": "kara.moe",
    "tid": "1262edad-bc53-43f0-82fa-e5e01154609c",
    "types": [
      "series",
      "1"
    ]
  }
}