{
  "header": {
    "description": "Karaoke Mugen Tag File",
    "version": 1
  },
  "tag": {
    "i18n": {
      "eng": "Toshiya Fukuda"
    },
    "name": "Toshiya Fukuda",
    "tid": "33fa3cf4-8411-4ea7-b018-b570b06388b3",
    "types": [
      "songwriters",
      "8"
    ],
    "repository": "kara.moe",
    "modified_at": "2020-03-31T19:04:38.263Z"
  }
}