{
  "header": {
    "description": "Karaoke Mugen Tag File",
    "version": 1
  },
  "tag": {
    "i18n": {
      "eng": "Toshiki Masuda",
      "jpn": "増田 俊樹"
    },
    "name": "Toshiki Masuda",
    "repository": "kara.moe",
    "tid": "ddec1c8c-094d-491d-9362-18767e3fe59b",
    "types": [
      "singers",
      "2"
    ]
  }
}