{
  "header": {
    "description": "Karaoke Mugen Tag File",
    "version": 1
  },
  "tag": {
    "i18n": {
      "eng": "Toshiaki Honjo"
    },
    "name": "Toshiaki Honjo",
    "tid": "c5c26d7e-d13b-43e9-bc3e-5df115b7a82d",
    "types": [
      "songwriters",
      "8"
    ],
    "repository": "kara.moe",
    "modified_at": "2020-03-31T19:04:38.246Z"
  }
}