{
  "header": {
    "description": "Karaoke Mugen Tag File",
    "version": 1
  },
  "tag": {
    "i18n": {
      "eng": "TOSHIHIRO"
    },
    "name": "TOSHIHIRO",
    "tid": "56032890-ddfd-476f-a35a-df1888b38a1d",
    "types": [
      "songwriters",
      "8"
    ],
    "repository": "kara.moe",
    "modified_at": "2020-03-31T19:04:38.251Z"
  }
}