{
  "header": {
    "description": "Karaoke Mugen Tag File",
    "version": 1
  },
  "tag": {
    "i18n": {
      "eng": "Toshiyuki Sekiguchi"
    },
    "name": "Toshiyuki Sekiguchi",
    "tid": "2369e0a8-12b0-45b1-8f20-5f506dab9fde",
    "types": [
      "songwriters",
      "8"
    ],
    "repository": "kara.moe",
    "modified_at": "2020-03-31T19:04:38.269Z"
  }
}