{
  "header": {
    "description": "Karaoke Mugen Tag File",
    "version": 1
  },
  "tag": {
    "aliases": [
      "Bateadores",
      "Touch TV",
      "Касание",
      "لمسة",
      "ทัช ยอดรักนักกีฬา"
    ],
    "external_database_ids": {
      "anilist": 1065,
      "myanimelist": 1065,
      "kitsu": 952
    },
    "i18n": {
      "fre": "Théo ou la batte de la victoire",
      "ita": "Prendi il mondo e vai",
      "jpn": "タッチ",
      "kor": "터치",
      "qro": "Touch"
    },
    "modified_at": "2020-03-31T19:04:33.015Z",
    "name": "Touch",
    "repository": "kara.moe",
    "tid": "5003c1bf-1142-4141-adff-1451cedef86d",
    "types": [
      "series",
      "1"
    ]
  }
}