{
  "header": {
    "description": "Karaoke Mugen Tag File",
    "version": 1
  },
  "tag": {
    "i18n": {
      "eng": "Touhoppai"
    },
    "name": "Touhoppai",
    "tid": "6b38e6cc-bc88-4cf5-9bfc-a46c03435bab",
    "types": [
      "authors",
      "6"
    ],
    "repository": "kara.moe",
    "modified_at": "2020-03-31T19:04:38.272Z"
  }
}