{
  "header": {
    "description": "Karaoke Mugen Tag File",
    "version": 1
  },
  "tag": {
    "i18n": {
      "eng": "Tôru Hiruma"
    },
    "name": "Tôru Hiruma",
    "tid": "0e99c27f-efa1-413f-8ce5-136c740335b7",
    "types": [
      "songwriters",
      "8"
    ],
    "repository": "kara.moe",
    "modified_at": "2020-03-31T19:04:38.277Z"
  }
}