{
  "header": {
    "description": "Karaoke Mugen Tag File",
    "version": 1
  },
  "tag": {
    "i18n": {
      "eng": "Transformers: Animated",
      "jpn": "トランスフォーマー アニメイテッド",
      "qro": "Transformers Animated"
    },
    "modified_at": "2020-03-31T19:04:33.021Z",
    "name": "Transformers Animated",
    "repository": "kara.moe",
    "tid": "0abb1e0e-dcba-4693-b876-6eb9b8b41b01",
    "types": [
      "series",
      "1"
    ]
  }
}