{
  "header": {
    "description": "Karaoke Mugen Tag File",
    "version": 1
  },
  "tag": {
    "i18n": {
      "eng": "TRF"
    },
    "name": "TRF",
    "tid": "4309c12b-de0d-4fbc-97b3-f71ad4c5c648",
    "types": [
      "singers",
      "2"
    ],
    "repository": "kara.moe",
    "modified_at": "2020-03-31T19:04:38.285Z"
  }
}