{
  "header": {
    "description": "Karaoke Mugen Tag File",
    "version": 1
  },
  "tag": {
    "i18n": {
      "eng": "TRIANGLE STAFF CORP."
    },
    "name": "TRIANGLE STAFF CORP.",
    "tid": "536f51b3-713a-4fc0-83ea-d84086ab3588",
    "types": [
      "creators",
      "4"
    ],
    "repository": "kara.moe",
    "modified_at": "2020-03-31T19:04:38.286Z"
  }
}