{
  "header": {
    "description": "Karaoke Mugen Tag File",
    "version": 1
  },
  "tag": {
    "i18n": {
      "eng": "Tsubometal"
    },
    "modified_at": "2020-08-16T18:24:33.932Z",
    "name": "Tsubometal",
    "repository": "kara.moe",
    "tid": "20a05b3b-a085-4e4e-bda8-9ac69d801204",
    "types": [
      "songwriters",
      "8"
    ]
  }
}