{
  "header": {
    "description": "Karaoke Mugen Tag File",
    "version": 1
  },
  "tag": {
    "aliases": [
      "TMP",
      "Tsukuyomi Moonphase",
      "Фаза Луны",
      "月咏",
      "월영"
    ],
    "external_database_ids": {
      "anilist": 343,
      "myanimelist": 343,
      "kitsu": 310
    },
    "i18n": {
      "eng": "Tsukuyomi: Moon Phase",
      "jpn": "月詠 -MOON PHASE-",
      "qro": "Tsukuyomi Moon Phase"
    },
    "modified_at": "2020-06-21T23:45:31.966Z",
    "name": "Tsukuyomi Moon Phase",
    "repository": "kara.moe",
    "tid": "4c4fbb42-e410-4e3c-93e0-470019ab97ee",
    "types": [
      "series",
      "1"
    ]
  }
}