{
  "header": {
    "description": "Karaoke Mugen Tag File",
    "version": 1
  },
  "tag": {
    "external_database_ids": {
      "anilist": 131019,
      "myanimelist": 48471,
      "kitsu": 44192
    },
    "i18n": {
      "eng": "Irina: The Vampire Cosmonaut",
      "jpn": "月とライカと吸血姫"
    },
    "modified_at": "2021-12-05T12:21:29.848Z",
    "name": "Tsuki to Laika to Nosferatu",
    "repository": "kara.moe",
    "tid": "b74eadba-efff-44c4-a973-fe4aec81fdf5",
    "types": [
      "series",
      "1"
    ]
  }
}