{
  "header": {
    "description": "Karaoke Mugen Tag File",
    "version": 1
  },
  "tag": {
    "i18n": {
      "eng": "Tsukasa Okazaki"
    },
    "name": "Tsukasa Okazaki",
    "tid": "1b602d0b-0f4b-4b87-bff0-78d3294dc3eb",
    "types": [
      "songwriters",
      "8"
    ],
    "repository": "kara.moe",
    "modified_at": "2020-03-31T19:04:38.312Z"
  }
}