{
  "header": {
    "description": "Karaoke Mugen Tag File",
    "version": 1
  },
  "tag": {
    "i18n": {
      "eng": "Tsurin"
    },
    "modified_at": "2021-04-27T22:38:27.119Z",
    "name": "Tsurin",
    "repository": "kara.moe",
    "tid": "1335426c-58f5-417b-8664-5d1182b6dcea",
    "types": [
      "songwriters",
      "8"
    ]
  }
}