{
  "header": {
    "description": "Karaoke Mugen Tag File",
    "version": 1
  },
  "tag": {
    "i18n": {
      "eng": "Tsurezurenaru Ayatsuri Mugenan"
    },
    "name": "Tsurezurenaru Ayatsuri Mugenan",
    "tid": "08f94902-01bc-48ce-80fa-b5003ec3f059",
    "types": [
      "singers",
      "2"
    ],
    "repository": "kara.moe",
    "modified_at": "2020-03-31T19:04:38.318Z"
  }
}