{
  "header": {
    "description": "Karaoke Mugen Tag File",
    "version": 1
  },
  "tag": {
    "i18n": {
      "eng": "Turbo"
    },
    "name": "Turbo",
    "repository": "kara.moe",
    "tid": "0d2a7739-e4a6-45c5-9cf5-55c35e359635",
    "types": [
      "songwriters",
      "8"
    ]
  }
}