{
  "header": {
    "description": "Karaoke Mugen Tag File",
    "version": 1
  },
  "tag": {
    "i18n": {
      "eng": "Tyler Carter"
    },
    "modified_at": "2020-11-25T00:11:28.720Z",
    "name": "Tyler Carter",
    "repository": "kara.moe",
    "tid": "b3c02f63-6401-42dc-bf48-972c5e2d57d9",
    "types": [
      "songwriters",
      "8",
      "singers",
      "2"
    ]
  }
}