{
  "header": {
    "description": "Karaoke Mugen Tag File",
    "version": 1
  },
  "tag": {
    "aliases": [
      "Титания",
      "تايتنيا",
      "泰坦尼亚",
      "泰坦尼亞",
      "鐵達尼亞"
    ],
    "external_database_ids": {
      "anilist": 4066,
      "myanimelist": 4066,
      "kitsu": 3442
    },
    "i18n": {
      "eng": "Tytania",
      "jpn": "タイタニア",
      "qro": "Tytania"
    },
    "modified_at": "2020-03-31T19:04:33.037Z",
    "name": "Tytania",
    "repository": "kara.moe",
    "tid": "ba206390-2d44-4c46-ae5e-fb569192725f",
    "types": [
      "series",
      "1"
    ]
  }
}