{
  "header": {
    "description": "Karaoke Mugen Tag File",
    "version": 1
  },
  "tag": {
    "external_database_ids": {
      "anilist": 101506,
      "myanimelist": 37722,
      "kitsu": 41209
    },
    "i18n": {
      "eng": "UzaMaid!",
      "jpn": "うちのメイドがウザすぎる!",
      "kor": "우리 메이드가 너무 짜증나!",
      "qro": "Uchi no Maid ga Uzasugiru!"
    },
    "modified_at": "2020-03-31T19:04:33.038Z",
    "name": "Uchi no Maid ga Uzasugiru!",
    "repository": "kara.moe",
    "tid": "fbd6cbab-7082-4ed1-a918-7ba9a8399634",
    "types": [
      "series",
      "1"
    ]
  }
}