{
  "header": {
    "description": "Karaoke Mugen Tag File",
    "version": 1
  },
  "tag": {
    "aliases": [
      "Uchuu Senkan Yamato: Aratanaru Tabidachi",
      "uchuu"
    ],
    "external_database_ids": {
      "anilist": 3071,
      "myanimelist": 3071,
      "kitsu": 2769
    },
    "i18n": {
      "eng": "Space Battleship Yamato: The New Voyage",
      "ita": "La Corazzata Spaziale Yamato: Il Nuovo Viaggio",
      "jpn": "宇宙戦艦ヤマト 新たなる旅立ち",
      "qro": "Uchû Senkan Yamato: Aratanaru Tabidachi"
    },
    "modified_at": "2020-03-31T19:04:33.051Z",
    "name": "Uchû Senkan Yamato: Aratanaru Tabidachi",
    "repository": "kara.moe",
    "tid": "9eeb6f26-500d-4596-9662-b6367d014680",
    "types": [
      "series",
      "1"
    ]
  }
}