{
  "header": {
    "description": "Karaoke Mugen Tag File",
    "version": 1
  },
  "tag": {
    "aliases": [
      "Space Ironmen Kyodyne",
      "Uchuu Tetsujin Kyodain",
      "uchuu"
    ],
    "i18n": {
      "eng": "Uchû Tetsujin Kyodain",
      "jpn": "宇宙鉄人キョーダイン",
      "qro": "Uchû Tetsujin Kyodain"
    },
    "modified_at": "2020-03-31T19:04:33.055Z",
    "name": "Uchû Tetsujin Kyodain",
    "repository": "kara.moe",
    "tid": "956056ce-a9eb-45bc-b644-3b35d4de15e7",
    "types": [
      "series",
      "1"
    ]
  }
}