{
  "header": {
    "description": "Karaoke Mugen Tag File",
    "version": 1
  },
  "tag": {
    "aliases": [
      "Udon no Kuni no Kiniro Kemari",
      "Мир удона Поко"
    ],
    "external_database_ids": {
      "anilist": 21631,
      "myanimelist": 32673,
      "kitsu": 11823
    },
    "i18n": {
      "eng": "Poco's Udon World",
      "jpn": "うどんの国の金色毛鞠",
      "qro": "Udon no Kuni no Kin'iro Kemari"
    },
    "modified_at": "2020-06-21T23:45:31.966Z",
    "name": "Udon no Kuni no Kin'iro Kemari",
    "repository": "kara.moe",
    "tid": "0b3c3fe6-bc23-4c4f-a215-50d16f70f22c",
    "types": [
      "series",
      "1"
    ]
  }
}