{
  "header": {
    "description": "Karaoke Mugen Tag File",
    "version": 1
  },
  "tag": {
    "i18n": {
      "afr": "Uyghur",
      "amh": "Uyghur",
      "ara": "الأويغور",
      "aze": "Uyğur",
      "bak": "Уйғыр",
      "bel": "Уйгурская",
      "bul": "Уйгурския",
      "ben": "উইঘুর",
      "bos": "Namjerno ili nenamjerno povrati",
      "cat": "Uyghur",
      "cze": "Ujgurské",
      "wel": "Uyghur",
      "dan": "Uygur",
      "ger": "Uiguren",
      "gre": "Ουιγούρων",
      "eng": "Uyghur",
      "epo": "Ujgura",
      "spa": "Los uigures",
      "est": "Uiguuri",
      "baq": "Uyghur",
      "per": "اویغور",
      "fin": "Uyghur",
      "fre": "Ouïghoure",
      "gle": "Uyghur",
      "gla": "Uyghur",
      "glg": "Uyghur",
      "guj": "Uyghur",
      "heb": "האויגורי",
      "hin": "उइघुर",
      "hrv": "Ujgurski",
      "hat": "Uyghur",
      "hun": "Ujgur",
      "arm": "Ույղուրերեն",
      "ind": "Uyghur",
      "ice": "Uyghur",
      "ita": "Uyghur",
      "jpn": "ウイグル",
      "jav": "Uyghur",
      "geo": "Uyghur",
      "kaz": "Ұйғыр",
      "kan": "Uyghur",
      "kor": "Uyghur",
      "kir": "Уйгурский",
      "lat": "Uyghur",
      "lit": "Uigūrų",
      "lav": "Uiguru",
      "mlg": "Uyghur",
      "mao": "Uyghur",
      "mac": "Uyghur",
      "mal": "ഉയിഗര്",
      "mon": "Уйгар",
      "mar": "याकुट",
      "may": "Bulgaria",
      "mlt": "Uyghur",
      "nep": "उईघुर",
      "dut": "Uyghur",
      "nor": "Uyghur",
      "pan": "ਉਇਗ਼ੂਰ",
      "pol": "Ujgurski",
      "por": "Uyghur",
      "rum": "Uyghur",
      "rus": "Уйгурский",
      "sin": "Uyghur",
      "slo": "Doc",
      "slv": "Poenostavljena kitajščina",
      "alb": "Uyghur",
      "srp": "Uyghur",
      "sun": "Uyghur",
      "swe": "Uyghur",
      "swa": "Uyghur",
      "tam": "உய்குர்",
      "tel": "హంగేరీ",
      "tgk": "Уйғуртабори",
      "tha": "Uyghur",
      "tgl": "Uyghur",
      "tur": "Uygur",
      "tat": "Уйгыр",
      "ukr": "Уйгурська",
      "urd": "یوغر",
      "uzb": "Uyghur",
      "vie": "Lòng",
      "xho": "Uyghur",
      "yid": "Uyghur",
      "chi": "维吾尔"
    },
    "name": "uig",
    "tid": "67777212-bac0-4c2c-925e-5d0df5d0e2b6",
    "types": [
      "langs",
      "5"
    ],
    "repository": "kara.moe",
    "modified_at": "2020-03-31T19:04:38.353Z"
  }
}