{
  "header": {
    "description": "Karaoke Mugen Tag File",
    "version": 1
  },
  "tag": {
    "i18n": {
      "eng": "UKI"
    },
    "name": "UKI",
    "tid": "51987776-5f12-43f5-94e3-05576d105adc",
    "types": [
      "songwriters",
      "8"
    ],
    "repository": "kara.moe",
    "modified_at": "2020-03-31T19:04:38.354Z"
  }
}