{
  "header": {
    "description": "Karaoke Mugen Tag File",
    "version": 1
  },
  "tag": {
    "i18n": {
      "eng": "ULTRA-PRISM"
    },
    "name": "ULTRA-PRISM",
    "tid": "5dc4ad1a-80e8-424d-999c-1edaec18e97c",
    "types": [
      "singers",
      "2"
    ],
    "repository": "kara.moe",
    "modified_at": "2020-03-31T19:04:38.359Z"
  }
}