{
  "header": {
    "description": "Karaoke Mugen Tag File",
    "version": 1
  },
  "tag": {
    "aliases": [
      "UM",
      "UM TV",
      "Ultra Maniac TV",
      "ulmani",
      "urumani",
      "ウルマニ"
    ],
    "external_database_ids": {
      "anilist": 178,
      "myanimelist": 178,
      "kitsu": 155
    },
    "i18n": {
      "eng": "Ultra Maniac",
      "ita": "Streghe per Amore",
      "jpn": "ウルトラマニアック",
      "spa": "Ultra Maniac",
      "qro": "Ultra Maniac"
    },
    "modified_at": "2020-03-31T19:04:33.060Z",
    "name": "Ultra Maniac",
    "repository": "kara.moe",
    "tid": "c079b9a9-c26c-431b-ab70-8fedfe5a9f8a",
    "types": [
      "series",
      "1"
    ]
  }
}