{
  "header": {
    "description": "Karaoke Mugen Tag File",
    "version": 1
  },
  "tag": {
    "i18n": {
      "eng": "ULU"
    },
    "name": "ULU",
    "repository": "kara.moe",
    "tid": "3a6e8192-ff2a-4261-ac22-2de562ed95bb",
    "types": [
      "songwriters",
      "8"
    ]
  }
}