{
  "header": {
    "description": "Karaoke Mugen Tag File",
    "version": 1
  },
  "tag": {
    "i18n": {
      "eng": "Umewaka Uesanemichi"
    },
    "name": "Umewaka Uesanemichi",
    "repository": "kara.moe",
    "tid": "fbe34a62-3a3d-41a9-b288-707c27911c02",
    "types": [
      "songwriters",
      "8"
    ]
  }
}