{
  "header": {
    "description": "Karaoke Mugen Tag File",
    "version": 1
  },
  "tag": {
    "i18n": {
      "eng": "UniChØrd"
    },
    "name": "UniChØrd",
    "repository": "kara.moe",
    "tid": "022d46b6-27ee-401c-bf34-90c888be8991",
    "types": [
      "singergroups",
      "17"
    ]
  }
}