{
  "header": {
    "description": "Karaoke Mugen Tag File",
    "version": 1
  },
  "tag": {
    "i18n": {
      "eng": "unicorn table"
    },
    "name": "unicorn table",
    "tid": "7941ff53-bc2f-4af9-849c-86a8bf18609c",
    "types": [
      "singers",
      "2"
    ],
    "repository": "kara.moe",
    "modified_at": "2020-03-31T19:04:38.367Z"
  }
}