{
  "header": {
    "description": "Karaoke Mugen Tag File",
    "version": 1
  },
  "tag": {
    "i18n": {
      "eng": "UNiSONSHIFT:Blossom"
    },
    "name": "UNiSONSHIFT:Blossom",
    "tid": "e7e0f8f3-3346-4b85-8f9d-2d28fb6b716b",
    "types": [
      "creators",
      "4"
    ],
    "repository": "kara.moe",
    "modified_at": "2020-03-31T19:04:38.369Z"
  }
}