{
  "header": {
    "description": "Karaoke Mugen Tag File",
    "version": 1
  },
  "tag": {
    "i18n": {
      "eng": "Urara"
    },
    "name": "Urara",
    "tid": "a53d034a-6a7e-4809-ab95-c47c057c1240",
    "types": [
      "songwriters",
      "8"
    ],
    "repository": "kara.moe",
    "modified_at": "2020-03-31T19:04:38.378Z"
  }
}