{
  "header": {
    "description": "Karaoke Mugen Tag File",
    "version": 1
  },
  "tag": {
    "aliases": [
      "SawanoHiroyuki[nZk] project"
    ],
    "i18n": {
      "eng": "Uru"
    },
    "name": "Uru",
    "tid": "0d66d0d1-476f-470d-bc03-34ff08e41435",
    "types": [
      "singers",
      "2"
    ],
    "repository": "kara.moe",
    "modified_at": "2020-03-31T19:04:38.381Z"
  }
}