{
  "header": {
    "description": "Karaoke Mugen Tag File",
    "version": 1
  },
  "tag": {
    "aliases": [
      "Ushio Ve Tora"
    ],
    "external_database_ids": {
      "anilist": 842,
      "myanimelist": 842,
      "kitsu": 747
    },
    "i18n": {
      "eng": "Ushio & Tora",
      "fre": "Ushio et Tora",
      "jpn": "うしおととら",
      "pol": "Ushio i Tora",
      "qro": "Ushio to Tora"
    },
    "modified_at": "2020-03-31T19:04:33.081Z",
    "name": "Ushio to Tora",
    "repository": "kara.moe",
    "tid": "169b59a9-6070-4977-8b72-869c71ff2067",
    "types": [
      "series",
      "1"
    ]
  }
}