{
  "header": {
    "description": "Karaoke Mugen Tag File",
    "version": 1
  },
  "tag": {
    "i18n": {
      "eng": "USK"
    },
    "name": "USK",
    "tid": "fd23b66a-f3df-4e8f-98b5-3db6600e53c0",
    "types": [
      "songwriters",
      "8"
    ],
    "repository": "kara.moe",
    "modified_at": "2020-03-31T19:04:38.386Z"
  }
}