{
  "header": {
    "description": "Karaoke Mugen Tag File",
    "version": 1
  },
  "tag": {
    "i18n": {
      "eng": "UTA"
    },
    "name": "UTA",
    "tid": "11aeb8e5-7295-459c-bcf7-8035b3ff942c",
    "types": [
      "songwriters",
      "8"
    ],
    "repository": "kara.moe",
    "modified_at": "2020-03-31T19:04:38.389Z"
  }
}