{
  "header": {
    "description": "Karaoke Mugen Tag File",
    "version": 1
  },
  "tag": {
    "i18n": {
      "eng": "V Bryant"
    },
    "name": "V Bryant",
    "repository": "kara.moe",
    "tid": "9b8cc98f-faa1-4a36-bc08-23c46cb2e2f1",
    "types": [
      "songwriters",
      "8"
    ]
  }
}