{
  "header": {
    "description": "Karaoke Mugen Tag File",
    "version": 1
  },
  "tag": {
    "i18n": {
      "eng": "V1Studio"
    },
    "name": "V1Studio",
    "tid": "3c870ecb-d4a4-46f6-934a-12aee2c300ab",
    "types": [
      "creators",
      "4"
    ],
    "repository": "kara.moe",
    "modified_at": "2020-03-31T19:04:38.395Z"
  }
}