{
  "header": {
    "description": "Karaoke Mugen Tag File",
    "version": 1
  },
  "tag": {
    "i18n": {
      "eng": "Valerie James"
    },
    "name": "Valerie James",
    "repository": "kara.moe",
    "tid": "2e046b20-fc51-4d31-a7e7-0d4da7b4c8d9",
    "types": [
      "songwriters",
      "8"
    ]
  }
}