{
  "header": {
    "description": "Karaoke Mugen Tag File",
    "version": 1
  },
  "tag": {
    "i18n": {
      "eng": "VALIS"
    },
    "name": "VALIS",
    "repository": "kara.moe",
    "tid": "ee266ded-cdd8-4957-8e58-a8d70d78a5ca",
    "types": [
      "singers",
      "2"
    ]
  }
}