{
  "header": {
    "description": "Karaoke Mugen Tag File",
    "version": 1
  },
  "tag": {
    "i18n": {
      "eng": "Vernon Reid"
    },
    "name": "Vernon Reid",
    "repository": "kara.moe",
    "tid": "ea9a3d81-2603-4be1-9eab-7344f6522973",
    "types": [
      "songwriters",
      "8"
    ]
  }
}