{
  "header": {
    "description": "Karaoke Mugen Tag File",
    "version": 1
  },
  "tag": {
    "external_database_ids": {
      "anilist": 101348,
      "myanimelist": 37521,
      "kitsu": 41084
    },
    "i18n": {
      "eng": "Vinland Saga",
      "jpn": "ヴィンランド・サガ",
      "qro": "Vinland Saga"
    },
    "modified_at": "2020-03-31T19:04:33.102Z",
    "name": "Vinland Saga",
    "repository": "kara.moe",
    "tid": "70125d24-d910-4c07-b479-2c737e5cedf2",
    "types": [
      "series",
      "1"
    ]
  }
}