{
  "header": {
    "description": "Karaoke Mugen Tag File",
    "version": 1
  },
  "tag": {
    "i18n": {
      "eng": "Visual 80"
    },
    "name": "Visual 80",
    "tid": "8768ec2e-f300-4130-b814-8f109dfb9311",
    "types": [
      "creators",
      "4"
    ],
    "repository": "kara.moe",
    "modified_at": "2020-03-31T19:04:38.419Z"
  }
}