{
  "header": {
    "description": "Karaoke Mugen Tag File",
    "version": 1
  },
  "tag": {
    "i18n": {
      "eng": "Vocaliod-P"
    },
    "name": "Vocaliod-P",
    "tid": "8a65fcbf-8a2f-4c05-8632-d0ad6fc5ace2",
    "types": [
      "songwriters",
      "8"
    ],
    "repository": "kara.moe",
    "modified_at": "2020-03-31T19:04:38.424Z"
  }
}