{
  "header": {
    "description": "Karaoke Mugen Tag File",
    "version": 1
  },
  "tag": {
    "i18n": {
      "eng": "Wagakki Band",
      "jpn": "和楽器バンド",
      "qro": "Wagakki Band"
    },
    "name": "Wagakki Band",
    "repository": "kara.moe",
    "tid": "c0f34b9f-919b-4db7-be8e-7d06b2b22421",
    "types": [
      "singers",
      "2",
      "songwriters",
      "8"
    ]
  }
}