{
  "header": {
    "description": "Karaoke Mugen Tag File",
    "version": 1
  },
  "tag": {
    "i18n": {
      "eng": "Waka Tame"
    },
    "name": "Waka Tame",
    "repository": "kara.moe",
    "tid": "288b44c0-1976-4039-8665-b61423408f26",
    "types": [
      "songwriters",
      "8"
    ]
  }
}