{
  "header": {
    "description": "Karaoke Mugen Tag File",
    "version": 1
  },
  "tag": {
    "aliases": [
      "WUG"
    ],
    "external_database_ids": {
      "anilist": 19023,
      "myanimelist": 19023,
      "kitsu": 7774
    },
    "i18n": {
      "eng": "Wake Up, Girls!",
      "jpn": "Wake Up, Girls!",
      "qro": "Wake Up Girls!"
    },
    "modified_at": "2020-03-31T19:04:33.111Z",
    "name": "Wake Up Girls!",
    "repository": "kara.moe",
    "tid": "dfae4ecd-cf57-4e25-be2a-3fb62b9cf15d",
    "types": [
      "series",
      "1"
    ]
  }
}