{
  "header": {
    "description": "Karaoke Mugen Tag File",
    "version": 1
  },
  "tag": {
    "i18n": {
      "eng": "Walt Disney Pictures"
    },
    "name": "Walt Disney Pictures",
    "tid": "2d3f223d-16d3-4f9a-bfa9-2038765a0ae7",
    "types": [
      "creators",
      "4"
    ],
    "repository": "kara.moe",
    "modified_at": "2020-03-31T19:04:38.440Z"
  }
}