{
  "header": {
    "description": "Karaoke Mugen Tag File",
    "version": 1
  },
  "tag": {
    "i18n": {
      "eng": "Walter Asanasieff"
    },
    "name": "Walter Asanasieff",
    "repository": "kara.moe",
    "tid": "d162769a-bfa0-4f8a-863c-42a62b076df8",
    "types": [
      "songwriters",
      "8"
    ]
  }
}