{
  "header": {
    "description": "Karaoke Mugen Tag File",
    "version": 1
  },
  "tag": {
    "i18n": {
      "eng": "Wandrille Devisme"
    },
    "name": "Wandrille Devisme",
    "tid": "bb03ff0e-9508-4f78-80c9-8722623452c3",
    "types": [
      "singers",
      "2"
    ],
    "repository": "kara.moe",
    "modified_at": "2020-03-31T19:04:38.441Z"
  }
}