{
  "header": {
    "description": "Karaoke Mugen Tag File",
    "version": 1
  },
  "tag": {
    "i18n": {
      "eng": "Wáng Yī Bó",
      "chi": "王一博 ",
      "kor": "왕이보"
    },
    "modified_at": "2021-03-13T15:53:01.389Z",
    "name": "Wáng Yī Bó",
    "repository": "kara.moe",
    "tid": "297e8cf7-e35a-4b3b-8d35-8354a4b52b9b",
    "types": [
      "singers",
      "2"
    ]
  }
}