{
  "header": {
    "description": "Karaoke Mugen Tag File",
    "version": 1
  },
  "tag": {
    "i18n": {
      "eng": "WAO World"
    },
    "name": "WAO World",
    "tid": "5726f49a-35eb-4e57-a706-9aecace411cd",
    "types": [
      "creators",
      "4"
    ],
    "repository": "kara.moe",
    "modified_at": "2020-03-31T19:04:38.443Z"
  }
}