{
  "header": {
    "description": "Karaoke Mugen Tag File",
    "version": 1
  },
  "tag": {
    "aliases": [
      "Wario Ware : Do It Yourself",
      "WarioWare: Made in Ore"
    ],
    "i18n": {
      "eng": "WarioWare: D.I.Y.",
      "jpn": "WarioWare: メイドイン俺",
      "qro": "Wario Ware D.I.Y."
    },
    "modified_at": "2020-03-31T19:04:33.118Z",
    "name": "Wario Ware D.I.Y.",
    "repository": "kara.moe",
    "tid": "828008ac-b112-410e-aa26-618f02331f35",
    "types": [
      "series",
      "1"
    ]
  }
}