{
  "header": {
    "description": "Karaoke Mugen Tag File",
    "version": 1
  },
  "tag": {
    "i18n": {
      "eng": "Warner Bros. Home Entertainment"
    },
    "modified_at": "2020-12-11T01:34:41.699Z",
    "name": "Warner Bros. Home Entertainment",
    "repository": "kara.moe",
    "tid": "6ee93697-33e3-4dca-b070-d70f31a3f327",
    "types": [
      "creators",
      "4"
    ]
  }
}