{
  "header": {
    "description": "Karaoke Mugen Tag File",
    "version": 1
  },
  "tag": {
    "i18n": {
      "eng": "Warsaw Philharmonic Orchestra & Chorus"
    },
    "name": "Warsaw Philharmonic Orchestra & Chorus",
    "tid": "63ada6db-fdf4-4e85-bf95-a6ebefaddab5",
    "types": [
      "singers",
      "2"
    ],
    "repository": "kara.moe",
    "modified_at": "2020-03-31T19:04:38.448Z"
  }
}