{
  "header": {
    "description": "Karaoke Mugen Tag File",
    "version": 1
  },
  "tag": {
    "i18n": {
      "eng": "wataru336"
    },
    "name": "wataru336",
    "repository": "kara.moe",
    "tid": "51d869a0-7a58-4d2b-b2be-e7e27a636509",
    "types": [
      "creators",
      "4"
    ]
  }
}