{
  "header": {
    "description": "Karaoke Mugen Tag File",
    "version": 1
  },
  "tag": {
    "i18n": {
      "eng": "WayForward"
    },
    "name": "WayForward",
    "repository": "kara.moe",
    "tid": "8f4a0109-abd2-4714-b78d-e22f9fc2fa7b",
    "types": [
      "creators",
      "4"
    ],
    "modified_at": "2020-03-31T19:04:38.457Z"
  }
}