{
  "header": {
    "description": "Karaoke Mugen Tag File",
    "version": 1
  },
  "tag": {
    "i18n": {
      "eng": "Wayne Sermon"
    },
    "modified_at": "2020-07-03T22:43:30.164Z",
    "name": "Wayne Sermon",
    "repository": "kara.moe",
    "tid": "0605c1a3-9e2c-43a7-9fc5-a8d9363a0123",
    "types": [
      "songwriters",
      "8"
    ]
  }
}