{
  "header": {
    "description": "Karaoke Mugen Tag File",
    "version": 1
  },
  "tag": {
    "i18n": {
      "eng": "We Are The Hits"
    },
    "modified_at": "2021-09-05T22:24:17.869Z",
    "name": "We Are The Hits",
    "repository": "kara.moe",
    "tid": "420bd614-954c-4faa-9067-4d84dce253bb",
    "types": [
      "creators",
      "4"
    ]
  }
}