{
  "header": {
    "description": "Karaoke Mugen Tag File",
    "version": 1
  },
  "tag": {
    "i18n": {
      "eng": "Weebl's Stuff"
    },
    "name": "Weebl's Stuff",
    "repository": "kara.moe",
    "tid": "770f7ff2-8947-4f9e-acd8-4c72fa9357c8",
    "types": [
      "creators",
      "4"
    ]
  }
}