{
  "header": {
    "description": "Karaoke Mugen Tag File",
    "version": 1
  },
  "tag": {
    "i18n": {
      "eng": "Wei Bo En"
    },
    "name": "Wei Bo En",
    "repository": "kara.moe",
    "tid": "1456337b-7f85-435b-9398-f3bc513a722a",
    "types": [
      "singers",
      "2"
    ]
  }
}