{
  "header": {
    "description": "Karaoke Mugen Tag File",
    "version": 1
  },
  "tag": {
    "external_database_ids": {
      "anilist": 107693,
      "myanimelist": 39196,
      "kitsu": 42310
    },
    "i18n": {
      "eng": "Welcome to Demon School! Iruma-kun",
      "jpn": "魔入りました！入間くん",
      "qro": "Mairimashita! Iruma-kun"
    },
    "name": "Welcome to Demon School! Iruma-kun",
    "repository": "kara.moe",
    "tid": "204d7a75-0793-41b1-9a88-9d8164983317",
    "types": [
      "series",
      "1",
      "franchises",
      "18"
    ]
  }
}