{
  "header": {
    "description": "Karaoke Mugen Tag File",
    "version": 1
  },
  "tag": {
    "i18n": {
      "eng": "Wenxiao He"
    },
    "name": "Wenxiao He",
    "repository": "kara.moe",
    "tid": "ac308a28-9efa-4c64-a071-c61011ba66ab",
    "types": [
      "singers",
      "2"
    ]
  }
}