{
  "header": {
    "description": "Karaoke Mugen Tag File",
    "version": 1
  },
  "tag": {
    "i18n": {
      "eng": "What's New Scooby-Doo?",
      "fre": "Quoi d'neuf Scooby-Doo ?"
    },
    "modified_at": "2020-03-31T19:04:33.124Z",
    "name": "What's New Scooby-Doo?",
    "repository": "kara.moe",
    "tid": "1790f814-b74d-458e-8447-18eb0dc652e3",
    "types": [
      "series",
      "1"
    ]
  }
}