{
  "header": {
    "description": "Karaoke Mugen Tag File",
    "version": 1
  },
  "tag": {
    "i18n": {
      "eng": "will.i.am"
    },
    "name": "will.i.am",
    "repository": "kara.moe",
    "tid": "874eb514-964c-4a62-aa90-055cc644584c",
    "types": [
      "songwriters",
      "8",
      "singers",
      "2"
    ]
  }
}