{
  "header": {
    "description": "Karaoke Mugen Tag File",
    "version": 1
  },
  "tag": {
    "i18n": {
      "eng": "With pleasant companions"
    },
    "modified_at": "2020-07-22T21:35:38.616Z",
    "name": "With pleasant companions",
    "repository": "kara.moe",
    "tid": "451b0da7-2b2d-4dfb-9d82-a23f3ade4382",
    "types": [
      "singers",
      "2"
    ]
  }
}