{
  "header": {
    "description": "Karaoke Mugen Tag File",
    "version": 1
  },
  "tag": {
    "i18n": {
      "eng": "Wonderland Gang"
    },
    "name": "Wonderland Gang",
    "tid": "f4014ef7-afa6-46f8-9309-d00fefd7bb73",
    "types": [
      "singers",
      "2"
    ],
    "repository": "kara.moe",
    "modified_at": "2020-03-31T19:04:38.480Z"
  }
}