{
  "header": {
    "description": "Karaoke Mugen Tag File",
    "version": 1
  },
  "tag": {
    "i18n": {
      "eng": "Worlds Apart"
    },
    "name": "Worlds Apart",
    "repository": "kara.moe",
    "tid": "589089e7-78d2-4204-ac5c-8f31df6b9b5f",
    "types": [
      "singers",
      "2"
    ]
  }
}