{
  "header": {
    "description": "Karaoke Mugen Tag File",
    "version": 1
  },
  "tag": {
    "aliases": [
      "WoWS"
    ],
    "i18n": {
      "eng": "World of Warships"
    },
    "modified_at": "2021-10-12T15:09:38.777Z",
    "name": "World of Warships",
    "repository": "kara.moe",
    "tid": "e34584ad-f118-4cfb-afd6-0e52b83d0ab3",
    "types": [
      "series",
      "1"
    ]
  }
}