{
  "header": {
    "description": "Karaoke Mugen Tag File",
    "version": 1
  },
  "tag": {
    "i18n": {
      "eng": "Wouter Hardy"
    },
    "name": "Wouter Hardy",
    "repository": "kara.moe",
    "tid": "6e1bcefa-68f9-4d6e-bcb3-743615ba889e",
    "types": [
      "songwriters",
      "8"
    ]
  }
}