{
  "header": {
    "description": "Karaoke Mugen Tag File",
    "version": 1
  },
  "tag": {
    "aliases": [
      "X (2001)",
      "X 1999",
      "X the TV Series"
    ],
    "external_database_ids": {
      "anilist": 156,
      "myanimelist": 156,
      "kitsu": 134
    },
    "i18n": {
      "eng": "X (TV)",
      "jpn": "X (TV)",
      "qro": "X TV"
    },
    "modified_at": "2020-03-31T19:04:33.144Z",
    "name": "X TV",
    "repository": "kara.moe",
    "tid": "3e765ff6-3096-49e0-b371-e0055d8b18ac",
    "types": [
      "series",
      "1"
    ]
  }
}