{
  "header": {
    "description": "Karaoke Mugen Tag File",
    "version": 1
  },
  "tag": {
    "i18n": {
      "eng": "Xbox One"
    },
    "karafile_tag": "XBOXONE",
    "name": "XBOX ONE",
    "tid": "22840d76-7030-4c3f-ab35-4a863adce093",
    "types": [
      "platforms",
      "13"
    ],
    "short": "XBO",
    "repository": "kara.moe",
    "modified_at": "2020-03-31T19:04:38.488Z"
  }
}