{
  "header": {
    "description": "Karaoke Mugen Tag File",
    "version": 1
  },
  "tag": {
    "i18n": {
      "eng": "Xenoblade Chronicles 2",
      "jpn": "ゼノブレイド2",
      "qro": "Xenoblade 2"
    },
    "modified_at": "2020-07-29T16:26:08.803Z",
    "name": "Xenoblade 2",
    "repository": "kara.moe",
    "tid": "2ac76393-d8db-471d-a554-3eaa047cc46d",
    "types": [
      "series",
      "1"
    ]
  }
}