{
  "header": {
    "description": "Karaoke Mugen Tag File",
    "version": 1
  },
  "tag": {
    "aliases": [
      "yagakimi"
    ],
    "external_database_ids": {
      "anilist": 101573,
      "myanimelist": 37786,
      "kitsu": 41240
    },
    "i18n": {
      "eng": "Bloom into You",
      "jpn": "やがて君になる",
      "kor": "이윽고 네가 된다",
      "qro": "Yagate Kimi ni Naru"
    },
    "modified_at": "2020-03-31T19:04:33.151Z",
    "name": "Yagate Kimi ni Naru",
    "repository": "kara.moe",
    "tid": "bc31cf2c-06b5-423a-bee2-21c849d4dd52",
    "types": [
      "series",
      "1"
    ]
  }
}