{
  "header": {
    "description": "Karaoke Mugen Tag File",
    "version": 1
  },
  "tag": {
    "i18n": {
      "eng": "Yagi Yûichi"
    },
    "name": "Yagi Yûichi",
    "tid": "a0075c30-0290-4f7c-9eb8-9140ef5e01ea",
    "types": [
      "songwriters",
      "8"
    ],
    "repository": "kara.moe",
    "modified_at": "2020-03-31T19:04:38.498Z"
  }
}