{
  "header": {
    "description": "Karaoke Mugen Tag File",
    "version": 1
  },
  "tag": {
    "i18n": {
      "eng": "YAMATO"
    },
    "name": "YAMATO",
    "tid": "b5b389c4-fca6-400d-b3bd-b95aba45bd5f",
    "types": [
      "songwriters",
      "8"
    ],
    "repository": "kara.moe",
    "modified_at": "2020-03-31T19:04:38.504Z"
  }
}