{
  "header": {
    "description": "Karaoke Mugen Tag File",
    "version": 1
  },
  "tag": {
    "aliases": [
      "Rocky Chuck the Mountain Rat",
      "Rocky Chuck the Woodchuck"
    ],
    "external_database_ids": {
      "anilist": 4615,
      "myanimelist": 4615,
      "kitsu": 3712
    },
    "i18n": {
      "ara": "الغابة الخضراء",
      "dut": "Dieren van het Groene Woud",
      "eng": "Fables of the Green Forest",
      "fre": "Les contes de la forêt verte",
      "ger": "Rocky und seine Freunde",
      "gre": "Παραμύθια του Πράσινου Δάσους",
      "heb": "סיפורי היער הירוק",
      "jpn": "山ねずみ ロッキーチャック",
      "por": "As Fábulas da Floresta Verde",
      "rum": "Povestiri din Padurea Verde",
      "qro": "Yama Nezumi Rocky Chuck"
    },
    "modified_at": "2020-03-31T19:04:33.156Z",
    "name": "Yama Nezumi Rocky Chuck",
    "repository": "kara.moe",
    "tid": "826e830d-0210-4bbc-8a66-6fb2a68457a3",
    "types": [
      "series",
      "1"
    ]
  }
}