{
  "header": {
    "description": "Karaoke Mugen Tag File",
    "version": 1
  },
  "tag": {
    "i18n": {
      "eng": "Yamaman"
    },
    "name": "Yamaman",
    "repository": "kara.moe",
    "tid": "bab98989-8c56-49af-9ae6-74410dc7c237",
    "types": [
      "series",
      "1"
    ]
  }
}