{
  "header": {
    "description": "Karaoke Mugen Tag File",
    "version": 1
  },
  "tag": {
    "i18n": {
      "eng": "Yamato Akio "
    },
    "name": "Yamato Akio ",
    "repository": "kara.moe",
    "tid": "3aeeedc0-5593-4f72-b67a-86ffff196b63",
    "types": [
      "singers",
      "2"
    ]
  }
}