{
  "header": {
    "description": "Karaoke Mugen Tag File",
    "version": 1
  },
  "tag": {
    "aliases": [
      "Yamishibai",
      "Japanese Ghost Stories"
    ],
    "i18n": {
      "eng": "Theater of Darkness",
      "jpn": "闇芝居",
      "qro": "Yami Shibai"
    },
    "name": "Yami Shibai",
    "repository": "kara.moe",
    "tid": "b0ece822-b25c-4b59-be85-ee66a191b6e6",
    "types": [
      "franchises",
      "18"
    ]
  }
}