{
  "header": {
    "description": "Karaoke Mugen Tag File",
    "version": 1
  },
  "tag": {
    "i18n": {
      "eng": "YANAGIMAN"
    },
    "name": "YANAGIMAN",
    "tid": "37f659dd-0b0a-40d5-a4e2-2b09395759f2",
    "types": [
      "songwriters",
      "8"
    ],
    "repository": "kara.moe",
    "modified_at": "2020-03-31T19:04:38.508Z"
  }
}