{
  "header": {
    "description": "Karaoke Mugen Tag File",
    "version": 1
  },
  "tag": {
    "i18n": {
      "eng": "Yapiko Animation"
    },
    "name": "Yapiko Animation",
    "tid": "d22a44d5-2233-401e-9f6f-fc776145a1fc",
    "types": [
      "creators",
      "4"
    ],
    "repository": "kara.moe",
    "modified_at": "2020-03-31T19:04:38.513Z"
  }
}