{
  "header": {
    "description": "Karaoke Mugen Tag File",
    "version": 1
  },
  "tag": {
    "i18n": {
      "eng": "YAS"
    },
    "name": "YAS",
    "repository": "kara.moe",
    "tid": "6840340b-630d-4380-b5ce-18e56681ec29",
    "types": [
      "songwriters",
      "8"
    ]
  }
}