{
  "header": {
    "description": "Karaoke Mugen Tag File",
    "version": 1
  },
  "tag": {
    "aliases": [
      "Hull"
    ],
    "i18n": {
      "eng": "Yasuhiko Nishi",
      "jpn": "西泰彦",
      "qro": "Yasuhiko Nishi"
    },
    "modified_at": "2020-08-28T16:44:14.401Z",
    "name": "Yasuhiko Nishi",
    "repository": "kara.moe",
    "tid": "4eb22314-dba1-4b8c-ae18-f2227391510a",
    "types": [
      "songwriters",
      "8"
    ]
  }
}