{
  "header": {
    "description": "Karaoke Mugen Tag File",
    "version": 1
  },
  "tag": {
    "i18n": {
      "eng": "Yasuhiro Minami"
    },
    "name": "Yasuhiro Minami",
    "tid": "16583449-ef25-4342-ae23-a35217e0e161",
    "types": [
      "songwriters",
      "8"
    ],
    "repository": "kara.moe",
    "modified_at": "2020-03-31T19:04:38.522Z"
  }
}