{
  "header": {
    "description": "Karaoke Mugen Tag File",
    "version": 1
  },
  "tag": {
    "external_database_ids": {
      "anilist": 691,
      "myanimelist": 691,
      "kitsu": 632
    },
    "i18n": {
      "eng": "Yawara! A Fashionable Judo Girl",
      "jpn": "YAWARA!"
    },
    "modified_at": "2021-12-03T18:19:39.441Z",
    "name": "Yawara! A Fashionable Judo Girl",
    "repository": "kara.moe",
    "tid": "edcab821-4f9f-4936-b1df-42198e526b73",
    "types": [
      "series",
      "1"
    ]
  }
}