{
  "header": {
    "description": "Karaoke Mugen Tag File",
    "version": 1
  },
  "tag": {
    "i18n": {
      "eng": "Ye Fusheng"
    },
    "name": "Ye Fusheng",
    "tid": "ec23521f-548c-4b3a-812f-7900c076da04",
    "types": [
      "singers",
      "2"
    ],
    "repository": "kara.moe",
    "modified_at": "2020-03-31T19:04:38.539Z"
  }
}