{
  "header": {
    "description": "Karaoke Mugen Tag File",
    "version": 1
  },
  "tag": {
    "aliases": [
      "Yokai Watch",
      "Youkai Watch"
    ],
    "external_database_ids": {
      "anilist": 19157,
      "myanimelist": 19157,
      "kitsu": 8010
    },
    "i18n": {
      "eng": "Yo-kai Watch",
      "jpn": "妖怪ウォッチ",
      "qro": "Yo-kai Watch"
    },
    "modified_at": "2020-03-31T19:04:33.164Z",
    "name": "Yo-kai Watch",
    "repository": "kara.moe",
    "tid": "21a49df2-2951-4253-a7a1-1bd77e209239",
    "types": [
      "series",
      "1",
      "franchises",
      "18"
    ]
  }
}