{
  "header": {
    "description": "Karaoke Mugen Tag File",
    "version": 1
  },
  "tag": {
    "i18n": {
      "eng": "Yo-Sea"
    },
    "name": "Yo-Sea",
    "repository": "kara.moe",
    "tid": "2e8b89d0-9560-4914-978a-b8870dad8ff9",
    "types": [
      "songwriters",
      "8"
    ]
  }
}