{
  "header": {
    "description": "Karaoke Mugen Tag File",
    "version": 1
  },
  "tag": {
    "external_database_ids": {
      "anilist": 141391,
      "myanimelist": 50346,
      "kitsu": 45483
    },
    "i18n": {
      "eng": "Call of the Night",
      "jpn": "よふかしのうた",
      "qro": "Yofukashi no Uta"
    },
    "name": "Yofukashi no Uta",
    "repository": "kara.moe",
    "tid": "0e044fb7-6c46-4dfe-9a8c-e9cfadbc354f",
    "types": [
      "series",
      "1"
    ]
  }
}