{
  "header": {
    "description": "Karaoke Mugen Tag File",
    "version": 1
  },
  "tag": {
    "aliases": [
      "Yojouhan"
    ],
    "external_database_ids": {
      "anilist": 137819,
      "kitsu": 44974,
      "myanimelist": 49590
    },
    "i18n": {
      "chi": "四叠半时光机布鲁斯",
      "eng": "Tatami Time Machine Blues",
      "jpn": "四畳半タイムマシンブルース",
      "qro": "Yojôhan Time Machine Blues"
    },
    "name": "Yojôhan Time Machine Blues",
    "repository": "kara.moe",
    "tid": "556bc437-2a89-409d-8cd7-dac3188c6356",
    "types": [
      "series",
      "1"
    ]
  }
}