{
  "header": {
    "description": "Karaoke Mugen Tag File",
    "version": 1
  },
  "tag": {
    "external_database_ids": {
      "anilist": 7762,
      "myanimelist": 7762,
      "kitsu": 5112
    },
    "i18n": {
      "eng": "You're Being Summoned, Azazel",
      "fre": "Yondemasu yo Azazel-san",
      "jpn": "よんでますよ, アザゼルさん.",
      "qro": "Yondemasu yo Azazel-san"
    },
    "modified_at": "2020-03-31T19:04:33.168Z",
    "name": "Yondemasu yo Azazel-san",
    "repository": "kara.moe",
    "tid": "8795b97a-3e97-47aa-8fdd-e98203e7293d",
    "types": [
      "series",
      "1",
      "franchises",
      "18"
    ]
  }
}