{
  "header": {
    "description": "Karaoke Mugen Tag File",
    "version": 1
  },
  "tag": {
    "i18n": {
      "eng": "YorokobeZasshu"
    },
    "modified_at": "2020-08-11T19:22:18.799Z",
    "name": "YorokobeZasshu",
    "repository": "kara.moe",
    "tid": "6085f453-eeff-46d2-afe8-14978613c23a",
    "types": [
      "authors",
      "6"
    ]
  }
}