{
  "header": {
    "description": "Karaoke Mugen Tag File",
    "version": 1
  },
  "tag": {
    "i18n": {
      "eng": "Yoshiki Fukuyama"
    },
    "name": "Yoshiki Fukuyama",
    "tid": "7927b9e9-feea-4c4d-8142-57ad8ddc0dbd",
    "types": [
      "singers",
      "2",
      "songwriters",
      "8"
    ],
    "repository": "kara.moe",
    "modified_at": "2020-03-31T19:04:38.589Z"
  }
}