{
  "header": {
    "description": "Karaoke Mugen Tag File",
    "version": 1
  },
  "tag": {
    "i18n": {
      "eng": "Yoshie Isogai"
    },
    "name": "Yoshie Isogai",
    "tid": "6a222786-1216-488e-a45c-e54d4fa413fa",
    "types": [
      "songwriters",
      "8"
    ],
    "repository": "kara.moe",
    "modified_at": "2020-03-31T19:04:38.575Z"
  }
}