{
  "header": {
    "description": "Karaoke Mugen Tag File",
    "version": 1
  },
  "tag": {
    "i18n": {
      "eng": "Yoshichika Kuriyama"
    },
    "name": "Yoshichika Kuriyama",
    "tid": "e7271903-4593-4aff-966c-609f09cc371d",
    "types": [
      "songwriters",
      "8"
    ],
    "repository": "kara.moe",
    "modified_at": "2020-03-31T19:04:38.573Z"
  }
}