{
  "header": {
    "description": "Karaoke Mugen Tag File",
    "version": 1
  },
  "tag": {
    "i18n": {
      "eng": "Yoshimasa Terui"
    },
    "name": "Yoshimasa Terui",
    "tid": "6d22cf96-cd29-4069-b38e-1c86e78c2dd0",
    "types": [
      "songwriters",
      "8"
    ],
    "repository": "kara.moe",
    "modified_at": "2020-03-31T19:04:38.599Z"
  }
}