{
  "header": {
    "description": "Karaoke Mugen Tag File",
    "version": 1
  },
  "tag": {
    "i18n": {
      "eng": "Yoshimitsu Taki"
    },
    "name": "Yoshimitsu Taki",
    "tid": "3b9a538e-1d0b-4298-9ebb-109056e8560e",
    "types": [
      "songwriters",
      "8"
    ],
    "repository": "kara.moe",
    "modified_at": "2020-03-31T19:04:38.603Z"
  }
}