{
  "header": {
    "description": "Karaoke Mugen Tag File",
    "version": 1
  },
  "tag": {
    "i18n": {
      "eng": "Yotube"
    },
    "modified_at": "2020-09-03T23:24:50.725Z",
    "name": "Yotube",
    "repository": "kara.moe",
    "tid": "c1f79b7d-2bc8-41b3-b448-2ec0c49167d6",
    "types": [
      "creators",
      "4"
    ]
  }
}