{
  "header": {
    "description": "Karaoke Mugen Tag File",
    "version": 1
  },
  "tag": {
    "i18n": {
      "eng": "You & Explosion Band"
    },
    "name": "You & Explosion Band",
    "tid": "64ca9f1e-e060-4589-93ea-fbe9d189f85f",
    "types": [
      "singers",
      "2"
    ],
    "repository": "kara.moe",
    "modified_at": "2020-03-31T19:04:38.620Z"
  }
}