{
  "header": {
    "description": "Karaoke Mugen Tag File",
    "version": 1
  },
  "tag": {
    "i18n": {
      "eng": "you-ring"
    },
    "name": "you-ring",
    "repository": "kara.moe",
    "tid": "2147dc45-b7b3-46ca-bd90-cb7aadc5dcb4",
    "types": [
      "creators",
      "4"
    ]
  }
}