{
  "header": {
    "description": "Karaoke Mugen Tag File",
    "version": 1
  },
  "tag": {
    "i18n": {
      "eng": "Yôichirô Nomura"
    },
    "name": "Yôichirô Nomura",
    "tid": "d09c5ca2-9000-4b1c-b064-ebe95b2c0679",
    "types": [
      "songwriters",
      "8"
    ],
    "repository": "kara.moe",
    "modified_at": "2020-03-31T19:04:38.640Z"
  }
}