{
  "header": {
    "description": "Karaoke Mugen Tag File",
    "version": 1
  },
  "tag": {
    "i18n": {
      "eng": "Yôichi Sakai"
    },
    "name": "Yôichi Sakai",
    "tid": "7bf2b001-93bc-421e-a2c2-ac3551ee7443",
    "types": [
      "songwriters",
      "8"
    ],
    "repository": "kara.moe",
    "modified_at": "2020-03-31T19:04:38.639Z"
  }
}