{
  "header": {
    "description": "Karaoke Mugen Tag File",
    "version": 1
  },
  "tag": {
    "i18n": {
      "eng": "Yôichirô Honda"
    },
    "name": "Yôichirô Honda",
    "tid": "772ca5c1-6297-4940-9b0c-0cab3489afc0",
    "types": [
      "songwriters",
      "8"
    ],
    "repository": "kara.moe",
    "modified_at": "2020-03-31T19:04:38.639Z"
  }
}