{
  "header": {
    "description": "Karaoke Mugen Tag File",
    "version": 1
  },
  "tag": {
    "i18n": {
      "eng": "Yôko Maeno"
    },
    "name": "Yôko Maeno",
    "tid": "bf5e6c25-6367-4b7a-9d96-b5ee5bb89aba",
    "types": [
      "singers",
      "2"
    ],
    "repository": "kara.moe",
    "modified_at": "2020-03-31T19:04:38.646Z"
  }
}