{
  "header": {
    "description": "Karaoke Mugen Tag File",
    "version": 1
  },
  "tag": {
    "i18n": {
      "eng": "Yôko Sômi"
    },
    "name": "Yôko Sômi",
    "tid": "7830f7f6-0ded-4e25-88de-e28783d26a75",
    "types": [
      "singers",
      "2"
    ],
    "repository": "kara.moe",
    "modified_at": "2020-03-31T19:04:38.649Z"
  }
}