{
  "header": {
    "description": "Karaoke Mugen Tag File",
    "version": 1
  },
  "tag": {
    "i18n": {
      "eng": "Yôsuke Yamamoto"
    },
    "name": "Yôsuke Yamamoto",
    "tid": "b90a642c-594e-4fed-802a-98bf2b38d995",
    "types": [
      "singers",
      "2",
      "songwriters",
      "8"
    ],
    "repository": "kara.moe",
    "modified_at": "2020-03-31T19:04:38.659Z"
  }
}