{
  "header": {
    "description": "Karaoke Mugen Tag File",
    "version": 1
  },
  "tag": {
    "i18n": {
      "eng": "youth case"
    },
    "name": "youth case",
    "repository": "kara.moe",
    "tid": "aa97bf21-8f85-4f29-bce2-defdfcc86573",
    "types": [
      "songwriters",
      "8"
    ]
  }
}