{
  "header": {
    "description": "Karaoke Mugen Tag File",
    "version": 1
  },
  "tag": {
    "i18n": {
      "eng": "youwhich"
    },
    "name": "youwhich",
    "repository": "kara.moe",
    "tid": "65add474-25b3-40e5-8123-10beb048dd17",
    "types": [
      "songwriters",
      "8"
    ]
  }
}