{
  "header": {
    "description": "Karaoke Mugen Tag File",
    "version": 1
  },
  "tag": {
    "aliases": [
      "Quartet of Cherry Blossoms in the Night",
      "Yozakura Shijuusou",
      "Yozakura Shijûsô",
      "yq",
      "夜樱四重奏"
    ],
    "external_database_ids": {
      "anilist": 4548,
      "myanimelist": 4548,
      "kitsu": 3675
    },
    "i18n": {
      "cze": "Yozakura Quartet",
      "eng": "Yozakura Quartet",
      "jpn": "夜桜四重奏 ~ヨザクラカルテット~",
      "qro": "Yozakura Quartet"
    },
    "modified_at": "2020-03-31T19:04:33.177Z",
    "name": "Yozakura Quartet",
    "repository": "kara.moe",
    "tid": "264b4019-b733-4112-93eb-3c78a4ddcfdf",
    "types": [
      "series",
      "1",
      "franchises",
      "18"
    ]
  }
}