{
  "header": {
    "description": "Karaoke Mugen Tag File",
    "version": 1
  },
  "tag": {
    "i18n": {
      "jpn": "真部裕",
      "qro": "Yu Manabe"
    },
    "name": "Yu Manabe",
    "repository": "kara.moe",
    "tid": "d60fc66b-e684-4228-b80d-d5327935ef28",
    "types": [
      "songwriters",
      "8"
    ]
  }
}