{
  "header": {
    "description": "Karaoke Mugen Tag File",
    "version": 1
  },
  "tag": {
    "aliases": [
      "遊☆戯☆王 (2017)",
      "遊☆戯☆王VRAINS",
      "遊戯王ヴレインズ"
    ],
    "external_database_ids": {
      "anilist": 98231,
      "myanimelist": 34866,
      "kitsu": 13189
    },
    "i18n": {
      "eng": "Yu-Gi-Oh! VRAINS",
      "jpn": "遊☆戯☆王VRAINS",
      "qro": "Yu-Gi-Oh! VRAINS"
    },
    "modified_at": "2020-03-31T19:04:33.182Z",
    "name": "Yu-Gi-Oh! VRAINS",
    "repository": "kara.moe",
    "tid": "703bbe76-4283-4302-bfad-c4ca3ff0234d",
    "types": [
      "series",
      "1"
    ]
  }
}