{
  "header": {
    "description": "Karaoke Mugen Tag File",
    "version": 1
  },
  "tag": {
    "i18n": {
      "eng": "Yudai Ohno"
    },
    "name": "Yudai Ohno",
    "repository": "kara.moe",
    "tid": "88f0d66f-18b2-4d46-b7ad-0ec89cc9dc7b",
    "types": [
      "singers",
      "2"
    ]
  }
}