{
  "header": {
    "description": "Karaoke Mugen Tag File",
    "version": 1
  },
  "tag": {
    "i18n": {
      "eng": "yui"
    },
    "name": "yui",
    "tid": "8504231b-9112-4ff6-a8e6-4b7a084a4a39",
    "types": [
      "songwriters",
      "8"
    ],
    "repository": "kara.moe",
    "modified_at": "2020-03-31T19:04:38.677Z"
  }
}