{
  "header": {
    "description": "Karaoke Mugen Tag File",
    "version": 1
  },
  "tag": {
    "i18n": {
      "eng": "Yuichi Murakami"
    },
    "name": "Yuichi Murakami",
    "repository": "kara.moe",
    "tid": "106facc5-3a7f-4a12-a619-49a5d819c966",
    "types": [
      "creators",
      "4"
    ]
  }
}