{
  "header": {
    "description": "Karaoke Mugen Tag File",
    "version": 1
  },
  "tag": {
    "i18n": {
      "eng": "Yuji Morimoto"
    },
    "modified_at": "2020-12-22T00:37:21.191Z",
    "name": "Yuji Morimoto",
    "repository": "kara.moe",
    "tid": "635b6d6b-a770-48f9-9cbc-20a1e1537ca1",
    "types": [
      "songwriters",
      "8"
    ]
  }
}