{
  "header": {
    "description": "Karaoke Mugen Tag File",
    "version": 1
  },
  "tag": {
    "i18n": {
      "eng": "Yuji Tanaka"
    },
    "name": "Yuji Tanaka",
    "tid": "2ecc7919-3bb3-41cd-a9b3-079fa42003cc",
    "types": [
      "songwriters",
      "8"
    ],
    "repository": "kara.moe",
    "modified_at": "2020-03-31T19:04:38.685Z"
  }
}