{
  "header": {
    "description": "Karaoke Mugen Tag File",
    "version": 1
  },
  "tag": {
    "i18n": {
      "eng": "Yuka Kobayashi"
    },
    "modified_at": "2021-03-08T21:36:12.908Z",
    "name": "Yuka Kobayashi",
    "repository": "kara.moe",
    "tid": "104ac61d-2cea-4bf4-9393-024c081057e0",
    "types": [
      "songwriters",
      "8"
    ]
  }
}