{
  "header": {
    "description": "Karaoke Mugen Tag File",
    "version": 1
  },
  "tag": {
    "i18n": {
      "eng": "Yuka Imai"
    },
    "name": "Yuka Imai",
    "tid": "8513f0b1-2607-4a03-924f-0b747b57707e",
    "types": [
      "singers",
      "2"
    ],
    "repository": "kara.moe",
    "modified_at": "2020-03-31T19:04:38.688Z"
  }
}