{
  "header": {
    "description": "Karaoke Mugen Tag File",
    "version": 1
  },
  "tag": {
    "i18n": {
      "eng": "Yuki Kaida"
    },
    "name": "Yuki Kaida",
    "repository": "kara.moe",
    "tid": "7d91e9c5-eb20-4d3b-bfb1-850b773a0654",
    "types": [
      "singers",
      "2"
    ]
  }
}