{
  "header": {
    "description": "Karaoke Mugen Tag File",
    "version": 1
  },
  "tag": {
    "i18n": {
      "eng": "Yuki Matsuoka"
    },
    "name": "Yuki Matsuoka",
    "tid": "0bc9a85f-a977-4907-9028-31a80d815119",
    "types": [
      "singers",
      "2"
    ],
    "repository": "kara.moe",
    "modified_at": "2020-03-31T19:04:38.710Z"
  }
}