{
  "header": {
    "description": "Karaoke Mugen Tag File",
    "version": 1
  },
  "tag": {
    "i18n": {
      "eng": "Yukie Ozaki"
    },
    "name": "Yukie Ozaki",
    "tid": "e01cd1b1-78f7-490d-a9f9-31d6fc445d17",
    "types": [
      "songwriters",
      "8"
    ],
    "repository": "kara.moe",
    "modified_at": "2020-03-31T19:04:38.718Z"
  }
}