{
  "header": {
    "description": "Karaoke Mugen Tag File",
    "version": 1
  },
  "tag": {
    "i18n": {
      "eng": "Yuko Nagashima"
    },
    "name": "Yuko Nagashima",
    "tid": "48278c81-a887-4c95-88bf-93a90a86f214",
    "types": [
      "singers",
      "2"
    ],
    "repository": "kara.moe",
    "modified_at": "2020-03-31T19:04:38.731Z"
  }
}