{
  "header": {
    "description": "Karaoke Mugen Tag File",
    "version": 1
  },
  "tag": {
    "i18n": {
      "eng": "Yume Miyamoto"
    },
    "name": "Yume Miyamoto",
    "tid": "72841bc1-6b44-40f6-800b-6a15179a4340",
    "types": [
      "singers",
      "2"
    ],
    "repository": "kara.moe",
    "modified_at": "2020-03-31T19:04:38.733Z"
  }
}