{
  "header": {
    "description": "Karaoke Mugen Tag File",
    "version": 1
  },
  "tag": {
    "i18n": {
      "eng": "Yūmi Shida"
    },
    "name": "Yūmi Shida",
    "repository": "kara.moe",
    "tid": "cbb4f454-361d-415e-ae96-296097a7c1e9",
    "types": [
      "singers",
      "2"
    ]
  }
}