{
  "header": {
    "description": "Karaoke Mugen Tag File",
    "version": 1
  },
  "tag": {
    "i18n": {
      "eng": "Yumi Matsuzawa"
    },
    "name": "Yumi Matsuzawa",
    "tid": "eb933ffb-dfd0-450d-a7e2-1c6fd45f74d2",
    "types": [
      "singers",
      "2",
      "songwriters",
      "8"
    ],
    "repository": "kara.moe",
    "modified_at": "2020-03-31T19:04:38.743Z"
  }
}