{
  "header": {
    "description": "Karaoke Mugen Tag File",
    "version": 1
  },
  "tag": {
    "i18n": {
      "eng": "Yura Hatsuki"
    },
    "modified_at": "2020-10-25T22:08:04.345Z",
    "name": "Yura Hatsuki",
    "repository": "kara.moe",
    "tid": "8c12552e-34d7-4453-bf10-bde1da8c1ab6",
    "types": [
      "songwriters",
      "8"
    ]
  }
}