{
  "header": {
    "description": "Karaoke Mugen Tag File",
    "version": 1
  },
  "tag": {
    "i18n": {
      "eng": "Yurika Endô"
    },
    "name": "Yurika Endô",
    "tid": "bd8e5bbc-7d66-4781-976a-314f6c036a90",
    "types": [
      "singers",
      "2"
    ],
    "repository": "kara.moe",
    "modified_at": "2020-03-31T19:04:38.767Z"
  }
}