{
  "header": {
    "description": "Karaoke Mugen Tag File",
    "version": 1
  },
  "tag": {
    "i18n": {
      "eng": "Yurimix"
    },
    "name": "Yurimix",
    "repository": "kara.moe",
    "tid": "8a7319f5-858f-413d-98d2-653b35e6eea0",
    "types": [
      "songwriters",
      "8"
    ]
  }
}