{
  "header": {
    "description": "Karaoke Mugen Tag File",
    "version": 1
  },
  "tag": {
    "i18n": {
      "eng": "Yuriko Kaida"
    },
    "name": "Yuriko Kaida",
    "tid": "b090971f-db68-4e59-b657-ebac8eb9f61c",
    "types": [
      "singers",
      "2",
      "songwriters",
      "8"
    ],
    "repository": "kara.moe",
    "modified_at": "2020-03-31T19:04:38.769Z"
  }
}