{
  "header": {
    "description": "Karaoke Mugen Tag File",
    "version": 1
  },
  "tag": {
    "i18n": {
      "eng": "Yuri Yamaoka"
    },
    "name": "Yuri Yamaoka",
    "tid": "ae885056-10ef-494d-b1ae-7cd6c7226086",
    "types": [
      "singers",
      "2"
    ],
    "repository": "kara.moe",
    "modified_at": "2020-03-31T19:04:38.763Z"
  }
}