{
  "header": {
    "description": "Karaoke Mugen Tag File",
    "version": 1
  },
  "tag": {
    "i18n": {
      "qro": "Yuria Satô",
      "jpn": "佐當 友莉亜"
    },
    "name": "Yuria Satô",
    "repository": "kara.moe",
    "tid": "8006e23d-bb60-400f-a321-f9129375376d",
    "types": [
      "singers",
      "2"
    ]
  }
}