{
  "header": {
    "description": "Karaoke Mugen Tag File",
    "version": 1
  },
  "tag": {
    "i18n": {
      "eng": "Yuri Komagata"
    },
    "name": "Yuri Komagata",
    "tid": "2395cb11-213d-4976-9822-1e5170387c06",
    "types": [
      "singers",
      "2"
    ],
    "repository": "kara.moe",
    "modified_at": "2020-03-31T19:04:38.761Z"
  }
}