{
  "header": {
    "description": "Karaoke Mugen Tag File",
    "version": 1
  },
  "tag": {
    "i18n": {
      "eng": "Yû Yamamoto"
    },
    "name": "Yû Yamamoto",
    "tid": "3962b18f-ac3e-4214-8d8a-69bac7810f0d",
    "types": [
      "songwriters",
      "8"
    ],
    "repository": "kara.moe",
    "modified_at": "2020-03-31T19:04:38.784Z"
  }
}