{
  "header": {
    "description": "Karaoke Mugen Tag File",
    "version": 1
  },
  "tag": {
    "i18n": {
      "eng": "Yuuhei Satellite"
    },
    "name": "Yuuhei Satellite",
    "repository": "kara.moe",
    "tid": "17577ace-e592-4146-8142-59f93f8719ec",
    "types": [
      "creators",
      "4"
    ]
  }
}