{
  "header": {
    "description": "Karaoke Mugen Tag File",
    "version": 1
  },
  "tag": {
    "aliases": [
      "Yuji Ohno"
    ],
    "i18n": {
      "eng": "Yûji Oono",
      "jpn": "大野 雄二"
    },
    "name": "Yûji Oono",
    "repository": "kara.moe",
    "tid": "bd94fe6d-88db-4aa5-8234-2a56e517c7b6",
    "types": [
      "songwriters",
      "8",
      "singers",
      "2"
    ]
  }
}