{
  "header": {
    "description": "Karaoke Mugen Tag File",
    "version": 1
  },
  "tag": {
    "i18n": {
      "eng": "Yûki Okada"
    },
    "name": "Yûki Okada",
    "tid": "af23506c-9091-4b09-be12-734802ade581",
    "types": [
      "songwriters",
      "8"
    ],
    "repository": "kara.moe",
    "modified_at": "2020-03-31T19:04:38.812Z"
  }
}