{
  "header": {
    "description": "Karaoke Mugen Tag File",
    "version": 1
  },
  "tag": {
    "i18n": {
      "eng": "Yûki Tsujimura"
    },
    "modified_at": "2020-10-25T01:28:00.827Z",
    "name": "Yûki Tsujimura",
    "repository": "kara.moe",
    "tid": "330d205b-72a7-4b06-947c-2e16a0868553",
    "types": [
      "songwriters",
      "8"
    ]
  }
}