{
  "header": {
    "description": "Karaoke Mugen Tag File",
    "version": 1
  },
  "tag": {
    "i18n": {
      "eng": "Yûko Kurose"
    },
    "name": "Yûko Kurose",
    "tid": "7d5e3366-291d-4c16-b33d-8f7ab7cbb267",
    "types": [
      "singers",
      "2"
    ],
    "repository": "kara.moe",
    "modified_at": "2020-03-31T19:04:38.821Z"
  }
}