{
  "header": {
    "description": "Karaoke Mugen Tag File",
    "version": 1
  },
  "tag": {
    "i18n": {
      "eng": "Yûki Ozaki"
    },
    "name": "Yûki Ozaki",
    "tid": "07eefc45-bf3c-4e02-a639-f19be811a471",
    "types": [
      "songwriters",
      "8",
      "singers",
      "2"
    ],
    "repository": "kara.moe",
    "modified_at": "2020-03-31T19:04:38.813Z"
  }
}