{
  "header": {
    "description": "Karaoke Mugen Tag File",
    "version": 1
  },
  "tag": {
    "i18n": {
      "eng": "Yûko Yamano"
    },
    "name": "Yûko Yamano",
    "tid": "9eff141b-f791-46f7-8f0a-3a25b58c7a88",
    "types": [
      "singers",
      "2"
    ],
    "repository": "kara.moe",
    "modified_at": "2020-03-31T19:04:38.827Z"
  }
}