{
  "header": {
    "description": "Karaoke Mugen Tag File",
    "version": 1
  },
  "tag": {
    "i18n": {
      "eng": "Yûko Andô"
    },
    "modified_at": "2020-12-07T01:15:59.094Z",
    "name": "Yûko Andô",
    "repository": "kara.moe",
    "tid": "5c18ce8a-bb80-4715-836a-084e43c689cd",
    "types": [
      "songwriters",
      "8",
      "singers",
      "2"
    ]
  }
}