{
  "header": {
    "description": "Karaoke Mugen Tag File",
    "version": 1
  },
  "tag": {
    "i18n": {
      "eng": "Yuuki Matsûra"
    },
    "name": "Yuuki Matsûra",
    "tid": "4c5c25cb-13d9-4aa0-86a3-f60eeec39250",
    "types": [
      "songwriters",
      "8"
    ],
    "repository": "kara.moe",
    "modified_at": "2020-03-31T19:04:38.810Z"
  }
}