{
  "header": {
    "description": "Karaoke Mugen Tag File",
    "version": 1
  },
  "tag": {
    "aliases": [
      "Yuuki"
    ],
    "i18n": {
      "eng": "Yûki Hirose",
      "jpn": "広瀬ゆうき",
      "qro": "Yûki Hirose"
    },
    "name": "Yûki Hirose",
    "repository": "kara.moe",
    "tid": "85b802db-8c80-4686-b7ff-70b1294b13ef",
    "types": [
      "singers",
      "2"
    ]
  }
}