{
  "header": {
    "description": "Karaoke Mugen Tag File",
    "version": 1
  },
  "tag": {
    "aliases": [
      "WaSuYu",
      "WaSuYu 2",
      "Yuuki Yuuna wa Yuusha de Aru: Washio Sumi no Shou 2 - Tamashii",
      "yuuki",
      "yuuna",
      "yuusha",
      "shou"
    ],
    "external_database_ids": {
      "anilist": 97859,
      "myanimelist": 34375,
      "kitsu": 12892
    },
    "i18n": {
      "eng": "Yuki Yuna Is A Hero: Washio Sumi Chapter 2 - Spirit ",
      "jpn": "結城友奈は勇者である -鷲尾須美の章- 第２章「たましい」",
      "qro": "Yûki Yûna wa Yûsha de Aru: Washio Sumi no Shô 2 - Tamashii"
    },
    "name": "Yûki Yûna wa Yûsha de Aru: Washio Sumi no Shô 2 - Tamashii",
    "repository": "kara.moe",
    "tid": "d69de620-1eca-4eb5-b3de-83c478caaf4c",
    "types": [
      "series",
      "1"
    ]
  }
}