{
  "header": {
    "description": "Karaoke Mugen Tag File",
    "version": 1
  },
  "tag": {
    "i18n": {
      "eng": "Yûki Sasaki"
    },
    "name": "Yûki Sasaki",
    "tid": "0bb97248-2039-4e1c-9bef-9336e087dbda",
    "types": [
      "songwriters",
      "8"
    ],
    "repository": "kara.moe",
    "modified_at": "2020-03-31T19:04:38.814Z"
  }
}