{
  "header": {
    "description": "Karaoke Mugen Tag File",
    "version": 1
  },
  "tag": {
    "aliases": [
      "Yuuna",
      "いなむら ゆうな"
    ],
    "i18n": {
      "eng": "Yûna Inamura",
      "qro": "Yûna Inamura",
      "jpn": "稲村優奈"
    },
    "name": "Yûna Inamura",
    "repository": "kara.moe",
    "tid": "99ec2deb-e987-48fd-badc-9b122168b16f",
    "types": [
      "singers",
      "2"
    ]
  }
}