{
  "header": {
    "description": "Karaoke Mugen Tag File",
    "version": 1
  },
  "tag": {
    "i18n": {
      "jpn": "優里",
      "qro": "Yuuri"
    },
    "name": "Yuuri",
    "repository": "kara.moe",
    "tid": "fa9f323c-ff5b-4cec-bd55-f998379b0dd4",
    "types": [
      "songwriters",
      "8",
      "singers",
      "2"
    ]
  }
}