{
  "header": {
    "description": "Karaoke Mugen Tag File",
    "version": 1
  },
  "tag": {
    "i18n": {
      "eng": "Yûsuke Sakai"
    },
    "modified_at": "2020-11-21T15:10:59.051Z",
    "name": "Yûsuke Sakai",
    "repository": "kara.moe",
    "tid": "008338c7-0851-4ed5-b0f8-43740fbf9692",
    "types": [
      "songwriters",
      "8"
    ]
  }
}