{
  "header": {
    "description": "Karaoke Mugen Tag File",
    "version": 1
  },
  "tag": {
    "aliases": [
      "Yuusuke"
    ],
    "i18n": {
      "eng": "Yûsuke Takeda",
      "jpn": "竹田祐介",
      "qro": "Yûsuke Takeda"
    },
    "name": "Yûsuke Takeda",
    "repository": "kara.moe",
    "tid": "d8608f7f-4ff9-4db1-9b25-04f7517603e8",
    "types": [
      "songwriters",
      "8"
    ]
  }
}