{
  "header": {
    "description": "Karaoke Mugen Tag File",
    "version": 1
  },
  "tag": {
    "i18n": {
      "eng": "Yûsuke Koide"
    },
    "name": "Yûsuke Koide",
    "tid": "a1a4105e-c3f2-4e20-8b67-c678090a525b",
    "types": [
      "songwriters",
      "8"
    ],
    "repository": "kara.moe",
    "modified_at": "2020-03-31T19:04:38.833Z"
  }
}