{
  "header": {
    "description": "Karaoke Mugen Tag File",
    "version": 1
  },
  "tag": {
    "i18n": {
      "eng": "Yûta Yasuno",
      "jpn": "安野勇太",
      "qro": "Yûta Yasuno"
    },
    "name": "Yûta Yasuno",
    "tid": "d7414d56-3660-48c0-bf00-633a8201f725",
    "types": [
      "songwriters",
      "8"
    ],
    "repository": "kara.moe",
    "modified_at": "2020-03-31T19:04:38.847Z"
  }
}