{
  "header": {
    "description": "Karaoke Mugen Tag File",
    "version": 1
  },
  "tag": {
    "i18n": {
      "eng": "Yuya Fujikana"
    },
    "name": "Yuya Fujikana",
    "repository": "kara.moe",
    "tid": "8ae6e5a5-f84b-479c-b0d4-7fd27318b401",
    "types": [
      "songwriters",
      "8"
    ]
  }
}