{
  "header": {
    "description": "Karaoke Mugen Tag File",
    "version": 1
  },
  "tag": {
    "external_database_ids": {
      "anilist": 15911,
      "myanimelist": 15911,
      "kitsu": 7338
    },
    "i18n": {
      "eng": "Yuyushiki",
      "fre": "Yuyushiki",
      "jpn": "ゆゆ式",
      "qro": "Yuyushiki"
    },
    "modified_at": "2020-03-31T19:04:33.201Z",
    "name": "Yuyushiki",
    "repository": "kara.moe",
    "tid": "3f00d21a-c9d0-40b5-b4ce-38e33deedd37",
    "types": [
      "series",
      "1",
      "franchises",
      "18"
    ]
  }
}