{
  "header": {
    "description": "Karaoke Mugen Tag File",
    "version": 1
  },
  "tag": {
    "aliases": [
      "yuyuuta",
      " 鈴木ゆゆうた",
      "suzuki yuyuta"
    ],
    "i18n": {
      "eng": "Yuyuta",
      "jpn": "ゆゆうた"
    },
    "name": "Yuyuta",
    "repository": "kara.moe",
    "tid": "c2842b12-f2d5-4800-852b-3b256cf261d0",
    "types": [
      "singers",
      "2"
    ]
  }
}