{
  "header": {
    "description": "Karaoke Mugen Tag File",
    "version": 1
  },
  "tag": {
    "i18n": {
      "eng": "Yuzuru Oka"
    },
    "name": "Yuzuru Oka",
    "tid": "a17bd2a4-5527-4586-98d0-50ca9c3390bc",
    "types": [
      "singers",
      "2"
    ],
    "repository": "kara.moe",
    "modified_at": "2020-03-31T19:04:38.859Z"
  }
}