{
  "header": {
    "description": "Karaoke Mugen Tag File",
    "version": 1
  },
  "tag": {
    "aliases": [
      "Дзэгапэйн",
      "제가페인"
    ],
    "external_database_ids": {
      "anilist": 878,
      "myanimelist": 878,
      "kitsu": 778
    },
    "i18n": {
      "eng": "Zegapain",
      "jpn": "ゼーガペイン",
      "qro": "Zegapain"
    },
    "modified_at": "2020-08-19T11:40:00.374Z",
    "name": "Zegapain",
    "repository": "kara.moe",
    "tid": "2a407b59-3488-4482-ae28-fd64ccb540d6",
    "types": [
      "series",
      "1"
    ]
  }
}