{
  "header": {
    "description": "Karaoke Mugen Tag File",
    "version": 1
  },
  "tag": {
    "i18n": {
      "eng": "Zéi ēn"
    },
    "name": "Zéi ēn",
    "repository": "kara.moe",
    "tid": "0b8826c1-3a4c-4f69-b52a-ca9b0b5e1047",
    "types": [
      "singers",
      "2"
    ]
  }
}