{
  "header": {
    "description": "Karaoke Mugen Tag File",
    "version": 1
  },
  "tag": {
    "i18n": {
      "eng": "Zeno"
    },
    "modified_at": "2020-11-26T00:51:29.120Z",
    "name": "Zeno",
    "repository": "kara.moe",
    "tid": "8831ec65-8e49-49a6-a045-5450cf31babd",
    "types": [
      "creators",
      "4"
    ]
  }
}