{
  "header": {
    "description": "Karaoke Mugen Tag File",
    "version": 1
  },
  "tag": {
    "i18n": {
      "eng": "Zentarô Watanabe"
    },
    "name": "Zentarô Watanabe",
    "tid": "e9c64889-7591-4cb0-84a0-fb6f47ab2055",
    "types": [
      "songwriters",
      "8"
    ],
    "repository": "kara.moe",
    "modified_at": "2020-03-31T19:04:38.870Z"
  }
}