{
  "header": {
    "description": "Karaoke Mugen Tag File",
    "version": 1
  },
  "tag": {
    "i18n": {
      "eng": "ZENTA"
    },
    "name": "ZENTA",
    "tid": "653179ef-2784-4f33-b4be-5ba46eccf5a2",
    "types": [
      "songwriters",
      "8"
    ],
    "repository": "kara.moe",
    "modified_at": "2020-03-31T19:04:38.870Z"
  }
}