{
  "header": {
    "description": "Karaoke Mugen Tag File",
    "version": 1
  },
  "tag": {
    "aliases": [
      "ZnT 3",
      "ZnT Princess No Rondo",
      "ZnT S3",
      "zero no tsukaima 3",
      "zero no tsukaima S3"
    ],
    "external_database_ids": {
      "anilist": 3712,
      "myanimelist": 3712,
      "kitsu": 3209
    },
    "i18n": {
      "eng": "The Familiar of Zero: Rondo of Princesses",
      "jpn": "ゼロの使い魔 ～三美姫（プリンセッセ）の輪舞（ロンド）～",
      "qro": "Zero no Tsukaima Princess No Rondo"
    },
    "modified_at": "2020-03-31T19:04:33.207Z",
    "name": "Zero no Tsukaima Princess No Rondo",
    "repository": "kara.moe",
    "tid": "01a8b7e2-1260-46f2-946f-89ec82d9be2f",
    "types": [
      "series",
      "1"
    ]
  }
}