{
  "header": {
    "description": "Karaoke Mugen Tag File",
    "version": 1
  },
  "tag": {
    "i18n": {
      "eng": "ZiNG"
    },
    "name": "ZiNG",
    "repository": "kara.moe",
    "tid": "7fd01428-89c9-4286-b10c-48f59f99a4da",
    "types": [
      "songwriters",
      "8"
    ]
  }
}