{
  "header": {
    "description": "Karaoke Mugen Tag File",
    "version": 1
  },
  "tag": {
    "external_database_ids": {
      "anilist": 98520,
      "myanimelist": 34863,
      "kitsu": 13478
    },
    "i18n": {
      "eng": "Touken Ranbu: Hanamaru 2",
      "jpn": "続 刀剣乱舞-花丸-",
      "kor": "속 도검난무 하나마루",
      "qro": "Zoku Touken Ranbu: Hanamaru"
    },
    "modified_at": "2020-03-31T19:04:33.215Z",
    "name": "Zoku Touken Ranbu: Hanamaru",
    "repository": "kara.moe",
    "tid": "f6308c3a-10f4-4824-bdf3-b15d489f20f4",
    "types": [
      "series",
      "1"
    ]
  }
}