{
  "header": {
    "description": "Karaoke Mugen Tag File",
    "version": 1
  },
  "tag": {
    "i18n": {
      "eng": "Zucchini"
    },
    "modified_at": "2020-04-02T23:47:14.732Z",
    "name": "Zucchini",
    "repository": "kara.moe",
    "tid": "b2bf88d4-9ee6-4b92-8ecd-00f043c87c34",
    "types": [
      "creators",
      "4"
    ]
  }
}