{
  "header": {
    "description": "Karaoke Mugen Tag File",
    "version": 1
  },
  "tag": {
    "aliases": [
      "Arai Mizuki"
    ],
    "i18n": {
      "eng": "zukio"
    },
    "modified_at": "2020-08-10T17:36:34.965Z",
    "name": "zukio",
    "repository": "kara.moe",
    "tid": "aea65940-06c2-4b69-bfb4-a2d56d5bb1be",
    "types": [
      "songwriters",
      "8"
    ]
  }
}