{
  "header": {
    "description": "Karaoke Mugen Tag File",
    "version": 1
  },
  "tag": {
    "i18n": {
      "eng": "ZYYG"
    },
    "name": "ZYYG",
    "tid": "44801986-93e7-45b6-9fb0-2387a3e37d88",
    "types": [
      "singers",
      "2"
    ],
    "repository": "kara.moe",
    "modified_at": "2020-03-31T19:04:38.889Z"
  }
}